109,110,110,111,109,109,110,109,110,112,108,105,108,109,108,108,109,111,111,110,108,107,107,109,109,109,111,111,109,108,107,107,107,108,109,110,110,110,110,110,110,107,108,111,111,110,109,109,106,107,110,110,110,107,107,108,108,110,112,110
109,110,110,109,107,107,108,108,108,109,109,108,108,110,110,109,110,109,108,109,108,109,110,111,111,110,109,110,110,109,107,106,109,112,108,107,109,111,110,109,110,108,108,112,111,107,108,110,109,109,110,111,110,110,110,111,110,111,112,112
111,110,108,108,109,108,107,108,108,107,108,108,108,111,111,109,110,109,107,108,108,110,111,109,109,110,107,109,112,110,108,108,108,111,109,109,109,108,108,109,110,110,110,111,110,107,108,111,111,110,109,109,109,109,110,110,109,108,108,109
109,112,110,107,108,111,110,107,108,110,109,107,109,110,110,109,110,111,108,107,109,109,108,109,109,109,109,109,111,110,108,107,107,109,110,109,108,107,108,110,111,110,109,109,109,108,109,110,108,108,107,107,108,109,108,107,107,107,107,108
108,109,110,109,107,108,110,108,109,111,109,109,110,108,106,108,110,110,107,107,110,110,107,107,110,112,112,110,109,110,110,108,108,108,107,108,110,110,109,110,111,109,107,107,108,109,110,110,107,105,105,105,108,110,110,109,109,110,112,110
109,107,110,112,109,109,112,112,109,110,109,109,109,106,104,107,110,109,108,108,110,112,109,106,108,113,114,111,110,110,110,110,111,111,109,108,110,109,107,109,110,109,106,106,109,110,111,111,108,106,107,108,109,110,110,109,109,109,111,112
110,108,108,110,111,110,111,111,110,110,110,109,109,108,106,108,111,111,109,110,111,111,112,110,108,108,108,109,110,109,109,110,110,110,110,108,109,111,109,107,109,109,107,107,111,111,111,111,108,108,111,110,108,109,109,107,108,110,110,110
108,106,106,106,110,113,110,108,110,110,110,110,109,110,111,110,110,110,110,110,109,108,109,110,108,105,106,108,108,108,109,108,106,109,111,108,108,111,109,106,108,109,108,109,110,109,109,110,110,110,110,108,109,111,111,109,108,110,111,109
109,109,107,107,110,112,111,110,108,107,108,109,109,110,110,108,108,109,108,108,108,108,107,108,109,108,107,107,107,109,110,107,106,108,109,109,111,111,109,107,108,110,110,109,108,107,107,110,112,110,107,108,109,110,109,107,110,113,112,108
107,109,110,109,109,110,111,112,108,105,107,109,110,111,109,106,106,108,108,108,109,110,109,109,110,110,109,108,108,107,106,107,107,108,108,109,112,112,109,108,109,111,111,109,108,108,108,108,109,107,106,108,109,107,107,107,108,112,111,107
105,110,112,110,109,109,110,112,110,107,109,109,110,110,109,108,107,108,110,110,109,108,108,109,110,109,108,109,108,106,108,111,110,109,111,110,109,109,110,110,109,109,109,109,109,110,109,107,107,108,108,107,110,110,109,109,109,108,108,108
108,111,111,111,112,112,111,109,109,109,110,108,107,109,108,108,108,109,109,108,108,107,107,108,107,105,104,108,111,108,111,114,110,108,110,111,109,108,110,111,108,108,108,109,110,110,109,107,108,111,110,109,111,111,110,108,107,107,108,111
108,108,107,106,109,112,110,108,107,108,109,108,109,110,108,107,108,108,108,107,109,108,107,108,108,108,109,109,108,109,109,108,108,108,107,108,110,110,110,109,109,110,109,109,111,108,107,107,108,110,109,109,112,110,108,108,109,111,113,111
108,111,110,108,108,108,107,109,108,108,110,111,111,110,109,109,108,107,109,111,110,109,110,111,109,110,112,110,110,109,108,108,109,109,107,105,110,112,110,109,109,110,110,110,109,107,107,108,108,109,107,107,112,110,109,111,111,109,109,110
107,110,109,105,110,111,110,111,111,110,109,109,109,108,109,109,110,107,111,113,109,110,112,112,109,108,110,107,107,109,106,108,113,112,110,106,108,112,113,110,107,110,112,111,108,107,109,108,108,109,108,109,112,110,110,112,110,108,109,112
109,109,110,108,108,107,110,112,110,108,108,108,108,107,106,108,110,108,109,111,111,109,110,110,109,106,107,107,109,110,109,108,111,110,108,107,106,108,110,108,106,109,112,111,109,108,108,107,108,108,110,112,111,108,110,113,111,109,112,110
110,112,108,107,109,111,109,111,107,104,108,110,107,109,107,110,109,108,106,112,113,108,109,110,109,107,109,108,108,110,110,110,110,111,108,109,108,110,108,108,107,106,109,110,111,107,106,106,106,108,111,110,110,109,107,109,109,108,109,111
109,114,109,108,106,108,108,107,106,107,109,109,108,111,111,113,110,109,107,113,110,107,110,110,110,107,110,107,107,109,108,109,109,111,110,110,110,110,108,110,109,106,107,109,110,106,105,108,106,109,110,109,110,108,105,106,110,109,111,113
111,114,110,106,107,109,108,107,107,109,108,107,110,112,111,110,109,108,108,109,107,106,110,109,110,109,110,107,108,112,110,109,109,109,109,109,109,107,109,111,110,109,108,108,109,107,106,109,109,109,109,109,108,106,107,109,110,112,114,113
112,112,110,109,108,109,107,111,108,108,108,111,111,111,109,108,108,109,108,107,109,109,109,110,112,109,113,106,106,112,109,107,109,110,109,110,109,109,111,110,109,111,109,108,110,111,108,109,111,110,109,109,109,109,110,111,109,112,110,110
110,108,108,113,109,108,109,111,109,110,109,113,111,109,109,108,108,111,108,109,112,112,107,111,112,107,112,104,108,110,109,108,109,110,109,108,111,112,110,108,108,110,109,109,109,109,109,108,108,109,109,111,111,110,109,111,110,112,109,104
110,108,107,109,108,109,110,110,109,110,109,113,110,108,111,110,106,109,108,111,110,109,106,109,109,108,109,105,109,113,111,112,111,107,109,108,110,111,110,108,109,108,110,110,107,106,109,110,108,107,111,112,108,109,111,111,110,110,110,109
112,109,109,110,109,108,109,111,112,110,110,111,109,108,111,110,107,107,108,111,107,105,107,108,110,110,109,108,109,109,110,109,111,108,111,110,105,109,109,108,109,109,112,107,108,109,110,111,110,107,110,108,106,109,111,109,113,113,112,110
109,106,110,111,110,109,110,110,112,111,111,108,110,109,109,110,111,107,109,111,107,106,110,109,111,111,110,110,109,106,110,107,108,110,111,108,105,109,108,110,110,111,111,105,108,110,109,109,110,107,107,109,109,110,111,109,111,107,111,107
107,108,106,105,108,110,112,109,107,109,112,108,111,112,109,112,111,106,108,110,110,108,110,110,111,111,108,110,110,107,109,109,107,109,108,105,108,109,109,111,109,108,109,107,107,109,110,110,110,106,106,110,111,109,109,111,107,109,111,108
110,107,107,109,107,109,111,107,105,110,112,110,110,111,110,112,110,108,108,110,111,109,110,109,110,112,111,109,110,109,109,108,110,113,108,108,110,110,110,111,111,108,110,108,108,110,111,109,108,108,107,109,109,108,109,110,106,109,108,107
106,105,110,112,107,107,110,108,108,110,109,111,109,109,109,110,109,109,108,110,112,111,109,109,109,112,111,109,113,110,109,108,107,111,111,111,110,113,113,111,112,110,109,106,108,109,110,107,107,111,110,107,107,110,111,109,106,112,110,104
108,108,109,110,109,107,108,108,109,108,107,108,109,108,108,109,109,107,106,108,110,112,110,108,109,110,110,112,112,109,110,109,107,109,110,108,109,114,111,107,108,108,108,107,108,109,110,107,109,111,111,107,107,111,112,110,109,110,109,108
112,110,107,108,111,111,109,108,109,107,107,108,109,111,109,107,108,109,108,107,108,110,109,107,107,106,105,109,112,110,110,107,106,113,110,105,109,110,107,104,104,108,112,111,110,110,110,108,109,109,108,108,109,113,111,107,109,110,111,111
108,109,108,110,110,110,109,108,109,109,110,108,107,111,110,104,106,111,112,109,108,109,109,109,107,107,106,106,108,108,109,109,109,112,112,107,109,109,106,106,107,109,112,111,110,109,108,109,108,107,106,107,108,111,108,104,107,112,111,107
111,111,110,109,108,107,106,105,107,109,110,107,106,109,111,107,107,112,112,109,107,108,110,110,109,109,108,107,107,109,111,112,111,110,111,110,110,110,109,109,110,110,108,107,110,109,108,110,108,106,108,110,110,109,107,104,104,106,107,106
111,112,112,109,107,109,109,106,106,109,110,109,109,109,110,111,110,109,108,108,107,106,107,108,110,111,109,108,109,111,112,111,109,110,109,107,108,111,112,111,112,111,107,108,111,110,109,110,108,107,109,111,109,108,108,108,107,110,113,112
111,110,109,109,110,109,108,108,108,110,111,111,110,108,108,110,111,109,109,110,109,108,107,109,111,110,106,106,109,110,108,108,109,109,107,107,108,108,109,109,109,109,110,110,111,110,109,108,108,108,109,109,107,107,109,110,108,108,110,111
109,107,109,109,105,105,109,110,109,109,109,108,109,110,108,108,110,110,110,110,109,109,108,106,109,111,108,106,107,109,108,110,111,110,111,112,111,109,108,107,105,107,110,110,109,109,108,109,109,109,110,110,110,110,108,108,109,110,112,111
111,109,109,108,106,107,111,112,110,109,109,107,109,111,108,107,109,111,110,108,107,109,108,106,108,110,109,108,107,107,109,110,110,109,110,113,114,112,108,107,108,109,110,108,107,107,108,110,109,109,112,113,112,112,109,107,107,109,110,109
113,109,106,108,111,110,109,110,111,111,109,108,109,110,109,109,109,110,110,109,108,109,109,110,112,111,110,110,110,109,109,111,111,111,109,108,110,109,109,110,111,110,109,106,107,109,109,109,108,108,110,111,111,110,109,111,110,107,110,111
106,104,108,110,109,107,107,109,110,110,109,108,109,110,109,108,108,109,111,111,109,107,110,112,111,111,111,110,110,111,113,112,109,110,109,107,106,109,111,109,108,109,107,107,110,111,108,107,108,109,108,107,108,108,109,112,111,107,106,106
108,107,109,109,108,108,110,111,110,109,109,109,109,110,109,107,107,109,110,110,109,107,109,111,110,112,115,115,115,114,112,110,109,109,107,107,108,110,110,107,107,109,107,106,110,110,107,107,109,110,108,108,108,106,105,109,111,111,109,107
108,108,109,110,109,108,109,112,109,108,109,109,108,108,108,108,108,108,109,111,111,109,109,112,113,111,111,115,116,113,113,114,110,108,110,111,109,109,110,109,110,111,108,106,108,108,108,108,109,110,109,109,111,110,108,109,110,110,111,109
105,109,112,111,110,109,108,108,109,110,109,108,108,109,109,110,109,108,109,112,111,108,110,113,112,109,110,113,117,116,115,113,110,109,113,111,109,110,109,110,111,110,109,108,108,108,109,110,110,110,110,109,109,111,111,110,109,110,112,113
105,109,111,110,110,110,109,108,109,111,109,107,110,111,111,110,109,110,111,111,109,108,110,109,106,110,115,113,115,118,116,114,115,112,109,109,110,110,109,108,109,108,109,110,109,108,108,110,111,111,110,108,106,108,111,111,111,110,109,110
109,111,107,105,108,111,110,109,108,108,109,111,111,111,110,109,108,110,111,110,108,107,108,108,108,112,117,116,117,120,118,116,114,111,110,111,111,107,109,109,106,108,110,110,110,109,107,109,111,110,109,107,106,106,107,108,110,111,108,108
108,110,111,107,105,108,111,109,108,107,110,113,111,109,107,107,108,107,109,111,108,109,112,113,111,111,116,119,118,116,115,113,112,113,113,113,114,111,111,110,107,109,110,108,109,110,108,108,110,109,109,108,107,107,107,107,107,107,109,113
108,106,110,110,104,106,112,110,109,109,108,110,111,109,107,107,108,106,109,110,109,112,115,114,111,112,118,120,118,115,115,115,113,112,109,110,113,111,109,109,108,109,110,109,108,108,109,109,110,110,109,109,108,108,110,109,107,106,106,110
106,107,109,109,108,109,113,110,109,111,108,110,111,111,111,110,109,107,109,109,110,112,111,109,110,115,120,119,120,122,118,116,119,114,109,109,108,108,109,110,108,108,109,110,109,107,110,111,110,110,108,108,108,109,109,109,108,105,107,112
109,110,108,108,110,109,111,108,108,110,108,111,109,109,112,112,107,107,110,110,111,111,108,108,112,117,119,120,122,127,121,116,115,113,112,109,107,110,109,110,110,108,109,112,110,109,111,111,108,108,108,109,109,110,109,107,112,111,111,111
109,111,108,107,111,112,109,106,110,110,108,109,107,108,110,110,107,108,111,110,111,110,110,113,112,118,122,125,126,133,128,123,121,114,113,113,111,109,108,110,109,107,110,111,109,109,111,112,107,109,109,109,109,110,109,110,112,110,105,108
107,110,109,110,110,111,108,109,112,109,108,108,108,112,109,108,108,110,110,110,111,111,112,113,111,120,129,131,128,130,128,127,130,120,116,114,112,111,109,109,107,106,110,108,106,109,112,112,107,108,110,111,111,107,108,110,109,107,106,106
110,106,108,114,111,109,105,109,111,109,109,109,108,113,107,108,107,110,111,110,109,111,111,113,112,120,129,132,127,132,135,140,141,129,117,111,113,114,108,109,107,107,112,110,106,109,109,110,107,107,110,111,113,106,106,106,107,108,108,109
104,103,109,110,108,109,109,107,108,111,109,109,108,111,108,110,108,109,112,110,109,110,108,116,113,118,130,137,136,136,141,153,156,138,123,114,113,112,107,109,109,109,113,112,108,109,105,105,108,109,109,109,114,109,105,108,108,109,110,110
106,107,110,107,106,109,107,106,108,109,108,111,109,108,112,110,111,110,112,110,110,111,110,114,114,116,133,138,135,138,145,151,153,137,121,113,111,111,111,109,108,110,111,109,109,110,106,104,109,109,108,108,112,112,109,112,110,109,110,110
106,108,110,108,110,111,107,107,107,107,110,112,107,109,113,107,112,110,112,111,110,110,113,112,112,116,125,127,129,139,145,148,153,135,118,113,111,110,112,110,107,111,110,108,109,110,108,106,108,107,107,108,105,112,110,109,111,109,107,112
107,110,110,109,111,112,111,108,108,110,111,109,108,111,111,106,110,110,111,112,109,111,114,112,114,116,119,123,127,136,140,146,150,136,119,115,110,110,111,111,110,113,109,109,109,108,109,108,108,108,108,110,109,110,107,109,112,109,106,111
111,109,108,112,111,108,108,109,110,112,110,108,109,111,110,107,108,110,111,112,110,111,112,109,110,115,120,124,124,127,134,136,137,128,118,115,112,111,112,111,110,112,110,108,108,108,109,108,110,111,109,108,113,107,108,111,107,108,112,112
105,107,110,111,110,108,110,109,110,110,109,108,109,110,112,108,108,111,111,111,110,109,109,106,110,110,115,119,119,121,123,125,122,118,114,114,111,110,112,109,108,109,110,109,110,111,108,109,110,111,110,106,108,106,111,110,106,108,110,111
109,108,108,109,108,110,111,108,108,109,109,110,109,109,111,110,109,109,109,109,108,108,108,107,111,112,112,117,117,119,121,120,116,112,112,113,110,109,112,110,107,108,109,109,111,111,109,110,107,108,111,109,106,106,112,110,106,108,109,111
111,111,110,106,106,110,111,108,108,110,110,110,109,108,109,110,109,107,107,107,108,108,108,108,110,111,112,115,117,117,117,118,119,115,111,112,111,109,109,108,107,109,110,110,109,107,110,109,105,105,111,112,109,107,109,110,108,107,108,108
109,105,107,109,107,109,111,110,110,110,109,107,109,110,109,108,109,109,107,107,108,109,109,109,110,112,112,115,118,115,114,116,114,114,111,111,111,109,109,108,107,110,112,112,108,107,109,109,107,107,110,111,111,108,109,112,110,108,112,110
110,106,107,110,108,108,111,111,110,108,107,106,109,110,107,106,109,110,107,107,108,109,110,111,111,111,113,118,120,120,119,119,118,114,110,108,108,111,112,109,108,110,111,110,109,109,109,108,109,109,108,110,112,109,109,112,110,106,109,111
109,109,106,107,110,111,111,110,108,108,109,109,109,109,109,109,110,109,108,109,109,108,108,110,110,111,114,117,116,114,115,113,112,113,112,110,107,106,108,110,112,112,108,107,110,110,109,109,110,108,107,109,111,110,110,111,112,110,108,108
108,109,108,109,110,110,109,110,109,107,110,112,109,108,110,110,110,109,109,110,110,107,109,111,110,110,112,116,119,118,115,113,111,112,112,110,108,106,106,110,113,111,108,108,109,109,109,110,112,112,110,109,109,109,107,106,109,108,106,109
107,108,109,110,110,110,110,109,108,108,109,110,110,109,108,108,109,109,109,109,108,107,111,112,111,112,112,115,119,119,116,114,113,113,112,110,111,111,108,107,110,112,109,107,109,110,110,111,112,113,110,109,108,107,108,109,109,109,109,109
108,107,110,113,112,110,109,109,109,109,108,108,108,109,108,108,108,108,110,111,109,108,109,109,111,112,112,113,115,114,115,116,114,112,111,108,109,111,110,108,111,113,109,106,109,112,112,111,110,110,107,108,110,109,108,109,111,110,108,107
111,110,109,109,108,108,110,111,110,108,108,108,108,109,109,110,109,109,110,111,108,107,107,108,107,108,111,115,117,117,119,120,117,113,111,109,108,109,110,110,110,109,107,107,109,111,112,111,109,109,107,107,109,109,106,107,111,111,106,108
108,109,109,110,111,111,110,110,110,109,109,109,110,109,108,109,109,108,108,108,108,109,110,111,110,110,113,114,113,114,115,114,113,112,111,111,110,108,109,110,107,106,107,109,109,109,110,111,110,109,109,109,107,106,106,107,107,108,109,108
108,108,110,110,113,113,108,109,112,110,109,110,111,110,107,108,110,108,107,107,110,113,112,110,110,111,112,113,115,116,115,112,111,111,110,110,109,108,110,111,108,107,109,109,109,109,109,111,110,108,109,110,108,109,111,108,108,113,112,108
109,111,111,109,109,110,109,110,110,108,108,109,111,110,107,109,112,111,108,109,109,110,112,110,108,110,112,114,115,114,112,108,107,109,110,109,109,110,111,110,110,110,108,107,109,109,108,109,110,110,110,110,111,111,110,109,110,110,107,105
109,109,109,108,107,107,108,107,108,109,109,110,111,110,108,109,111,111,111,110,107,108,109,108,109,111,112,113,113,111,108,109,110,110,111,110,110,112,111,107,108,110,107,105,107,108,107,107,109,111,111,110,109,110,110,110,110,109,107,107
108,107,108,109,109,108,106,107,109,109,110,112,110,107,108,108,108,111,111,110,108,108,109,108,110,112,110,110,111,108,108,109,109,110,110,108,108,110,110,108,109,110,108,105,106,108,109,109,109,110,109,107,106,107,110,113,112,110,108,107
109,108,107,106,107,109,108,110,109,108,110,110,106,106,109,110,109,110,111,109,107,107,109,111,110,110,108,107,108,108,110,111,109,109,110,109,107,108,110,111,112,111,109,108,108,109,109,110,109,107,106,108,108,108,112,111,110,113,111,107
109,108,110,109,110,110,108,109,109,108,109,108,107,109,110,111,110,109,110,109,107,107,110,113,112,109,109,108,108,109,110,111,108,109,111,110,109,109,110,110,110,110,109,109,108,109,109,108,109,109,109,112,112,110,110,110,107,107,107,106
110,110,111,112,112,107,105,108,109,109,110,109,111,112,111,109,109,110,110,110,109,109,109,109,109,110,110,108,107,108,109,109,110,110,107,106,109,112,109,107,109,110,109,110,108,108,109,108,109,112,112,110,110,110,107,109,111,107,105,105
105,109,109,108,108,108,107,107,110,109,108,109,111,110,108,107,109,111,111,110,109,109,109,109,107,110,111,109,108,111,109,108,109,109,108,106,108,113,111,107,110,109,108,111,111,110,110,110,110,112,111,108,110,108,107,109,111,109,110,111
107,110,110,105,106,113,109,108,110,111,108,107,107,107,109,109,111,109,110,110,109,109,109,111,108,108,107,108,108,109,111,110,108,109,112,109,107,113,112,108,110,111,108,109,110,111,113,110,108,109,109,109,110,110,109,111,109,108,111,111
106,107,109,107,109,110,109,109,109,112,110,107,107,109,112,110,111,108,109,108,109,111,109,112,109,113,109,106,111,109,109,108,106,107,110,107,108,112,109,109,111,111,108,108,108,110,110,108,107,107,108,111,113,111,106,108,108,111,110,106
106,109,110,109,110,109,110,109,109,112,111,111,110,111,112,109,111,107,107,106,108,108,109,113,109,112,112,107,110,111,110,110,108,107,108,111,111,110,110,110,110,109,107,107,108,108,107,109,108,107,108,114,112,109,108,110,109,108,108,110
113,111,108,110,113,114,110,108,110,113,111,111,110,109,110,110,111,108,105,107,108,105,109,112,109,111,109,106,110,112,111,108,110,110,109,113,109,108,113,109,106,108,107,105,107,107,110,110,109,108,109,112,108,111,108,110,109,108,108,112
109,108,107,108,110,112,107,106,110,111,112,107,108,107,110,110,109,108,108,109,111,109,109,111,108,109,109,112,110,113,112,108,108,108,106,110,106,109,114,108,107,110,111,108,107,110,112,107,108,108,108,110,109,109,105,109,110,113,109,111
111,111,109,108,107,112,108,106,107,110,114,107,111,110,109,109,107,106,111,111,110,112,109,109,107,109,108,111,104,109,111,107,108,108,106,109,109,111,110,109,108,109,112,112,109,109,109,108,110,111,110,111,111,108,108,111,109,108,111,110
106,110,110,109,108,111,108,103,110,111,113,111,110,109,108,109,107,107,111,111,109,108,109,109,108,110,109,107,105,109,110,107,111,109,109,108,111,109,107,108,108,106,109,110,109,108,108,111,113,113,111,113,107,107,105,107,107,106,110,111
103,107,109,110,110,109,108,105,112,109,110,111,106,106,107,107,110,108,111,108,110,107,106,110,110,110,110,109,111,111,110,107,108,107,109,107,109,110,109,109,110,107,108,110,109,109,108,112,109,110,109,116,105,107,109,106,109,109,108,109
110,110,108,108,108,107,109,108,111,109,108,107,106,106,106,107,111,109,109,107,110,108,106,109,111,109,108,108,111,108,108,112,109,108,109,107,109,110,109,110,112,110,109,111,108,108,109,109,105,106,109,115,108,107,110,110,111,111,106,104
110,108,107,108,110,110,109,107,108,110,109,106,107,106,108,110,110,109,108,108,109,108,111,109,106,107,109,110,111,110,110,112,109,110,110,109,108,108,107,110,109,108,110,108,105,107,109,108,106,106,109,112,107,106,110,109,108,109,109,106
108,106,106,108,111,112,108,108,109,110,110,109,107,107,110,111,109,107,107,108,108,108,108,107,107,110,114,109,109,110,109,107,110,112,110,110,106,109,108,109,107,105,110,107,107,108,109,107,108,108,108,109,108,107,110,108,110,108,109,111
107,107,106,106,109,109,108,109,110,109,111,110,107,109,111,111,109,108,108,107,107,109,108,109,112,111,112,108,106,108,108,108,110,111,109,109,107,110,110,110,109,108,110,109,110,109,108,106,108,111,109,106,109,110,110,109,109,110,109,108
109,109,106,105,107,108,108,109,111,110,110,109,108,110,110,110,110,109,110,109,108,110,111,111,110,109,110,111,108,108,110,111,110,109,107,107,108,108,110,110,109,109,111,111,111,109,108,107,108,111,110,107,109,108,104,110,112,109,109,110
111,110,108,106,108,111,111,111,111,109,108,107,109,109,108,109,110,108,109,110,110,110,109,109,110,111,110,110,110,109,111,113,109,108,108,108,109,107,108,109,108,109,112,111,109,109,108,108,108,110,110,108,108,108,110,112,110,109,109,108
106,107,109,109,110,112,112,110,108,108,108,108,110,109,108,109,109,107,108,107,106,107,109,108,107,109,110,108,106,107,108,108,107,109,112,112,111,108,107,108,109,109,112,110,108,109,109,108,107,109,109,108,110,110,109,108,109,112,110,109
107,108,109,110,110,109,109,109,108,109,108,109,111,111,111,111,109,108,109,108,107,109,110,106,106,109,110,109,108,109,109,107,107,110,114,115,113,111,109,109,108,108,109,109,108,108,110,107,105,108,108,109,111,109,107,107,110,110,109,108
108,110,111,110,108,109,109,108,107,109,109,108,110,112,112,110,109,111,110,108,108,110,109,108,109,110,109,110,109,108,109,111,110,109,111,112,112,111,109,107,106,109,110,110,109,107,107,106,107,109,108,106,107,109,108,107,108,107,107,109
109,111,110,108,107,108,109,108,108,110,110,107,107,110,110,109,109,109,110,110,109,107,108,110,110,108,108,108,108,109,110,110,109,110,110,111,111,108,106,105,106,109,111,113,112,108,105,108,110,110,108,106,107,108,109,110,110,107,108,110
110,112,109,105,105,106,107,109,111,111,108,104,105,110,110,108,107,107,109,112,111,110,110,110,109,109,107,105,106,110,110,107,109,111,110,110,110,107,105,106,108,110,111,111,109,108,109,110,112,110,108,110,110,107,107,110,111,109,108,109
110,108,106,106,109,110,109,109,108,108,107,106,107,110,109,105,106,109,109,109,109,110,110,109,108,108,109,107,108,112,111,107,108,111,109,107,109,109,107,108,112,112,109,109,108,109,109,110,111,110,110,110,110,110,109,108,109,110,110,109
106,104,105,107,110,110,107,108,108,107,109,110,108,108,107,106,108,112,112,108,106,107,107,106,106,110,114,111,107,108,111,110,108,108,109,108,108,110,110,111,112,110,107,107,111,110,109,110,109,108,109,109,108,108,109,107,108,110,110,108
109,107,109,108,106,106,108,110,109,108,110,110,107,107,109,110,110,111,111,110,108,108,110,109,107,110,112,110,107,110,113,112,108,108,110,109,107,109,112,112,109,107,106,108,111,110,109,112,111,107,107,110,109,107,108,109,111,111,109,108
111,108,109,110,109,109,110,110,109,108,109,108,108,109,111,110,109,108,107,107,110,111,109,107,106,108,110,109,109,112,111,109,108,109,109,109,109,110,111,110,109,107,109,111,111,110,110,111,110,107,106,108,109,109,110,111,109,109,110,109
107,107,107,109,111,110,108,110,111,109,108,108,110,112,109,108,108,108,106,105,110,113,108,105,108,110,112,110,109,111,110,106,106,109,109,110,110,111,111,109,108,109,111,111,109,111,112,111,109,108,108,109,111,111,106,102,104,106,108,110
107,108,109,110,109,109,107,109,112,110,108,109,109,109,107,108,109,110,108,106,110,112,109,108,110,110,111,110,106,106,107,109,111,110,109,110,109,110,110,108,107,111,111,108,107,109,111,110,109,108,108,109,107,107,107,106,108,110,111,111
109,108,110,111,109,109,108,108,111,109,109,110,108,107,108,109,111,110,108,107,107,109,109,108,108,109,110,110,107,106,108,110,110,110,108,107,106,107,109,109,110,112,111,109,109,108,108,108,107,107,109,110,109,108,109,111,110,109,110,111
108,107,108,109,108,110,110,108,110,108,107,109,109,109,108,109,109,108,109,108,106,108,110,109,107,107,109,110,110,109,110,110,109,106,106,105,106,108,110,111,111,110,109,109,110,110,107,107,109,108,110,111,110,109,111,112,109,107,109,112
