109,109,109,109,109,109,109,109,109,109,109,109,109,109,109,109,109,109,109,109,109,109,109,109,109,109,109,109,109,109,109,111,113,111,112,110,111,111,108,111,109,110,110,108,110,110,111,111,111,109,109,110,111,112,110,112,112,110,111,106
109,109,109,109,109,109,109,109,109,109,109,109,109,109,109,109,109,109,109,109,109,109,109,109,109,109,109,109,109,109,109,111,114,111,108,108,111,109,109,110,106,110,112,110,108,110,111,109,111,112,111,110,110,111,109,109,108,109,111,108
109,109,109,109,109,109,109,109,109,109,109,109,109,109,109,109,109,109,109,109,109,109,109,109,109,109,109,109,109,109,109,111,112,113,112,108,108,106,107,109,108,108,109,110,108,110,112,107,107,110,111,110,109,108,109,112,113,110,111,109
109,109,109,109,109,109,109,109,109,109,109,109,109,109,109,109,109,109,109,109,109,109,109,109,109,109,109,108,109,108,108,108,108,110,108,108,113,110,107,109,112,110,110,111,108,111,112,111,112,110,109,109,111,109,108,112,114,111,113,113
109,109,109,109,109,109,109,109,109,109,109,109,109,109,109,109,109,109,109,109,109,109,109,109,109,109,109,108,113,111,109,110,112,114,109,110,116,113,110,109,112,112,110,112,112,113,110,109,110,109,110,113,114,110,108,112,114,113,111,108
109,109,109,109,109,109,109,109,109,109,109,109,109,109,109,109,109,109,109,109,109,109,109,109,109,109,109,108,110,112,111,111,110,113,113,109,106,109,113,111,110,111,107,108,112,113,110,109,110,110,110,111,111,112,109,105,107,108,108,109
109,109,109,109,109,109,109,109,109,109,109,109,109,109,109,109,109,109,109,109,109,109,109,109,109,109,109,110,110,112,111,106,107,111,113,112,109,108,112,109,110,114,109,107,110,107,107,111,113,109,106,107,109,112,112,107,108,110,108,106
109,109,109,109,109,109,109,109,109,109,109,109,109,109,109,109,109,109,109,109,109,109,109,109,109,110,112,111,109,114,113,109,109,108,108,112,113,110,110,108,110,113,108,108,112,109,106,109,114,112,111,112,107,105,110,109,108,110,110,110
109,109,109,109,109,109,109,109,109,109,109,109,109,109,109,109,109,109,109,109,109,109,109,109,108,108,111,110,110,111,110,110,109,110,112,110,110,111,111,110,109,108,106,109,112,112,112,110,109,111,110,111,109,108,113,113,107,107,110,110
109,109,109,109,109,109,109,109,109,109,109,109,109,109,109,109,109,109,109,109,109,109,109,109,111,115,110,107,108,108,109,112,112,111,113,109,106,109,110,109,111,109,109,110,111,110,110,110,109,108,108,110,112,108,110,113,110,112,114,111
109,109,109,109,109,109,109,109,109,109,109,109,109,109,109,109,109,109,109,109,109,109,109,109,109,108,106,110,112,109,109,109,110,110,110,111,110,109,109,109,113,110,112,113,110,111,109,109,112,111,109,108,112,113,112,110,107,107,107,109
109,109,109,109,109,109,109,109,109,109,109,109,109,109,109,109,109,109,109,109,109,109,109,109,109,108,111,113,113,112,110,108,111,112,110,111,110,108,109,110,111,108,110,112,107,111,111,109,111,110,106,107,110,108,110,114,112,113,106,108
109,109,109,109,109,109,109,109,109,109,109,109,109,109,109,109,109,109,109,109,109,109,110,112,111,112,112,112,111,109,106,107,111,109,109,113,113,111,113,112,110,110,108,110,109,109,111,112,109,108,109,109,110,108,108,110,111,112,108,108
109,109,109,109,109,109,109,109,109,109,109,109,109,109,109,109,109,109,109,109,109,109,111,110,107,107,108,110,111,113,111,111,115,113,111,113,111,108,111,113,113,111,110,111,112,107,108,114,113,109,109,113,115,112,109,111,113,110,109,109
109,109,109,109,109,109,109,109,109,109,109,109,109,109,109,109,109,109,109,109,109,108,109,110,110,113,111,109,110,112,109,106,109,110,109,108,109,109,109,111,112,111,109,110,109,108,110,112,112,110,108,110,112,108,108,108,108,113,114,108
109,109,109,109,109,109,109,109,109,109,109,109,109,109,109,109,109,109,109,109,110,111,109,108,109,111,111,113,112,113,112,109,111,113,112,110,113,112,107,109,108,109,110,111,107,108,112,109,106,113,113,109,106,108,113,110,107,105,110,108
109,109,109,109,109,109,109,109,109,109,109,109,109,109,109,109,109,109,109,108,109,112,113,114,110,110,109,110,107,110,111,111,107,106,109,109,114,111,108,114,109,108,109,111,108,106,108,111,108,113,110,108,111,112,112,106,112,108,110,109
109,109,109,109,109,109,109,109,109,109,109,109,109,109,109,109,109,109,109,109,107,110,111,109,109,111,113,112,113,113,110,109,110,112,110,110,112,109,109,110,108,108,109,108,110,109,109,115,110,110,112,109,113,109,108,109,112,110,112,111
109,109,109,109,109,109,109,109,109,109,109,109,109,109,109,109,109,109,109,109,109,112,111,110,107,112,109,108,108,105,108,110,110,110,108,112,110,109,109,109,108,110,113,107,108,110,109,110,108,108,110,108,111,112,107,110,111,107,110,108
109,109,109,109,109,109,109,109,109,109,109,109,109,109,109,109,109,108,110,114,110,113,109,113,107,108,106,109,112,113,112,113,109,107,108,108,111,110,110,112,114,112,110,107,110,110,108,107,110,111,109,112,111,114,110,110,108,108,111,105
109,109,109,109,109,109,109,109,109,109,109,109,109,109,109,109,109,108,112,114,111,113,110,117,111,113,112,113,108,112,111,115,110,114,112,110,112,112,112,108,113,111,107,111,112,113,108,108,114,112,112,114,109,112,110,113,114,109,115,109
109,109,109,109,109,109,109,109,109,109,109,109,109,109,109,109,111,110,110,107,109,110,109,109,107,111,114,112,106,111,108,110,106,112,112,107,108,113,113,107,108,109,110,114,110,112,108,109,112,109,109,110,111,110,110,102,109,109,109,107
109,109,109,109,109,109,109,109,109,109,109,109,109,109,109,109,112,112,111,108,111,110,111,114,107,108,108,113,113,111,109,113,108,109,111,108,107,111,108,113,113,112,110,108,108,113,111,108,110,109,110,108,109,107,113,109,111,110,111,109
109,109,109,109,109,109,109,109,109,109,109,109,109,108,111,114,111,110,113,110,110,109,105,113,109,110,108,113,113,112,109,112,113,111,111,113,110,113,108,111,113,110,110,108,111,112,110,105,112,109,107,111,109,113,109,109,111,108,109,110
109,109,109,109,109,109,109,109,109,109,109,109,110,109,113,116,109,108,111,107,107,111,110,111,109,113,109,113,107,108,110,109,111,112,110,114,109,109,110,108,109,106,109,110,111,110,112,107,111,111,108,112,104,111,111,109,110,106,107,109
109,109,109,109,109,109,109,109,109,109,109,109,109,111,111,114,110,111,110,109,109,110,109,111,110,112,109,115,111,113,111,112,113,113,108,111,111,107,107,109,109,108,111,111,109,110,112,111,112,112,106,111,109,112,114,111,108,108,109,109
109,109,109,109,109,109,109,109,109,109,109,110,106,107,108,110,112,114,111,112,112,114,113,109,113,114,111,115,110,112,113,108,113,113,108,107,111,111,110,110,110,112,111,112,108,109,107,108,113,113,107,111,110,105,108,108,109,114,113,110
109,109,109,109,109,109,109,109,109,109,108,110,108,110,111,110,112,110,108,111,110,107,114,112,115,117,116,119,111,113,115,111,111,107,109,108,110,111,110,109,111,112,109,110,109,111,111,108,110,111,110,112,114,112,110,108,108,111,108,107
109,109,109,109,109,109,109,109,109,109,108,110,109,113,114,112,113,111,112,115,114,110,110,109,115,120,119,121,119,115,111,111,110,110,111,108,110,110,108,109,110,109,109,109,109,111,114,110,110,109,108,110,111,109,109,108,109,114,113,107
109,109,109,109,109,109,109,109,109,109,111,111,108,110,115,111,112,113,113,114,112,111,118,117,117,123,122,120,116,114,111,111,112,110,109,108,112,113,111,114,116,112,110,111,111,109,113,112,110,109,109,113,109,107,110,106,106,110,111,108
109,109,109,109,109,109,109,109,109,109,112,113,111,107,110,110,113,113,105,108,112,108,115,118,116,121,123,122,117,116,114,112,113,112,111,112,114,113,113,109,114,115,110,110,111,109,110,110,108,107,108,110,112,112,111,110,111,111,113,112
109,109,109,109,109,109,109,109,109,109,108,112,111,107,109,111,115,114,107,109,115,114,115,119,121,122,119,122,125,121,117,115,114,112,112,114,113,110,109,105,107,113,109,108,111,112,109,109,112,110,108,107,107,109,110,112,112,110,108,106
109,109,109,109,109,109,109,109,108,107,106,109,110,110,111,111,113,113,112,114,115,114,113,115,119,121,120,119,120,121,119,112,109,110,110,111,111,109,109,106,109,113,110,110,111,111,108,110,113,112,111,112,109,107,112,113,112,112,109,108
109,109,109,109,109,109,109,109,110,111,108,108,113,112,109,111,114,114,112,111,114,114,113,116,117,122,124,120,119,117,116,114,110,111,110,108,108,110,111,110,111,110,109,109,109,109,109,111,112,112,112,111,111,109,111,109,106,111,113,111
109,109,109,109,109,109,110,110,112,114,113,109,112,116,111,110,113,114,114,112,114,114,113,117,119,122,121,120,124,118,116,117,111,112,114,112,111,112,112,111,109,108,110,110,109,111,112,111,109,111,111,110,111,109,109,110,108,110,111,111
109,109,109,109,109,109,111,109,109,111,111,109,109,113,114,111,110,111,114,113,115,114,112,115,119,123,122,123,129,126,121,117,115,115,115,115,113,112,107,110,114,113,112,111,111,112,110,110,109,106,108,111,110,108,109,109,108,107,108,109
109,109,109,109,108,108,113,114,110,109,111,108,110,112,110,109,108,108,110,110,112,111,110,115,119,122,124,123,126,123,120,120,119,112,108,108,108,109,109,111,112,110,108,107,110,112,109,110,114,111,107,109,108,108,108,105,107,109,110,111
109,109,109,109,109,109,113,118,112,109,112,108,109,113,111,108,108,109,113,112,112,112,110,114,117,121,126,127,129,126,123,122,120,116,116,115,109,105,109,111,108,109,110,109,107,109,109,109,113,113,110,110,108,109,110,110,110,109,111,112
109,109,109,109,110,109,109,114,113,109,110,109,109,110,112,113,110,108,110,111,112,114,112,112,115,120,123,122,125,124,122,119,116,112,112,113,110,110,110,111,112,112,112,111,109,111,111,108,108,109,110,109,106,104,106,108,108,107,109,109
109,109,109,108,109,109,108,107,106,109,111,112,110,107,111,114,111,108,109,110,110,111,113,113,114,116,122,127,129,128,131,127,119,114,113,113,112,110,107,109,111,111,109,110,111,114,112,108,108,110,111,109,111,111,111,112,111,109,111,113
109,109,111,113,111,108,108,108,109,110,110,109,112,109,108,111,110,110,113,114,111,110,111,113,117,121,122,124,129,126,123,120,119,115,114,112,113,112,106,108,109,111,107,106,110,110,109,110,110,109,111,111,109,108,107,108,110,105,108,108
109,109,111,113,110,108,109,114,111,110,114,110,112,113,110,111,110,109,110,111,113,110,112,116,116,118,126,131,133,133,128,123,119,115,113,112,115,117,112,111,109,112,110,108,110,109,111,110,112,111,107,105,109,113,108,108,109,107,111,111
109,110,113,113,108,111,112,112,110,111,113,109,110,112,112,111,108,110,112,109,111,112,113,117,119,121,125,128,129,131,123,123,120,116,114,115,112,113,112,111,107,113,113,113,111,109,113,109,111,112,107,102,107,114,110,111,110,111,109,109
110,110,107,110,110,109,109,108,110,111,109,109,110,108,111,110,110,113,112,110,109,113,113,115,121,125,127,128,123,127,123,123,122,117,114,114,111,109,109,109,107,111,110,110,110,110,112,108,107,107,111,111,106,108,108,113,110,110,111,113
112,110,106,106,109,109,109,111,109,107,110,111,111,109,110,111,114,113,108,112,113,114,115,115,119,122,122,126,124,129,127,122,118,118,115,111,113,111,111,109,110,110,108,108,108,109,109,107,105,105,110,110,107,111,107,112,110,112,111,112
108,110,112,111,109,109,108,112,110,105,108,111,112,111,109,112,114,113,108,111,111,111,110,112,119,117,120,126,126,127,121,122,122,119,114,111,115,109,113,114,110,108,107,112,111,112,109,109,106,108,110,110,110,110,110,115,111,109,108,109
113,111,112,110,107,110,108,109,113,108,105,108,110,110,110,110,107,111,111,112,109,113,112,112,117,115,118,122,125,129,129,127,125,124,118,114,116,110,111,115,113,110,108,112,114,113,110,110,108,112,112,110,109,109,106,107,110,109,109,108
108,107,107,110,108,112,109,109,115,112,106,109,106,107,111,110,106,111,112,112,110,115,116,118,119,120,123,128,132,134,132,130,131,123,119,115,114,113,112,113,110,112,109,108,112,110,108,109,110,113,110,108,105,113,110,106,111,110,110,111
111,108,109,109,110,110,110,108,115,110,108,113,109,108,110,111,112,113,113,111,110,114,113,116,117,121,122,131,137,140,139,136,137,126,122,118,117,112,112,112,105,110,110,106,110,112,111,109,108,110,108,114,112,111,111,112,109,114,112,113
111,111,111,110,114,109,113,108,115,111,111,111,111,109,109,108,111,112,115,112,112,117,113,115,121,125,131,149,162,167,159,154,152,134,121,115,117,115,112,113,109,110,110,109,111,109,111,109,110,112,109,109,109,106,108,108,113,115,111,109
108,112,114,106,111,107,109,104,109,110,110,108,111,111,112,110,110,114,117,110,110,116,113,117,123,123,142,169,182,186,193,194,187,154,133,120,119,116,111,111,111,109,109,110,113,106,108,109,109,113,110,106,110,108,114,109,113,108,112,111
107,106,114,109,111,110,110,109,111,111,112,109,112,111,112,114,113,110,113,113,109,110,113,118,119,121,129,148,169,169,167,160,154,146,130,123,121,119,115,111,111,112,110,109,111,111,109,112,106,109,111,110,117,112,113,102,107,107,112,111
115,112,113,112,109,110,110,108,111,110,112,110,110,108,107,112,112,108,107,112,112,112,115,119,117,123,126,131,139,145,145,136,128,127,122,119,117,113,113,110,111,114,111,108,108,109,108,114,108,111,107,106,109,109,112,106,107,105,108,108
109,111,110,111,110,110,115,112,110,108,108,110,112,110,107,110,111,112,111,110,114,115,116,116,115,128,125,126,128,132,131,131,131,127,125,118,116,113,114,110,109,108,110,111,109,109,108,111,109,114,109,109,110,106,111,111,112,114,110,110
108,111,112,111,112,106,112,112,108,110,108,109,114,111,108,110,110,110,115,111,114,113,117,116,114,120,118,121,133,136,131,130,129,122,117,116,114,114,116,111,110,107,109,112,112,114,111,107,108,111,109,110,113,108,108,109,109,111,106,107
109,105,109,112,112,111,108,113,111,112,114,109,111,109,107,108,111,109,115,110,114,112,114,113,111,115,117,121,123,124,125,122,123,119,114,114,113,114,115,112,111,110,107,110,113,112,110,108,110,113,110,110,115,108,105,109,110,113,109,107
109,110,112,110,105,111,110,111,112,111,112,111,112,109,108,107,110,110,115,110,110,112,110,112,112,114,121,126,127,128,128,125,122,117,114,113,114,114,112,111,109,112,108,108,113,110,108,111,113,110,107,108,108,107,109,108,104,108,110,108
110,111,110,110,109,111,113,110,111,109,106,109,113,112,111,110,112,109,115,113,109,111,112,112,117,121,123,126,124,130,129,123,121,117,114,112,111,111,110,109,109,113,109,106,109,111,108,109,113,110,110,114,112,110,112,111,111,111,116,114
108,110,110,111,112,106,108,110,111,110,108,106,108,113,111,111,115,107,109,114,113,111,112,114,116,120,121,122,121,126,125,121,118,113,112,113,109,108,107,110,112,111,109,108,108,111,110,106,110,111,108,110,108,110,111,107,109,107,108,108
105,108,108,110,112,107,109,110,111,111,111,109,108,111,109,107,113,111,110,112,112,113,112,113,117,120,120,122,125,129,128,124,121,118,115,114,110,108,106,108,112,112,112,112,109,108,111,107,107,110,109,109,108,108,108,110,110,109,114,111
108,113,112,109,115,111,110,111,112,110,110,110,109,110,110,108,110,114,115,111,108,112,116,111,110,118,120,123,125,122,119,117,115,116,111,109,113,114,112,110,110,111,113,112,110,109,110,110,108,110,111,109,109,111,109,110,112,112,109,107
107,113,109,107,110,108,111,113,110,110,111,110,110,109,109,112,111,110,112,110,112,113,113,114,113,119,126,129,129,127,126,122,116,114,111,110,112,112,112,111,107,108,110,110,112,112,110,111,113,114,112,111,111,112,111,109,111,114,112,111
108,112,107,106,109,109,112,113,110,107,108,110,109,107,108,109,110,109,111,110,112,114,115,116,115,116,124,127,123,120,121,119,114,113,114,115,112,110,111,110,109,109,109,107,108,111,110,109,112,111,108,111,113,112,113,112,110,109,107,108
114,115,113,112,109,106,109,113,113,110,109,111,109,109,110,108,111,114,113,114,113,112,113,113,119,124,122,122,123,121,122,122,117,115,115,112,110,110,111,110,111,111,112,109,107,110,108,106,110,109,106,109,110,106,107,109,110,112,110,106
111,108,108,110,111,111,110,110,109,107,108,111,112,109,108,108,110,114,111,110,113,111,113,117,120,121,119,120,124,123,118,115,116,117,112,108,109,112,111,109,110,110,111,112,111,111,109,107,110,111,108,106,105,111,112,107,109,113,110,111
109,110,113,115,111,110,111,111,108,106,108,110,112,110,108,108,109,111,111,109,113,112,111,114,115,119,124,126,122,118,120,117,113,112,110,107,109,112,111,111,110,107,108,110,109,110,111,109,108,111,112,112,109,109,108,105,110,113,108,107
110,108,111,110,105,106,109,111,110,110,112,110,108,109,111,112,113,112,111,110,113,115,114,119,118,119,121,121,122,123,124,120,116,113,111,111,113,111,110,111,114,111,110,111,109,107,109,110,109,109,109,111,112,110,111,111,108,109,107,111
111,111,113,110,110,111,111,114,114,112,111,110,109,109,109,110,110,110,112,111,110,113,113,118,122,122,126,126,125,123,121,119,114,112,109,110,111,107,109,110,114,114,114,114,111,109,110,110,111,110,108,110,112,112,112,111,109,110,109,108
111,113,113,107,108,112,112,108,109,109,108,110,112,112,109,109,107,108,114,110,110,114,114,115,118,119,121,123,122,116,116,119,114,110,106,106,110,109,110,108,111,111,108,110,107,108,111,109,108,108,110,109,108,110,109,111,110,111,110,107
106,111,115,110,110,110,111,111,110,112,113,109,110,111,109,113,113,109,112,108,107,113,115,118,118,118,123,123,120,118,114,113,117,117,113,112,109,110,110,108,111,108,108,111,108,108,111,110,110,107,110,111,108,109,107,107,108,112,111,108
107,107,111,112,112,111,110,111,113,110,111,109,110,111,109,109,112,110,112,113,110,114,117,119,123,120,122,124,120,120,116,109,107,108,110,109,109,108,107,111,113,109,112,113,109,108,113,112,113,109,108,111,109,109,112,111,109,112,109,107
109,111,109,109,109,111,112,111,112,106,110,110,112,110,109,108,111,110,112,111,110,112,116,115,118,121,121,119,118,117,115,114,112,116,113,107,111,111,110,110,113,110,109,110,110,109,112,110,111,109,108,112,110,109,110,113,111,113,111,107
113,115,110,108,110,111,108,108,112,111,111,109,110,109,109,113,112,109,113,110,110,110,113,116,120,122,121,117,118,112,109,111,110,114,111,107,108,110,114,107,110,109,107,107,110,109,113,110,108,110,106,108,107,109,108,112,107,106,108,109
110,112,112,110,106,109,109,107,112,110,110,110,112,112,109,111,110,106,111,110,113,110,110,119,121,118,120,122,118,116,113,109,111,114,110,110,110,110,109,107,108,111,111,107,109,108,107,110,108,112,107,108,106,111,106,114,111,109,109,110
110,110,110,113,113,115,116,110,110,110,110,108,111,111,109,109,111,107,110,111,115,113,111,115,115,118,117,121,119,115,116,109,106,110,109,110,109,107,109,112,106,113,114,109,109,110,106,108,112,113,110,113,106,112,108,114,112,110,108,111
110,112,111,113,107,104,111,107,106,107,112,107,109,111,112,108,113,111,110,111,112,112,110,111,108,113,112,114,111,106,113,114,111,113,115,111,110,109,105,110,106,111,112,109,108,110,111,110,113,110,108,112,110,110,107,111,111,111,110,113
112,110,110,113,108,109,112,108,108,107,109,108,108,112,113,107,111,112,108,110,109,112,110,111,107,109,114,114,111,111,111,107,112,110,111,112,115,115,106,109,109,111,112,111,111,109,108,111,110,109,109,108,111,110,105,111,106,105,102,104
112,113,110,110,110,112,115,109,110,111,109,109,108,110,111,110,108,108,108,112,107,112,112,113,108,108,113,112,113,114,110,107,113,111,110,108,108,110,112,110,111,110,111,111,110,113,113,110,110,110,115,113,110,112,106,114,112,109,108,111
113,114,108,111,115,112,112,109,110,111,110,109,108,111,112,111,111,108,109,111,109,112,112,115,112,110,111,112,110,113,112,111,109,104,112,110,111,106,111,111,112,109,112,112,108,110,115,106,108,110,113,111,109,112,109,109,109,107,107,110
108,111,107,110,109,109,111,112,113,112,109,109,109,112,111,110,113,109,110,112,107,111,108,113,112,108,109,111,107,112,111,108,112,110,114,109,113,107,110,111,107,107,113,111,109,104,109,107,107,106,106,106,109,112,110,107,112,115,109,111
110,111,108,113,112,112,109,106,110,110,107,108,111,113,110,110,112,105,108,112,106,109,109,113,107,107,111,113,108,108,108,108,110,109,110,107,108,109,110,111,110,107,110,108,111,106,109,111,111,110,113,110,111,111,111,110,109,111,105,103
108,109,107,107,109,112,108,110,111,110,110,107,107,113,112,109,108,105,107,111,108,111,111,113,110,108,107,110,109,111,109,108,109,108,109,113,110,110,112,108,111,111,111,111,112,112,111,110,108,114,114,110,109,107,109,113,111,111,108,110
108,109,110,108,110,112,108,115,112,111,111,111,108,111,113,112,108,108,108,111,111,113,107,108,108,110,108,109,111,112,112,108,105,110,108,109,111,112,113,104,104,110,110,112,109,111,109,111,109,109,107,109,108,107,106,112,111,110,111,112
108,107,113,110,110,110,105,115,112,109,110,110,111,110,111,112,114,113,109,112,114,114,108,110,107,108,111,112,113,111,111,108,106,108,111,108,108,110,111,109,108,110,107,113,111,108,108,111,113,108,109,111,107,111,109,111,110,109,109,108
109,107,108,108,111,112,107,112,110,107,110,108,109,109,113,109,108,112,110,108,107,109,109,111,110,110,111,108,112,111,109,109,110,109,111,105,106,109,113,112,110,110,108,111,113,110,110,109,111,110,110,110,109,111,106,108,109,110,108,109
112,111,112,112,117,114,108,107,107,106,108,109,112,112,112,113,106,107,110,108,105,109,109,108,110,112,110,107,110,110,107,105,110,107,110,110,110,110,110,111,110,111,111,107,109,111,110,111,110,109,107,108,109,108,107,112,112,112,112,112
112,111,109,106,111,112,114,111,110,110,109,110,111,111,108,112,111,108,107,109,109,108,108,109,110,112,109,109,108,107,111,111,113,106,109,111,110,111,109,111,110,108,110,109,108,110,108,110,110,108,107,108,110,109,112,110,109,111,111,111
108,108,112,113,111,108,108,106,110,110,108,109,109,111,108,111,112,112,109,110,109,106,109,112,111,111,108,111,116,113,109,107,110,107,110,110,108,111,112,112,113,107,105,109,110,114,110,108,107,108,110,109,110,110,110,110,113,112,109,112
111,109,112,115,113,110,109,109,110,108,111,113,112,112,109,109,109,111,110,113,111,107,109,110,109,108,107,110,109,109,109,105,108,112,108,107,109,109,108,108,111,110,106,106,108,113,113,111,110,108,111,110,111,109,105,110,113,112,109,109
109,107,108,108,107,106,107,109,106,105,113,116,112,110,106,106,108,108,107,112,113,108,108,106,107,111,109,109,107,109,113,112,109,111,111,108,107,109,109,110,111,108,109,109,107,108,111,111,110,108,112,113,110,110,111,112,111,109,108,109
110,109,110,109,110,112,110,111,111,108,110,110,109,111,109,109,112,109,108,109,111,112,113,109,106,109,109,108,108,108,110,113,111,108,108,108,109,112,109,108,112,111,109,111,111,110,110,109,110,109,110,112,110,108,108,108,109,108,106,108
108,111,111,107,107,109,107,108,110,110,111,111,108,110,112,111,110,108,110,110,107,108,112,112,110,110,110,110,109,108,108,109,110,111,114,113,111,110,109,108,111,115,111,108,112,111,112,112,109,109,109,109,112,113,111,110,111,111,110,110
109,110,111,110,106,109,113,112,109,107,111,113,109,107,107,110,111,107,108,111,109,106,106,110,112,109,111,111,109,111,111,107,107,110,111,111,110,109,108,107,108,112,112,108,108,109,109,110,108,108,110,110,110,112,113,111,107,107,110,109
108,109,111,110,110,111,110,113,111,107,110,112,110,109,106,109,110,107,107,107,108,109,107,110,112,110,110,109,109,113,113,112,112,108,109,112,110,111,110,109,109,110,112,112,109,109,109,107,110,112,112,111,109,109,110,111,110,110,109,108
113,111,112,108,107,108,107,108,109,109,111,112,110,110,111,107,106,109,112,107,104,111,112,110,109,107,111,110,109,112,111,110,110,108,110,113,111,110,111,110,108,111,113,113,111,109,111,110,108,110,110,110,111,109,107,108,110,110,108,108
110,108,111,111,109,107,108,112,112,111,112,110,108,110,112,110,110,111,110,109,108,110,110,107,107,110,110,111,111,110,111,115,111,108,112,112,108,109,112,109,107,110,110,108,110,112,111,111,107,105,107,107,110,111,109,108,112,112,110,111
106,106,110,109,109,109,106,110,111,109,110,107,107,111,111,110,111,112,109,108,109,109,111,111,109,108,105,108,111,110,109,108,109,110,114,113,108,112,110,108,112,109,107,108,112,113,110,111,109,108,110,109,111,112,111,110,110,109,105,109
108,110,112,111,110,108,109,111,108,107,110,108,109,109,110,109,108,112,111,108,107,110,112,112,112,110,108,110,110,110,113,110,108,108,107,110,110,110,108,109,112,108,109,110,109,110,111,112,112,111,111,111,112,114,113,109,108,111,108,108
109,106,110,112,111,111,112,111,110,115,112,107,108,107,109,109,108,108,108,110,109,110,112,111,112,107,106,106,104,106,107,106,107,106,104,108,113,112,112,112,113,114,111,110,109,111,110,109,112,110,110,109,107,108,109,108,108,111,110,106
110,109,110,112,108,106,107,110,111,111,108,108,110,109,109,106,107,108,108,110,110,108,109,110,110,109,111,113,106,110,113,110,109,109,112,109,110,110,110,111,111,113,109,107,110,112,108,109,114,112,111,110,109,110,109,112,113,110,110,106
