109,107,105,107,108,107,109,110,110,110,108,110,109,109,107,108,107,107,106,109,106,111,109,108,109,107,106,110,109,109,109,107,108,105,108,108,108,111,113,110,107,108,107,104,108,110,111,108,104,110,108,109,108,107,107,112,106,105,107,107
106,106,106,111,111,109,107,106,107,112,106,107,108,108,105,107,111,109,107,106,106,110,109,108,108,105,107,111,106,109,109,110,110,109,110,108,107,107,109,112,110,108,108,106,109,107,110,109,110,110,108,109,106,105,107,109,109,110,107,104
108,111,109,107,103,106,111,108,106,111,109,107,105,105,105,110,112,109,111,109,107,106,108,110,111,110,108,107,104,110,106,106,109,110,110,110,108,107,105,107,109,105,107,108,110,108,111,109,104,108,109,108,108,107,109,110,108,110,107,106
109,109,108,107,105,105,109,104,106,107,111,110,108,109,107,109,109,108,111,108,111,111,109,110,109,111,110,110,107,108,107,106,104,103,108,106,104,111,110,109,110,107,108,106,109,109,108,110,106,105,107,108,109,112,108,112,110,109,109,108
108,107,109,110,106,106,107,105,106,106,109,111,110,111,108,110,111,108,108,108,109,105,107,108,107,110,110,111,110,110,110,108,107,108,109,109,106,109,108,107,109,108,110,108,105,108,109,112,111,108,110,110,107,106,103,108,109,106,109,111
106,108,109,109,110,107,105,106,108,111,111,109,108,109,107,110,112,106,112,112,110,108,108,109,109,108,107,105,109,110,110,109,110,109,108,109,109,106,106,110,109,107,108,109,107,109,111,112,109,107,109,112,110,108,106,108,109,106,107,111
106,108,106,102,112,112,107,109,111,110,110,109,107,108,107,112,113,105,108,108,107,111,108,106,109,109,106,105,110,109,107,107,105,106,107,106,111,110,109,111,110,109,108,104,105,109,105,104,108,109,108,107,107,108,108,108,106,108,109,109
108,111,110,107,109,111,110,107,109,109,108,107,108,108,104,104,106,106,107,103,106,111,105,106,110,108,106,108,111,110,108,111,107,106,107,109,108,106,107,107,107,110,110,105,107,111,108,107,106,106,107,106,107,110,109,111,108,109,110,106
107,107,109,111,104,107,107,105,110,111,107,107,109,108,105,102,103,110,108,104,108,108,106,109,109,107,107,107,108,110,109,110,110,107,105,106,109,108,110,107,106,107,107,108,110,108,108,107,105,107,107,108,108,111,107,108,112,111,109,106
109,107,107,111,108,109,106,110,111,109,105,108,111,110,112,110,105,106,106,109,108,106,106,109,107,108,109,110,109,106,108,108,106,106,110,108,109,107,109,109,107,109,107,109,111,107,106,107,107,109,109,108,108,108,108,106,110,111,108,104
108,108,107,109,112,109,104,107,110,110,107,108,108,111,109,110,106,108,108,106,105,109,111,108,107,108,106,109,108,104,108,110,104,106,111,109,106,107,111,110,106,108,109,107,110,109,108,109,111,110,109,110,111,109,112,109,106,111,111,105
105,108,108,108,107,105,104,104,107,109,109,109,107,110,106,109,108,110,110,108,109,108,110,107,107,108,106,106,109,109,109,108,107,108,108,107,107,106,107,109,109,107,109,108,110,110,110,110,111,110,109,108,109,108,111,110,106,108,109,108
108,109,108,108,108,108,113,109,107,105,107,108,106,105,106,109,109,110,111,106,112,108,108,109,108,109,108,104,105,110,112,105,107,109,109,109,106,107,108,109,107,107,110,110,109,108,110,109,108,109,110,106,106,108,108,109,108,105,113,111
109,110,109,107,110,107,109,109,108,106,107,109,109,108,106,106,105,105,111,108,110,110,109,108,108,107,110,110,109,110,109,105,107,112,110,108,108,109,109,112,108,106,108,110,110,107,109,108,108,108,110,107,107,108,105,106,110,108,110,109
107,106,109,106,108,106,105,108,109,108,108,109,110,112,111,106,107,105,111,108,103,105,108,106,108,108,107,108,103,106,106,108,111,111,109,107,111,110,106,108,106,104,107,110,109,109,108,108,108,106,109,109,110,110,105,105,109,109,105,107
107,106,111,109,109,111,107,102,105,107,108,110,109,109,111,110,111,108,107,105,105,109,111,107,106,108,107,108,104,106,106,109,110,108,109,109,110,111,110,110,110,102,108,109,105,108,110,110,109,107,107,108,109,109,109,106,108,109,105,108
108,108,108,109,106,108,108,105,108,109,107,109,107,104,106,106,107,108,109,107,109,108,109,111,107,107,111,110,104,109,107,108,106,109,110,109,109,109,112,108,108,106,109,107,104,110,113,110,109,108,110,112,110,105,107,109,107,108,107,106
108,109,105,106,106,105,110,111,106,107,109,109,109,110,109,108,109,108,111,107,109,108,107,110,110,106,108,110,106,107,107,109,106,107,109,108,108,104,107,106,107,107,106,106,104,106,111,108,105,108,108,108,109,110,109,112,109,108,109,107
111,110,109,107,107,105,110,113,104,105,108,109,105,106,109,110,110,108,109,108,109,111,109,105,106,105,105,110,109,108,108,108,108,107,107,106,110,107,106,110,108,107,106,108,109,106,109,109,108,105,104,107,105,105,107,110,108,108,108,109
108,106,111,111,109,106,109,111,108,108,109,108,105,108,108,109,107,106,107,106,110,112,109,106,108,109,107,108,110,105,108,108,112,109,107,108,107,107,107,107,107,108,101,107,109,105,108,108,110,105,107,110,104,104,107,107,108,106,108,111
109,108,108,106,107,107,104,104,106,109,110,109,108,109,106,107,109,109,109,106,109,109,108,107,108,110,107,108,110,105,110,110,109,107,109,109,104,106,109,108,109,110,105,108,106,105,105,106,111,108,110,108,104,106,111,110,108,106,108,109
108,109,108,106,106,109,106,106,108,110,108,109,109,108,109,108,111,113,108,108,108,106,109,109,110,108,107,107,108,106,111,112,108,107,109,109,105,106,110,109,110,110,108,109,107,107,107,106,110,109,110,108,105,104,109,108,108,108,109,109
107,109,111,109,109,108,104,108,110,111,109,108,110,107,108,105,107,111,108,111,108,107,109,111,112,109,110,110,108,105,103,109,108,111,109,108,109,110,110,108,110,108,104,105,111,110,106,110,110,106,103,106,108,107,108,110,109,108,109,108
111,110,107,107,110,110,106,108,110,109,108,108,108,108,110,110,111,112,109,112,108,105,104,107,110,108,106,109,109,108,105,110,109,109,110,107,108,110,110,108,108,107,109,107,107,110,106,106,105,109,107,107,108,108,109,112,107,106,108,108
108,108,104,104,108,109,108,108,108,110,107,106,106,110,109,109,111,110,108,105,106,109,106,106,107,106,107,108,110,109,108,109,109,106,109,107,105,106,107,111,112,111,112,109,107,108,106,105,107,109,105,106,107,107,108,111,107,107,107,104
108,111,111,107,108,111,110,108,105,109,111,106,105,110,108,106,105,107,111,107,109,110,106,109,109,106,105,106,110,108,108,106,109,104,108,109,105,106,108,110,108,105,105,107,108,106,104,107,108,107,105,107,110,110,109,109,109,108,108,103
110,112,111,107,110,110,109,109,107,106,107,108,112,112,107,106,105,106,112,108,103,107,107,109,107,105,108,110,109,108,111,110,108,105,109,107,106,110,109,109,109,109,109,108,108,107,109,109,106,107,107,107,109,108,108,109,111,110,108,104
106,109,112,111,109,110,110,108,110,110,105,105,110,108,108,108,107,105,108,109,105,108,108,107,107,111,110,108,109,109,109,106,106,107,110,108,107,108,104,109,112,110,109,104,107,106,109,108,103,105,109,109,108,105,105,108,104,111,107,105
106,110,107,104,105,109,109,108,107,107,111,111,108,105,106,107,109,109,107,108,108,109,107,108,110,112,108,105,111,111,110,107,108,105,106,110,109,110,106,106,105,105,106,107,106,105,107,110,110,109,106,109,106,107,108,109,104,107,105,104
111,112,111,106,107,111,108,106,106,104,108,111,110,109,105,107,110,110,107,107,107,110,106,108,108,109,108,106,108,110,113,109,109,107,106,110,107,109,109,112,108,106,109,110,106,106,108,107,107,110,105,106,105,110,106,105,106,107,108,106
108,110,110,109,108,110,108,105,108,110,110,109,106,105,101,107,113,110,106,104,105,111,108,108,109,109,105,107,108,109,111,109,109,110,109,108,106,108,105,109,110,110,111,112,111,106,106,106,105,110,110,106,107,110,106,105,107,107,105,108
109,110,106,106,109,108,107,105,109,113,110,111,108,108,107,108,109,110,108,105,107,112,108,106,109,111,109,112,112,112,111,107,109,109,111,108,111,107,104,108,113,110,107,108,111,108,106,106,112,111,110,108,106,106,109,109,108,109,106,103
109,110,106,107,106,106,109,107,108,108,106,110,109,107,110,112,107,107,110,108,108,112,109,110,104,106,111,110,111,112,108,108,109,110,113,109,110,106,110,108,110,105,107,109,108,108,107,103,108,108,107,109,107,108,108,108,109,110,105,103
107,108,107,106,103,106,110,108,113,112,106,108,105,105,106,110,108,106,107,108,108,107,109,112,105,108,112,111,109,112,111,112,113,114,112,109,112,110,109,109,109,108,114,110,109,110,110,105,108,110,106,104,109,111,109,109,109,110,105,104
108,105,106,107,107,109,109,105,112,111,109,111,108,110,108,111,107,108,110,107,106,108,106,107,109,110,111,111,112,115,117,117,117,120,113,109,112,110,109,109,109,109,107,105,106,107,109,108,109,107,108,107,110,107,106,108,106,107,110,111
113,108,108,111,113,107,107,104,108,105,107,109,105,109,110,108,105,110,111,107,108,112,104,107,104,104,109,114,113,113,116,117,118,120,117,113,108,107,109,109,109,109,108,109,107,108,109,110,109,103,108,110,108,108,109,109,108,108,109,110
105,105,106,106,109,108,110,108,109,106,105,110,110,110,111,107,106,110,110,109,109,110,107,113,106,108,110,110,112,119,123,116,115,117,119,117,111,110,108,108,111,110,108,107,106,108,109,110,109,107,107,108,105,107,107,107,104,105,108,108
104,109,108,106,107,109,109,110,109,107,105,111,112,107,110,107,108,110,109,110,105,109,110,111,108,114,113,109,115,120,123,118,123,119,119,114,111,110,107,105,107,107,107,106,111,110,109,109,107,108,107,107,108,110,107,108,110,107,108,105
109,109,108,110,111,107,104,111,112,106,104,107,107,104,105,106,110,110,108,108,107,110,107,108,109,113,112,109,115,121,119,116,120,117,116,108,107,109,106,105,106,107,106,108,114,110,107,108,108,108,108,105,105,105,105,106,110,108,111,109
108,108,106,107,110,106,103,111,111,108,107,106,110,107,109,107,107,107,108,109,111,112,108,108,108,113,114,112,118,125,120,118,123,119,113,108,110,110,105,105,108,112,107,108,111,109,108,108,108,109,108,106,106,109,108,105,109,106,109,112
105,107,107,108,108,107,106,108,108,109,109,106,109,107,109,105,106,107,110,108,106,109,110,109,110,112,116,120,121,129,127,127,128,118,114,112,114,110,106,106,106,109,107,107,108,109,110,109,107,109,108,107,107,111,111,107,109,106,105,109
108,107,108,107,106,112,105,107,109,109,106,105,107,106,108,109,106,106,110,110,109,108,108,111,111,110,118,118,116,122,125,124,123,119,113,109,110,110,110,112,106,107,106,107,107,104,105,107,108,110,109,108,110,107,109,106,108,105,108,111
107,110,110,108,110,113,106,109,110,107,105,107,109,107,109,109,104,110,113,108,109,109,107,113,109,106,113,116,122,124,124,123,125,123,114,112,110,108,107,108,106,108,105,104,107,106,109,108,108,106,109,108,109,106,108,108,108,109,106,108
107,110,108,107,107,105,107,110,106,107,108,108,110,108,108,110,105,109,112,109,107,109,107,108,109,111,114,116,124,124,126,125,122,120,111,112,110,111,108,105,106,106,106,107,111,111,112,106,109,111,111,107,109,110,108,108,107,108,108,108
108,108,110,109,109,108,106,109,109,111,110,107,110,109,108,107,105,107,108,110,106,108,109,108,113,117,118,120,124,124,127,129,124,119,117,112,108,109,110,112,111,107,106,105,109,106,108,107,105,111,107,106,109,109,110,110,107,106,108,108
107,106,110,110,109,107,105,108,110,109,110,108,108,107,106,106,109,110,106,107,109,109,110,111,113,111,115,121,125,129,125,126,125,119,117,112,109,110,109,111,108,107,108,108,108,105,108,105,104,112,107,104,109,108,105,105,108,107,105,107
110,106,111,106,106,110,109,112,110,107,109,108,107,104,106,107,109,110,109,109,111,108,108,112,111,113,122,122,124,130,123,124,126,120,118,113,108,110,108,110,106,107,109,109,110,108,108,104,105,109,107,106,110,110,109,106,109,112,108,107
112,109,111,106,108,108,106,106,110,107,110,107,107,110,107,106,109,111,110,108,109,107,104,108,110,116,125,129,126,131,131,129,128,123,118,113,109,112,106,108,105,107,106,111,112,110,108,107,105,105,108,107,109,108,108,109,109,108,109,110
110,111,111,106,104,106,109,105,105,107,111,105,105,110,109,106,110,107,110,109,108,111,109,110,115,124,133,140,143,148,141,135,131,124,115,111,109,111,107,107,107,108,106,107,110,109,105,108,106,107,113,108,107,108,106,109,109,106,107,107
106,111,109,106,107,108,108,107,104,106,108,106,109,110,109,109,110,106,109,109,110,115,114,111,117,125,138,150,159,167,156,142,135,125,115,111,108,112,110,108,107,108,109,106,109,110,104,107,111,106,109,110,108,105,107,108,109,106,108,111
106,108,107,105,108,108,108,112,110,111,107,104,107,107,107,110,110,109,110,112,113,108,111,112,113,119,138,155,166,180,176,155,135,119,114,113,109,108,108,109,108,106,109,108,109,111,108,104,107,106,107,109,109,106,109,106,108,108,110,111
110,109,106,106,109,106,107,111,112,110,112,109,107,107,109,107,109,108,104,106,111,114,117,114,115,119,129,144,156,169,169,157,140,125,116,112,111,108,110,109,107,106,108,109,108,110,110,109,106,109,112,109,107,104,105,107,106,110,112,108
107,108,110,110,106,105,106,106,109,105,112,114,108,107,107,105,110,109,107,106,108,113,115,109,113,120,122,133,138,138,143,142,135,121,115,111,114,109,107,108,108,109,107,107,109,107,106,111,108,105,107,109,107,107,106,109,106,107,109,107
108,107,109,111,108,107,114,108,110,104,106,111,108,108,108,108,110,107,109,109,111,111,109,108,111,119,125,130,131,130,132,130,125,116,114,113,114,111,107,107,109,109,111,108,110,110,107,109,112,107,106,109,108,107,107,107,109,109,107,106
108,106,103,107,110,106,109,111,109,106,106,110,110,108,106,109,110,104,108,112,115,115,112,111,111,114,120,123,131,133,132,128,126,119,113,109,109,111,110,109,108,107,109,109,109,113,109,105,108,107,108,109,106,107,106,105,106,108,109,107
107,105,104,105,107,106,107,111,108,105,108,108,109,111,106,108,109,106,107,108,110,114,111,111,114,114,118,122,126,128,126,126,123,118,113,110,108,105,107,111,107,107,105,106,108,108,108,107,106,107,108,108,108,113,107,105,106,103,104,105
108,105,108,109,106,107,108,108,108,108,112,106,106,107,108,109,109,109,108,107,105,109,109,111,112,114,114,119,126,128,127,125,120,119,112,106,109,106,107,111,106,107,108,105,109,108,107,110,110,109,109,109,107,110,110,109,108,101,107,107
107,107,109,108,107,106,106,109,113,111,113,110,108,104,111,108,108,109,110,108,110,109,108,112,111,114,117,122,125,130,128,122,121,122,116,109,108,106,108,109,108,107,108,107,111,113,111,105,109,111,109,108,107,109,110,111,109,105,112,109
110,108,110,108,109,109,108,106,104,107,109,108,111,106,108,106,105,105,110,107,109,110,107,110,114,117,120,122,121,124,125,123,121,115,111,108,108,110,110,109,111,108,106,107,108,109,111,103,106,110,109,107,106,107,106,109,109,106,106,106
111,105,105,106,107,110,110,104,109,109,107,107,108,108,108,109,105,105,110,110,110,110,109,113,113,116,121,125,124,119,122,124,122,112,110,110,108,110,107,110,111,106,109,109,110,107,107,105,107,110,109,107,109,110,107,106,108,108,108,105
109,107,108,108,104,108,108,107,115,110,107,106,106,109,105,110,111,108,106,108,109,109,109,111,112,114,119,125,130,125,121,114,119,118,111,109,109,109,108,107,107,108,108,107,108,106,107,107,111,109,108,110,112,110,109,106,108,111,109,107
107,108,107,109,106,112,109,107,107,106,109,111,107,109,109,108,105,108,110,108,109,111,109,112,114,113,116,125,132,127,121,117,117,114,110,110,110,109,108,106,105,109,108,109,108,104,108,108,110,110,110,109,108,106,106,106,110,109,107,108
108,108,105,107,107,111,103,106,106,105,105,108,106,105,112,111,106,108,113,106,105,109,112,112,112,114,118,120,125,126,123,118,113,110,109,108,107,108,109,110,106,111,110,107,108,109,108,106,108,109,108,107,111,110,108,107,108,108,110,109
107,106,109,107,109,109,103,104,108,107,106,106,107,108,111,112,109,111,111,106,104,107,111,110,108,112,116,115,123,124,122,119,114,115,109,106,108,106,109,111,105,107,111,110,106,108,106,105,106,107,107,106,107,110,108,108,109,106,108,107
106,107,108,104,109,108,109,110,107,107,110,108,107,109,108,109,106,110,110,109,108,111,110,109,109,113,115,111,119,121,117,117,114,114,107,104,106,104,107,109,106,106,107,108,107,106,106,106,108,109,107,104,108,108,108,109,107,109,107,106
107,108,110,106,106,107,110,109,109,107,113,106,106,107,107,109,110,110,111,110,110,110,109,110,109,109,113,111,118,114,112,114,113,112,108,106,108,110,107,106,106,107,107,108,107,105,109,109,107,109,108,106,106,107,110,109,105,109,109,108
107,109,111,110,107,106,109,108,108,107,113,109,106,108,109,108,112,111,109,110,109,109,110,109,109,110,111,109,114,112,113,112,109,111,111,110,111,109,108,109,109,109,109,110,108,104,109,109,107,109,113,110,104,108,111,109,109,108,108,107
107,109,108,107,113,104,105,108,107,106,110,113,105,106,109,106,110,108,102,105,110,107,108,106,106,108,107,105,109,113,110,108,109,112,109,107,109,107,109,109,109,110,108,110,109,105,108,108,106,109,110,109,105,107,108,106,112,108,106,109
105,106,104,104,111,106,106,108,107,110,110,112,109,108,110,106,111,108,104,107,109,109,112,109,108,105,108,107,105,108,110,110,110,110,110,105,103,105,107,105,105,108,106,108,109,107,109,108,107,111,111,111,105,105,110,107,107,107,107,108
109,110,107,108,110,108,107,106,106,110,110,107,110,109,110,104,108,108,107,108,108,110,111,111,110,105,109,111,106,106,108,111,111,108,108,108,109,110,111,106,105,109,108,110,110,106,109,111,106,109,107,109,107,105,111,111,106,106,108,106
109,110,108,109,107,104,105,108,108,105,106,107,106,106,109,108,108,107,106,105,107,108,108,107,105,108,108,108,108,110,111,110,107,106,106,107,110,108,108,110,109,106,109,107,103,104,107,111,107,106,103,107,111,109,108,109,105,106,109,107
110,109,107,106,107,109,106,109,112,109,107,108,107,106,108,109,110,109,108,109,109,109,109,110,103,111,110,105,106,108,108,106,105,104,107,110,108,107,105,108,113,107,107,106,106,109,110,108,110,108,105,106,109,110,107,105,108,107,109,106
110,110,106,106,108,111,108,107,109,109,109,109,107,105,109,106,108,108,106,108,107,108,110,110,105,108,109,108,110,107,105,105,107,105,105,109,109,110,107,106,109,105,107,108,108,106,106,109,107,108,108,111,106,108,109,104,108,108,107,108
108,108,105,108,107,108,105,105,107,106,106,106,105,107,111,107,110,114,113,108,106,105,108,105,106,111,110,110,111,108,107,108,110,109,103,105,108,112,107,107,106,106,107,107,108,104,107,109,104,109,107,108,103,107,110,106,108,109,105,105
106,107,109,110,110,107,104,107,110,111,108,107,109,107,108,111,108,104,110,110,111,108,111,107,109,113,110,109,109,111,110,108,105,106,105,106,109,108,106,108,106,108,110,110,110,107,109,110,110,111,104,105,109,110,109,107,107,108,102,105
104,108,109,108,111,108,105,110,114,113,110,107,111,110,107,108,111,107,109,108,104,105,108,107,108,108,106,106,104,109,108,111,105,105,108,109,111,110,107,107,106,110,110,106,107,107,110,109,109,111,108,109,108,108,109,110,106,107,106,108
110,111,111,108,108,108,109,109,111,106,107,107,110,111,109,108,110,109,108,111,104,106,107,107,108,106,106,107,105,107,108,109,105,106,109,108,108,108,106,108,109,109,110,104,106,108,109,109,105,106,108,106,107,110,107,112,108,107,109,108
107,108,109,109,107,109,110,107,110,105,109,109,108,108,104,104,106,105,106,112,111,112,110,109,109,109,108,108,107,112,108,105,108,108,107,107,107,107,108,107,105,104,111,107,108,110,109,110,110,110,109,107,107,110,109,110,108,110,109,107
105,107,109,109,109,108,110,108,107,108,108,109,108,108,104,103,108,107,106,110,109,107,106,109,109,109,108,106,102,109,110,107,107,106,106,107,107,107,110,111,109,106,109,111,108,105,102,110,108,107,104,111,108,108,109,105,105,107,104,106
107,108,108,106,111,108,107,108,107,108,107,109,109,107,106,107,107,108,106,107,108,106,106,110,108,108,108,108,106,106,110,108,106,108,105,106,111,107,107,110,111,108,107,107,107,107,107,109,109,108,105,108,106,107,109,104,107,109,104,105
103,107,109,107,108,108,106,108,108,107,108,111,107,107,110,110,109,111,112,109,106,109,109,112,108,110,110,109,112,107,109,109,106,111,111,110,110,106,104,105,111,108,108,108,107,111,111,109,108,108,107,107,108,110,110,107,108,110,107,106
105,111,108,108,110,107,107,107,107,106,107,112,108,108,110,110,106,109,110,107,105,107,107,107,108,106,107,108,111,106,106,107,105,107,107,110,109,105,105,105,107,105,104,104,106,110,111,110,108,109,110,108,107,108,108,109,108,109,109,108
106,111,107,102,110,108,107,106,107,104,107,112,109,107,108,107,106,108,106,107,107,110,111,106,111,110,107,107,105,105,110,109,106,108,107,109,110,108,107,109,107,105,110,109,107,109,106,107,107,106,110,105,104,106,105,105,109,108,106,105
106,107,107,106,108,109,111,105,107,109,107,107,110,106,109,109,106,105,105,109,108,110,112,107,107,109,109,108,106,105,112,110,106,105,109,108,110,108,105,109,109,109,112,110,108,111,107,105,104,104,109,110,109,108,108,107,109,107,106,104
107,107,109,110,109,109,107,103,107,111,108,107,109,106,108,109,109,107,106,109,108,108,109,108,104,106,110,107,104,107,107,105,108,104,109,107,109,107,105,107,109,108,107,107,108,108,108,105,107,108,108,105,108,105,109,111,108,110,109,104
103,104,111,108,108,109,108,110,109,108,108,110,107,103,105,110,110,106,105,110,109,106,109,113,107,105,112,110,106,110,111,106,109,107,107,107,110,109,108,108,109,110,106,105,106,105,108,107,109,110,105,106,111,104,108,109,107,109,108,104
109,107,110,108,109,112,109,108,106,107,110,109,108,107,106,108,110,107,107,111,108,107,108,109,109,105,109,108,109,106,106,107,107,109,108,110,107,106,108,110,107,109,107,107,108,104,105,108,107,107,105,107,109,107,106,105,107,108,110,107
109,108,109,103,109,112,107,105,108,109,109,108,107,108,110,109,104,108,108,110,107,108,108,107,108,108,110,108,109,109,109,105,101,111,106,107,105,108,108,109,109,107,105,108,108,106,105,106,106,106,108,108,105,107,106,105,108,106,107,108
109,109,110,106,109,109,109,106,108,107,108,109,106,106,110,111,103,106,106,108,108,110,109,106,106,109,105,105,107,106,107,108,108,113,106,109,108,108,105,108,111,111,110,108,107,108,110,107,108,108,107,107,110,111,111,109,107,105,107,108
104,108,110,105,105,106,109,106,106,106,110,109,108,110,110,109,105,107,111,107,108,109,109,106,104,109,106,106,107,107,109,111,107,109,109,109,108,107,103,104,109,110,111,106,103,105,104,109,108,107,108,105,106,108,109,110,108,108,110,109
103,109,110,107,106,108,107,107,107,107,110,109,106,107,109,108,107,108,111,104,107,109,110,109,107,107,108,108,106,108,110,109,107,110,108,105,109,110,107,107,109,109,109,108,106,108,106,111,107,105,107,105,108,108,108,108,110,107,108,110
109,108,110,112,108,108,109,107,108,108,105,108,107,103,106,108,108,106,107,107,108,109,112,112,108,106,107,111,105,105,109,109,106,107,111,107,107,109,106,109,106,106,109,111,107,110,109,108,106,107,109,105,107,105,109,107,109,109,104,108
108,107,108,110,108,105,106,108,110,107,105,111,108,106,108,110,105,105,108,108,106,106,108,110,108,108,108,108,107,111,108,107,107,108,111,108,106,107,105,106,107,109,109,109,106,109,107,108,108,107,110,109,105,104,109,109,108,111,106,110
104,106,109,108,108,109,107,107,108,106,110,111,107,110,107,110,109,111,109,106,106,109,105,107,107,106,107,106,108,111,107,104,106,109,106,107,109,109,106,106,107,108,109,108,107,107,105,108,112,109,110,110,105,107,108,108,106,107,107,110
104,104,105,108,109,109,108,105,105,105,108,111,107,107,107,110,109,106,109,109,108,109,104,106,106,105,107,108,109,108,110,109,108,109,103,105,109,110,110,109,108,106,108,110,108,106,104,105,111,108,108,110,107,108,107,109,106,106,109,108
108,109,110,108,105,104,106,106,106,107,107,111,109,108,111,110,106,107,107,107,108,105,103,106,107,105,102,106,107,104,109,112,107,109,110,106,106,107,107,110,110,105,107,105,104,106,106,106,107,105,105,105,107,108,105,107,109,108,109,107
110,107,108,107,106,107,108,109,107,104,105,109,109,106,107,107,108,108,106,107,109,106,106,108,108,110,106,107,107,104,104,107,107,108,108,104,105,106,104,106,109,109,110,107,107,109,107,108,111,108,108,108,108,107,107,109,113,111,109,108
108,107,106,106,107,107,106,109,109,102,103,108,108,106,107,108,109,109,110,108,106,104,106,111,108,112,108,109,106,108,109,108,110,111,109,106,111,110,108,108,109,108,110,112,111,109,107,109,113,110,110,108,108,108,106,107,107,112,109,109
108,111,109,106,105,108,105,106,111,108,105,108,108,107,108,108,104,108,113,110,106,105,105,108,108,107,105,107,105,113,110,107,107,110,110,110,108,108,111,110,108,106,108,107,107,108,107,108,108,108,108,104,107,110,107,107,103,107,107,107
109,111,110,107,103,105,107,106,109,109,109,109,110,108,104,106,107,108,107,111,109,107,108,109,109,106,106,106,104,112,113,108,106,105,106,109,107,108,110,105,110,106,105,107,109,109,107,107,106,110,110,110,108,110,109,109,105,108,109,106
