107,109,111,111,105,107,104,111,114,111,115,109,107,106,112,109,107,109,111,108,110,108,111,111,107,108,110,107,109,110,110,106,108,113,107,107,107,107,111,108,110,106,109,107,111,110,110,110,112,112,111,110,111,110,108,107,110,111,108,110
108,109,109,108,105,107,109,107,110,113,114,110,108,110,113,111,110,109,108,109,112,110,110,109,109,110,111,111,111,111,107,109,106,109,108,109,110,107,112,114,110,108,111,110,109,109,109,108,110,110,111,111,112,112,109,110,109,109,104,107
111,112,114,112,107,108,111,107,107,109,112,110,109,110,110,111,110,110,108,110,114,108,105,110,112,110,109,109,112,107,109,111,111,110,110,109,112,111,106,111,110,107,111,113,109,108,113,108,110,109,109,109,108,112,109,109,112,108,109,108
109,110,112,109,109,112,111,110,109,108,106,107,109,109,110,112,110,112,112,109,109,109,108,111,112,109,109,112,112,109,109,106,109,111,110,113,111,108,106,110,111,109,112,111,108,112,114,112,110,111,109,106,108,108,108,109,111,110,108,110
109,109,105,108,112,107,107,111,111,109,108,110,110,109,110,110,112,112,109,109,110,111,110,111,110,108,111,111,106,108,111,109,109,109,110,112,109,111,113,108,107,108,111,108,108,113,111,110,106,108,109,107,109,109,110,111,112,109,109,110
107,107,108,108,109,109,108,109,110,112,113,113,111,111,109,106,108,107,106,111,112,108,108,112,111,108,108,108,107,111,112,109,109,112,110,109,110,109,109,109,110,111,111,111,110,109,109,108,106,105,110,111,110,111,109,109,112,111,109,107
107,107,108,108,106,105,108,109,109,110,112,111,108,110,111,108,106,109,111,110,109,109,108,109,110,110,108,107,111,111,108,110,109,110,112,110,111,112,106,106,113,113,111,112,111,107,108,110,111,109,110,109,106,107,112,110,107,110,109,107
106,110,110,106,105,108,112,114,110,108,109,110,107,106,110,112,110,110,109,104,104,110,111,108,107,109,110,109,109,111,110,108,108,110,113,113,109,108,109,106,106,108,109,110,111,109,109,112,112,109,108,107,106,109,110,109,109,110,111,111
107,110,114,113,114,110,107,111,112,112,111,110,111,110,110,111,114,111,107,106,108,110,109,109,110,111,112,111,111,109,112,112,107,111,110,109,112,109,108,109,110,109,109,111,109,108,108,110,110,109,108,110,113,112,108,107,109,111,113,111
112,111,108,110,107,105,111,110,109,112,111,110,111,111,109,108,111,111,109,109,112,111,107,109,111,110,110,109,108,109,106,108,109,107,108,109,110,110,111,111,111,110,110,112,110,109,109,107,108,111,111,109,108,111,110,107,108,112,110,107
112,115,112,109,112,112,110,108,108,108,109,112,109,108,112,109,104,107,111,109,109,112,113,110,110,107,106,112,110,105,106,108,109,108,106,106,107,108,108,111,109,107,109,110,110,110,109,107,109,110,109,107,106,107,111,111,109,111,109,107
112,112,110,109,110,108,110,109,107,108,112,113,109,110,112,110,106,109,112,111,110,112,113,112,110,106,110,112,107,107,109,109,110,110,107,111,112,110,108,109,109,106,109,109,107,107,108,109,110,108,107,110,111,108,109,111,110,111,110,107
110,109,112,110,107,107,114,112,104,110,109,110,113,110,110,112,108,110,112,110,111,111,107,109,107,107,111,113,109,111,112,110,110,109,108,108,110,112,110,108,111,110,109,111,107,108,109,109,111,110,109,108,107,111,111,109,108,107,106,108
109,111,109,108,111,108,104,111,110,108,110,110,111,107,109,112,111,110,110,107,109,108,107,110,109,109,109,109,106,105,106,108,110,112,109,107,105,107,111,111,111,112,111,110,109,108,109,107,109,107,108,109,107,110,110,108,105,108,111,110
109,109,101,108,111,108,109,109,109,109,115,111,106,108,107,109,112,107,105,108,109,107,108,111,112,110,110,109,108,110,105,108,110,107,108,111,105,108,108,107,110,110,110,110,112,110,112,108,108,108,107,113,113,109,111,110,110,110,109,106
111,112,114,110,112,110,107,111,113,112,110,109,109,112,111,108,108,107,108,111,108,109,110,109,109,108,107,110,109,108,110,104,109,111,108,110,110,112,110,106,108,110,110,110,112,113,113,110,111,113,108,105,106,105,108,109,109,112,107,108
114,115,109,106,109,110,111,111,110,109,106,108,112,112,110,109,110,111,111,112,109,112,113,109,107,109,109,108,109,112,111,109,111,114,113,109,112,109,109,111,109,112,111,107,109,112,110,107,109,111,107,105,104,107,108,108,112,114,110,109
112,108,108,113,109,105,112,113,110,106,106,112,112,110,109,109,110,112,110,111,112,113,110,108,110,109,110,110,110,111,109,110,111,110,110,112,112,110,110,109,111,111,108,111,109,108,111,111,108,108,109,112,111,109,109,109,111,109,107,108
110,110,111,106,109,110,109,109,109,108,110,111,109,109,111,108,109,111,109,109,112,113,110,106,107,113,109,108,112,112,113,111,108,107,108,107,108,108,111,110,107,106,108,114,110,106,112,116,111,107,110,110,110,109,110,111,107,108,111,111
109,113,108,106,109,110,112,107,109,110,108,107,109,108,107,109,107,106,108,108,107,112,111,110,111,114,114,110,110,109,109,107,106,108,112,109,108,110,110,111,114,109,109,110,111,108,108,110,111,108,108,110,110,110,109,109,109,111,112,106
107,112,112,108,111,107,107,113,114,108,110,111,109,107,107,110,109,107,110,110,107,109,110,112,114,110,113,116,113,112,110,111,109,111,109,109,109,110,109,107,107,109,109,107,111,111,106,106,109,107,110,108,107,110,110,109,113,114,111,110
109,111,111,114,108,109,109,108,113,110,111,110,108,109,109,106,113,109,109,110,109,110,107,108,111,110,114,118,115,117,113,114,109,110,110,109,108,108,113,110,106,110,113,108,110,110,108,108,111,111,110,110,109,108,111,112,109,109,104,110
111,109,106,108,113,107,110,106,109,109,106,110,110,111,108,108,109,107,107,111,108,112,106,111,112,116,118,118,121,120,113,114,108,110,112,111,109,111,108,106,112,110,112,113,108,110,111,109,112,112,110,107,111,107,110,109,106,107,112,108
111,107,112,109,116,110,107,112,112,110,107,113,112,110,109,110,108,109,108,114,109,113,115,112,112,114,120,126,123,120,113,113,115,109,110,113,110,111,108,108,107,111,109,110,108,114,112,109,111,106,110,106,110,112,106,110,106,108,111,106
113,111,111,109,106,108,110,111,108,107,111,109,113,108,109,112,110,113,110,109,112,110,116,110,112,114,121,122,123,120,116,118,112,113,109,114,111,108,113,111,110,112,110,105,110,113,111,108,109,111,114,111,107,107,106,112,108,107,108,110
109,112,107,109,112,111,108,113,109,106,109,106,109,107,109,109,108,110,110,108,112,110,111,112,112,116,122,123,124,121,117,115,112,113,112,107,113,112,111,109,113,109,109,109,111,109,108,109,109,112,114,111,110,105,109,110,110,112,110,107
110,110,106,111,111,110,110,112,112,111,110,108,110,107,109,105,108,106,108,113,110,115,109,112,116,122,118,120,124,123,121,124,117,109,112,104,113,113,109,111,110,109,110,113,110,107,106,111,113,109,109,109,108,111,111,107,110,110,109,108
112,113,108,107,111,110,110,110,110,109,111,111,111,111,111,109,107,109,110,110,109,111,109,109,110,115,120,124,125,126,126,114,112,116,112,111,110,108,110,110,106,109,110,112,110,111,110,108,111,112,107,108,110,109,109,107,109,109,113,112
108,110,110,111,107,108,109,108,109,109,109,111,110,110,111,110,109,112,111,109,109,108,112,110,112,113,122,123,120,127,130,123,120,116,110,111,111,107,107,105,109,112,110,110,111,112,109,106,107,113,115,110,107,107,113,114,109,106,111,111
109,108,111,110,105,109,110,113,114,108,105,111,112,108,108,108,111,111,109,110,109,110,111,111,112,117,120,118,121,120,123,129,122,113,109,109,112,110,108,109,108,109,111,110,108,107,108,109,108,113,114,107,108,108,110,112,108,104,108,112
107,108,109,108,108,108,106,108,109,107,106,106,108,110,109,110,110,109,108,109,109,108,108,111,111,114,118,123,129,125,123,122,118,115,112,114,111,108,110,111,109,106,109,108,104,106,110,110,111,111,110,108,111,111,109,110,106,107,110,108
108,105,111,112,110,109,106,106,105,109,108,105,107,110,111,112,111,110,109,109,108,109,111,109,111,111,116,121,117,123,125,119,119,118,112,112,111,109,107,111,112,109,108,107,108,109,110,109,109,108,107,112,109,108,108,108,110,109,109,110
110,108,103,109,113,106,108,111,109,110,111,110,112,111,108,110,112,111,108,109,110,112,112,110,112,115,118,125,127,124,127,126,118,117,113,109,113,113,112,112,108,110,111,109,112,113,111,109,106,109,110,109,111,114,111,106,110,106,110,114
105,110,112,111,109,106,106,107,108,109,113,111,110,112,110,108,108,112,108,108,111,108,108,111,113,119,120,123,126,128,121,119,121,118,115,112,111,112,110,111,112,112,111,108,108,113,112,113,109,109,110,109,111,112,113,113,109,110,108,106
104,105,104,107,112,108,106,105,108,110,111,110,107,109,111,109,108,112,111,110,111,105,106,112,111,114,119,122,123,125,128,125,123,119,115,113,109,109,112,111,113,110,108,106,108,111,109,111,112,108,106,112,109,104,110,113,112,115,111,110
109,107,109,111,109,111,112,111,111,110,108,109,108,108,107,110,112,111,112,114,113,111,109,108,112,116,120,124,125,124,131,131,119,116,116,112,110,110,112,110,109,108,111,113,108,109,108,107,109,110,111,111,110,110,111,110,110,112,116,113
111,108,107,108,109,112,115,108,107,112,108,108,110,109,107,109,112,109,111,112,111,112,110,110,116,119,120,121,130,132,125,123,120,116,117,114,109,109,108,109,110,110,113,112,108,109,111,111,108,109,113,109,105,109,110,108,106,107,110,108
110,109,108,110,109,110,113,110,108,111,108,108,109,107,106,107,111,109,107,110,109,108,110,113,112,113,118,124,129,129,125,126,123,116,114,112,107,106,108,110,109,109,109,107,109,111,112,112,111,108,108,112,110,108,108,108,110,107,108,109
111,112,111,111,110,109,110,111,108,107,110,109,109,108,108,108,109,110,109,109,109,109,112,112,112,115,120,126,132,134,130,124,120,118,114,113,117,114,111,111,109,110,109,108,110,109,109,110,109,107,107,114,113,108,109,109,109,113,113,108
110,114,114,110,111,109,105,110,114,110,110,111,110,108,110,113,108,108,112,111,109,111,109,109,116,121,123,128,130,126,127,129,125,120,116,115,116,114,109,108,111,110,110,113,112,108,108,109,106,108,113,110,107,108,108,108,109,110,111,113
105,107,108,110,106,107,111,109,111,112,111,112,110,109,111,113,111,108,109,111,109,111,110,109,112,115,122,128,125,124,128,130,127,120,116,112,112,114,110,110,111,107,107,112,114,110,107,110,110,112,113,109,107,107,107,110,110,108,108,106
110,110,109,108,110,106,106,108,106,108,112,110,108,110,110,106,108,111,109,109,112,112,113,114,111,112,118,121,127,129,128,131,123,117,118,114,109,110,112,113,112,109,109,110,110,109,107,109,112,113,112,111,110,110,110,107,107,109,109,109
109,111,108,108,107,108,108,105,109,111,110,112,113,109,106,106,109,111,113,112,112,110,112,113,113,118,122,125,126,128,132,131,125,117,117,116,112,110,110,109,109,110,110,109,109,111,108,104,107,109,110,108,107,112,112,108,109,109,108,111
110,108,112,113,108,109,111,109,109,107,107,113,112,108,110,112,110,108,113,110,110,110,113,112,114,119,120,132,135,132,131,129,128,122,115,111,114,115,113,107,108,111,108,109,109,108,108,108,107,108,110,108,108,109,109,111,110,109,106,104
113,111,107,108,109,111,109,111,110,107,109,108,110,108,114,111,107,110,110,110,112,111,112,118,121,124,128,129,130,132,138,138,126,121,118,112,111,113,113,107,107,112,110,109,108,106,109,110,110,110,108,108,111,111,109,112,110,107,111,111
106,110,110,112,112,105,112,108,111,111,109,108,111,111,113,111,110,112,110,109,110,110,109,114,120,122,127,133,136,134,135,136,130,120,118,115,111,111,112,108,110,110,112,108,108,111,109,108,111,107,108,108,109,111,108,110,114,111,112,108
108,111,107,111,110,108,106,109,109,106,108,112,110,112,109,109,112,110,112,107,110,110,111,114,119,123,122,133,143,137,140,136,137,125,117,112,114,112,109,110,112,111,112,108,111,109,110,112,109,108,110,110,108,109,111,108,111,111,111,110
114,111,109,106,109,113,112,112,108,108,110,112,109,110,105,107,109,110,113,110,111,108,112,114,117,124,131,134,145,143,149,147,139,133,125,117,111,113,111,111,113,106,109,111,113,107,109,111,107,110,108,112,111,108,110,109,109,110,112,110
113,108,112,108,107,109,108,111,111,108,110,110,107,108,109,110,110,110,110,110,110,107,112,114,118,120,128,139,142,150,151,150,140,129,123,114,117,113,110,113,107,109,113,112,110,110,106,111,108,111,110,113,113,110,105,109,112,115,112,107
105,108,109,106,105,109,111,111,113,109,110,109,111,110,114,111,112,112,108,111,112,113,116,117,119,126,135,142,146,152,151,147,145,131,120,117,112,112,109,110,108,113,112,109,107,113,111,113,111,111,111,107,111,111,108,109,112,111,111,112
107,105,112,109,109,113,107,106,110,111,109,110,114,108,109,107,110,109,109,111,109,110,111,115,120,127,133,143,150,149,156,150,141,135,120,117,114,110,108,107,110,110,107,107,109,112,113,111,111,110,108,110,109,108,109,109,108,107,106,112
109,110,110,107,107,105,107,107,107,108,108,111,113,110,107,107,109,107,111,109,107,109,109,114,119,123,136,147,151,152,155,147,139,134,125,115,114,112,114,113,109,109,111,110,108,109,111,109,109,111,109,110,110,108,112,111,108,110,109,111
111,109,108,107,109,110,114,109,105,112,111,110,111,112,111,108,107,110,114,109,109,114,112,117,124,128,133,141,141,144,148,144,134,125,123,118,110,112,111,112,112,109,109,109,110,111,111,106,104,108,111,113,109,113,114,108,110,111,110,108
110,111,110,109,110,112,111,108,112,112,112,111,110,110,110,107,107,110,109,110,109,112,112,113,120,127,132,134,134,143,142,136,133,122,115,114,111,114,111,106,109,111,108,107,111,113,113,109,108,107,111,112,111,113,111,106,107,106,106,111
110,112,107,106,107,112,112,110,108,111,114,111,112,110,108,110,111,111,107,109,110,107,110,110,116,123,127,130,139,135,135,133,132,126,120,118,117,113,108,109,108,107,108,106,107,110,112,114,111,112,110,106,109,107,107,111,112,106,105,112
109,107,110,111,110,107,109,107,109,114,111,110,109,108,111,113,110,109,109,110,108,110,110,114,120,120,122,131,135,129,128,127,125,121,120,113,114,113,112,112,113,108,107,107,107,109,109,112,109,109,110,106,111,109,110,110,106,110,112,112
109,108,111,107,105,105,105,111,112,111,108,109,105,109,113,113,108,106,111,110,107,112,113,114,115,118,127,134,130,130,136,134,123,119,118,112,111,116,112,110,111,112,110,109,112,110,108,109,110,108,108,109,113,109,107,108,106,113,113,106
111,107,107,109,111,114,114,110,110,110,108,110,106,111,112,108,112,110,110,110,112,110,114,112,116,116,118,126,130,128,128,135,126,123,119,114,113,111,112,109,107,112,111,109,112,111,108,107,107,108,110,109,110,110,107,112,109,111,109,108
107,111,109,111,110,107,106,106,109,110,109,109,107,110,110,106,111,109,109,109,113,112,111,110,114,117,116,124,130,129,127,129,128,121,116,113,114,110,113,112,109,110,111,108,109,113,108,108,108,107,108,112,109,111,111,111,110,109,110,109
107,108,108,109,110,109,113,108,108,112,107,106,108,108,109,109,108,110,112,110,113,114,110,110,114,118,122,127,126,136,139,130,125,120,120,115,112,110,111,109,110,107,110,109,107,112,108,109,110,108,109,110,108,109,110,109,114,110,107,111
108,105,109,110,107,109,110,108,106,111,108,107,111,110,109,111,110,111,114,113,111,115,113,112,115,114,118,126,127,133,138,135,127,122,120,118,115,113,109,109,111,109,109,109,107,111,111,107,109,113,112,112,109,107,111,110,111,111,106,106
109,114,114,111,109,109,109,109,109,110,109,110,111,110,108,108,109,110,114,114,109,110,112,111,111,116,116,124,132,130,132,133,129,123,118,119,113,111,111,109,111,111,106,108,109,111,112,110,112,113,109,110,111,108,105,109,109,110,110,109
111,109,107,107,106,107,111,109,110,110,108,110,109,108,111,111,110,109,109,110,109,107,108,110,111,113,118,123,130,133,136,135,125,119,116,115,116,115,110,110,112,110,107,109,111,110,110,109,110,109,106,108,111,108,106,108,109,108,111,113
112,108,108,110,110,109,109,111,112,110,111,109,107,109,113,113,111,109,107,108,112,110,109,111,113,115,117,120,126,128,129,128,126,122,114,111,114,112,107,107,109,111,111,111,112,109,110,109,109,110,109,112,113,113,111,109,108,109,111,106
110,109,108,106,111,112,109,110,112,108,108,109,108,110,112,110,111,111,108,108,111,111,109,108,110,114,119,124,124,126,129,128,126,125,119,116,115,111,106,104,105,109,111,111,108,106,110,112,109,110,109,109,108,109,111,107,109,112,108,110
112,108,106,109,110,109,110,111,109,109,109,109,109,110,112,111,111,111,109,107,109,111,109,110,112,114,119,124,128,131,129,126,126,125,119,114,113,112,113,112,109,109,110,109,107,107,110,115,111,109,112,110,110,111,109,110,112,113,110,110
111,114,113,109,107,107,107,108,110,111,112,108,105,110,110,110,113,113,109,108,112,113,111,111,112,113,117,117,121,127,127,127,126,124,123,119,110,107,112,113,110,109,108,109,109,111,111,112,112,110,111,112,111,108,109,113,112,111,115,113
110,107,107,109,106,112,114,108,108,108,108,107,109,110,109,107,111,114,107,108,113,112,111,111,109,112,120,121,120,125,128,127,125,123,120,116,113,113,111,111,113,110,110,111,110,111,110,107,109,110,109,110,110,108,109,110,109,106,107,110
106,105,111,113,109,107,113,113,109,108,107,108,113,112,111,110,107,108,104,106,110,111,111,108,107,111,114,118,124,125,125,127,125,121,117,117,117,112,109,109,111,112,110,110,112,109,109,107,105,108,109,109,107,108,111,106,108,110,107,106
109,109,108,109,110,109,109,109,111,111,109,110,111,111,110,108,108,107,107,107,105,111,113,108,108,113,115,114,119,125,124,126,123,122,123,121,114,107,108,110,110,114,109,106,111,109,108,108,107,107,106,106,107,110,110,109,107,110,113,109
114,110,112,114,107,107,107,108,111,110,110,110,109,109,109,105,111,112,109,110,106,109,112,113,112,112,111,112,117,120,124,128,127,124,120,117,113,113,111,108,109,110,109,109,110,110,108,109,110,106,104,108,110,111,110,110,111,107,109,112
106,105,109,111,109,110,110,110,110,110,109,108,107,109,109,107,108,111,110,111,110,107,107,109,110,108,109,116,121,124,127,126,124,120,116,116,113,113,111,110,108,107,109,109,110,109,106,111,111,107,109,109,112,111,108,110,110,110,110,110
112,112,110,112,106,109,112,107,107,111,108,108,108,108,108,110,110,109,108,107,110,110,108,110,112,111,114,118,120,122,123,125,121,121,119,114,112,113,110,109,110,111,110,105,106,108,109,108,109,110,111,110,111,110,108,111,107,106,110,112
110,109,109,109,112,110,111,112,109,109,108,109,111,110,109,108,111,111,107,107,108,112,114,111,108,107,110,110,118,122,121,124,121,124,115,112,113,108,107,107,109,109,108,108,108,110,111,106,110,114,110,107,107,110,113,110,108,109,109,104
108,105,111,113,112,110,108,109,112,109,108,109,109,109,110,110,110,111,109,111,107,108,113,109,110,110,111,113,119,117,119,122,120,117,115,116,116,113,111,111,111,107,108,112,113,111,109,108,113,115,112,112,112,111,110,111,110,111,110,108
108,110,110,108,107,112,107,107,111,107,110,111,106,105,109,112,114,107,109,112,109,108,109,114,111,110,111,113,116,116,117,117,113,112,117,115,114,112,110,110,110,111,112,112,111,110,109,109,109,111,112,111,109,108,107,108,109,109,111,110
105,112,110,110,113,108,111,112,110,109,108,110,108,109,110,109,112,110,109,110,112,112,106,109,112,112,111,111,113,114,115,112,113,115,112,110,110,110,111,111,108,107,112,110,108,109,109,111,112,109,109,108,108,108,107,111,112,108,108,110
113,111,106,107,113,112,110,108,106,108,107,110,110,110,108,108,108,110,109,112,115,112,108,106,108,107,111,114,110,112,117,113,109,112,112,108,111,111,110,111,109,106,109,109,109,109,106,111,112,110,109,109,111,111,108,110,111,109,106,108
104,114,113,111,109,106,109,107,108,109,113,111,111,110,109,107,107,106,112,109,112,110,108,115,108,106,105,103,112,115,107,113,109,111,112,113,107,109,110,109,109,110,108,108,111,112,105,107,110,110,109,112,110,108,115,111,107,110,110,111
111,109,107,108,108,110,109,110,109,114,111,107,110,113,110,108,108,110,113,104,106,109,110,108,108,107,111,112,110,110,109,108,112,112,107,110,112,111,110,112,106,110,109,108,109,112,110,109,113,109,108,109,112,108,109,111,113,109,110,114
108,107,108,106,105,110,108,114,109,111,106,108,110,112,107,111,108,109,107,108,108,104,108,103,108,109,112,111,108,110,109,110,112,110,106,109,111,113,106,110,105,107,109,110,105,108,111,111,109,107,110,113,109,110,104,107,112,108,102,106
109,108,108,105,112,110,110,107,107,107,108,112,110,108,110,113,108,106,106,114,109,106,105,111,110,111,106,110,109,109,108,112,112,106,106,112,107,109,109,108,110,106,108,110,106,110,108,112,107,110,113,112,109,109,107,107,109,106,110,109
109,113,112,109,106,108,109,105,109,107,108,114,112,108,109,111,109,110,108,115,111,111,111,112,109,103,111,107,101,108,111,109,109,108,107,110,111,106,108,106,110,110,109,108,113,112,108,108,109,114,109,108,111,107,110,107,108,110,107,112
110,110,108,115,110,111,107,108,113,108,110,113,110,108,107,108,110,112,111,110,111,108,111,114,108,105,112,107,114,113,108,108,103,110,112,111,107,107,107,108,108,111,109,109,113,109,110,107,109,112,107,112,110,108,107,108,108,110,110,107
109,106,110,110,109,109,109,111,111,108,112,111,109,107,109,111,111,110,107,105,107,108,112,110,109,110,114,109,110,107,108,110,105,107,110,109,110,108,110,112,110,111,110,111,110,108,111,109,108,113,108,110,108,107,111,110,109,111,111,110
109,110,112,111,110,107,107,113,111,108,111,110,111,108,109,111,110,107,105,108,109,111,109,106,111,112,109,109,103,107,110,107,110,108,107,107,109,109,109,108,110,111,109,111,109,107,109,110,109,111,112,108,110,110,110,111,109,109,113,112
114,113,108,110,110,109,110,109,107,108,111,111,110,110,109,109,110,110,111,110,111,112,112,109,109,112,112,108,110,111,111,111,110,110,110,112,107,109,110,110,112,107,105,111,110,106,108,109,107,110,112,105,108,110,108,111,108,108,112,110
109,112,112,109,111,113,108,106,107,110,110,111,111,110,107,107,111,112,108,107,110,112,111,110,113,111,108,113,113,109,109,111,112,109,111,112,106,105,106,110,109,107,110,112,111,110,108,109,112,110,110,112,108,109,110,108,108,110,107,106
109,108,108,109,109,106,109,109,106,110,110,111,109,110,110,109,110,109,107,108,111,109,107,109,109,107,110,112,113,113,108,107,109,108,110,112,111,109,110,109,107,110,113,109,110,113,110,111,113,110,111,109,107,108,111,110,108,109,111,107
111,113,111,112,110,109,108,108,109,109,110,108,107,109,111,111,109,110,110,109,108,108,110,106,108,112,108,108,109,109,112,110,109,109,107,108,112,110,109,109,111,113,110,108,108,110,110,108,109,113,114,109,111,113,111,110,108,108,111,112
109,110,113,107,105,110,107,107,112,109,107,107,110,109,107,109,109,109,108,105,107,111,111,108,108,112,111,109,107,109,109,109,110,110,109,111,113,108,106,109,110,110,110,112,110,111,111,107,109,112,113,111,108,108,109,105,107,112,110,110
105,104,107,107,109,112,111,109,109,108,109,109,109,109,107,109,109,106,109,110,112,111,110,111,107,104,107,112,112,108,112,110,107,109,110,110,108,106,109,114,107,102,107,110,109,111,111,110,110,110,108,108,111,106,105,106,108,113,112,109
108,111,109,114,111,107,109,109,108,107,110,109,106,108,111,109,109,110,111,111,111,110,109,110,108,106,112,110,107,107,108,110,108,105,109,110,110,109,109,110,108,107,108,108,108,109,111,113,111,108,109,109,110,108,107,112,113,106,108,110
109,110,110,108,108,109,108,110,111,108,107,109,112,110,107,109,111,112,109,107,109,110,108,108,110,109,109,111,107,109,110,109,108,107,109,110,109,109,107,105,109,114,112,109,109,111,110,109,108,110,116,113,106,108,110,109,112,111,107,111
110,109,111,110,109,107,108,111,111,111,110,109,113,112,106,108,111,111,108,107,110,108,108,108,105,109,109,108,110,109,113,115,111,108,110,113,111,107,107,109,109,109,108,109,112,111,109,109,109,111,113,113,108,109,110,106,109,112,110,107
114,114,109,106,107,108,109,111,108,107,111,110,108,109,110,110,109,111,110,108,108,112,109,105,109,111,111,111,110,108,108,111,112,109,111,111,108,110,110,109,108,107,107,107,109,110,111,109,109,110,107,109,114,112,109,109,110,107,109,111
112,110,106,107,109,111,111,109,108,107,109,111,110,109,108,110,111,110,112,110,108,112,111,106,106,108,110,108,107,109,109,108,111,111,109,112,112,109,107,106,109,110,108,107,107,108,108,107,107,109,107,108,113,110,109,111,109,109,112,109
107,109,109,110,111,111,111,110,109,108,109,111,110,109,109,109,109,111,111,110,110,109,109,112,111,106,107,111,110,109,112,113,112,109,106,111,113,109,107,107,110,110,108,111,113,110,109,112,111,106,108,111,114,112,110,110,109,112,116,112
105,105,108,107,109,111,109,111,111,109,109,111,108,109,113,111,108,111,107,107,110,108,110,113,112,108,105,109,112,110,106,107,109,111,110,110,110,112,109,110,110,106,107,111,114,110,107,110,111,111,115,111,106,109,111,111,110,109,108,109
114,109,108,111,112,108,108,107,109,112,110,109,108,110,111,111,111,111,107,108,109,108,110,111,105,109,114,107,106,111,109,106,107,108,110,110,112,113,109,108,109,109,107,108,110,109,106,108,110,111,111,110,105,105,111,108,106,111,110,109
