53,59,65
108,108,111,109,111,110,108,107,109,108,113,113,106,107,110,113,108,113,110,111,114,113,109,109,108,109,108,107,106,110,109,107,108,112,107,108,109,110,111,107,110,106,107,112,108,108,110,111,109,108,107,111,104,109,110,113,112,112,111,105
116,109,103,105,108,110,107,107,109,107,105,112,110,109,107,109,107,107,111,110,106,108,110,110,107,110,107,108,107,107,109,112,108,113,107,110,110,112,112,106,111,105,111,109,105,107,104,107,108,111,108,110,109,108,111,109,109,106,112,109
109,109,107,108,109,110,111,111,106,108,106,108,110,110,113,108,106,105,108,114,110,108,111,110,110,116,110,110,106,107,107,109,107,110,110,109,106,111,114,106,113,108,106,109,111,113,110,110,106,112,109,112,111,108,110,112,115,108,117,111
107,111,110,110,109,107,112,110,106,107,108,109,104,107,109,107,105,108,106,107,116,110,111,111,109,109,106,110,109,111,110,110,109,111,108,108,106,104,110,108,108,111,107,111,110,111,108,107,109,111,108,108,111,113,103,109,111,110,107,107
108,111,104,109,110,106,102,108,109,111,110,110,106,113,110,111,110,110,110,107,109,110,110,108,110,111,107,112,112,110,110,112,107,106,110,114,112,109,110,111,109,112,109,110,114,112,111,111,109,109,108,108,110,115,112,108,107,107,112,107
109,109,109,109,108,109,109,111,108,107,107,108,111,112,111,112,108,108,109,107,108,109,110,109,110,112,107,108,109,112,109,111,111,110,111,111,107,108,112,111,107,110,111,108,109,110,113,109,107,109,111,110,109,108,110,110,113,107,110,110
110,106,108,109,109,109,112,113,112,107,109,113,110,110,111,113,110,109,110,108,110,108,109,109,108,113,108,114,113,111,105,109,114,114,109,113,106,109,112,108,107,110,108,110,110,105,110,107,108,110,115,114,109,111,108,109,108,110,108,110
112,110,110,108,109,109,114,110,111,105,105,112,111,112,108,107,105,108,114,110,109,109,113,107,108,110,107,111,107,111,114,112,111,109,109,112,112,112,111,110,108,106,107,108,108,111,111,106,108,108,110,110,106,111,109,107,107,113,113,109
110,105,112,113,109,109,110,109,110,108,110,112,110,111,109,106,106,107,109,108,111,110,110,108,108,112,111,113,109,109,110,107,109,107,106,110,110,108,107,108,108,109,111,109,108,114,112,106,110,108,107,110,109,106,109,109,109,109,111,108
109,106,110,107,109,110,107,109,109,109,108,111,110,110,109,110,111,112,112,112,115,113,109,109,108,110,109,113,110,106,109,107,107,110,108,110,109,108,107,107,108,111,114,111,107,109,113,104,108,109,108,111,112,109,109,110,113,111,108,103
110,104,110,111,110,112,109,107,113,111,111,110,109,106,107,109,109,107,109,107,110,109,112,109,106,108,106,105,109,110,112,111,107,107,110,109,111,113,107,107,110,110,109,108,111,106,113,110,108,108,108,108,110,106,105,108,112,108,108,110
108,109,111,109,109,110,112,105,108,107,108,105,111,112,113,112,109,111,108,108,107,108,110,110,107,110,106,108,112,110,109,110,111,110,112,113,109,112,111,110,110,109,106,110,112,104,110,107,108,110,114,111,114,110,105,105,113,107,112,113
114,111,105,105,109,107,108,110,112,111,108,110,109,111,108,111,111,112,107,113,108,108,108,111,109,113,112,113,107,106,110,110,107,108,110,112,109,110,113,113,109,110,108,107,108,110,112,108,108,106,112,110,111,111,111,109,113,109,109,108
110,111,109,110,111,108,105,109,111,110,112,114,113,108,110,109,110,110,107,108,107,107,106,111,108,109,112,110,107,109,109,109,109,110,106,110,109,114,112,109,110,112,110,108,114,105,108,107,111,113,111,104,107,111,114,106,106,110,110,107
106,110,110,110,108,109,113,115,109,109,109,106,107,110,114,104,108,110,109,104,108,110,108,108,109,106,109,111,109,109,107,108,108,106,108,116,110,109,107,108,109,109,112,110,111,110,112,109,110,110,110,110,112,111,110,111,109,107,112,110
109,111,114,111,111,112,112,108,108,110,108,106,108,108,108,108,112,108,112,109,110,107,105,102,108,110,108,111,113,110,114,113,110,109,107,109,111,109,109,110,110,108,110,108,104,105,112,113,109,109,108,108,113,113,108,108,111,108,113,109
112,109,114,113,110,108,109,106,111,107,110,108,110,108,108,109,111,104,108,110,108,109,111,110,109,111,108,110,112,109,108,110,110,110,109,108,111,112,110,110,109,109,111,111,113,106,108,111,106,106,109,107,108,110,111,113,116,109,109,105
108,104,108,111,110,110,107,108,113,109,111,111,112,113,110,113,110,106,105,109,110,113,113,109,105,107,112,113,108,116,109,104,109,111,109,107,107,109,110,113,110,109,111,110,111,108,105,110,112,102,109,109,110,110,106,107,111,112,111,111
110,113,110,110,112,114,110,110,114,111,109,111,108,112,109,110,110,112,110,108,109,110,110,105,107,110,109,109,108,110,108,112,111,110,112,110,107,109,109,113,110,112,112,111,105,107,115,108,116,110,108,110,111,109,109,111,107,110,108,113
111,112,108,103,109,112,112,106,106,106,112,114,110,109,108,107,109,104,109,111,107,105,108,111,113,110,109,110,107,115,110,111,109,110,111,110,113,109,108,114,104,109,109,115,112,105,108,104,111,107,111,109,106,105,110,112,111,110,110,112
109,109,108,107,109,107,111,112,110,108,111,111,116,112,111,112,112,109,111,108,107,115,113,111,111,111,112,109,106,109,107,109,107,108,111,109,113,114,111,108,107,112,105,113,115,111,112,108,113,108,111,111,110,103,105,108,110,109,109,109
109,111,110,115,114,107,107,106,106,108,109,109,109,109,108,108,110,113,110,112,109,112,111,109,109,106,111,111,110,109,110,109,110,110,108,106,105,109,114,108,108,110,107,109,109,113,111,108,110,106,110,109,110,108,109,113,108,111,109,107
109,109,108,112,111,112,110,109,107,113,113,111,108,108,108,109,107,107,108,111,109,113,109,111,112,107,111,110,112,112,111,108,109,105,108,107,113,109,108,109,109,111,108,105,103,109,112,111,110,110,111,107,115,115,109,108,105,107,111,110
108,108,109,108,106,108,107,115,112,107,113,112,107,109,108,112,110,113,113,113,109,110,109,117,109,108,111,106,106,110,113,113,106,106,112,107,108,112,108,113,108,109,114,111,109,108,110,104,107,109,112,112,111,111,111,110,113,108,111,106
107,110,114,112,111,111,108,109,112,106,108,113,110,108,108,113,112,112,105,109,110,112,105,111,110,111,109,109,111,111,107,112,106,107,107,112,109,114,109,110,113,111,109,111,109,104,108,108,112,114,112,109,105,110,111,111,114,109,109,103
110,107,112,109,108,109,111,107,110,111,111,112,108,108,107,110,107,110,112,112,110,111,110,108,108,106,104,108,107,109,110,107,107,111,105,108,108,109,108,106,110,110,109,111,111,110,109,108,109,107,110,109,109,112,108,107,111,107,110,109
107,108,112,110,110,110,117,109,110,108,109,111,109,113,112,114,113,111,111,110,109,109,111,107,108,107,109,106,110,110,110,109,110,113,111,111,112,115,109,108,112,112,111,111,109,111,107,111,108,105,112,105,108,109,107,108,108,111,108,115
107,111,108,110,111,110,111,113,114,105,104,109,105,109,111,109,110,107,113,110,109,111,107,107,110,106,108,109,112,113,110,109,113,111,104,110,104,107,111,110,108,107,107,110,109,111,107,109,111,110,110,108,105,104,108,116,109,111,106,110
107,113,109,113,106,108,107,111,110,110,109,110,107,108,109,110,112,104,112,111,110,111,106,111,112,110,112,110,107,106,107,106,109,111,113,113,106,109,111,112,110,112,109,106,104,109,112,110,107,106,106,110,113,116,109,109,110,109,110,107
104,108,111,110,110,112,109,109,104,109,110,114,110,108,109,110,109,108,114,109,106,109,104,108,109,110,109,105,113,111,109,106,111,108,109,109,108,111,113,108,110,111,106,110,106,109,111,109,113,111,111,108,105,105,111,112,108,109,111,108
112,108,111,113,115,109,110,110,106,108,110,111,110,105,105,106,112,105,110,114,111,108,109,110,112,107,113,109,114,110,111,111,113,104,110,110,113,108,115,107,108,111,109,109,106,104,113,110,110,107,109,111,105,107,114,115,107,114,117,111
108,107,107,104,109,108,111,108,110,111,112,109,109,106,110,113,115,109,106,109,110,109,111,108,112,107,110,110,110,110,110,108,112,114,108,105,109,107,109,110,116,111,110,109,114,108,109,110,108,111,109,108,105,109,104,109,108,108,111,111
108,107,114,107,110,110,111,109,109,108,107,111,111,110,114,107,108,113,112,113,112,109,111,107,114,106,109,114,106,113,112,109,108,113,109,113,110,111,112,110,108,109,111,106,111,109,109,111,109,112,107,106,110,108,105,111,109,107,106,109
110,107,111,111,114,110,111,119,109,110,112,111,109,110,110,107,107,110,111,115,109,106,107,107,108,108,113,109,110,110,114,112,109,108,109,111,111,111,103,108,108,106,109,111,108,110,112,108,109,111,111,109,108,106,111,110,110,111,110,111
109,109,112,112,110,107,107,114,110,110,115,112,110,108,106,107,107,110,107,115,108,108,109,112,112,107,109,109,114,105,112,111,112,112,106,103,108,110,107,113,112,106,108,111,111,109,108,108,111,108,108,109,107,105,111,112,109,110,113,110
109,109,107,110,112,109,108,108,110,110,110,111,108,109,108,110,106,115,105,108,115,112,108,109,109,111,112,111,113,107,108,110,109,110,109,113,112,114,111,108,114,111,109,106,111,110,112,114,114,108,106,107,110,113,113,110,112,108,110,113
107,110,109,107,107,108,110,110,106,108,107,110,109,111,110,109,106,110,104,108,111,108,110,110,109,113,110,110,110,110,113,111,108,108,110,110,110,110,111,106,109,109,111,108,109,112,109,109,113,111,110,106,111,111,111,108,108,110,112,114
112,113,110,109,113,113,111,112,113,112,108,106,109,105,115,108,112,111,108,105,106,108,111,112,109,114,110,112,106,108,107,109,112,108,108,105,111,109,108,114,110,109,111,110,107,110,108,108,112,114,113,113,113,109,107,110,108,111,106,107
110,110,109,111,113,110,111,113,106,108,108,108,114,108,112,106,107,110,110,110,108,110,106,110,108,110,109,111,103,111,112,109,110,110,114,109,108,112,108,108,111,111,112,107,104,110,110,108,108,106,108,107,108,114,111,110,109,109,108,110
113,109,107,108,109,108,108,107,105,112,110,113,111,111,114,112,106,111,112,113,110,109,110,113,109,108,109,112,111,111,114,109,110,108,108,108,110,111,112,108,111,110,111,109,108,110,113,109,112,110,110,107,108,109,110,107,111,108,110,111
113,112,108,108,108,110,106,109,109,109,106,110,109,108,108,112,110,110,109,107,109,111,111,111,110,110,111,107,107,103,109,113,110,110,112,108,114,106,110,113,110,107,106,108,111,109,109,109,115,110,111,109,111,111,113,106,109,108,111,109
108,111,107,114,109,109,109,115,109,108,109,110,109,110,107,110,113,110,107,106,109,112,109,111,107,108,108,105,109,111,110,112,109,104,109,106,111,109,111,109,103,107,110,102,106,112,108,108,111,109,113,110,115,114,111,107,108,110,107,112
108,109,108,110,110,106,109,109,106,111,115,112,111,112,111,114,113,113,108,111,111,110,109,114,111,108,110,109,110,113,111,110,111,109,111,108,109,108,114,108,105,106,112,107,110,111,109,107,111,113,110,105,109,108,106,110,107,110,107,113
106,107,114,113,113,107,109,102,109,107,111,110,113,111,109,109,107,113,112,112,110,113,108,112,112,108,110,110,110,110,112,115,110,102,105,110,113,109,111,112,114,108,113,108,109,113,112,111,106,109,110,108,113,106,104,106,109,114,113,107
109,113,109,111,108,105,110,105,109,107,110,105,108,110,111,108,108,108,106,109,111,110,109,113,109,108,111,110,111,112,113,112,109,114,110,104,109,108,108,110,110,110,110,108,106,109,107,111,108,105,108,111,112,111,112,110,115,112,112,113
107,110,105,109,109,112,110,109,111,113,111,112,109,108,110,108,109,105,105,112,114,111,110,109,110,110,112,108,107,112,111,111,114,112,109,108,109,106,107,107,105,107,107,107,111,110,110,111,110,110,110,112,109,106,109,111,108,107,109,107
115,110,106,110,107,110,108,112,109,107,107,108,109,107,110,109,113,109,112,110,107,109,113,105,111,112,117,116,116,113,116,115,117,114,114,111,111,115,111,107,108,110,110,111,108,109,112,111,111,115,110,110,111,110,108,109,107,108,107,111
112,110,112,117,111,107,110,110,108,109,111,114,112,105,105,106,111,108,107,107,105,110,115,110,113,115,116,114,120,118,119,117,112,116,116,112,113,109,110,110,109,113,112,113,112,110,108,109,104,107,107,107,107,110,111,110,109,107,107,115
108,113,109,110,106,104,114,112,109,109,108,108,114,110,112,112,106,110,108,111,104,107,109,108,111,116,117,125,129,126,122,130,122,116,116,112,110,108,112,113,110,108,108,106,110,110,110,111,108,110,106,114,112,109,109,105,112,112,106,110
106,113,111,113,112,105,112,111,111,108,110,110,112,108,111,111,110,111,110,112,111,110,110,116,120,120,122,132,132,132,133,134,129,124,115,109,110,110,113,110,109,108,108,106,107,109,107,109,105,111,108,106,111,113,112,105,111,114,110,109
109,108,110,106,105,108,111,108,112,110,109,105,111,112,107,104,109,106,105,108,107,108,108,114,116,120,129,132,137,136,135,130,127,127,122,119,113,108,110,106,110,112,108,106,107,111,110,111,111,112,110,109,108,112,108,108,105,111,115,110
111,109,111,114,111,112,110,112,108,107,113,112,112,107,112,110,107,113,113,111,112,112,113,112,121,127,131,134,140,141,139,137,131,123,117,116,113,109,111,112,110,110,109,108,109,113,107,109,108,109,108,108,104,113,109,116,107,113,112,108
110,110,111,110,110,108,108,111,112,106,109,108,107,108,115,109,110,113,110,108,115,110,113,115,119,127,127,130,137,139,139,135,132,124,119,118,115,109,107,112,109,111,110,110,111,109,105,107,106,115,112,110,106,110,108,104,106,106,107,108
112,108,112,112,107,105,109,109,111,104,107,107,111,108,112,109,111,109,107,108,113,107,112,116,116,125,132,137,143,140,138,141,135,126,121,119,114,108,108,109,106,109,107,112,109,110,109,111,105,108,101,108,111,108,111,111,109,110,112,110
109,108,107,107,111,112,111,111,112,109,108,109,108,108,111,108,108,107,112,108,109,109,111,114,122,126,127,136,139,141,136,136,130,126,123,114,114,111,110,110,111,110,110,110,108,110,110,111,107,112,109,111,108,106,106,109,106,109,111,108
109,111,111,111,110,110,113,114,107,111,112,115,112,111,107,110,113,111,114,110,111,109,109,115,122,128,134,137,146,142,137,147,132,125,121,114,114,113,107,113,113,108,113,106,112,115,110,108,109,112,109,110,106,112,109,112,108,110,109,101
111,111,106,110,108,107,106,110,109,113,111,108,109,111,108,111,109,109,111,105,109,114,110,109,117,121,131,134,148,145,137,136,126,123,117,111,113,118,110,111,115,111,113,110,108,108,110,111,108,111,108,110,109,109,108,109,109,104,111,112
111,110,108,109,109,111,115,116,111,104,109,106,111,106,111,114,111,108,114,107,104,108,109,115,117,123,129,137,139,141,139,139,126,123,118,117,111,107,111,108,105,109,109,110,113,111,112,110,109,111,107,109,109,108,113,112,115,109,107,106
108,105,109,110,107,107,109,109,113,107,109,107,112,108,110,108,111,107,108,112,113,114,108,118,118,127,131,143,144,142,136,139,131,128,117,113,111,109,109,107,108,112,111,108,110,111,114,111,110,111,107,109,111,109,108,109,107,110,107,108
113,110,109,109,112,109,108,106,113,110,109,114,112,109,106,109,112,112,110,112,105,111,112,118,118,120,127,136,140,148,144,137,130,125,121,117,115,112,111,109,113,108,110,111,106,110,112,107,107,111,108,105,109,110,109,111,112,113,107,112
111,107,109,111,112,111,110,112,109,113,111,107,108,110,107,109,112,115,109,113,113,111,110,113,114,119,130,134,136,143,144,141,135,123,119,116,114,114,113,104,107,111,112,111,111,111,107,107,110,110,111,112,111,105,108,113,107,110,113,115
108,111,108,109,110,113,107,113,107,108,112,108,109,110,110,105,108,108,106,109,112,111,111,115,116,123,128,131,137,141,142,141,139,127,121,112,110,111,110,107,109,113,108,105,109,110,108,110,110,110,108,108,108,111,109,113,108,109,108,111
107,111,109,108,110,112,110,111,111,105,108,109,112,112,111,109,110,110,109,113,114,114,109,116,118,124,126,133,138,137,139,133,129,121,119,116,112,111,109,113,109,110,111,110,108,114,111,107,108,111,107,108,105,115,108,109,110,112,110,107
111,112,111,104,108,110,115,114,111,108,104,110,108,108,111,110,109,108,110,108,112,113,111,117,113,121,125,127,132,134,141,138,133,129,121,115,111,110,109,111,108,109,112,108,106,112,111,107,108,110,109,110,109,107,110,107,109,110,114,107
104,108,114,112,109,108,112,114,110,114,110,110,108,111,116,108,110,111,112,107,110,107,108,116,117,120,130,131,135,135,141,135,129,125,119,113,113,111,111,112,110,109,110,110,112,111,109,108,113,108,107,106,112,108,110,110,110,104,104,110
114,107,108,111,109,110,110,108,107,107,109,110,110,107,108,108,111,115,114,111,110,109,111,113,117,119,126,127,130,146,148,141,133,131,120,112,114,113,111,112,109,104,110,107,109,106,108,111,114,111,111,107,114,111,105,108,108,112,108,113
106,107,112,111,108,108,112,111,107,110,108,107,113,110,110,110,106,109,112,111,110,111,111,116,120,119,130,141,147,146,148,141,131,120,116,112,108,111,116,112,117,110,108,105,107,109,111,110,109,110,110,109,106,112,110,104,106,109,108,109
107,108,112,112,109,109,107,107,109,114,109,108,110,111,111,111,110,108,109,111,109,108,113,119,122,125,138,139,143,142,140,134,130,122,119,115,112,110,111,107,112,111,107,110,111,113,112,112,107,108,111,115,112,111,113,109,111,110,110,109
110,107,107,112,109,107,109,109,111,112,108,114,109,110,109,109,112,111,105,108,110,109,113,123,119,120,129,133,140,139,142,134,120,114,116,112,109,112,114,107,107,111,109,109,109,107,107,108,111,107,108,110,106,107,108,112,108,113,113,112
108,109,104,109,112,113,113,110,108,108,104,110,107,107,111,108,106,109,110,111,107,109,106,115,118,121,125,130,132,134,130,125,121,118,111,110,113,115,112,115,109,106,110,106,110,109,109,109,114,108,110,114,106,112,107,107,109,106,102,106
113,114,111,113,109,113,110,108,108,110,110,106,104,103,110,110,107,109,114,112,110,108,111,113,115,115,125,120,125,126,120,118,117,117,111,114,112,112,110,109,106,109,109,108,108,112,112,114,112,109,109,109,108,114,106,106,111,105,112,111
111,108,112,107,108,113,113,106,110,111,110,109,110,110,111,108,111,111,115,111,110,110,118,115,113,119,119,114,126,114,117,112,109,111,114,112,108,109,106,116,108,111,110,113,105,110,108,110,105,103,106,107,107,108,108,108,111,113,109,107
106,105,114,110,108,110,111,109,107,109,111,115,112,109,113,109,108,106,111,110,108,112,109,110,108,113,115,117,118,109,117,112,119,108,112,112,109,109,106,111,112,113,110,114,111,111,108,106,112,113,111,112,114,112,107,109,106,111,108,107
113,113,109,109,106,109,109,116,110,107,107,109,109,110,108,111,109,108,110,113,112,114,109,111,111,110,113,108,110,107,112,109,111,110,112,108,111,112,113,109,112,107,108,105,108,108,112,112,112,111,108,108,110,111,109,111,108,109,106,110
106,109,111,111,110,112,112,108,107,110,110,112,111,113,108,110,109,112,109,114,112,114,112,107,107,110,111,111,114,113,108,112,111,111,110,109,108,108,110,109,109,110,110,110,108,107,110,110,109,110,107,109,111,111,107,107,113,113,112,111
108,107,110,109,107,108,109,110,106,107,105,110,109,113,110,113,109,114,107,105,112,110,114,111,112,109,104,112,114,115,107,110,109,109,114,114,110,106,107,110,106,107,109,114,109,109,106,112,112,114,111,108,107,110,108,111,111,111,111,108
112,109,104,109,107,113,110,116,107,111,108,107,111,111,108,111,106,116,117,112,112,113,113,111,111,110,108,109,116,113,110,113,112,108,110,110,112,111,113,110,106,111,110,111,107,108,107,114,113,108,111,108,107,113,104,108,105,107,107,111
110,113,108,107,109,114,112,110,108,111,109,106,108,112,108,108,109,109,106,110,109,110,108,104,110,111,111,109,113,111,112,110,111,114,111,112,109,111,107,109,107,108,112,113,108,108,111,112,112,105,109,111,110,113,110,111,109,111,106,111
109,109,110,106,110,109,108,110,111,109,109,112,111,108,108,108,110,110,108,114,110,109,110,109,108,109,111,110,110,112,113,109,107,108,110,112,107,106,104,110,108,109,105,109,114,110,108,103,111,108,111,110,107,110,109,110,114,113,106,110
108,110,109,110,110,108,108,110,108,106,108,108,109,109,109,111,112,110,108,108,107,109,109,112,108,108,109,110,108,110,110,113,110,106,107,111,108,109,108,113,111,113,109,109,114,109,110,107,110,108,107,109,109,108,110,111,110,107,105,110
113,115,107,106,106,108,110,109,109,110,109,113,110,108,111,110,109,109,107,109,109,110,109,111,108,110,110,109,107,110,111,112,108,108,108,112,107,112,112,111,110,107,108,107,109,109,109,109,113,110,109,112,110,105,111,106,108,111,109,111
109,107,108,107,111,109,111,113,108,108,111,111,106,108,114,111,108,112,110,110,106,109,110,112,110,107,109,111,113,109,106,111,113,109,109,112,112,111,110,105,111,108,110,109,112,109,108,111,114,109,109,112,111,100,110,108,112,111,110,109
111,107,111,108,109,107,107,113,115,110,109,107,112,111,103,108,108,116,115,111,111,110,112,106,112,112,107,106,112,109,109,109,111,108,111,109,107,103,110,113,114,105,107,109,107,105,106,109,105,108,109,108,109,113,113,109,110,110,112,107
112,110,109,110,111,113,108,111,106,106,108,110,110,108,107,111,107,107,109,108,111,104,108,109,111,109,109,113,113,112,111,110,111,112,111,107,107,105,107,108,114,110,108,109,110,114,112,109,109,111,107,113,109,110,109,108,107,110,113,110
110,110,112,110,109,111,110,113,109,112,108,109,108,108,111,108,106,104,111,109,109,107,109,106,110,110,109,105,104,108,108,110,108,110,110,110,113,109,106,109,112,111,108,109,110,107,118,110,110,109,106,110,108,106,106,110,105,108,110,108
110,111,110,107,107,108,107,114,112,110,108,111,107,107,107,109,108,113,111,110,111,114,111,108,114,109,111,110,110,110,109,113,110,109,110,111,111,112,108,110,111,105,107,108,111,105,112,104,108,112,105,107,109,114,107,109,107,111,110,109
113,107,109,112,113,113,108,110,109,109,108,118,115,107,108,109,107,108,104,112,108,106,107,110,106,107,107,108,112,110,110,112,110,109,106,111,110,110,108,110,111,110,114,105,112,111,111,110,108,113,107,107,107,110,104,111,109,108,110,110
112,107,107,110,110,110,106,106,108,110,110,112,109,105,113,108,111,113,106,106,105,108,109,112,105,108,109,106,107,110,110,113,111,109,104,110,105,106,109,112,112,108,110,109,108,108,111,108,106,106,109,109,109,107,112,110,109,110,106,104
109,113,107,107,110,108,110,111,110,111,109,108,109,106,108,107,109,109,106,108,108,112,107,104,107,109,110,109,109,108,108,114,109,114,111,111,109,111,113,108,109,110,113,109,108,111,111,108,111,110,109,110,110,108,112,112,110,109,108,111
111,111,109,110,110,109,110,107,111,111,108,112,110,113,112,110,109,107,108,108,112,113,107,111,112,110,112,108,111,112,114,110,110,113,109,105,106,106,108,109,108,110,108,106,107,105,110,106,109,114,109,110,111,110,108,108,112,112,108,106
109,105,111,112,111,110,112,107,113,113,106,108,110,111,108,109,110,110,109,105,108,112,108,107,108,109,109,109,112,103,108,107,112,110,107,107,107,110,114,114,107,107,108,114,111,106,110,109,110,107,111,109,108,111,114,108,110,109,110,108
111,106,111,108,109,108,108,110,105,110,106,110,107,113,114,111,113,110,108,109,109,111,109,107,108,108,107,110,109,107,112,108,111,108,108,111,112,110,108,108,110,107,108,112,110,105,107,111,113,105,104,101,109,110,110,111,113,104,109,110
112,108,109,110,113,114,108,112,107,110,110,106,106,107,104,107,109,109,108,111,111,108,112,111,110,114,109,111,106,114,111,109,114,112,109,110,112,108,106,106,107,107,104,105,106,109,109,111,107,108,112,110,109,111,111,111,106,106,108,111
114,107,108,110,111,111,108,110,111,109,110,112,109,112,108,108,109,111,110,107,109,108,108,111,109,108,106,109,106,109,110,111,111,112,109,108,109,111,111,112,109,110,111,116,110,109,104,111,110,111,113,106,108,106,108,109,107,112,111,109
110,112,113,107,113,109,109,110,112,110,106,110,110,112,110,110,113,107,106,108,112,111,108,111,106,107,106,113,111,109,108,108,107,109,110,111,107,107,107,107,109,111,109,105,110,110,108,111,106,107,113,106,106,106,112,114,109,109,106,112
111,111,109,105,111,108,109,108,111,112,109,106,110,110,106,110,114,109,108,105,109,108,111,110,108,110,107,116,110,109,109,111,108,112,113,109,106,112,114,110,107,110,112,107,111,109,113,114,114,111,109,109,113,111,107,105,110,113,108,111
109,107,108,113,107,112,109,107,109,110,112,107,108,114,112,108,110,113,112,105,106,106,105,112,108,113,108,110,111,115,113,109,107,109,107,111,111,111,109,111,112,110,111,108,111,106,109,108,108,112,114,110,109,107,110,109,111,112,108,109
106,111,112,112,105,112,113,107,109,114,112,111,105,108,113,107,108,113,111,111,109,112,107,114,109,108,110,112,108,111,109,108,109,112,110,106,106,110,110,111,112,111,106,107,111,109,108,108,106,108,109,108,109,108,107,102,105,108,114,108
105,111,106,107,110,111,109,102,110,110,105,111,112,108,106,106,107,110,104,107,109,109,104,105,106,105,109,114,113,107,109,112,112,113,110,109,108,113,110,111,106,109,111,111,109,112,114,115,112,110,108,114,108,105,113,110,109,110,114,108
107,107,110,110,106,109,115,111,108,110,111,111,108,109,112,109,109,112,112,110,109,109,108,104,111,112,111,109,109,111,107,109,107,111,109,110,109,110,109,112,113,111,114,110,109,111,106,105,102,107,111,108,107,108,110,111,105,108,108,105
108,106,109,110,107,110,112,110,109,110,111,110,109,108,107,107,106,106,106,108,112,111,110,111,112,112,106,109,111,114,109,114,106,108,111,110,109,108,111,108,113,105,108,113,109,109,109,113,105,109,112,106,111,111,112,110,106,111,114,111
108,110,107,112,109,111,113,110,109,109,110,109,110,108,110,109,107,109,109,107,112,110,107,111,103,111,107,108,110,112,111,114,107,107,108,105,110,104,107,106,107,109,110,111,109,113,110,114,113,108,108,108,109,107,108,106,109,112,108,114
107,108,108,110,112,113,106,107,110,111,110,108,108,107,110,108,106,111,106,105,108,114,112,110,105,109,110,113,109,110,111,111,111,112,112,108,113,110,108,108,108,110,110,108,109,113,113,109,111,106,109,112,111,108,111,107,105,108,109,109
108,105,111,109,108,110,107,111,111,109,108,107,109,106,110,116,108,109,111,109,105,110,108,110,114,113,108,113,108,106,110,107,109,110,110,108,109,113,110,110,108,109,111,113,105,107,114,109,113,112,113,110,110,111,111,109,110,107,110,105
112,110,111,106,109,111,108,110,108,109,107,108,109,106,110,109,110,109,111,110,111,111,109,108,108,110,109,112,108,109,109,105,109,111,111,112,108,110,106,104,105,109,106,109,105,110,110,107,110,108,109,109,111,111,111,112,112,108,108,107
115,107,107,106,110,106,109,111,112,111,107,111,115,112,112,113,113,109,112,111,106,110,108,111,112,108,110,109,107,108,109,110,110,111,108,112,107,109,108,108,108,109,108,113,109,113,109,109,107,105,108,107,111,109,110,112,112,109,108,108
109,109,112,109,111,107,108,109,108,111,111,110,109,107,106,110,108,106,109,105,107,114,111,112,108,106,111,112,113,113,113,106,104,106,111,112,114,111,106,109,113,109,109,108,111,107,105,111,108,106,108,104,104,108,108,107,111,113,112,110
108,105,112,115,110,111,112,112,107,112,110,107,111,109,107,109,107,106,110,105,109,110,110,109,107,108,105,107,110,110,111,110,108,110,107,106,109,108,108,105,112,109,109,106,110,109,109,113,112,105,110,111,109,110,110,107,110,106,106,108
111,106,105,107,112,108,107,108,108,110,108,107,112,109,110,113,111,106,109,110,110,108,107,112,112,111,106,105,109,108,105,109,107,114,108,112,110,109,112,105,111,112,109,109,111,108,108,108,106,104,108,111,110,111,108,107,112,113,112,112
110,109,107,105,109,110,107,108,109,107,107,106,111,109,107,110,112,105,110,109,109,104,107,109,111,112,112,109,111,109,112,111,107,109,109,114,108,106,110,107,110,108,107,108,109,107,108,108,107,110,111,108,109,113,108,105,109,110,108,102
107,116,114,111,109,111,112,112,111,111,109,108,112,108,105,107,113,112,112,107,113,110,111,108,108,109,111,109,112,110,112,112,110,106,110,109,110,111,110,109,108,107,110,108,110,111,111,109,109,110,113,114,108,107,112,109,110,108,110,111
113,109,108,114,113,106,105,106,109,113,112,106,108,109,111,108,105,106,112,113,113,112,111,111,108,110,107,107,110,107,106,108,112,108,114,107,109,108,110,109,110,109,111,110,108,108,109,113,110,108,109,109,111,106,111,111,110,109,107,107
107,105,108,107,109,111,113,107,106,104,112,109,112,107,111,108,107,109,112,111,109,105,109,105,105,110,110,110,108,107,112,110,109,106,108,111,116,111,111,108,107,107,108,110,109,109,110,109,107,108,110,110,108,111,111,106,112,111,113,108
108,110,105,113,113,109,111,106,110,105,109,108,112,107,109,108,108,105,110,108,108,105,109,110,109,112,106,112,111,106,110,112,106,111,111,107,112,103,110,114,110,110,107,105,107,108,108,112,107,108,109,111,106,109,109,108,113,107,111,107
109,113,108,110,112,109,112,110,110,105,110,111,109,110,108,110,114,112,109,109,112,109,109,108,103,108,107,107,111,110,110,109,107,107,109,106,109,110,111,114,110,108,108,109,110,108,108,113,106,107,110,115,107,104,105,110,110,111,109,105
111,109,110,106,105,112,108,109,111,112,107,109,110,109,108,109,115,113,106,112,109,108,110,110,111,110,110,105,111,109,108,104,111,109,108,105,109,109,105,107,110,109,110,108,108,110,110,111,109,111,106,104,107,112,108,110,110,111,110,110
110,111,110,112,108,113,114,110,104,113,111,110,109,105,108,110,106,108,112,107,108,109,107,106,107,107,109,112,112,110,110,110,109,108,107,107,113,110,112,103,110,110,109,112,109,110,109,107,111,111,111,107,107,111,112,110,108,104,109,114
108,110,108,113,110,105,114,112,106,109,107,107,107,109,107,107,108,110,113,108,109,108,109,113,113,109,109,107,110,112,107,112,105,111,108,107,114,111,112,109,107,104,108,109,107,107,109,107,110,105,107,111,113,109,110,107,112,108,108,110
110,108,110,110,109,110,108,107,107,108,108,109,113,109,110,111,110,107,111,116,109,109,112,110,108,108,109,107,106,108,108,111,107,110,108,112,113,111,108,109,115,110,111,112,110,112,114,113,111,108,108,106,107,105,109,115,113,109,110,106
105,110,111,109,106,106,106,111,110,106,108,108,115,111,106,110,113,113,112,112,103,108,112,108,110,114,110,111,109,109,108,107,111,115,109,106,106,110,109,110,112,107,107,111,109,111,113,111,108,111,111,106,112,112,107,110,108,105,108,106
