45,51,57
114,110,104,110,104,113,107,107,111,108,107,110,109,110,109,106,111,110,110,108,111,106,109,105,106,113,110,109,108,110,110,107,110,110,115,109,107,111,109,111,109,109,109,112,107,110,111,106,109,112,109,111,112,107,112,111,108,109,107,109
112,110,105,110,110,109,109,110,114,110,112,109,109,111,109,112,110,114,112,112,113,108,109,109,105,109,108,112,109,107,108,109,108,109,110,110,114,111,103,111,113,108,111,112,111,109,113,111,107,106,110,113,107,107,112,110,109,108,110,110
107,108,113,111,113,109,107,110,111,110,112,111,105,109,112,115,111,111,111,109,111,110,106,111,108,106,114,111,105,112,110,110,110,109,111,109,110,109,109,110,108,107,111,110,111,110,113,114,109,110,109,105,107,112,111,110,109,109,110,106
109,108,107,109,116,110,103,109,110,110,112,110,110,106,108,114,111,112,107,106,109,112,112,110,107,108,111,113,111,114,112,109,102,112,112,111,107,109,111,107,110,101,115,109,109,111,114,113,108,109,111,106,110,106,109,113,109,111,110,112
112,104,107,111,112,110,108,109,110,108,110,111,114,113,107,111,108,109,113,113,105,112,111,108,109,112,111,112,111,109,113,109,107,111,114,109,109,108,112,107,112,106,108,108,111,112,113,108,105,112,116,108,113,109,106,112,115,108,109,109
108,111,110,110,111,114,111,106,113,112,109,107,109,112,107,111,108,107,112,110,107,108,110,110,116,112,108,109,110,108,107,112,106,114,110,108,114,110,106,112,115,112,111,111,111,110,108,108,111,106,109,107,109,113,110,109,110,110,113,110
108,110,109,109,111,110,113,112,107,112,109,110,111,106,112,111,111,112,108,110,109,110,106,111,110,106,110,109,108,113,109,112,111,113,112,110,108,116,111,109,109,108,108,112,108,107,106,112,110,112,108,111,107,107,108,106,107,111,109,115
112,110,110,104,110,106,111,113,111,112,109,108,109,110,110,112,108,108,112,110,109,109,108,106,112,108,109,110,114,110,112,107,110,113,110,109,111,114,110,107,108,108,113,111,111,109,107,110,114,113,106,110,110,107,111,110,108,108,111,111
111,109,108,106,115,108,110,109,113,111,111,107,108,111,110,110,109,114,113,105,106,106,111,107,109,109,111,107,112,113,113,109,106,112,111,111,112,113,107,107,113,108,110,112,111,109,108,106,107,109,108,108,111,112,108,105,112,114,112,110
111,108,105,102,111,109,110,110,112,112,109,108,108,110,114,109,110,111,110,111,102,111,105,107,112,109,114,111,107,107,109,109,111,112,113,110,113,113,110,109,110,110,109,106,110,112,109,106,102,108,112,113,110,108,107,106,111,111,108,110
111,109,109,109,117,106,109,113,112,109,111,106,110,111,109,107,108,111,110,112,110,111,106,108,110,109,112,109,111,108,106,110,109,108,107,108,110,111,114,109,106,108,109,107,113,113,108,108,107,112,107,106,112,109,112,109,110,113,108,110
110,110,109,107,111,109,108,111,111,110,114,110,110,107,108,110,108,108,112,110,109,113,109,109,107,109,110,108,111,111,109,110,109,110,108,109,111,111,112,109,105,111,109,110,110,110,109,108,111,109,109,109,109,106,108,110,106,110,105,111
110,111,112,110,110,109,108,110,109,107,109,107,111,109,108,108,110,107,109,110,113,110,111,106,108,112,104,111,110,111,111,109,108,108,107,110,111,111,109,109,111,110,109,108,108,109,110,113,109,109,108,111,112,105,105,111,107,107,110,114
108,111,110,113,109,108,108,110,107,112,110,110,110,112,111,109,111,108,111,108,112,107,110,108,114,108,109,106,109,107,113,116,115,109,112,108,109,107,110,111,112,110,115,112,110,105,111,108,105,114,110,106,110,112,110,112,107,109,113,112
110,104,114,109,108,109,112,110,107,111,109,105,111,110,111,114,105,109,111,111,109,109,110,112,109,113,108,110,110,111,113,113,107,111,112,111,110,108,108,108,107,110,110,112,109,111,112,110,110,112,110,107,106,111,109,112,110,113,109,108
114,107,113,116,106,110,108,112,107,111,110,112,105,112,109,110,106,110,111,108,108,113,112,114,108,111,110,110,111,112,109,112,112,106,109,108,109,107,109,109,107,107,104,108,109,113,110,111,107,113,109,106,112,112,109,110,113,112,111,109
109,113,108,114,110,112,111,111,111,110,107,108,113,111,109,109,110,107,111,110,106,112,109,107,109,111,106,110,113,109,110,111,114,112,105,109,111,109,109,111,110,109,109,107,104,109,109,109,110,110,109,109,110,112,110,110,111,109,113,111
109,110,109,114,107,109,109,109,115,109,109,110,112,110,108,109,113,107,111,111,107,109,109,105,111,111,109,108,106,110,111,109,111,112,109,106,109,111,109,106,110,114,109,111,112,111,106,108,111,108,107,108,108,106,111,112,111,106,109,108
111,110,111,110,108,109,108,109,110,108,112,110,108,112,110,107,112,108,105,110,112,110,111,108,112,113,110,109,109,113,108,110,113,110,111,113,110,110,108,107,111,110,107,109,114,112,109,112,108,107,110,109,107,107,110,109,111,109,111,106
110,110,108,110,113,108,109,111,109,109,107,110,110,110,113,107,108,108,108,109,109,110,108,107,110,111,112,108,111,114,108,109,112,113,115,111,112,114,108,109,112,110,102,113,104,111,110,111,109,112,109,110,113,106,111,110,107,112,108,110
112,110,108,111,108,106,113,112,108,106,108,110,111,114,107,110,109,110,110,110,110,110,108,107,111,113,110,108,108,112,111,109,111,114,112,106,110,113,111,103,110,109,112,110,107,111,106,109,111,111,107,105,110,110,109,112,105,110,113,108
111,110,108,112,109,111,110,109,105,111,110,107,111,111,111,111,109,110,114,109,113,110,105,111,111,111,109,109,110,115,110,112,110,109,107,112,107,111,112,106,113,110,109,106,113,113,110,112,110,109,108,109,110,111,110,109,110,112,109,109
110,109,110,108,112,112,111,108,106,109,108,107,111,109,110,105,110,112,114,109,109,109,111,111,110,108,109,110,114,110,106,114,110,113,112,105,110,110,110,110,109,105,111,107,111,108,110,111,110,108,107,105,111,111,113,110,111,113,110,104
113,109,105,107,108,108,109,106,109,111,111,110,112,107,112,108,111,109,112,115,109,112,112,109,108,107,107,111,114,111,108,110,111,110,112,110,109,111,113,108,106,108,108,109,112,111,110,106,109,110,108,113,111,110,110,111,113,115,112,109
112,107,108,111,112,110,110,111,109,112,113,104,108,106,110,108,112,110,109,108,111,111,111,112,109,110,109,106,110,111,109,109,107,112,111,106,107,109,112,108,111,108,109,115,109,110,113,110,111,109,107,110,108,108,108,109,106,107,110,108
113,113,108,107,108,107,109,110,110,110,107,107,106,108,114,108,110,110,105,112,113,108,110,112,113,111,108,112,108,106,108,109,109,115,110,107,113,111,106,107,108,109,109,112,112,108,110,109,109,111,108,107,108,114,113,109,105,111,109,113
111,111,109,108,109,111,112,108,106,109,112,112,109,111,112,111,108,106,107,111,106,106,111,110,111,110,110,110,113,109,108,112,109,110,108,109,111,110,108,112,106,111,109,109,109,109,111,112,108,109,110,106,107,111,108,112,106,113,110,107
108,109,110,111,111,108,109,110,112,109,108,111,111,108,107,109,110,108,111,110,109,109,112,109,108,111,112,111,110,108,109,111,109,109,105,111,110,106,112,111,110,107,103,114,109,111,109,113,113,105,110,108,110,111,105,111,110,109,108,111
104,110,109,108,110,110,112,107,115,110,108,111,111,107,109,111,111,112,108,108,110,109,109,108,106,110,109,110,110,111,111,110,103,104,113,112,109,105,111,108,107,109,109,109,110,108,110,110,107,112,111,107,109,107,109,111,111,109,113,108
112,109,110,107,112,106,113,111,109,109,112,112,111,106,112,104,108,111,107,110,111,108,111,109,109,108,112,113,108,110,111,114,107,110,105,109,112,108,110,108,107,109,110,106,109,106,110,110,108,114,105,112,112,107,113,110,103,107,114,111
111,114,113,106,109,108,106,111,108,105,113,107,109,114,107,108,108,110,111,109,109,108,109,107,116,108,108,111,107,109,112,110,109,109,109,110,108,110,110,108,111,107,108,114,110,112,109,109,108,113,112,109,110,109,111,108,104,111,112,110
105,113,108,109,108,115,110,111,111,107,113,107,112,116,108,114,106,113,106,113,108,107,112,107,112,112,110,108,113,108,111,109,109,110,110,108,111,110,106,108,113,111,109,111,108,108,108,112,108,107,112,110,108,111,108,107,108,108,109,108
110,113,111,107,108,108,106,107,110,110,109,114,110,106,109,111,108,111,108,108,111,111,109,110,112,109,113,110,106,111,108,108,113,113,112,109,110,110,110,110,109,110,111,113,109,108,110,111,112,111,113,107,108,114,111,109,110,107,108,111
109,109,108,110,108,110,106,109,108,108,109,111,109,109,112,106,108,108,109,108,109,113,109,106,110,109,110,109,109,110,108,106,115,112,107,110,103,106,113,111,107,110,109,114,108,114,113,108,110,112,111,109,110,110,110,108,113,106,114,108
110,109,110,112,109,110,110,112,108,108,108,110,108,105,111,113,107,108,110,113,114,110,109,110,109,112,111,108,109,110,111,113,110,109,111,107,109,110,109,112,110,109,104,106,110,112,105,107,108,113,105,107,106,112,109,109,108,113,107,112
109,108,112,108,107,113,112,108,108,111,108,107,108,110,109,112,110,107,111,108,114,111,110,110,109,109,112,112,114,111,106,112,112,109,111,110,110,113,110,110,108,111,110,111,109,109,110,111,109,111,115,106,114,108,112,111,108,113,106,115
112,110,109,111,113,104,108,110,107,109,115,107,104,110,113,107,113,112,112,113,109,109,108,108,112,111,113,108,115,107,107,109,115,112,109,108,110,107,109,111,105,107,109,109,108,111,111,106,110,110,107,110,110,107,110,108,109,106,105,106
106,114,111,107,110,114,114,108,111,107,109,111,112,114,109,110,111,113,112,110,109,108,109,105,112,111,112,110,112,112,110,116,115,109,108,110,113,116,107,110,108,108,108,112,111,106,110,107,112,111,106,112,109,108,110,111,111,109,111,105
110,114,110,108,111,106,115,105,110,111,111,109,108,110,112,110,110,111,112,107,110,107,110,108,113,111,109,112,111,118,118,110,114,113,112,106,112,112,109,109,109,106,111,109,110,111,106,111,113,110,107,110,115,106,106,112,111,110,111,110
111,111,109,113,110,111,112,104,106,106,113,109,108,110,110,108,109,114,112,108,109,112,112,114,114,109,116,116,111,119,116,113,113,112,115,111,109,112,108,109,111,105,107,111,109,107,108,111,110,106,109,110,111,107,106,110,112,109,109,112
112,110,109,111,113,107,108,112,112,108,110,108,109,114,113,110,110,112,108,113,107,109,109,112,115,112,111,115,124,127,117,114,114,115,112,112,109,109,110,110,108,108,110,110,112,112,109,110,111,110,109,113,113,108,111,112,110,109,110,112
107,109,110,109,109,111,107,107,112,110,108,111,113,105,109,112,107,107,110,109,107,108,108,108,113,120,122,123,133,133,128,122,119,120,113,109,109,114,110,108,111,110,111,105,110,112,109,111,114,108,113,109,109,109,108,110,109,109,111,114
111,109,109,110,110,109,105,108,113,109,105,108,112,115,109,108,109,111,109,109,110,113,111,109,114,120,126,131,134,135,138,135,128,123,117,112,111,108,106,112,110,105,108,109,112,110,115,108,117,108,107,111,111,109,108,110,108,106,109,103
112,110,108,112,110,108,107,109,112,113,112,109,108,109,109,111,111,113,105,114,110,109,114,114,116,119,124,134,139,138,144,144,134,123,121,113,105,109,108,115,107,101,110,104,113,108,112,111,110,111,107,114,106,111,104,113,111,114,109,106
113,109,106,109,114,111,107,111,107,109,112,109,112,111,104,108,111,110,110,109,106,110,115,109,115,117,121,123,143,140,137,139,136,125,119,114,108,111,113,107,110,110,107,111,108,107,111,112,113,104,108,112,106,111,111,109,111,110,108,114
114,112,108,108,108,107,116,111,108,106,114,108,109,103,112,110,110,111,115,105,109,111,108,111,114,117,117,125,137,136,134,137,127,122,116,115,114,109,112,108,106,109,110,111,107,112,110,105,109,107,109,115,109,108,112,107,108,108,109,114
107,111,113,108,113,109,104,109,113,106,108,108,110,104,109,113,110,108,111,110,110,113,109,111,116,118,122,128,136,137,138,139,133,117,115,114,113,117,114,110,107,109,112,110,109,115,113,107,104,108,113,112,109,112,108,110,113,108,106,107
111,105,112,105,111,110,107,111,109,111,105,111,110,112,112,109,109,106,111,112,106,113,109,108,114,118,124,129,131,133,134,137,136,122,113,113,110,108,114,112,108,109,110,109,110,113,111,113,109,109,110,110,109,110,111,109,109,111,108,107
109,110,109,112,109,110,114,113,110,110,109,114,113,109,109,109,110,111,112,114,112,113,111,112,115,119,127,129,133,132,135,140,130,124,119,114,105,112,113,111,110,110,106,105,113,109,105,111,108,110,112,109,109,108,112,110,106,110,108,114
111,109,108,110,111,110,111,113,108,108,109,108,113,112,110,113,111,107,111,113,111,111,108,112,118,117,124,129,126,130,145,143,133,119,114,111,108,117,109,109,109,113,110,106,109,113,109,108,109,108,111,108,110,110,108,110,109,114,111,108
109,109,107,107,106,108,113,110,108,109,110,109,109,108,110,109,114,109,108,109,106,116,112,115,111,114,121,125,131,128,137,138,139,119,112,111,107,118,112,109,109,109,113,107,114,112,103,113,111,109,105,112,110,101,110,107,107,112,112,107
109,108,111,111,108,110,110,108,105,113,111,110,106,113,113,108,112,116,109,111,114,109,110,114,116,116,124,126,130,136,136,141,131,125,115,114,111,114,107,110,109,109,111,113,111,108,106,111,110,108,111,115,114,105,110,110,107,107,108,115
111,108,109,105,110,107,111,109,107,115,111,109,109,116,106,110,109,106,110,107,112,115,106,117,117,119,122,135,134,134,135,138,129,118,116,112,112,112,105,114,106,109,109,108,113,110,111,110,109,106,105,112,109,109,112,110,113,107,108,106
110,110,110,105,110,108,107,106,110,111,112,110,103,111,112,114,109,107,113,112,110,118,104,113,115,119,127,128,135,134,139,133,128,115,116,115,110,111,112,108,112,112,108,105,111,114,111,111,113,111,111,109,110,112,108,110,110,110,112,112
110,109,109,111,112,105,112,113,106,111,115,108,110,106,113,111,109,111,111,112,110,110,111,112,115,119,125,125,128,136,132,136,121,116,111,111,109,111,114,111,109,108,115,111,109,109,111,113,113,110,112,111,111,109,109,111,105,109,108,108
109,109,109,109,109,109,112,113,106,110,112,104,110,108,111,113,109,110,107,112,112,110,114,112,116,122,123,133,130,129,134,128,122,119,113,110,109,107,110,116,106,104,112,107,112,116,109,113,111,105,110,107,105,106,113,111,108,110,108,110
111,111,109,111,108,110,113,108,112,112,108,113,109,108,113,112,110,110,110,111,105,111,114,114,119,123,127,130,129,133,133,124,119,115,112,114,113,109,111,110,111,112,107,112,110,108,112,110,113,109,106,107,112,109,108,110,110,109,114,110
108,109,109,108,113,111,112,110,106,111,109,112,106,107,110,110,112,112,112,114,111,110,111,110,119,123,129,131,130,134,130,123,121,113,111,113,107,106,111,108,109,112,105,109,109,106,112,109,114,110,107,110,112,109,108,106,111,109,114,110
110,111,109,108,113,109,110,107,109,112,110,112,110,113,113,107,112,110,108,109,114,114,115,112,119,125,129,132,132,133,140,137,122,114,113,113,110,108,112,107,107,107,110,110,112,109,110,109,110,110,108,114,109,117,112,106,108,105,114,107
110,108,109,108,110,111,107,108,111,108,113,111,112,110,109,114,111,112,108,108,110,113,114,114,121,119,128,132,134,136,133,135,124,114,114,115,110,115,113,111,108,106,111,114,110,110,109,108,106,112,107,108,110,109,107,110,107,105,112,112
108,112,114,110,106,111,103,112,106,111,111,110,112,101,114,105,111,110,109,108,113,110,109,113,120,118,122,134,132,137,131,129,120,114,113,110,111,113,109,112,111,113,110,109,108,111,110,109,111,112,110,107,111,109,114,109,108,110,113,108
105,116,112,106,114,110,110,107,108,112,110,111,113,109,106,113,112,111,109,109,106,112,107,114,117,117,116,126,133,127,125,124,117,108,113,111,112,110,108,105,112,110,109,110,106,109,110,109,113,111,108,109,111,112,107,110,110,111,112,110
110,109,110,106,112,114,109,107,108,111,109,110,112,112,115,103,110,111,110,113,110,111,112,113,116,115,118,121,121,119,119,119,113,110,111,109,111,110,114,107,108,108,107,111,107,106,113,112,109,109,108,111,108,105,112,110,109,114,110,110
107,108,108,111,107,112,113,109,112,107,111,110,107,108,108,110,111,106,110,109,112,111,111,107,111,114,114,118,119,115,116,116,112,111,111,106,109,109,108,107,110,112,108,111,106,108,110,108,110,108,110,111,111,106,110,109,110,114,112,109
107,107,114,111,112,110,107,115,110,110,111,111,110,109,107,110,107,109,110,107,110,110,113,114,112,112,111,113,115,115,112,113,113,109,106,109,113,112,110,109,113,108,107,110,112,112,109,109,114,106,110,109,111,105,109,108,107,106,110,110
107,107,113,109,110,112,107,106,110,114,108,108,108,112,115,111,111,110,107,111,108,110,109,106,115,113,108,113,113,114,107,111,112,109,106,109,112,109,107,107,109,111,108,109,113,114,109,108,111,107,114,108,110,109,108,114,112,107,106,111
109,111,110,107,111,111,115,110,108,111,109,109,111,110,111,108,110,111,107,113,106,109,110,109,112,111,108,112,114,113,108,112,110,106,111,110,109,110,112,108,109,115,112,110,110,110,111,111,107,108,115,109,111,108,111,109,112,111,106,107
106,110,112,107,110,109,113,100,109,111,108,106,107,108,116,107,108,110,108,108,111,110,112,109,108,110,106,116,117,113,113,109,114,112,112,111,108,108,113,108,113,109,108,107,109,112,105,110,110,113,109,108,110,112,110,109,109,111,111,108
107,109,113,108,103,114,106,109,114,108,107,107,111,104,113,106,109,109,112,108,112,113,111,110,109,111,111,111,111,109,112,109,113,109,109,110,111,111,110,108,109,112,106,103,109,113,108,110,106,107,107,109,113,111,111,111,111,114,113,109
113,110,110,109,106,110,108,114,109,108,108,108,111,112,108,111,110,109,110,110,109,111,110,111,114,106,112,108,112,109,111,111,111,108,109,111,106,113,114,110,105,109,112,109,113,111,107,110,109,109,108,107,112,111,110,109,109,111,110,109
108,109,109,109,112,112,108,107,107,110,106,112,107,106,107,111,111,114,108,107,107,108,109,109,111,111,107,107,110,110,105,108,114,111,111,109,111,109,108,110,109,111,111,108,107,108,111,109,111,108,110,105,105,110,112,115,106,108,110,107
109,111,111,109,111,112,110,107,111,105,109,112,110,111,109,106,111,110,107,110,112,108,106,108,112,114,109,110,111,111,115,111,108,114,114,107,109,111,110,110,110,112,111,107,107,107,111,108,111,105,108,110,104,107,108,103,108,111,109,112
111,106,112,110,110,112,109,106,104,110,111,108,108,108,110,110,109,108,106,107,111,113,109,109,111,110,109,110,109,112,110,109,109,107,112,113,104,106,113,103,110,105,105,109,112,106,105,109,108,111,111,110,109,105,108,108,110,111,106,108
110,110,111,109,109,111,110,110,108,110,108,113,113,110,110,107,118,111,113,110,106,109,114,115,108,108,110,108,108,111,108,108,112,110,110,111,109,109,107,108,115,108,111,108,110,111,110,108,108,108,111,108,112,111,109,107,111,113,109,106
110,112,109,109,109,108,107,112,107,113,109,111,114,109,108,111,111,109,112,109,107,112,107,108,110,111,112,108,109,113,102,108,107,115,114,111,106,109,110,108,113,109,113,110,104,112,110,109,108,109,108,111,110,116,109,110,109,112,111,111
110,106,109,111,111,109,108,111,110,110,110,111,109,103,108,113,112,109,110,109,108,111,107,108,107,116,112,105,108,113,109,111,108,109,116,109,110,109,112,111,110,110,110,107,110,108,108,109,110,111,110,110,105,108,106,114,116,107,109,111
112,112,111,108,109,109,109,110,112,111,108,111,109,110,110,106,116,104,111,110,105,111,115,110,112,111,116,107,104,109,109,107,110,106,111,113,108,108,108,109,112,109,111,108,112,114,106,108,109,110,112,111,109,113,110,106,111,106,109,113
107,110,107,104,109,108,109,115,108,110,110,110,111,108,116,107,108,107,107,111,109,106,111,107,114,107,111,111,109,108,104,107,109,111,110,110,107,108,107,107,110,110,112,114,110,110,111,109,107,110,110,109,108,110,108,109,109,108,110,111
112,112,110,107,110,110,110,106,106,111,109,110,111,105,110,107,107,110,110,114,109,109,112,108,109,107,109,109,111,112,106,109,112,109,112,109,108,111,111,112,108,107,111,111,111,106,110,105,104,113,112,106,110,108,112,113,105,112,109,109
108,109,109,109,110,109,109,114,108,104,113,108,110,112,107,108,110,109,109,109,112,109,109,114,111,108,108,112,113,105,106,108,106,108,112,112,110,109,106,108,110,110,112,105,110,112,111,106,106,107,111,110,109,111,108,107,109,114,111,106
108,108,111,110,111,109,110,113,109,110,108,109,109,109,108,109,111,108,109,109,109,112,112,108,111,112,111,113,111,105,108,109,109,111,112,109,109,107,108,108,111,110,110,109,109,110,111,106,112,106,110,105,112,110,111,108,112,109,110,110
109,103,106,111,113,111,110,109,111,114,110,110,107,107,108,112,112,109,111,113,108,113,109,108,107,107,110,112,109,108,110,114,112,105,109,107,109,111,110,107,105,111,113,106,109,111,112,107,111,110,114,105,113,108,116,103,113,108,109,114
109,110,108,111,112,105,114,111,109,112,109,108,109,112,111,112,106,109,114,107,111,111,108,111,110,115,108,112,107,113,108,110,111,108,110,110,110,109,106,112,109,110,114,104,112,111,111,110,110,109,112,109,110,113,109,110,111,107,110,112
109,115,109,109,109,108,103,118,107,115,110,112,104,115,111,110,109,110,111,107,113,108,108,106,109,112,110,113,108,110,112,107,107,113,107,111,110,110,106,110,108,112,109,106,107,105,107,112,110,109,110,109,109,114,108,110,112,110,106,112
110,110,111,107,107,107,109,113,111,108,112,109,106,111,105,109,108,109,111,113,109,108,108,111,110,109,112,110,108,106,108,108,114,111,106,109,109,113,108,109,107,109,109,107,110,111,115,108,104,115,111,108,108,108,111,111,112,113,108,113
108,108,108,108,111,107,109,111,106,111,113,109,112,110,107,112,108,109,111,112,106,104,107,107,111,108,110,110,111,111,108,108,111,112,108,109,109,108,108,111,109,107,109,107,110,116,114,110,111,110,109,109,113,111,110,108,111,111,109,112
112,112,106,107,111,110,107,113,109,107,111,111,111,109,113,108,105,113,110,110,106,108,112,109,109,111,112,109,109,113,109,105,108,108,111,110,110,114,112,110,108,107,111,111,107,107,109,115,112,104,109,113,110,109,110,108,109,107,106,110
109,109,110,109,111,110,112,107,106,110,110,109,108,109,111,109,109,111,110,111,108,110,110,107,108,112,109,108,108,108,107,107,108,108,109,107,108,112,110,110,112,109,108,110,113,110,109,112,110,109,111,111,112,113,106,109,110,110,107,113
112,112,108,110,112,109,109,109,109,108,111,111,107,110,113,109,109,111,109,108,107,112,108,105,108,114,105,106,109,115,108,107,110,112,111,103,110,107,111,109,111,109,109,108,112,108,110,109,113,110,109,110,111,108,108,116,107,112,109,111
110,112,107,110,114,108,105,107,106,107,110,111,111,109,108,111,107,110,109,109,109,113,111,109,109,107,105,113,108,107,112,110,107,110,113,108,110,107,111,115,110,107,112,109,109,112,109,113,106,109,110,112,112,109,108,108,110,109,108,112
110,111,107,112,106,113,110,112,109,106,111,109,112,112,109,109,108,110,110,106,111,110,109,111,109,115,109,113,112,105,108,110,106,114,109,111,106,109,113,108,112,105,113,111,107,112,110,108,112,108,110,112,110,114,109,111,110,108,109,112
106,110,111,112,103,111,111,108,107,112,106,110,107,111,115,109,112,110,114,108,111,110,105,108,110,110,109,109,110,112,107,103,108,112,115,113,107,109,112,111,113,108,110,108,108,109,111,108,112,107,110,111,109,111,112,108,111,113,112,111
107,108,114,111,109,105,109,109,111,110,107,109,110,107,109,109,109,108,102,112,109,114,108,113,111,108,110,111,108,109,114,110,110,107,108,112,111,112,109,107,111,113,112,108,109,109,113,113,114,110,109,113,106,108,112,105,108,112,109,108
107,111,115,111,107,108,110,118,107,109,108,105,112,112,106,112,108,112,112,113,109,109,111,114,109,110,110,112,112,110,108,113,109,105,110,109,108,107,110,112,110,110,113,111,108,111,111,108,112,109,106,110,110,108,109,110,111,114,109,107
108,109,112,111,110,108,112,109,111,112,108,105,105,110,111,114,113,110,110,111,111,110,110,109,109,107,109,113,112,110,110,113,108,106,112,109,107,110,112,109,110,110,113,106,109,111,107,109,113,108,109,110,108,108,111,108,111,111,111,109
111,110,106,112,110,109,112,110,108,108,111,111,109,109,110,111,109,108,109,108,108,108,111,109,112,110,110,111,110,109,110,113,111,108,110,107,111,110,107,112,109,108,109,108,107,110,113,112,108,105,109,110,108,107,111,113,113,108,109,108
107,107,113,113,110,113,111,108,111,112,107,109,107,110,110,113,111,113,108,114,108,108,111,113,108,110,113,108,109,111,111,111,111,107,106,109,116,115,113,114,111,111,106,111,108,111,110,112,113,110,108,110,112,105,115,112,107,114,110,109
110,111,109,108,110,110,110,112,109,110,110,107,106,113,106,107,112,110,104,110,110,111,110,112,114,112,108,109,111,111,110,104,109,110,110,110,110,109,109,113,112,108,113,107,109,115,111,109,112,108,112,109,116,109,113,114,109,110,109,110
115,108,113,112,108,111,109,112,111,114,110,108,112,111,112,108,108,114,114,107,110,106,110,107,111,113,110,108,109,112,105,109,111,114,110,107,109,111,106,112,110,110,110,103,109,111,107,110,115,112,110,103,109,113,108,106,109,106,107,111
109,111,110,109,107,116,109,111,111,107,110,112,108,108,111,112,107,112,111,110,110,108,110,110,108,109,112,110,109,110,111,112,108,113,110,108,109,112,111,108,110,110,113,106,108,108,108,111,111,110,103,108,112,109,108,107,106,110,108,111
113,108,109,108,107,110,109,110,109,110,111,110,110,107,110,110,111,112,108,108,111,107,106,113,115,105,110,111,109,108,109,108,109,110,114,112,106,111,108,109,110,108,112,108,108,108,108,111,110,109,109,112,110,109,111,110,109,109,111,111
114,109,110,112,111,105,107,115,109,108,113,112,111,109,112,105,108,113,111,111,110,110,110,111,107,111,109,109,107,104,111,114,110,108,111,108,110,110,107,110,110,107,103,105,109,108,110,108,107,110,109,111,112,108,108,114,109,109,107,111
111,111,108,108,109,107,107,111,113,113,106,111,109,109,111,110,108,104,107,107,108,109,109,113,105,108,110,109,108,110,108,107,113,115,109,108,110,108,112,111,110,114,110,110,113,110,105,107,108,111,107,110,110,112,114,112,102,111,110,109
110,110,110,108,110,111,107,108,110,110,109,109,107,111,111,105,109,106,112,111,112,110,109,111,111,110,108,110,109,110,108,108,111,106,110,114,108,111,109,107,113,108,110,109,110,116,105,106,106,107,109,113,111,109,110,104,112,108,113,112
110,111,106,110,108,107,109,108,113,113,106,109,109,111,110,108,111,110,110,106,113,113,111,110,104,110,113,111,112,108,109,108,112,112,113,108,108,109,110,106,109,110,106,111,111,108,111,108,108,112,110,111,115,108,109,107,110,107,111,111
109,106,112,108,111,108,110,108,108,110,109,111,108,108,110,110,109,111,110,106,110,112,107,109,114,113,107,109,109,109,109,112,110,110,116,106,107,107,113,112,111,108,111,107,111,106,111,115,110,112,109,110,109,113,106,111,113,106,112,108
110,112,107,106,110,112,110,107,107,111,103,111,110,112,109,107,110,113,107,111,109,111,109,111,108,110,112,111,112,107,111,108,109,109,112,108,109,114,108,112,113,112,114,110,112,104,111,111,108,111,112,109,109,113,108,114,110,107,110,111
109,112,112,109,105,113,107,109,108,110,111,113,106,112,114,106,107,114,108,111,106,113,108,109,110,109,111,109,114,109,107,107,109,107,112,108,105,114,109,111,108,107,112,111,114,106,109,110,108,109,109,108,109,109,115,111,109,111,109,109
111,110,113,112,104,114,108,115,106,108,110,113,109,104,114,109,113,108,109,108,111,110,108,110,111,105,106,106,110,111,108,109,112,109,112,112,108,109,109,108,108,107,109,108,109,110,110,108,106,107,111,109,110,109,106,107,110,106,111,111
109,110,116,111,111,107,111,111,107,107,112,105,109,110,109,107,110,112,110,107,114,109,106,107,112,109,109,106,107,112,109,107,111,110,108,113,111,107,110,109,118,110,102,107,109,108,106,108,108,106,112,109,111,110,110,107,108,109,108,113
107,107,109,114,110,107,112,112,115,108,104,109,110,108,107,111,111,111,110,112,110,109,109,107,110,106,107,115,109,109,110,104,107,110,110,108,110,108,111,107,106,111,109,109,109,107,108,114,111,106,117,108,110,110,113,109,110,110,107,110
114,109,106,111,108,110,108,110,110,108,113,109,108,111,111,111,109,108,109,106,107,108,108,111,111,109,112,111,107,114,112,108,106,110,109,109,111,109,111,108,112,109,108,110,110,109,114,108,109,110,110,104,109,109,114,110,108,112,107,106
113,108,109,111,109,114,106,106,112,108,107,109,109,110,111,106,110,109,113,108,111,107,109,107,111,106,109,111,106,112,114,106,109,108,105,111,112,113,112,110,108,108,108,112,111,108,113,112,110,109,108,108,110,109,107,113,106,109,109,105
113,108,111,112,106,111,111,112,111,109,110,113,112,107,111,107,105,108,110,114,114,106,113,106,108,110,110,112,109,105,108,110,104,111,113,108,109,114,110,109,111,104,110,115,109,107,111,108,109,111,113,107,108,112,105,109,111,107,108,113
109,109,110,108,109,109,108,110,106,109,111,109,105,111,111,109,111,113,109,104,111,111,110,111,106,113,110,111,110,109,106,110,107,106,112,113,111,109,114,110,109,111,110,110,106,106,106,111,112,102,112,109,106,109,110,109,113,107,106,111
107,108,108,107,106,112,106,105,113,108,104,110,108,116,108,109,115,110,106,109,111,109,109,113,109,109,109,105,111,111,109,110,114,108,107,113,108,108,109,108,111,109,107,110,109,108,107,107,111,111,110,106,109,112,110,113,115,108,112,110
109,109,110,110,110,113,110,111,112,111,106,106,108,112,111,108,107,105,109,109,110,111,108,110,111,108,106,112,113,109,111,111,105,111,109,108,110,107,108,111,110,108,109,110,108,112,113,107,107,111,110,108,109,105,110,110,110,110,109,113
111,114,110,111,114,112,109,111,111,109,109,109,107,108,111,111,108,109,111,111,109,111,110,108,108,111,106,108,114,111,110,110,110,109,103,108,111,108,111,109,107,108,111,110,108,106,105,115,109,107,107,114,109,108,108,109,108,114,109,112
110,105,109,110,108,108,108,110,109,111,109,109,111,109,108,112,109,107,111,110,111,109,110,111,108,110,111,108,110,113,110,107,111,112,107,109,110,108,112,114,114,107,110,108,112,108,107,110,109,107,109,113,107,112,110,111,110,110,109,108
109,109,109,108,111,105,106,109,110,108,109,111,109,113,109,110,108,106,109,106,107,109,111,109,114,108,110,110,108,110,113,109,108,109,109,107,109,112,103,113,111,113,110,105,113,110,109,109,106,112,109,111,110,108,112,112,109,111,116,105
