54,60,66
110,109,109,112,108,106,111,108,104,107,114,106,109,113,105,109,106,110,111,108,106,107,108,107,109,112,107,110,108,107,109,109,109,111,107,112,110,108,112,106,107,107,108,109,107,109,111,108,111,112,109,112,114,109,110,110,110,105,107,109
112,112,110,108,110,109,108,110,108,111,114,109,109,113,108,111,111,106,108,111,111,112,113,115,111,109,111,108,109,115,110,107,109,108,110,108,104,106,109,109,109,109,111,115,109,109,109,111,111,109,107,107,110,108,112,106,107,108,109,106
107,108,108,108,108,109,108,108,110,108,109,110,108,111,110,107,110,110,109,110,109,108,110,108,109,109,108,109,110,110,109,111,109,111,111,110,112,110,113,112,108,109,107,108,110,106,108,110,108,112,108,107,110,112,107,107,113,115,113,105
109,110,111,105,106,111,109,110,111,108,106,110,108,110,111,109,110,113,113,113,109,105,107,109,108,111,110,111,114,108,108,112,108,108,109,108,107,110,111,107,111,110,111,111,112,113,111,109,109,114,113,111,109,108,110,111,111,109,110,110
111,110,110,110,106,107,109,111,110,111,108,106,108,107,111,112,109,110,110,109,107,107,111,107,107,107,109,110,110,110,107,107,105,106,109,109,110,109,112,112,111,110,108,112,110,111,108,106,110,108,108,113,112,108,108,112,108,109,108,109
106,109,109,114,112,109,108,107,106,109,110,110,110,109,104,106,109,112,110,111,111,109,106,108,109,106,108,111,105,108,111,109,108,109,112,112,112,111,105,107,105,108,111,110,107,111,111,108,110,107,105,110,108,109,113,108,112,110,109,111
110,111,110,106,111,110,111,110,111,110,112,109,109,111,112,110,113,110,111,111,113,115,110,106,108,109,111,111,107,105,110,109,109,111,112,110,107,109,110,110,110,108,111,106,110,112,111,110,112,109,112,106,111,109,107,109,111,111,109,111
111,107,107,110,107,109,110,110,109,108,109,110,111,109,104,106,110,108,107,105,106,108,111,112,111,108,108,105,113,108,108,109,112,109,111,108,114,111,110,111,109,108,108,105,109,110,111,108,109,109,110,110,110,109,111,112,105,108,111,107
108,107,111,111,111,113,105,109,109,109,115,111,118,109,112,106,113,106,109,112,108,111,106,105,113,105,109,106,104,110,113,112,111,108,107,106,107,108,113,111,108,112,111,110,108,108,112,109,107,110,109,109,110,111,106,108,106,105,107,109
110,111,108,110,106,110,109,111,113,103,107,106,107,106,111,110,109,107,109,107,106,113,113,114,109,111,110,113,109,109,115,109,109,109,110,115,109,107,107,109,113,108,107,107,109,113,113,112,107,112,104,106,109,111,108,106,105,107,112,105
110,113,106,113,109,108,111,111,110,111,106,110,109,113,107,113,105,110,107,109,110,109,108,110,110,105,109,112,111,108,109,108,110,110,110,111,110,100,110,111,111,112,108,107,111,110,110,111,106,110,108,111,106,109,110,109,111,113,114,110
108,108,110,110,113,114,112,104,110,109,111,108,114,110,112,113,111,108,111,115,111,108,114,108,109,107,106,112,112,107,108,107,110,108,110,112,110,110,107,110,106,109,116,109,108,106,113,108,113,108,112,108,111,111,107,107,108,109,107,110
110,109,110,109,109,111,110,108,113,110,114,109,105,112,109,113,110,108,109,109,108,110,112,114,112,111,109,109,109,109,109,104,112,110,111,109,112,112,113,107,109,110,108,108,108,109,113,105,110,107,115,107,110,106,110,110,111,109,107,112
107,107,108,108,108,106,109,111,107,106,107,112,110,108,107,114,111,110,110,108,108,113,110,106,108,109,110,108,107,109,113,113,108,108,110,108,109,111,109,115,106,109,110,115,109,110,109,110,109,110,106,112,110,113,113,107,112,112,115,115
109,107,109,105,108,111,109,107,109,109,112,113,113,110,107,108,108,109,110,107,111,111,114,108,109,110,105,108,109,109,112,110,109,110,108,110,108,107,112,109,107,107,107,109,106,109,112,115,109,109,108,110,113,107,109,109,108,110,109,109
109,108,110,109,109,110,110,111,110,109,107,107,110,107,107,109,107,108,109,108,111,110,109,111,108,111,111,112,108,106,109,106,109,112,109,109,108,108,105,111,113,108,110,109,106,108,112,111,106,109,110,111,113,111,107,108,111,111,111,111
109,111,109,108,107,111,111,110,107,109,112,111,113,112,109,110,110,111,114,113,107,111,108,110,113,109,110,107,105,108,115,112,108,111,105,107,113,111,110,113,109,106,111,110,105,108,112,113,112,110,108,111,106,110,109,106,109,106,107,109
108,111,112,112,110,110,105,105,109,105,110,114,107,106,106,107,109,110,109,112,109,108,108,108,112,111,111,111,110,109,110,110,110,109,107,110,107,110,113,110,107,110,108,108,109,109,109,107,110,111,109,109,114,114,112,106,106,111,111,110
111,110,110,114,110,110,110,104,109,107,110,110,111,112,108,110,110,106,108,109,108,108,107,105,103,110,112,112,112,106,107,108,104,108,109,110,109,107,107,108,113,109,106,107,110,109,107,109,107,111,110,104,108,110,113,115,107,107,111,109
105,110,108,109,107,114,111,110,109,110,109,110,108,109,111,110,111,109,111,111,109,107,107,109,111,111,109,115,113,109,112,108,107,114,116,110,110,111,107,111,111,109,114,110,114,110,111,111,107,109,109,111,111,107,107,108,109,106,107,108
107,109,108,106,111,110,112,108,114,110,111,110,111,108,109,111,108,108,110,112,108,111,110,109,111,114,109,112,112,106,109,108,108,107,107,106,101,113,113,104,108,108,109,111,111,111,106,109,113,111,107,110,111,110,106,107,111,113,109,108
110,109,113,109,116,113,108,110,107,109,107,111,109,111,105,111,107,109,112,106,107,107,112,113,112,109,106,110,112,108,111,113,106,106,105,111,110,109,113,110,113,109,106,108,109,108,105,110,107,109,112,107,107,107,110,107,108,109,108,112
108,108,111,111,110,107,101,105,108,108,115,107,112,113,109,110,114,109,109,110,106,107,113,114,112,113,112,107,109,107,113,112,109,112,114,110,109,108,109,110,108,107,108,107,111,108,109,106,110,106,112,109,113,109,108,111,112,108,104,112
111,110,106,109,107,106,114,109,112,113,109,103,110,110,108,110,115,109,107,112,109,110,111,107,109,107,109,113,105,109,110,112,110,110,108,114,110,105,110,110,109,111,114,109,109,110,107,108,115,112,107,108,110,109,110,107,107,106,105,105
108,109,108,111,112,111,110,107,109,110,110,114,110,108,106,111,105,110,108,106,112,112,107,114,111,111,109,113,107,106,111,113,110,110,105,110,110,112,114,111,108,111,109,113,112,112,110,109,109,112,112,112,109,112,108,111,113,110,111,106
108,113,112,110,110,106,106,111,107,105,108,108,112,112,111,106,108,109,115,110,112,111,108,113,109,108,103,108,111,110,110,104,112,107,110,113,112,108,107,106,111,108,108,109,105,113,112,115,109,106,110,107,107,106,109,109,116,113,107,113
110,109,111,109,108,107,106,114,107,111,110,111,112,112,111,108,113,110,110,110,109,110,106,110,109,111,108,115,113,110,111,107,109,106,114,107,105,112,110,111,110,110,107,108,110,108,108,110,110,107,111,113,113,107,112,108,106,111,109,110
110,104,108,108,109,112,110,106,113,115,115,108,109,112,110,111,109,110,110,107,106,108,117,109,111,116,109,108,106,110,109,113,108,107,109,111,110,107,112,108,111,110,113,110,112,108,108,106,110,108,100,115,110,108,106,112,103,109,109,110
109,108,108,109,111,111,109,109,108,109,112,109,109,113,110,107,108,109,110,109,112,114,104,111,110,106,109,112,109,109,108,109,112,112,105,103,110,110,110,107,107,107,110,109,110,111,111,113,112,109,112,111,105,111,108,115,110,108,110,109
111,111,109,109,110,108,108,109,110,109,112,113,107,109,111,106,107,107,106,110,109,108,108,114,113,109,109,108,111,110,112,109,109,113,112,105,108,110,106,108,105,111,109,107,111,109,111,108,105,105,110,108,108,105,107,104,110,112,113,111
111,109,110,108,107,112,113,109,107,107,109,110,105,109,109,108,110,110,110,111,110,106,109,109,108,111,107,112,112,105,111,109,107,111,111,110,108,109,112,112,114,106,107,109,109,109,111,109,108,111,108,109,107,111,111,107,106,108,107,112
107,108,108,110,110,108,108,110,109,113,112,109,113,109,109,109,108,112,108,109,107,108,114,113,109,108,107,107,110,109,109,105,106,111,110,111,109,106,107,110,112,108,109,110,107,107,110,111,112,113,109,105,111,109,110,113,110,109,108,107
109,110,109,108,106,105,109,113,113,112,111,112,109,108,109,110,107,112,112,108,108,107,108,107,108,106,111,111,110,112,112,109,107,112,112,110,108,105,106,108,109,111,108,107,107,110,111,110,107,104,109,111,110,109,109,112,111,109,110,108
108,109,110,109,105,112,111,108,107,104,108,109,110,109,105,107,110,108,115,112,112,108,106,106,112,113,110,103,108,114,112,112,108,106,109,109,109,111,111,109,108,111,111,111,111,111,108,108,111,110,106,112,111,108,109,109,108,110,111,109
104,111,109,107,109,107,111,109,108,109,109,107,108,112,111,111,108,108,107,110,113,110,109,110,107,112,113,107,111,110,107,108,109,106,110,108,105,109,111,111,107,108,110,113,112,108,109,112,110,111,110,115,114,108,111,110,107,111,108,109
110,110,111,108,112,108,112,109,112,108,110,110,111,111,107,109,112,108,105,110,108,112,108,107,107,106,105,115,111,106,111,108,109,111,110,109,114,109,107,112,107,106,111,113,110,110,112,108,110,111,112,109,109,103,107,108,109,110,111,109
111,111,110,111,114,108,108,110,108,106,108,108,114,108,110,109,108,111,110,112,112,108,113,109,108,114,109,109,105,108,111,106,109,110,109,110,109,110,113,110,107,110,109,108,112,108,110,106,112,104,106,106,109,114,108,105,112,108,110,107
108,108,107,108,110,112,111,108,110,111,113,112,114,111,110,113,106,111,109,109,107,107,107,108,109,106,113,106,112,110,109,109,110,108,107,110,113,112,110,111,110,108,110,106,106,108,112,106,108,108,111,110,111,109,109,112,112,107,108,110
111,105,108,110,110,113,107,113,110,108,112,106,113,113,109,105,113,107,109,103,105,112,110,115,113,109,108,107,112,105,109,113,109,109,111,112,110,108,110,112,110,108,108,109,111,109,110,106,111,107,111,113,104,107,109,108,109,108,106,106
113,105,109,108,110,106,112,105,113,112,111,107,110,109,109,109,109,104,108,110,108,108,108,113,108,113,112,112,107,108,113,106,113,107,113,106,111,110,110,109,109,106,115,112,112,111,112,112,110,107,112,113,114,114,112,108,109,113,107,105
109,110,110,107,108,110,108,110,108,108,110,106,113,109,110,111,111,108,111,113,114,111,114,110,112,105,105,112,107,113,112,105,109,113,108,109,109,106,116,109,113,106,109,110,106,110,114,106,110,107,108,108,111,106,109,108,111,109,109,105
111,110,112,112,106,109,110,110,108,107,107,112,112,110,109,108,111,114,109,108,112,110,106,110,105,111,105,110,111,108,108,107,109,109,107,114,111,113,107,105,114,111,109,109,111,109,109,108,109,110,108,116,116,113,104,107,109,108,111,110
110,108,112,111,110,112,111,109,103,105,111,109,109,110,111,110,112,113,110,108,110,108,108,105,114,111,113,109,110,110,111,110,109,109,113,105,107,112,112,107,109,111,106,112,112,111,105,114,108,109,108,110,114,111,115,110,108,110,109,112
109,109,111,114,114,113,108,109,111,108,106,109,108,112,117,110,110,110,111,114,107,112,111,112,109,112,114,109,106,111,111,108,108,112,108,110,109,106,111,112,110,111,113,113,107,110,108,106,112,109,107,106,108,109,110,107,107,112,108,112
113,111,108,109,111,109,101,104,109,111,115,116,112,106,107,109,108,107,112,112,107,106,112,110,107,110,112,109,111,110,110,108,112,109,107,112,109,113,110,109,112,109,108,110,109,108,112,104,106,110,110,111,106,110,106,110,110,111,111,108
108,111,107,107,109,111,111,110,113,108,106,110,114,111,108,113,111,108,106,106,109,111,112,108,110,105,110,112,109,111,110,111,108,109,108,109,112,111,111,109,108,111,111,114,113,111,111,109,109,107,108,104,110,113,107,109,116,111,112,108
112,110,109,109,107,105,112,109,103,109,109,108,109,108,107,104,108,111,109,107,108,110,112,107,106,112,110,107,110,114,107,109,112,111,107,111,112,110,109,111,109,109,110,110,111,110,110,109,108,110,109,112,113,107,109,109,108,112,114,110
108,106,111,110,110,109,107,109,113,117,111,106,107,111,108,108,110,110,109,109,112,111,111,110,106,112,112,112,114,115,111,112,115,113,113,111,108,107,107,112,112,108,110,106,108,107,110,111,107,114,114,111,113,109,108,109,105,110,114,108
105,112,111,109,108,109,116,109,109,108,116,109,111,111,112,114,108,110,114,112,111,107,109,111,110,109,111,114,118,118,118,114,114,112,111,110,105,111,113,104,109,115,112,111,113,111,108,112,113,107,108,109,103,110,114,110,107,107,113,108
113,114,109,108,108,108,109,102,108,109,109,105,107,111,107,110,112,109,110,108,109,109,107,114,116,115,114,121,123,128,119,119,116,111,110,112,116,110,106,109,109,111,113,108,110,110,109,108,110,110,110,112,112,105,106,110,107,108,111,108
111,108,110,111,112,109,109,114,114,106,109,109,105,116,112,112,112,108,106,110,110,111,110,108,114,115,122,128,130,133,125,119,114,110,108,113,112,114,113,114,110,108,110,110,112,107,108,106,111,110,111,108,104,108,110,108,107,112,108,107
112,109,111,109,107,107,106,115,112,111,112,116,111,108,111,112,108,108,109,111,110,106,107,111,115,122,127,132,130,132,132,124,120,111,111,106,111,109,109,109,110,112,108,110,112,110,109,113,109,109,107,111,108,108,111,116,111,107,110,111
109,111,107,107,107,112,108,110,105,112,111,113,111,109,110,110,108,110,113,111,110,108,111,108,115,119,131,134,133,133,133,130,124,116,112,108,112,112,112,107,108,105,108,108,113,110,111,110,109,112,112,106,109,111,109,112,108,108,110,111
108,109,108,108,104,109,108,108,112,113,111,108,112,108,110,112,110,115,111,111,111,117,107,111,117,119,130,131,138,136,134,129,123,115,107,117,110,107,106,113,104,106,110,108,110,109,110,109,107,108,112,109,109,110,109,109,110,109,109,113
109,108,114,110,109,106,111,110,109,107,108,112,113,109,112,110,110,110,110,114,109,106,107,115,111,121,134,134,133,135,137,128,123,112,114,113,112,109,113,108,111,108,107,109,110,109,110,106,110,110,109,115,112,108,110,109,110,109,110,110
110,107,109,111,113,109,107,113,112,104,111,108,105,109,109,109,110,108,112,105,109,112,116,110,111,120,128,133,127,135,138,129,123,117,111,108,115,110,113,109,112,107,105,111,108,107,110,108,108,107,108,109,110,110,108,111,108,107,111,109
105,107,106,105,107,111,111,106,108,112,107,106,105,111,111,108,110,110,111,106,107,107,110,112,116,118,121,127,131,135,131,129,122,118,116,110,113,116,114,108,108,108,111,110,111,110,105,110,109,110,110,113,109,109,106,111,112,109,108,112
109,110,111,113,108,109,114,114,110,114,108,109,109,108,109,110,106,107,113,106,110,112,108,109,113,119,124,132,135,132,130,128,126,123,116,114,115,112,106,112,112,109,115,107,108,111,108,107,106,107,108,111,111,111,107,110,108,109,108,112
108,108,111,115,110,110,107,105,110,112,113,112,112,112,109,110,111,109,107,108,111,112,110,111,109,120,124,131,136,131,132,136,128,124,114,113,110,110,113,111,109,112,112,111,103,109,109,107,110,111,108,110,110,109,106,104,105,110,109,111
108,109,109,107,111,110,109,110,107,104,112,110,105,110,109,110,114,113,111,112,111,109,111,115,113,119,121,127,138,135,131,136,127,120,115,109,112,113,115,112,111,106,108,114,108,107,106,109,109,109,113,114,113,107,106,112,112,111,111,112
108,107,111,110,110,110,110,111,111,111,112,109,106,111,110,109,107,112,115,109,106,111,112,110,114,114,120,130,134,134,135,134,130,120,116,114,111,110,114,110,110,108,106,109,108,109,111,110,112,115,112,107,105,111,111,112,112,112,109,110
109,104,109,107,110,108,109,111,113,107,108,113,111,113,112,109,110,109,109,108,111,111,110,108,112,115,126,131,129,134,136,134,131,119,115,115,111,107,108,112,109,111,106,105,110,109,113,112,107,109,105,109,109,112,114,113,111,107,106,110
110,111,111,111,111,113,109,110,109,111,111,108,111,105,109,110,107,107,108,109,115,115,110,109,112,113,121,133,139,140,133,130,131,125,122,114,111,109,111,111,107,108,107,111,112,108,108,112,107,109,110,109,111,110,108,110,111,109,109,107
111,110,107,112,115,110,112,110,109,112,115,116,110,111,110,109,107,110,112,110,105,112,113,111,106,118,121,127,140,135,135,136,126,115,116,114,113,112,109,113,114,111,110,115,110,109,110,110,107,110,110,108,109,110,108,112,110,110,110,106
111,105,107,109,112,111,106,111,113,112,110,113,112,110,113,110,111,111,109,114,113,111,110,111,116,114,121,127,128,134,134,129,124,119,116,112,110,116,110,106,110,112,106,107,108,107,109,109,109,112,108,111,109,110,110,111,107,109,111,109
106,110,111,108,106,109,109,107,107,114,110,112,110,109,112,104,107,108,108,110,111,109,114,111,114,118,122,125,123,128,132,128,130,120,118,115,112,108,105,105,107,107,107,104,114,109,108,109,110,109,112,109,109,106,112,109,110,113,110,106
110,109,110,111,105,112,109,111,105,106,106,111,112,108,112,108,111,109,109,108,108,107,108,109,112,108,116,126,130,129,133,131,131,120,119,110,110,105,117,109,112,110,111,111,111,111,109,106,109,111,110,107,106,112,104,107,106,111,107,108
112,111,111,109,108,109,113,109,108,109,110,108,113,109,108,112,111,110,111,107,108,108,114,111,109,110,116,124,132,131,131,135,132,123,117,113,112,111,105,110,109,110,110,110,107,106,109,108,110,110,109,109,109,109,111,111,107,108,107,112
112,111,109,110,112,108,113,112,116,108,106,108,113,112,108,106,112,110,114,107,113,111,107,110,108,110,120,123,132,128,132,137,127,125,116,114,107,109,114,110,108,109,107,102,109,109,114,109,109,113,109,107,109,104,103,109,109,110,108,114
112,108,111,109,110,108,109,106,110,106,112,111,110,109,107,108,110,108,105,109,106,116,115,106,114,109,120,120,131,132,133,122,123,120,117,112,111,110,111,109,110,108,108,108,109,110,108,110,110,108,112,110,109,108,110,107,106,111,107,107
109,106,109,110,111,109,113,108,107,111,110,106,108,109,107,107,107,105,108,110,109,112,113,110,111,113,114,119,123,131,130,128,116,108,114,111,114,107,114,106,109,111,109,109,108,109,108,108,106,109,105,108,106,109,111,112,118,113,109,112
107,107,112,109,111,111,107,109,108,111,110,112,108,105,110,106,106,113,110,111,112,109,110,109,112,114,108,113,115,119,121,120,116,112,115,113,108,107,113,110,105,108,108,110,109,107,111,113,112,111,111,111,113,110,108,107,109,112,107,112
109,110,114,110,114,112,109,115,114,110,109,109,111,109,111,109,104,114,112,108,113,109,110,112,114,112,117,116,114,118,115,109,114,112,109,111,112,114,107,112,110,106,109,111,110,104,109,109,107,111,110,106,111,107,109,110,109,106,106,110
110,112,109,108,108,110,112,109,109,110,108,106,108,110,109,109,112,108,110,111,109,107,102,109,110,109,110,113,114,113,112,111,109,113,114,111,109,110,114,109,107,113,112,106,111,110,109,105,105,108,115,107,105,112,107,113,110,109,112,111
109,111,109,110,110,111,113,106,109,112,109,106,105,109,110,109,110,109,109,110,107,109,111,110,107,112,118,112,108,107,112,114,109,106,109,106,107,113,107,105,110,111,109,110,111,107,108,112,115,112,110,110,106,105,106,108,109,112,113,107
109,107,108,110,109,109,110,110,112,112,111,112,110,112,110,108,108,111,110,109,110,110,115,113,110,106,107,110,110,112,111,110,108,109,109,108,106,108,111,110,111,108,107,110,107,108,108,110,111,111,110,110,112,111,112,111,111,108,109,110
108,108,114,111,108,108,108,107,109,111,109,108,106,110,108,107,109,109,108,111,110,113,108,101,106,110,106,110,109,107,110,110,110,111,106,110,115,110,106,111,113,111,113,108,108,112,106,107,112,109,109,112,109,111,113,112,114,107,104,107
110,105,108,109,111,110,110,114,111,113,111,113,109,112,110,111,110,106,106,109,108,114,115,110,112,107,111,108,109,111,110,111,109,107,112,111,106,105,103,109,110,112,111,114,114,106,109,112,111,111,110,107,109,111,111,110,108,107,105,104
114,109,100,110,112,111,109,108,112,108,112,108,111,110,110,108,112,111,112,111,113,111,110,111,112,110,111,111,113,111,110,111,111,111,111,109,108,111,107,109,112,107,108,111,111,112,106,108,109,112,109,108,106,111,111,113,108,108,110,108
110,113,108,107,109,110,112,108,102,107,110,109,111,111,112,108,110,112,114,107,111,107,113,108,107,114,111,113,110,110,112,111,110,106,107,113,113,109,111,111,110,113,109,106,108,111,106,111,110,111,113,105,109,111,112,108,109,111,110,108
107,108,110,107,111,105,112,110,113,103,109,106,111,109,109,111,107,107,111,108,105,102,111,109,111,106,111,115,110,112,108,109,111,109,108,111,116,113,109,108,111,111,108,110,107,107,109,109,110,110,107,108,107,106,111,109,108,110,111,110
106,105,108,108,112,110,111,110,107,105,107,113,109,109,111,109,111,108,107,113,109,108,103,106,110,108,107,111,112,108,109,102,107,115,108,108,110,110,111,111,109,109,108,106,105,112,109,110,110,111,108,109,107,111,115,105,107,105,110,111
107,111,108,110,110,107,111,107,110,113,113,111,109,112,113,112,112,109,109,110,109,109,108,111,110,108,111,110,104,107,112,112,109,106,110,113,107,107,107,112,106,112,106,109,110,106,114,113,103,111,109,109,110,109,109,108,110,109,108,108
110,111,109,111,107,109,109,109,108,113,111,104,110,111,109,111,111,111,109,103,113,112,109,114,111,107,110,111,114,112,107,109,111,110,110,108,108,106,111,110,109,110,112,110,112,107,112,109,111,113,107,115,105,107,106,110,108,110,108,109
109,106,111,114,113,112,109,108,109,109,109,107,114,107,108,110,109,112,110,108,105,110,111,109,111,107,110,109,112,109,108,107,107,106,113,111,109,114,113,111,110,111,108,109,113,110,111,112,110,104,106,108,113,109,105,109,112,106,112,109
113,109,110,111,112,107,112,109,110,111,109,109,107,101,111,113,104,106,113,111,109,107,103,111,112,111,107,109,110,107,113,108,111,110,106,107,115,113,107,108,108,105,113,110,111,107,107,110,111,110,111,112,110,111,112,108,111,108,107,109
110,110,109,109,108,112,108,109,110,110,115,112,107,109,109,108,106,107,108,110,110,112,107,110,114,109,111,110,109,107,109,111,109,111,110,113,106,105,109,105,107,112,115,108,109,109,108,108,110,108,110,109,108,108,108,110,111,109,105,108
112,109,109,109,108,110,110,108,110,111,114,110,108,113,111,111,110,107,108,109,110,110,112,107,107,111,109,107,107,108,107,112,109,108,110,110,111,110,109,107,107,110,111,113,110,111,116,108,109,111,110,110,109,109,109,109,107,110,111,106
110,111,110,110,109,110,112,109,108,109,109,110,111,109,111,110,108,111,112,111,114,115,105,105,109,110,110,110,110,109,109,109,110,110,108,111,109,111,109,106,111,109,110,112,108,107,109,109,103,108,110,109,107,107,109,112,108,111,111,109
106,106,104,109,109,108,106,108,111,110,109,110,112,110,110,110,107,109,111,111,109,110,111,114,108,107,110,107,105,108,110,112,109,106,108,113,111,106,110,111,109,110,108,107,110,109,104,112,112,106,114,116,110,112,116,111,111,112,110,108
110,107,108,110,110,110,109,113,108,104,107,111,113,109,110,112,107,106,110,108,106,106,105,112,113,108,107,111,111,111,110,108,110,109,113,110,110,113,109,112,112,111,111,107,109,108,110,115,111,111,109,107,108,109,110,109,110,109,107,107
107,109,113,107,109,109,110,112,112,109,113,104,105,109,109,107,107,107,109,109,111,105,110,109,107,106,110,112,111,108,107,107,109,107,109,110,112,110,108,106,112,109,109,111,109,109,105,109,112,107,109,109,109,107,113,113,110,110,110,111
109,105,106,109,106,109,107,108,109,106,106,108,111,108,106,108,108,110,113,113,105,109,114,110,110,108,114,108,106,109,110,107,107,111,112,110,104,111,113,108,107,108,107,107,112,110,109,108,111,108,110,108,109,113,110,111,110,108,109,107
111,112,113,109,112,110,113,111,112,112,111,110,107,115,112,112,109,110,110,109,110,107,105,104,108,112,110,108,111,107,111,109,106,113,113,110,114,109,109,115,106,110,112,106,110,109,109,108,107,111,108,109,113,105,107,112,110,110,107,110
107,114,111,109,109,114,109,110,112,108,113,111,107,111,109,108,107,110,107,105,107,108,114,108,111,108,106,111,107,106,109,112,109,110,108,110,108,108,114,110,104,111,109,109,109,109,112,109,107,107,107,111,109,111,112,107,110,111,110,113
109,108,108,114,107,109,106,114,112,111,109,111,106,107,112,108,107,110,103,105,112,105,107,111,106,110,114,108,115,112,106,112,112,107,108,111,106,111,107,109,112,109,104,107,110,109,112,108,116,111,112,108,109,108,109,110,112,111,110,108
109,107,108,111,110,108,109,105,109,110,105,107,112,109,108,113,110,113,107,104,113,109,111,110,115,112,113,111,113,112,110,108,112,112,109,104,116,108,106,110,110,107,111,111,112,110,109,111,111,107,102,107,108,114,108,107,109,106,109,108
109,107,106,108,105,107,113,110,105,113,107,110,112,108,106,116,108,110,111,111,110,114,105,110,114,108,109,111,107,111,111,109,106,112,110,108,108,108,108,110,111,107,112,115,111,108,109,109,108,107,111,108,115,109,112,106,109,107,109,110
110,110,111,113,114,111,113,112,114,111,109,110,105,110,111,109,110,110,112,107,106,112,106,108,109,109,107,107,109,107,110,109,110,107,111,110,112,109,112,110,112,110,108,109,111,110,110,109,112,111,108,112,111,108,113,106,110,110,107,107
109,111,112,106,110,108,111,112,113,108,110,113,110,110,110,109,108,113,110,108,112,107,110,112,110,116,109,108,108,112,111,110,111,112,111,108,110,110,111,110,108,108,109,110,110,111,112,110,111,110,108,112,109,111,110,111,108,109,108,106
113,110,109,104,109,112,104,108,114,111,110,106,109,110,110,107,106,109,109,113,110,106,109,106,105,111,108,109,111,112,110,110,106,107,104,108,110,108,109,109,109,107,111,108,107,112,108,107,109,110,110,108,109,109,109,114,111,110,110,108
111,109,106,110,105,103,112,111,111,111,113,108,110,111,109,107,109,110,109,107,107,112,108,104,110,113,111,114,113,108,110,111,113,112,111,110,110,113,115,108,109,110,108,110,107,112,115,110,108,111,108,110,108,105,108,110,109,109,108,110
109,109,109,108,107,110,113,110,108,109,108,106,107,111,108,110,112,110,107,107,110,111,111,109,108,110,110,109,108,110,110,110,109,111,114,110,106,103,105,108,108,111,111,111,111,109,108,110,111,109,109,109,109,114,114,109,111,107,106,109
106,107,108,109,108,109,110,110,110,108,103,107,111,108,111,109,106,104,108,112,111,108,105,112,113,107,108,107,109,116,108,111,111,108,108,108,113,109,107,110,112,109,111,110,109,110,108,105,106,112,111,111,113,105,106,110,113,111,107,107
109,110,112,108,108,110,108,110,110,109,113,110,112,111,110,108,110,114,112,112,107,109,109,109,112,110,108,111,109,108,110,112,114,111,107,111,112,108,108,107,107,111,109,108,111,109,108,110,110,105,108,112,110,112,112,110,105,110,110,107
110,111,110,108,111,110,107,105,113,111,107,109,108,114,109,109,108,111,114,112,109,108,111,106,106,110,110,112,109,106,112,107,110,111,104,111,110,105,112,114,113,108,109,109,111,109,108,111,107,108,109,110,107,108,111,110,110,106,109,110
110,110,108,114,113,108,110,110,109,111,111,110,105,108,111,109,108,107,108,109,109,111,109,114,110,109,111,108,111,111,109,106,108,110,109,108,106,115,108,109,110,107,111,114,109,113,109,111,111,106,110,112,111,110,111,109,114,109,108,110
108,107,109,109,111,109,106,110,106,109,109,106,107,110,109,112,112,109,108,105,111,113,108,110,111,107,109,107,109,109,111,109,109,110,108,112,112,112,110,109,110,115,110,108,109,111,107,111,111,112,110,106,109,107,107,113,107,110,108,109
109,105,110,108,111,112,112,108,110,110,111,109,114,112,111,111,106,111,106,108,111,110,109,108,110,109,113,113,109,111,111,112,113,105,111,108,110,108,109,109,112,111,110,105,107,108,110,108,109,106,109,112,108,111,112,113,111,107,106,108
112,109,113,109,107,114,107,110,105,110,110,111,109,108,111,111,111,112,106,113,107,118,110,109,112,110,111,112,107,106,105,110,109,111,111,111,112,113,107,112,107,108,106,111,109,110,106,107,108,113,108,115,110,110,111,107,107,109,109,112
108,113,109,109,107,109,114,107,109,106,111,108,113,108,109,109,110,106,110,107,109,99,108,109,110,107,111,108,110,110,109,107,109,109,109,110,108,109,110,109,105,106,107,110,114,112,108,111,110,113,110,107,107,107,110,108,105,113,110,113
108,111,109,110,105,113,110,110,112,114,114,107,110,110,108,108,106,110,111,105,110,112,107,112,113,109,109,112,108,110,107,111,112,113,115,108,106,106,110,109,110,113,110,106,112,110,110,109,113,110,110,111,106,107,108,108,107,108,110,108
108,111,109,106,105,108,111,115,107,107,109,110,108,108,112,108,110,109,108,111,116,108,109,108,112,107,108,112,109,105,111,110,110,112,109,107,110,112,111,110,108,112,108,114,108,108,107,106,104,108,111,108,112,108,109,108,111,102,109,107
113,111,109,110,115,111,108,106,111,107,107,113,111,111,111,109,106,114,108,109,112,112,113,107,109,109,110,111,110,107,110,109,110,106,108,111,114,110,110,114,113,110,111,110,110,108,109,109,109,110,115,108,107,112,111,110,113,109,108,108
113,110,107,111,109,111,107,110,106,111,111,107,108,109,106,113,110,108,108,109,109,109,107,107,109,110,107,108,107,110,107,108,108,110,108,109,111,108,109,105,108,109,109,107,115,109,108,108,107,108,108,110,112,112,111,109,113,112,112,110
108,109,110,111,110,109,109,107,110,110,109,107,109,110,107,109,111,108,109,110,111,109,112,113,107,107,106,109,110,109,112,113,114,114,107,108,111,112,112,111,110,109,107,112,112,110,112,111,107,109,108,108,112,109,110,111,109,112,113,111
107,107,114,112,107,109,112,110,109,112,111,108,110,112,105,107,112,108,109,112,109,110,110,110,110,109,115,112,108,106,108,108,110,117,111,111,114,110,107,109,114,112,112,108,110,113,111,110,111,113,110,110,109,107,104,107,109,108,108,109
109,109,109,110,110,110,110,110,109,110,111,109,109,110,108,107,112,114,111,113,108,108,113,107,108,109,113,111,107,109,107,108,110,110,113,109,109,111,112,110,109,109,109,106,106,111,106,105,104,104,107,110,107,108,113,114,111,105,106,107
109,109,110,110,110,110,110,110,109,109,110,109,110,110,111,110,109,109,109,110,110,109,110,110,110,109,109,111,109,113,114,110,111,106,104,108,114,111,109,111,110,109,107,111,113,113,113,111,107,111,111,104,109,109,106,111,110,110,110,105
109,109,110,110,110,110,110,110,109,110,110,109,110,110,110,109,110,109,110,110,110,109,110,110,110,109,110,110,110,109,109,110,110,110,109,109,110,110,109,110,110,110,110,113,113,110,111,110,112,109,109,111,109,108,109,107,107,106,109,111
