55,60,65
113,109,111,109,106,108,108,109,111,106,108,108,105,106,110,108,108,110,109,107,108,109,109,107,107,110,113,110,110,110,111,111,110,110,110,110,109,104,107,108,106,104,112,109,111,111,108,112,110,111,109,110,109,111,107,108,111,108,107,106
107,103,108,107,109,112,106,108,110,107,107,106,110,107,109,104,110,109,107,107,107,110,111,110,106,110,111,108,114,109,109,109,107,109,111,107,106,107,107,110,109,108,107,110,110,107,100,110,110,107,108,107,105,108,108,104,107,108,111,106
108,101,110,112,107,106,107,106,111,109,101,107,110,105,108,109,107,108,112,111,107,105,107,111,107,109,107,111,109,111,112,108,99,105,107,108,108,112,113,113,112,110,110,107,102,105,112,110,110,109,109,107,108,106,106,105,115,109,111,109
105,105,108,106,106,107,111,109,111,111,110,113,109,106,105,111,107,113,108,106,110,107,108,109,109,110,108,110,104,110,108,107,112,112,105,107,109,108,110,107,106,104,103,107,109,105,109,108,106,105,108,107,107,108,104,106,107,106,106,110
107,107,107,107,108,107,108,108,105,108,108,108,108,111,106,108,107,111,108,108,110,110,106,105,108,108,109,107,108,112,105,107,104,105,110,108,104,111,108,108,106,108,111,111,111,110,106,108,108,111,111,108,111,108,106,106,110,107,104,102
110,110,111,113,107,107,106,108,107,109,112,109,109,105,110,108,106,104,108,106,105,108,105,106,110,107,107,111,111,108,106,109,108,106,111,109,109,108,108,109,104,111,110,104,107,111,109,109,108,112,103,107,110,113,110,108,110,108,112,111
109,105,108,109,109,109,107,108,109,108,105,107,109,107,107,107,107,112,110,106,114,110,110,111,109,107,108,107,110,110,112,107,110,107,107,108,112,109,109,108,110,111,107,112,111,107,104,108,107,109,110,109,106,105,107,107,108,112,110,110
106,110,110,108,108,108,104,105,106,107,107,106,107,105,109,108,104,110,109,107,112,106,107,100,106,108,108,105,107,106,102,111,112,109,111,108,108,109,112,106,112,110,108,108,110,108,108,110,109,105,108,110,108,103,109,108,105,105,106,109
106,107,109,106,109,111,110,108,108,111,108,109,110,110,107,105,110,106,105,107,112,109,105,108,111,112,110,110,107,104,106,111,107,110,107,106,111,107,109,110,106,108,106,106,108,107,107,111,108,107,109,109,110,107,107,105,109,105,108,111
108,109,107,108,110,106,108,109,112,113,111,108,109,111,105,106,108,108,109,106,106,108,108,110,103,110,106,105,111,110,105,110,105,110,113,109,109,106,108,107,106,109,106,110,115,113,110,107,110,108,109,106,109,112,110,104,108,108,112,107
112,115,105,110,107,110,109,110,108,108,111,110,109,108,106,110,105,111,110,111,112,111,109,110,111,105,107,106,108,111,108,107,106,108,105,108,109,108,109,103,107,111,109,107,107,110,110,105,107,107,107,109,112,109,106,108,110,110,108,107
105,106,107,110,111,113,110,109,107,109,110,108,108,110,107,110,108,110,106,108,111,110,109,108,108,110,106,107,109,108,109,109,109,108,111,107,109,113,109,112,113,109,112,108,108,109,107,111,110,108,108,111,110,107,108,114,107,104,107,111
110,106,107,112,110,109,109,107,112,111,109,111,110,112,106,107,108,107,106,106,104,108,109,109,106,111,107,108,106,107,112,111,110,112,110,106,109,103,105,110,106,110,110,109,107,104,108,110,105,105,105,102,104,109,112,113,109,107,106,105
112,108,110,106,106,107,110,109,109,110,107,108,107,108,106,107,108,108,107,108,108,112,108,104,108,112,112,108,106,107,105,107,108,110,108,113,114,110,110,106,105,110,105,109,108,106,109,105,107,108,108,110,109,108,106,110,108,107,107,106
109,104,107,107,109,108,109,105,109,109,108,110,106,104,105,106,106,109,112,111,112,109,112,107,107,106,108,105,109,108,111,108,105,106,103,108,110,106,107,110,107,110,108,106,110,111,108,106,109,113,112,110,111,107,109,107,106,104,107,110
110,108,107,108,110,113,110,107,109,104,108,111,111,108,108,104,108,107,108,109,105,107,107,106,110,106,109,105,113,109,109,107,107,105,104,103,106,106,109,109,103,106,110,107,109,110,112,111,108,108,109,109,112,104,113,108,106,109,111,109
116,105,107,111,106,105,106,109,108,106,109,108,106,108,107,111,115,109,109,108,106,109,105,107,113,106,110,109,107,112,108,105,109,110,109,113,111,109,109,104,108,115,103,111,110,109,110,106,108,111,111,107,107,105,109,110,106,106,109,108
107,107,111,110,106,109,109,110,110,107,110,112,108,111,107,107,103,109,108,112,110,107,113,110,110,108,107,110,108,108,107,107,108,110,106,110,102,108,106,104,110,107,106,108,107,109,107,108,108,108,109,109,108,107,109,105,109,112,109,111
105,109,109,108,110,109,105,107,110,110,109,104,107,110,109,106,102,110,111,108,107,107,107,105,110,108,105,106,108,103,104,105,105,106,106,111,107,105,108,109,110,105,106,104,107,106,108,109,106,107,106,109,109,109,110,107,109,107,104,109
110,112,109,110,108,106,111,108,107,107,115,108,109,107,109,111,109,108,105,104,107,109,108,109,110,110,112,110,108,108,109,108,113,104,107,113,109,107,107,110,110,111,108,106,111,105,107,110,112,110,107,107,108,108,109,108,107,108,110,108
112,110,110,109,109,110,107,108,108,108,113,109,108,106,109,110,107,105,110,108,111,109,108,107,111,111,107,105,107,110,108,110,107,105,109,109,105,107,110,107,108,105,108,108,110,105,112,110,108,111,110,108,107,108,109,108,109,111,109,107
108,109,113,106,108,106,107,111,108,111,108,106,110,108,106,104,112,107,107,107,111,109,112,110,108,110,111,105,106,106,109,105,106,110,105,107,113,106,109,100,108,110,109,109,109,109,112,107,108,109,105,110,108,106,110,109,104,110,113,105
108,107,107,109,109,107,109,110,102,108,107,108,105,107,108,107,108,109,108,107,109,107,105,105,109,107,102,109,113,111,111,107,108,107,106,105,107,108,110,110,108,110,106,105,102,108,109,103,110,109,103,105,107,108,107,113,107,106,106,107
110,107,111,110,108,108,107,109,106,107,108,109,110,112,111,108,107,111,104,103,112,108,103,109,111,112,112,112,112,109,107,108,107,108,109,109,105,109,108,108,110,106,107,113,106,111,110,110,108,110,111,109,106,107,107,109,105,109,106,109
110,109,112,106,108,113,110,104,107,108,102,104,106,110,109,106,107,106,106,108,105,111,108,107,107,108,112,110,109,109,108,109,106,107,110,108,108,108,112,109,112,110,111,105,108,111,112,112,105,103,105,108,111,108,110,111,108,111,106,111
105,111,110,109,106,107,110,109,106,105,110,110,110,109,105,108,109,107,111,110,107,109,108,110,109,108,111,109,110,110,110,108,112,108,110,108,110,106,108,108,107,111,113,107,108,107,106,105,107,109,108,107,106,105,107,106,107,109,108,108
110,112,108,104,110,112,108,112,109,107,110,110,112,107,105,104,106,109,107,105,110,109,109,111,111,106,112,111,110,111,110,106,104,106,108,109,109,110,108,106,108,108,108,111,108,104,108,109,110,107,108,112,111,112,109,109,109,106,108,110
106,108,109,108,109,110,106,106,105,111,113,110,112,110,112,108,109,110,107,106,104,109,109,106,106,105,109,106,106,111,106,111,113,114,108,109,105,109,107,111,104,110,110,110,108,107,112,107,107,109,108,106,110,109,108,107,105,102,105,110
109,108,111,106,106,107,108,105,108,111,106,110,109,109,107,110,112,110,105,106,109,110,107,105,106,107,111,107,108,108,110,110,106,104,104,110,112,106,105,111,112,112,108,106,105,107,108,111,109,106,106,109,109,104,110,110,110,109,109,107
106,112,114,110,110,106,106,104,109,111,109,112,109,109,106,106,104,111,111,109,109,111,111,105,109,109,112,111,116,109,108,110,108,109,105,110,115,106,110,108,109,106,107,109,108,109,113,108,106,108,105,108,111,106,107,111,111,105,108,106
110,109,107,107,112,108,103,109,110,106,107,105,108,111,108,110,110,108,107,112,103,108,111,111,110,110,105,102,107,112,111,108,112,110,108,109,106,104,111,106,112,111,108,105,107,107,109,110,110,110,107,107,107,108,109,105,108,107,107,108
108,110,107,107,110,108,108,111,107,105,112,109,108,105,109,110,110,107,105,110,110,105,106,111,108,109,109,108,106,105,111,110,113,108,110,105,112,112,107,109,110,107,109,106,111,109,109,110,110,110,111,108,112,106,106,110,108,110,110,111
109,109,109,108,106,101,107,110,111,105,107,106,108,106,108,106,103,106,107,109,107,109,111,110,107,107,113,111,112,107,106,106,107,109,113,109,112,105,111,112,108,106,110,110,106,106,107,107,110,109,108,110,110,112,106,113,109,107,108,106
110,104,110,111,108,106,107,108,110,110,108,107,110,106,106,107,109,110,107,111,107,106,109,107,111,111,112,110,109,108,109,109,102,111,108,109,104,104,110,108,110,106,107,104,104,111,109,109,108,109,109,108,104,106,106,111,108,105,105,106
109,105,106,109,106,107,107,110,111,110,107,112,107,107,109,107,109,106,107,108,106,109,111,107,108,108,106,104,109,110,109,109,105,109,109,109,103,111,109,106,105,104,111,109,110,104,107,111,110,107,109,105,109,109,106,107,108,105,109,110
108,111,114,105,104,108,106,110,109,107,104,104,109,108,110,113,106,110,111,107,109,111,108,109,108,107,106,108,106,109,107,109,107,109,109,106,110,108,102,105,111,109,108,108,110,106,110,108,111,107,105,109,111,104,108,107,107,111,109,111
108,107,106,110,109,108,111,110,115,108,106,107,111,111,111,107,107,108,106,108,109,107,110,114,106,107,110,109,109,110,106,107,105,109,107,106,110,110,106,107,105,103,108,108,109,105,110,107,102,111,110,107,106,108,111,106,106,105,104,110
110,112,110,109,109,112,107,104,105,108,110,110,105,109,111,111,108,107,105,103,109,109,110,110,103,110,113,107,108,111,108,109,111,111,107,105,108,108,104,105,109,107,111,110,106,115,112,108,109,109,108,109,109,111,106,108,108,109,107,111
109,110,109,107,112,109,104,108,109,109,107,110,111,111,108,112,110,109,108,108,110,109,110,110,111,109,109,108,110,111,111,108,111,110,108,112,107,110,114,109,112,105,103,106,106,106,110,112,110,106,105,109,108,108,105,110,109,104,104,107
107,106,106,107,109,107,111,111,109,109,107,107,110,106,105,108,108,105,110,112,109,110,112,113,112,111,114,108,107,108,114,113,112,108,104,106,105,107,109,112,113,107,106,111,107,111,109,104,106,111,107,106,111,109,108,109,111,108,106,108
108,112,104,109,109,112,111,106,108,109,107,111,107,104,109,106,109,106,111,110,112,106,108,112,109,110,113,111,113,113,112,110,107,110,109,108,112,108,108,106,110,108,107,117,105,108,107,105,107,109,111,112,111,108,110,108,109,108,105,108
109,109,110,113,107,108,107,106,107,110,111,110,105,111,113,108,107,109,112,118,115,111,112,111,113,109,111,113,112,108,111,109,109,112,109,110,112,107,110,108,107,104,109,112,109,107,106,110,110,110,113,110,106,106,104,109,109,110,105,104
108,106,109,108,108,105,110,105,106,111,109,107,107,109,111,112,107,108,108,106,105,110,115,113,117,109,116,112,111,115,115,108,109,112,109,105,105,109,110,106,106,111,112,107,107,110,111,108,110,112,106,103,108,107,104,109,112,111,113,109
108,106,112,107,107,103,104,105,110,109,106,107,110,108,107,110,108,113,110,112,111,115,117,108,118,116,113,113,113,114,113,112,105,108,109,108,107,108,111,111,108,110,109,109,107,111,108,104,107,108,106,112,112,108,110,109,106,108,108,104
107,108,109,113,108,107,109,109,110,111,109,107,112,103,105,111,110,111,110,113,111,113,111,114,119,120,120,120,124,120,115,116,111,108,107,106,104,109,106,110,113,108,107,108,107,112,111,108,105,107,107,113,112,110,108,103,109,109,106,111
108,107,104,109,106,108,108,109,109,112,111,110,107,107,108,105,108,111,111,115,114,113,113,116,118,116,120,136,130,133,121,116,113,111,111,110,108,111,110,107,105,104,110,109,108,109,108,108,108,109,105,110,107,107,113,109,109,107,107,110
107,108,107,108,109,108,111,110,110,112,110,111,107,108,105,109,110,108,107,109,107,116,113,115,117,121,134,145,140,134,120,121,115,117,114,113,106,109,108,108,109,109,107,109,113,109,109,106,111,110,105,108,112,108,108,110,107,107,108,106
106,109,110,106,106,109,110,112,112,107,106,108,107,107,108,108,109,112,108,117,112,114,116,117,121,130,144,147,142,136,130,123,116,111,106,107,108,112,110,110,112,113,107,113,108,107,107,108,107,106,107,108,112,112,107,106,111,112,110,106
106,107,109,109,109,108,109,108,107,110,104,105,109,109,112,111,113,108,111,115,113,111,118,124,120,128,147,150,136,139,126,122,118,114,112,110,112,106,107,107,114,108,108,107,104,108,105,106,106,107,109,110,110,109,108,105,105,108,107,111
109,104,107,109,109,110,106,108,108,107,108,109,107,110,108,110,111,112,114,113,115,115,117,114,118,130,148,144,136,146,135,123,115,118,111,113,109,109,111,111,106,102,108,111,108,112,108,106,111,107,111,109,105,109,109,110,111,112,109,112
108,108,109,109,110,108,108,109,106,106,113,111,109,112,108,113,112,114,111,108,115,114,119,122,129,133,151,150,147,146,137,126,115,114,112,114,108,111,110,105,104,109,106,108,108,107,107,109,109,109,111,105,110,110,106,110,110,109,106,107
107,106,109,109,114,107,107,111,111,113,113,110,110,109,106,112,108,110,112,110,109,115,119,121,124,134,153,148,150,146,134,127,120,118,112,112,109,109,113,107,109,108,109,111,109,110,110,110,108,109,109,106,112,106,111,107,104,111,106,105
107,105,108,111,107,103,106,108,111,113,109,112,110,111,114,112,110,108,108,112,116,117,119,118,123,131,148,150,151,146,142,132,122,117,113,110,111,111,111,110,109,106,110,108,108,114,108,109,109,108,108,105,111,108,111,110,105,106,107,110
108,109,110,108,105,107,110,108,105,107,112,105,105,109,110,108,110,109,110,108,115,116,115,118,127,136,145,152,152,151,150,141,125,113,117,116,110,107,112,109,107,108,108,106,108,108,106,110,111,109,109,108,110,106,106,108,105,108,109,107
106,110,112,109,108,113,114,107,105,106,101,105,109,105,106,105,110,113,113,111,113,121,117,121,129,136,148,157,153,155,150,140,129,120,115,113,112,113,109,110,106,111,106,109,112,106,108,109,106,109,108,110,110,105,108,106,106,108,103,109
107,114,106,107,112,112,108,110,107,111,108,110,112,110,110,110,111,111,109,115,117,117,117,124,124,136,147,159,158,153,155,142,129,124,119,113,109,111,110,112,112,108,103,106,108,104,108,107,108,107,105,109,107,112,107,106,108,112,108,108
107,107,108,111,109,107,107,109,106,107,109,108,110,109,107,111,112,110,107,112,111,119,117,127,122,138,148,153,160,153,151,140,130,122,115,110,111,109,108,111,114,108,111,110,112,107,108,113,109,107,108,109,107,112,109,110,109,110,106,109
108,106,109,110,108,111,110,109,113,110,112,111,110,107,111,109,111,110,111,110,114,115,115,126,131,141,156,162,155,152,152,141,128,122,119,115,117,108,108,109,113,106,106,110,106,110,108,109,111,109,111,112,109,110,106,104,105,110,111,110
109,109,108,108,109,110,107,112,108,104,107,109,107,105,112,109,109,113,111,112,114,113,120,126,132,137,156,157,156,157,155,149,129,124,116,114,114,112,107,110,105,108,111,111,110,110,111,110,107,109,109,107,108,106,110,104,108,108,108,107
108,107,109,110,105,108,108,108,106,108,106,112,108,108,112,112,110,108,108,112,112,116,115,122,127,136,157,167,178,179,167,148,125,120,113,115,109,109,107,115,110,109,111,113,108,112,108,106,108,108,111,109,107,104,102,107,113,114,110,107
107,106,107,109,109,110,110,110,110,106,108,111,109,111,105,106,109,109,114,114,114,117,118,123,130,128,158,184,207,208,180,147,128,117,112,114,108,110,104,107,111,108,107,107,108,107,106,105,105,108,111,114,112,108,106,106,104,104,105,106
109,109,108,109,111,111,112,109,106,108,114,109,104,109,110,114,107,109,111,112,114,116,122,119,128,129,151,181,212,206,188,146,124,116,118,118,110,111,114,110,108,110,113,110,111,106,106,107,110,106,107,103,103,107,109,103,111,106,108,109
113,114,108,108,109,108,107,110,111,110,108,105,106,109,108,106,109,111,109,112,114,118,114,116,124,131,149,170,189,185,179,151,132,119,116,116,115,112,113,111,109,109,110,112,108,105,106,107,109,107,108,114,113,109,108,109,110,108,109,110
109,104,105,109,108,113,107,110,109,109,106,105,109,111,106,105,108,110,109,112,109,115,118,121,124,133,152,166,169,175,165,148,133,121,114,115,115,115,112,110,110,108,111,109,106,107,110,109,108,114,110,109,109,113,109,104,105,108,109,116
114,108,104,106,108,108,111,112,107,104,107,110,107,111,106,111,107,113,114,109,110,117,116,118,123,132,148,160,161,159,160,142,133,117,115,116,116,107,112,110,109,107,109,111,113,108,107,107,108,107,106,108,108,105,109,108,109,108,105,113
108,108,106,108,110,109,111,110,111,107,109,109,106,106,107,109,107,108,109,112,112,111,116,122,122,131,142,148,150,156,154,135,126,119,116,113,116,108,111,112,111,112,110,112,112,109,107,108,110,104,110,108,106,106,106,107,108,103,110,110
107,109,105,107,108,109,109,108,106,109,108,106,111,107,109,112,111,109,109,107,107,113,115,121,130,137,150,148,144,148,145,131,115,119,112,111,110,110,109,112,112,108,109,109,112,105,108,108,107,109,115,111,108,108,106,105,110,110,109,111
109,113,109,111,109,109,108,110,107,109,109,110,108,108,112,106,108,110,112,109,110,115,119,118,123,136,149,147,144,143,136,130,122,120,110,114,118,112,116,112,111,104,113,102,109,109,110,110,109,106,106,108,106,107,107,106,115,115,112,106
108,111,110,109,108,109,107,108,109,108,113,111,111,110,109,106,108,110,113,108,111,112,116,118,121,142,160,152,144,137,134,124,120,122,121,118,108,107,113,108,112,109,109,107,108,109,107,105,108,111,116,113,106,113,111,113,110,110,108,106
108,109,109,107,111,104,109,110,113,108,104,109,113,109,105,110,110,112,114,107,109,107,116,124,126,143,148,150,153,140,132,126,115,109,112,115,115,118,109,105,106,110,106,109,110,111,110,107,106,106,108,112,109,107,108,109,107,111,106,108
109,109,108,109,108,104,111,107,106,106,108,109,107,107,105,108,108,109,108,107,118,112,111,122,129,144,158,160,151,139,135,130,116,115,117,112,108,107,109,113,111,111,113,112,107,107,110,109,107,109,108,104,106,110,110,107,104,105,108,108
106,108,108,110,107,108,110,105,108,107,109,110,109,111,116,112,110,108,106,107,115,117,112,119,128,142,159,160,156,148,141,130,118,114,117,112,111,110,109,107,112,110,111,111,110,107,108,106,109,110,107,105,106,111,109,102,108,106,103,112
105,109,111,112,111,109,113,110,108,111,107,106,111,109,106,110,107,108,110,108,111,111,113,117,122,142,162,161,161,154,144,137,124,120,112,110,109,111,112,108,107,111,105,107,107,108,107,108,108,107,107,107,111,111,109,105,110,106,104,107
110,109,111,110,108,109,105,109,106,108,109,113,109,106,109,113,110,106,111,110,110,106,110,118,129,143,162,164,163,160,161,144,121,115,112,115,112,110,111,109,106,110,112,113,107,111,106,111,111,106,106,106,109,108,112,112,110,110,114,107
107,109,111,107,113,113,107,108,105,111,110,106,106,107,110,107,102,110,113,113,115,108,110,115,125,145,157,161,161,161,154,139,122,116,115,114,112,113,112,110,108,106,112,109,110,112,108,106,106,108,111,107,107,109,108,107,111,105,112,107
106,106,107,104,107,110,108,107,110,110,106,107,108,107,107,110,109,111,108,112,112,108,116,115,124,140,154,157,151,158,156,143,126,112,113,110,107,107,106,104,106,111,109,108,110,110,108,109,108,109,108,106,104,111,107,108,113,106,108,111
108,108,108,106,109,110,109,109,109,109,105,108,109,111,111,110,109,107,109,111,107,108,113,117,124,131,156,157,160,152,153,133,119,115,114,113,112,106,107,110,109,109,107,108,107,113,108,107,110,111,108,109,107,109,110,111,105,105,111,113
108,106,110,109,111,105,107,106,106,112,107,110,110,112,108,108,108,105,107,109,108,114,106,110,123,138,151,156,154,145,147,133,119,113,112,114,114,111,107,108,111,109,109,105,106,114,110,107,107,106,109,109,112,108,103,108,106,110,103,107
111,110,110,109,108,107,109,107,110,114,105,106,109,109,108,110,110,110,110,106,109,113,109,111,123,135,143,151,146,147,135,121,116,115,116,117,113,107,110,106,107,106,111,110,115,109,106,111,109,108,113,106,109,109,108,107,110,110,112,110
106,105,108,107,106,108,107,105,110,111,109,111,112,107,107,112,110,110,110,109,109,106,111,112,119,121,134,132,142,145,128,120,120,114,111,110,110,114,112,107,107,109,111,106,108,109,105,109,110,109,107,104,110,108,110,108,107,106,105,107
104,104,112,108,110,109,108,108,108,108,110,108,107,108,109,109,107,110,109,113,110,106,112,111,117,120,125,127,137,129,116,115,118,113,110,112,109,114,108,111,109,115,107,108,106,109,112,109,109,108,108,108,107,106,105,106,107,109,103,105
110,109,107,105,107,105,108,109,109,109,105,107,109,112,109,107,106,108,103,111,110,106,107,112,117,118,120,121,121,119,114,116,114,112,111,109,107,116,114,111,106,108,108,110,108,108,111,110,109,107,109,111,107,108,112,109,107,109,114,111
108,108,105,106,104,109,111,108,108,112,105,111,104,108,110,107,108,112,111,108,105,108,113,108,107,112,113,117,113,115,115,112,112,107,111,111,109,109,109,110,107,107,110,112,108,109,110,107,112,107,107,105,109,107,109,110,108,106,106,110
107,109,109,110,103,109,107,106,109,109,108,106,106,112,113,108,111,110,107,108,107,113,108,108,106,111,108,114,115,109,113,115,114,110,111,110,111,109,111,108,109,114,110,108,111,111,106,108,109,107,109,107,109,107,106,108,106,110,107,105
104,109,105,107,109,108,107,109,110,108,111,107,109,106,108,109,110,105,111,112,109,111,109,108,108,110,108,110,109,106,111,112,109,116,111,104,112,113,110,105,109,111,108,105,108,104,108,112,107,108,110,107,108,112,106,111,109,108,110,109
109,112,111,110,111,111,106,108,110,110,108,106,106,111,107,110,110,107,107,106,111,109,111,111,109,113,111,110,111,112,106,109,111,111,109,111,115,113,107,108,112,110,107,109,110,108,109,110,109,110,111,109,108,109,109,112,110,103,105,112
107,109,107,109,108,108,109,110,109,104,106,109,108,109,108,107,106,115,112,107,107,107,107,112,108,106,109,113,111,110,107,107,110,108,108,113,110,106,109,112,109,108,110,107,107,110,108,107,106,111,109,105,111,107,106,108,108,106,103,108
108,109,111,109,108,109,105,109,110,108,110,108,110,113,108,112,109,112,107,112,110,106,110,109,107,109,109,108,109,113,110,108,106,112,109,110,107,105,106,109,108,107,106,105,107,106,107,109,110,109,105,107,109,105,106,111,109,111,103,110
108,111,109,108,110,111,109,110,109,105,105,106,110,108,108,105,104,106,104,108,108,107,110,108,110,110,110,110,109,106,113,113,103,107,108,113,111,107,108,107,106,109,110,113,111,107,108,108,112,107,111,105,109,109,110,111,109,107,109,113
105,109,107,107,112,105,110,109,107,108,113,106,106,108,110,110,111,110,106,112,107,108,111,105,111,111,105,106,108,110,107,106,112,110,109,109,105,110,109,109,108,110,111,110,106,108,112,103,108,112,107,103,109,107,110,107,107,105,106,110
109,109,110,103,107,109,108,108,106,106,109,108,112,113,110,106,111,111,110,111,109,109,108,106,108,112,107,107,107,109,107,108,111,109,110,103,108,111,109,110,103,111,110,103,110,109,108,110,111,110,106,108,109,107,108,108,111,107,106,110
111,108,109,108,111,112,109,113,106,105,108,110,110,107,111,109,111,111,111,109,114,111,112,111,106,108,112,113,108,108,111,115,106,104,110,108,112,107,105,111,107,107,107,108,107,106,106,107,110,112,108,104,108,110,106,107,108,106,109,107
111,110,109,106,106,108,105,111,108,111,111,108,108,110,108,112,108,111,111,113,111,106,106,108,108,109,108,110,109,108,106,107,106,109,106,109,108,108,107,110,106,107,111,112,108,107,108,107,108,104,106,106,110,110,107,110,110,107,110,110
108,110,109,112,108,110,112,110,108,105,107,109,107,105,107,110,107,109,105,108,106,107,103,110,104,110,110,107,113,114,114,107,107,113,114,113,113,108,107,106,102,112,111,107,112,111,113,107,105,108,111,109,109,106,108,110,107,108,111,109
110,106,106,109,108,111,109,108,111,109,111,112,108,112,108,111,110,105,106,107,106,105,107,109,109,111,108,107,107,102,107,107,109,107,106,108,106,109,109,106,110,110,105,107,107,106,108,108,106,107,105,107,113,110,106,109,107,107,109,106
109,110,112,109,104,107,106,112,109,111,106,108,108,113,108,108,110,108,106,109,110,107,107,112,114,110,106,108,108,106,107,107,110,109,107,111,108,105,109,111,109,105,107,108,108,106,106,106,108,111,110,108,108,104,106,108,107,112,111,106
111,107,108,109,105,110,112,112,106,105,108,106,106,106,109,106,106,112,107,109,108,108,106,105,109,107,110,110,109,109,107,108,110,113,108,107,109,107,110,106,104,110,112,107,109,108,107,109,111,109,105,111,108,106,109,109,109,107,109,107
108,106,104,105,109,112,109,107,108,108,108,106,108,106,112,112,111,109,105,108,103,110,108,106,107,109,107,109,109,110,114,105,110,112,107,106,107,110,108,109,108,113,112,107,109,106,110,110,109,108,101,106,107,112,107,108,110,104,109,108
104,109,107,106,111,110,109,106,104,110,115,108,106,110,105,109,112,107,107,110,107,108,109,109,108,109,109,109,104,112,108,105,110,107,110,112,110,107,108,111,109,108,106,105,112,109,108,106,107,111,111,113,110,108,110,109,108,108,109,109
108,112,105,105,112,108,107,109,108,108,106,113,111,106,111,111,103,105,113,107,109,109,107,106,108,110,113,112,109,112,104,109,111,107,111,110,108,101,104,106,109,106,108,111,110,108,108,108,111,109,110,102,109,107,108,109,107,108,108,109
111,112,110,108,104,107,110,107,104,111,107,108,109,109,110,107,106,103,109,110,109,111,109,105,113,110,111,109,109,107,108,111,112,109,110,109,112,111,109,107,109,107,111,110,104,107,106,110,111,108,110,111,112,107,104,105,105,112,109,108
108,105,107,108,113,109,110,110,111,112,111,108,112,104,103,112,110,107,107,110,111,107,105,110,112,109,108,109,111,104,110,111,111,111,105,106,110,110,110,113,112,107,109,103,104,109,106,107,109,113,108,111,110,111,107,109,110,107,109,107
106,108,111,105,108,108,109,105,110,109,108,105,107,106,107,108,109,109,108,107,104,106,111,107,103,108,106,108,108,105,108,107,105,111,105,110,109,107,110,107,111,109,110,110,110,106,111,104,101,109,108,110,103,107,108,107,109,106,105,105
105,109,107,108,108,112,110,105,106,113,108,109,111,108,109,108,107,114,105,107,105,113,108,106,108,108,109,105,105,109,111,106,106,109,107,114,110,104,106,113,112,108,108,111,112,113,108,107,109,106,108,110,105,108,110,109,105,110,110,111
109,109,103,108,108,104,105,110,108,109,108,110,109,105,107,111,105,111,110,107,103,107,105,109,107,106,111,108,109,107,110,104,109,108,112,109,104,106,111,107,109,110,108,108,111,108,103,109,110,110,107,107,108,109,113,111,103,112,107,106
111,105,104,113,109,103,105,109,112,103,110,109,104,106,109,106,108,105,107,109,110,111,106,110,108,111,110,107,111,109,107,109,103,104,109,112,108,105,109,105,110,109,109,109,108,101,105,110,109,108,109,109,111,108,109,107,110,108,109,111
112,106,111,104,109,109,110,109,110,111,110,107,108,106,106,106,110,106,110,107,109,107,105,106,107,105,102,106,111,109,105,110,113,111,108,111,107,111,110,107,114,107,108,103,107,111,110,108,111,108,107,112,105,110,110,106,108,105,110,109
108,110,109,106,108,110,113,106,107,112,110,107,109,109,110,110,108,109,108,107,109,108,105,109,108,108,108,111,109,107,112,108,108,112,110,106,103,109,109,107,111,107,103,106,109,108,104,109,112,108,109,111,106,110,109,107,109,108,106,109
106,108,106,110,110,105,110,108,114,111,110,105,104,107,107,107,102,109,111,109,107,107,107,107,105,106,103,113,111,104,106,110,113,111,111,108,109,110,109,108,109,108,109,108,107,110,109,108,111,106,110,104,109,110,108,106,107,110,108,107
110,110,108,106,108,106,110,112,111,110,109,106,107,107,108,111,112,113,111,112,108,107,105,105,108,108,111,108,109,112,109,112,111,109,110,110,108,109,106,106,106,106,107,109,107,106,111,105,109,105,107,110,109,105,109,108,108,106,108,107
105,106,108,111,111,109,105,105,107,110,106,105,109,110,110,110,104,108,108,112,108,111,110,110,111,114,109,102,109,105,106,110,109,109,109,107,108,104,104,113,108,109,109,111,112,108,107,109,111,109,107,110,108,110,109,110,109,107,109,107
109,110,109,108,110,111,108,108,108,110,107,109,107,110,109,106,109,112,110,111,105,109,109,105,106,111,104,105,110,109,112,106,106,105,108,108,111,111,107,108,109,107,109,108,107,110,106,106,107,110,110,110,105,108,108,110,107,112,110,111
107,109,110,107,106,107,107,111,109,105,104,110,108,108,108,108,107,107,108,108,107,110,109,108,108,113,111,109,110,108,111,112,107,110,105,108,106,104,110,112,109,106,108,111,108,113,109,108,103,105,110,111,105,108,111,109,108,109,105,109
110,107,105,108,106,106,108,105,108,104,110,107,106,108,106,108,106,109,105,108,107,108,108,109,106,111,112,109,107,107,110,107,107,111,108,111,104,107,111,105,104,106,106,111,105,107,109,111,110,110,108,107,107,107,108,110,110,106,108,110
105,107,109,111,112,112,111,109,109,108,110,108,106,110,108,108,111,110,106,108,104,107,110,109,107,107,107,111,108,111,108,102,108,110,112,111,109,108,109,104,110,108,103,109,108,104,107,113,108,108,105,103,106,110,108,111,106,106,112,106
107,111,109,105,111,111,108,105,106,110,106,110,109,110,110,110,112,109,109,111,108,108,108,108,108,110,107,104,106,106,110,108,112,110,110,108,109,109,109,109,109,106,110,113,107,109,112,107,105,108,113,107,107,112,110,111,108,111,110,106
108,111,111,105,108,106,108,112,112,111,108,108,109,106,104,107,109,107,109,109,103,112,107,110,106,108,106,108,112,108,110,105,107,109,108,109,106,111,110,107,104,107,108,106,106,111,113,104,109,108,111,107,108,106,104,107,107,108,108,109
106,105,109,107,107,108,109,107,106,109,111,109,109,109,107,107,105,108,110,111,109,113,109,112,107,111,105,107,113,112,110,112,108,108,110,110,109,109,106,104,110,109,109,106,107,110,111,108,107,110,106,103,109,108,108,110,105,108,109,104
109,110,111,105,109,113,106,108,108,107,109,106,107,104,107,107,107,110,110,109,106,105,105,108,110,110,108,110,107,108,108,106,104,105,111,105,110,108,111,110,109,103,107,108,108,108,105,107,109,109,104,108,110,106,107,107,109,106,110,106
114,104,107,109,106,107,109,113,109,108,105,106,110,108,106,107,110,104,108,107,113,112,108,107,105,108,107,108,107,104,111,108,108,109,109,105,110,111,111,110,104,108,108,107,106,109,102,106,108,110,107,109,110,108,110,107,111,107,109,107
