56,60,64
109,107,112,105,111,110,108,109,111,108,107,106,103,106,110,108,110,106,109,110,105,107,105,107,107,111,108,109,105,111,111,106,105,110,107,109,110,112,107,108,108,108,110,107,111,108,108,106,105,111,105,110,104,109,106,106,110,109,110,109
106,104,108,106,110,107,108,109,112,110,109,111,109,109,109,106,112,107,108,112,106,107,109,111,108,108,110,108,105,107,111,110,108,107,107,106,106,107,106,108,111,109,111,106,108,108,109,108,104,109,106,112,108,111,108,108,106,108,109,109
107,107,106,105,109,107,107,108,112,111,103,103,109,108,105,106,111,107,107,108,109,111,109,110,111,107,106,106,107,105,108,108,110,105,108,108,108,108,110,109,109,106,110,107,108,107,107,107,109,110,107,111,105,102,110,113,110,107,109,108
109,110,108,108,113,110,109,107,107,108,113,109,105,108,108,108,111,109,109,106,106,109,107,107,108,111,110,106,107,109,108,104,109,105,106,107,114,108,105,111,110,106,107,109,109,111,111,109,110,108,109,105,104,107,108,110,109,106,107,105
107,108,108,107,104,108,110,109,107,103,108,107,108,111,110,108,111,111,108,110,109,109,108,109,106,108,111,109,107,108,106,110,115,111,110,109,113,108,106,107,109,112,109,107,104,107,109,105,113,108,113,113,107,109,105,104,107,111,108,107
107,107,109,110,105,109,108,106,108,103,107,108,109,110,112,105,107,108,105,108,107,108,109,109,109,107,109,110,112,111,107,110,109,104,110,110,108,110,111,108,108,110,107,108,107,106,111,107,107,104,104,112,108,109,109,111,109,109,109,109
109,106,105,109,108,111,109,109,109,110,110,108,108,106,109,107,107,110,110,109,108,107,106,109,108,105,106,106,106,106,110,110,112,110,111,109,107,113,110,110,106,108,109,110,108,105,108,112,110,108,105,112,110,108,106,107,107,101,108,105
111,110,107,114,110,106,109,110,106,110,110,108,111,107,110,110,107,109,108,107,106,107,105,109,106,107,107,110,104,104,111,105,104,112,110,111,110,110,105,112,107,107,110,108,109,111,113,111,108,112,105,107,107,110,107,104,110,106,109,106
108,107,105,111,108,109,110,105,109,107,107,107,111,108,109,107,106,109,108,107,105,112,111,110,107,108,105,107,106,109,110,107,111,112,106,108,106,109,106,109,108,112,111,105,107,105,107,107,104,109,110,109,105,108,109,112,108,103,107,108
106,107,107,108,104,105,107,107,113,111,112,109,110,109,110,106,110,110,109,109,105,107,108,109,108,112,112,104,104,110,107,108,105,108,106,108,106,111,108,106,104,104,109,107,109,107,111,114,105,104,107,108,109,106,104,109,107,105,106,110
106,107,106,108,107,105,107,110,107,102,106,108,109,105,106,104,108,109,109,107,106,108,106,109,108,108,113,109,110,109,106,109,104,111,108,112,109,112,114,111,108,107,114,108,108,107,107,110,108,110,106,106,111,108,108,110,105,109,108,108
107,106,108,110,105,105,106,110,110,108,109,105,111,111,107,108,108,108,109,107,107,114,110,108,108,106,109,104,108,108,108,108,103,107,104,107,109,104,110,113,112,109,106,106,107,106,109,109,108,112,108,109,109,107,108,109,104,109,107,108
108,103,111,110,108,113,104,104,107,108,108,108,111,108,106,108,108,110,108,107,105,108,105,108,108,108,111,108,107,109,109,110,104,103,107,106,109,110,109,113,110,108,110,110,107,104,105,106,108,110,107,111,107,106,103,109,108,110,111,108
111,107,109,108,109,111,106,107,111,108,105,108,106,105,109,106,107,108,109,108,107,110,109,109,108,107,111,108,106,105,107,111,106,107,110,112,107,107,107,106,107,108,110,107,110,112,113,111,111,110,109,114,105,108,105,108,107,106,109,108
108,110,106,106,109,109,112,106,111,112,108,109,109,107,109,108,104,107,108,108,110,108,110,109,105,106,106,102,108,108,109,109,106,108,107,112,105,104,110,107,109,107,108,109,111,110,108,104,106,106,104,107,106,113,107,107,111,110,109,104
105,108,108,106,111,111,111,108,107,112,110,107,107,110,111,113,107,106,109,108,112,111,108,108,106,107,110,108,108,108,114,114,111,109,108,112,111,111,113,108,109,109,108,109,109,108,110,110,110,112,110,106,109,108,107,107,111,107,109,108
110,108,106,104,109,110,106,108,107,106,105,108,110,109,109,112,108,103,106,110,108,105,102,110,109,105,113,109,108,106,108,107,106,111,108,110,110,109,107,104,105,108,109,108,108,107,106,108,105,103,106,105,110,106,108,108,113,109,110,111
109,107,107,104,108,111,106,106,105,107,109,107,109,108,105,109,111,108,109,111,106,107,106,112,110,106,111,106,109,110,113,109,104,108,105,108,107,108,104,105,106,108,106,106,108,108,104,109,109,108,109,106,106,107,109,106,110,107,106,105
111,109,112,109,107,108,107,109,109,110,106,106,110,110,105,106,108,108,110,109,102,108,105,109,110,103,108,104,108,109,107,110,109,109,103,108,112,109,106,110,108,106,105,109,113,110,107,108,106,105,108,106,109,111,106,106,106,108,108,109
107,104,109,111,111,107,111,108,108,110,106,105,111,112,107,109,111,106,108,112,109,106,102,109,111,104,109,110,111,108,106,112,106,109,106,108,110,107,110,109,106,106,105,107,109,107,105,108,110,103,106,104,107,110,106,108,107,110,105,109
106,107,107,105,109,105,106,107,109,106,106,107,107,110,112,110,110,108,106,108,110,106,106,109,111,109,106,107,111,109,108,112,107,110,111,107,107,105,107,108,109,108,107,106,107,111,108,108,109,104,108,109,107,109,110,110,108,110,106,107
107,106,107,107,111,107,108,108,110,109,107,107,105,103,111,110,107,109,106,105,107,106,110,110,109,109,107,110,109,105,108,111,111,107,109,106,105,111,111,110,106,105,108,106,106,108,108,107,110,106,110,111,105,109,110,106,104,109,113,107
108,107,105,108,108,106,108,109,106,109,110,109,115,106,110,109,109,110,107,106,109,109,110,109,106,107,105,108,109,108,109,109,109,108,108,110,105,108,115,110,110,109,112,108,108,108,111,106,105,105,108,112,107,107,112,111,106,106,110,109
112,107,103,108,107,108,110,108,107,107,108,101,109,106,111,106,108,109,108,105,104,104,107,111,112,111,107,110,109,109,109,108,107,110,112,112,107,100,110,109,112,108,110,105,109,105,108,110,108,108,109,113,111,108,107,108,110,108,112,106
110,111,106,111,110,112,114,110,108,106,109,104,109,105,110,107,107,112,111,111,106,106,109,106,105,107,105,111,109,106,108,110,108,112,107,109,108,104,109,105,110,108,109,107,111,106,110,110,111,113,108,106,110,108,109,103,107,106,105,111
109,109,106,111,110,105,106,110,109,108,111,105,109,108,109,110,105,108,108,108,108,109,108,110,110,111,108,109,110,108,112,111,105,105,107,112,110,105,106,104,113,109,109,111,111,107,108,105,106,109,106,102,111,108,109,105,109,110,107,111
110,106,104,105,108,107,108,110,107,110,116,109,111,109,107,108,107,108,108,110,112,111,106,107,105,106,111,107,110,107,109,113,109,105,108,109,109,107,111,107,115,107,108,107,109,107,108,109,111,111,110,107,109,110,109,105,107,112,108,107
106,103,103,113,110,104,109,111,110,103,106,109,112,108,110,110,108,107,112,109,106,107,107,108,113,107,109,107,105,106,104,109,108,105,108,111,110,105,105,104,112,103,111,107,103,110,111,106,106,105,109,106,105,108,109,108,103,107,108,110
108,111,109,112,111,107,109,110,109,106,106,107,112,112,106,108,108,105,110,109,106,110,109,106,109,107,105,111,108,109,105,108,112,107,107,107,106,108,109,113,114,105,109,107,108,109,107,107,111,107,112,109,107,109,109,108,106,108,106,106
103,108,107,108,104,107,109,108,110,111,110,103,104,111,105,104,105,110,109,107,107,109,112,111,110,107,104,109,106,109,108,108,108,101,105,109,108,107,106,114,113,107,107,102,106,110,111,110,108,105,112,107,106,107,107,111,106,107,111,105
110,110,107,108,104,109,110,107,107,104,112,114,110,107,109,112,110,110,105,103,108,110,108,106,108,109,106,113,110,108,105,107,110,110,110,113,108,104,106,109,106,108,112,109,107,110,109,110,107,104,106,107,108,106,106,110,107,103,109,104
111,107,107,108,107,107,104,108,114,108,108,108,109,106,106,107,108,110,107,109,111,107,105,108,110,109,107,109,105,108,108,108,104,110,110,115,109,104,105,106,105,108,107,109,109,108,106,109,108,109,107,112,110,107,109,109,109,110,107,106
112,107,108,104,107,105,109,111,110,109,108,108,106,106,109,112,108,111,107,109,109,106,107,107,107,112,109,109,109,112,104,109,108,107,103,109,109,112,109,110,103,108,108,109,106,108,106,106,107,108,108,114,105,104,107,107,107,111,109,109
111,105,108,109,112,105,103,106,109,108,108,108,108,108,110,110,105,111,108,108,106,105,111,107,105,110,106,108,107,111,106,106,108,113,110,107,108,114,107,113,106,107,106,110,108,110,107,109,107,109,107,110,110,110,110,109,108,105,107,108
112,109,111,106,107,106,105,108,110,106,110,110,107,108,107,108,104,105,108,109,108,109,112,107,106,109,107,109,109,108,104,105,105,109,111,109,107,110,106,105,106,112,108,107,104,111,108,107,108,106,107,108,106,106,109,105,107,105,106,107
108,106,113,110,111,105,106,106,106,106,111,109,108,110,110,109,112,108,110,106,109,107,109,107,107,108,114,112,111,108,102,105,106,105,106,109,109,110,109,107,105,110,109,109,106,110,110,102,104,105,109,107,107,111,111,111,112,111,107,106
108,105,105,102,112,111,115,112,108,108,111,108,109,110,110,108,107,107,109,106,110,107,108,108,102,103,110,106,107,110,109,109,112,115,110,111,110,111,108,113,108,111,110,109,106,106,109,107,109,106,109,107,112,109,108,110,109,109,107,106
108,110,109,107,109,107,108,107,108,109,107,107,110,109,105,106,109,108,110,111,112,109,112,108,105,110,109,106,106,103,106,107,106,109,102,109,105,105,110,115,104,108,105,107,109,109,112,109,109,109,112,106,109,106,109,111,106,106,109,108
115,112,110,107,108,110,111,108,107,109,108,109,108,109,106,104,106,106,107,108,108,107,113,108,105,105,108,108,109,106,103,109,111,110,105,112,110,104,106,108,109,112,109,106,107,108,110,107,106,107,110,104,108,110,105,109,110,108,110,109
105,108,112,109,111,110,109,113,110,110,110,112,110,106,108,109,105,110,110,106,106,108,108,109,110,110,112,107,109,113,108,108,106,106,108,107,104,109,109,104,111,111,110,107,109,107,108,107,108,107,108,109,109,108,109,107,110,109,106,108
105,109,108,107,109,106,103,106,108,109,105,108,108,104,108,113,104,108,108,104,102,109,109,111,109,108,104,105,107,108,114,106,107,109,108,109,106,109,108,105,107,102,106,107,109,106,111,109,114,109,108,109,109,105,106,104,106,109,109,108
106,111,107,107,109,109,113,105,107,109,106,111,111,111,105,106,105,108,106,108,107,106,107,104,105,108,111,113,109,105,111,105,104,109,105,107,106,106,108,110,113,109,111,109,108,105,107,103,107,104,108,111,111,107,105,111,106,108,109,100
111,112,111,107,108,105,110,105,109,109,107,112,108,110,111,107,108,110,111,110,110,106,107,107,107,104,107,108,110,113,113,111,108,112,112,114,114,115,110,110,105,105,107,109,107,106,108,108,108,108,107,109,108,108,107,107,102,113,113,107
114,106,111,108,106,107,112,107,107,109,105,110,106,107,109,110,109,106,108,105,110,105,108,108,110,110,109,109,107,108,104,108,107,107,105,105,101,111,106,108,107,107,106,110,113,110,112,112,105,108,109,108,106,107,105,108,110,108,106,112
110,108,109,109,106,110,110,109,110,113,106,108,109,112,107,108,107,109,110,102,108,107,110,106,107,109,110,112,109,114,106,112,110,110,112,113,107,113,107,108,108,111,109,109,112,107,109,110,109,109,113,107,107,109,108,108,113,107,107,110
106,109,105,107,108,112,107,110,110,106,107,107,104,108,104,108,106,105,110,111,108,106,110,110,106,105,108,113,107,111,106,108,106,107,106,105,106,114,108,109,110,109,109,107,111,109,108,104,105,106,109,109,111,110,108,105,106,108,110,106
106,112,107,109,110,111,108,105,107,109,109,107,108,115,106,105,108,108,107,109,107,109,111,113,109,104,107,110,106,111,111,111,110,110,109,107,104,108,104,107,109,108,108,105,111,112,107,108,104,109,109,106,111,110,106,108,111,112,110,106
106,116,111,109,109,110,111,109,108,107,107,109,107,108,111,109,108,108,109,113,110,105,106,107,109,106,111,112,111,112,115,111,114,112,108,104,106,113,110,108,104,110,111,110,110,111,106,112,107,110,111,106,112,108,105,103,109,108,107,111
109,107,107,103,104,107,112,112,109,109,110,107,108,109,111,108,107,105,103,110,106,105,112,110,109,108,113,113,112,112,115,113,113,112,111,109,109,109,110,107,106,108,110,111,105,110,106,107,107,107,110,109,109,105,111,104,105,107,107,109
110,109,112,108,110,105,108,109,110,111,110,109,110,112,110,107,111,114,109,109,106,106,110,109,108,105,109,116,117,119,118,121,120,116,113,110,113,112,110,107,110,107,108,109,104,111,108,109,111,109,106,112,111,107,109,109,111,108,106,105
108,112,111,106,108,109,110,104,103,107,111,113,107,106,108,109,110,110,106,110,109,108,114,113,117,115,116,121,119,120,121,121,122,118,117,111,112,112,108,105,107,111,110,108,103,108,110,110,108,110,107,110,108,106,107,107,106,105,109,104
108,111,111,111,108,110,110,110,107,110,108,111,113,108,107,111,112,110,104,110,110,112,112,112,113,114,114,120,129,133,138,135,128,117,119,112,109,112,114,110,107,107,106,110,109,109,107,106,108,108,106,109,109,108,110,104,105,108,114,110
109,107,107,109,105,110,108,112,112,110,107,109,112,110,107,113,108,110,113,110,109,112,112,116,118,123,133,136,143,143,140,143,140,126,119,118,113,112,113,111,108,110,105,107,107,107,106,106,112,114,113,108,111,109,112,106,106,107,109,106
108,106,106,107,106,111,106,107,109,109,107,106,110,110,105,111,113,110,115,108,111,112,114,118,122,132,147,168,177,176,165,152,147,133,119,118,113,109,107,108,111,109,107,108,110,108,111,110,106,106,110,108,110,109,107,107,110,109,109,109
111,113,111,109,107,112,108,108,110,107,106,108,114,109,107,107,111,109,111,110,111,108,111,115,126,144,171,216,225,224,216,178,153,136,128,121,114,113,111,113,110,105,109,108,109,111,111,109,104,106,109,110,110,108,107,108,108,103,105,106
107,111,107,106,106,111,107,107,109,109,107,107,111,108,112,108,108,111,113,114,113,114,119,119,132,149,192,229,242,244,239,202,165,137,131,121,114,111,102,108,108,106,113,111,105,109,111,109,110,110,109,108,109,109,108,110,109,108,112,107
107,111,110,111,111,108,106,106,104,107,109,111,108,106,113,108,108,107,111,115,112,112,120,120,137,161,208,241,259,251,250,222,176,140,130,116,115,115,112,105,108,106,110,108,109,108,112,108,104,113,110,104,108,109,106,107,105,107,110,110
106,109,106,107,109,107,107,109,110,112,107,111,108,109,112,108,112,112,113,111,112,115,123,127,138,174,216,245,252,248,252,229,181,142,130,119,114,112,113,108,108,107,110,108,109,105,108,109,102,109,106,108,112,107,104,113,108,107,108,110
110,109,112,110,109,111,106,108,106,109,109,110,106,111,111,110,112,110,110,114,119,117,121,133,139,173,212,244,253,246,239,224,192,145,131,120,114,116,110,114,108,107,110,106,110,107,105,106,104,108,108,108,107,107,107,115,107,105,109,110
108,106,110,108,106,108,105,110,107,109,110,110,108,110,111,110,110,110,118,116,118,120,127,133,139,168,206,237,241,231,229,213,182,147,133,121,112,114,109,112,105,112,110,104,104,107,108,108,107,107,109,107,105,107,108,107,110,108,111,111
109,111,112,112,114,112,110,113,110,117,111,111,112,111,112,112,111,107,119,114,116,118,121,130,145,170,206,234,237,229,221,201,172,145,129,124,118,119,115,116,109,116,107,107,107,110,111,107,111,106,108,112,108,102,112,107,106,109,108,109
109,114,115,111,115,117,113,110,103,112,108,109,108,110,112,111,111,112,117,114,118,119,122,133,140,155,188,221,221,217,209,187,164,147,138,130,124,123,118,115,109,110,104,109,108,106,108,107,106,107,107,106,109,108,112,107,110,113,112,109
117,119,125,120,122,115,108,114,108,108,107,110,108,108,106,112,114,115,114,114,120,120,117,129,138,151,194,222,219,210,205,180,160,138,135,122,118,116,116,119,113,113,109,107,108,109,108,110,106,108,107,106,111,105,107,107,108,106,113,108
126,133,135,125,125,119,120,114,109,109,108,109,108,110,108,112,112,110,113,113,117,118,119,130,140,149,180,217,234,212,215,195,172,147,144,123,114,114,111,118,108,109,106,106,112,108,109,111,106,113,108,107,110,107,108,109,109,105,106,109
123,130,137,139,136,123,115,108,114,111,106,110,111,110,111,112,112,111,111,109,115,119,121,130,136,147,167,210,230,219,215,210,186,142,127,120,111,113,109,113,112,111,112,109,111,105,106,108,104,107,107,108,106,106,103,105,104,108,108,112
126,133,134,136,129,120,117,111,112,113,112,110,110,108,106,106,109,108,112,113,118,122,119,124,127,137,160,194,218,224,218,213,174,137,123,118,113,110,110,111,111,108,104,108,113,110,110,104,111,111,111,113,107,111,106,107,107,108,109,109
130,142,143,138,127,122,118,114,108,107,108,111,110,112,112,112,114,108,114,118,114,112,118,121,123,132,148,174,206,225,207,182,150,133,124,118,113,107,108,111,107,112,109,111,109,106,110,104,110,108,109,111,108,111,107,104,110,109,107,106
123,132,136,132,122,116,106,113,111,109,108,114,110,109,108,107,108,107,112,115,114,114,122,119,121,127,134,150,160,179,179,158,132,119,116,115,115,107,109,109,104,109,111,111,107,107,105,108,110,106,108,107,111,108,110,109,111,106,107,110
118,119,118,115,115,115,114,113,109,112,108,110,111,112,111,110,110,110,113,113,112,113,120,120,122,120,128,139,137,138,137,131,122,118,116,113,115,108,109,111,108,106,105,109,106,107,106,111,109,109,115,108,108,106,108,104,111,108,107,110
115,115,113,109,105,106,107,108,108,109,110,109,110,109,111,111,115,113,111,109,116,115,114,117,118,121,125,128,123,120,118,117,116,114,111,111,114,107,108,108,104,110,108,108,107,109,112,110,110,111,113,105,110,107,107,107,112,109,109,108
109,110,112,116,110,108,108,110,109,108,108,108,109,106,107,108,110,110,113,106,110,112,115,115,113,116,112,116,117,119,116,112,112,113,110,107,110,110,107,110,105,110,111,109,108,105,106,106,105,107,111,109,111,105,110,109,106,109,108,108
109,108,107,113,109,107,108,109,109,107,110,109,108,109,106,107,106,108,112,112,112,112,111,111,110,116,111,114,115,113,115,114,114,115,109,109,108,110,106,114,109,105,107,108,107,108,111,110,107,106,106,105,110,107,110,108,102,111,106,110
108,111,107,107,106,107,106,111,113,110,111,113,109,109,107,109,109,109,106,113,109,116,111,114,113,113,110,113,115,111,110,109,109,112,108,112,110,113,100,109,107,104,109,108,107,110,110,105,107,111,110,106,107,107,111,109,104,110,112,112
110,106,110,111,110,111,109,107,110,109,106,109,108,110,106,104,110,112,104,111,104,111,109,109,111,110,112,112,107,108,108,111,111,110,105,111,107,112,111,112,114,108,110,108,111,109,108,104,108,105,107,106,109,110,109,110,107,103,107,106
114,106,110,110,108,105,106,105,110,110,110,113,106,110,109,104,109,110,108,107,109,112,110,113,112,108,112,112,103,106,106,110,112,113,109,109,111,110,110,107,106,105,111,107,109,107,108,102,111,109,107,104,107,111,107,105,108,107,110,107
107,106,108,108,110,108,111,112,107,107,106,107,107,108,106,108,111,111,110,107,110,107,109,111,112,109,111,107,108,111,106,110,110,108,111,108,107,106,108,112,111,107,107,105,108,108,111,110,108,107,110,112,107,108,109,106,111,108,107,109
110,107,107,107,111,107,111,111,110,113,109,104,107,107,105,110,109,110,107,102,112,107,110,111,109,106,108,106,110,105,107,114,111,108,107,110,113,111,107,104,111,106,107,107,108,106,109,112,105,105,109,111,107,109,110,107,111,108,109,108
110,105,111,108,108,104,108,107,108,107,111,110,113,109,112,111,108,111,112,105,110,110,108,108,112,113,109,111,112,102,105,113,110,109,108,112,108,108,110,104,111,106,108,106,111,110,107,109,110,108,108,109,107,110,111,113,112,104,110,107
108,105,106,102,110,110,108,110,109,106,109,106,107,108,107,104,107,112,110,105,107,108,108,108,107,111,104,110,116,106,101,106,106,103,103,110,108,108,108,105,114,108,109,107,107,113,109,105,106,105,107,109,107,109,106,113,113,104,109,108
108,109,107,106,107,114,103,108,107,108,106,109,107,111,110,105,108,110,107,108,110,108,107,111,110,109,109,107,109,107,110,111,109,107,110,111,107,108,114,105,107,108,107,110,108,108,104,104,110,108,109,111,110,108,103,108,107,108,107,109
110,111,106,110,106,113,110,112,109,112,108,112,108,112,110,108,111,115,109,109,109,109,109,108,108,104,110,112,111,106,108,110,110,110,110,111,107,105,112,104,109,112,108,107,104,108,110,112,113,110,111,111,110,104,104,110,107,107,107,113
108,108,106,109,105,110,110,107,109,112,107,108,107,110,108,107,102,103,105,107,107,108,113,111,108,106,108,106,110,109,108,106,105,108,110,109,109,109,113,110,108,114,110,109,110,108,107,107,104,106,107,106,112,106,104,111,115,110,110,114
110,110,107,110,108,113,109,108,109,108,109,105,107,107,106,109,107,105,108,110,109,108,108,109,109,109,109,104,112,107,108,112,106,103,110,109,109,113,110,109,102,110,106,104,112,107,106,107,104,109,112,110,109,104,106,109,107,103,107,104
106,109,105,111,111,111,107,108,106,107,110,105,107,107,106,108,109,111,110,110,109,110,108,112,109,103,109,106,105,106,106,107,108,110,108,107,110,110,108,111,104,109,105,109,112,107,108,112,109,107,111,113,112,111,111,107,107,112,111,106
107,111,109,108,104,106,109,110,107,106,108,107,109,107,106,107,104,113,111,109,108,110,103,109,111,110,108,109,108,107,105,108,106,112,108,106,112,103,107,113,111,109,105,107,108,107,109,108,108,104,109,110,110,110,110,106,105,110,110,106
106,107,113,112,109,110,107,106,108,107,109,110,107,110,110,109,106,109,110,111,107,106,106,110,107,106,109,107,111,109,105,110,107,107,102,103,112,105,107,106,111,110,103,107,106,106,108,107,107,108,110,108,108,108,108,109,110,109,108,108
110,106,106,104,108,111,108,109,108,110,105,109,104,105,110,109,108,107,108,108,110,104,104,108,108,110,113,108,108,111,112,112,108,108,106,110,112,103,108,109,111,108,108,112,112,110,107,107,107,108,109,109,108,109,109,111,110,109,109,107
106,108,111,107,109,105,103,108,107,113,108,110,110,104,107,109,106,107,110,104,110,112,111,108,107,106,102,109,108,111,109,106,107,107,110,109,109,106,110,109,109,106,106,103,105,105,109,108,107,107,110,112,108,111,105,106,107,107,110,106
108,107,107,110,115,111,109,107,104,109,106,106,109,101,108,112,113,109,110,110,109,106,111,110,112,111,109,110,108,109,108,109,110,108,109,102,110,108,108,109,106,110,108,106,107,109,111,107,103,109,113,114,105,111,109,108,109,105,107,104
106,109,105,106,108,109,105,108,108,106,104,105,110,106,107,106,107,107,108,108,107,108,110,110,112,111,109,103,103,108,110,107,108,107,110,106,107,106,108,110,107,109,107,111,106,105,109,113,107,111,109,109,108,111,109,105,106,107,114,108
110,109,110,109,106,108,109,113,114,108,110,105,106,110,107,108,105,106,109,109,109,107,108,104,106,111,113,107,108,112,111,105,111,109,107,109,108,107,108,107,106,108,107,113,110,109,106,108,107,107,105,109,106,107,110,108,108,105,109,108
107,104,106,111,113,110,106,108,110,104,106,106,110,110,105,110,108,111,111,109,107,105,109,103,108,108,112,107,110,109,109,101,108,105,104,110,109,107,107,106,106,110,105,110,108,109,107,112,110,111,111,109,108,107,106,108,110,111,108,107
109,106,111,108,104,109,109,110,109,107,108,108,111,105,105,109,106,109,111,109,108,113,113,104,108,107,113,107,109,107,110,109,110,108,106,109,108,108,114,108,104,109,107,106,108,111,111,111,106,107,112,108,108,109,105,110,110,109,106,104
107,104,109,109,103,106,107,106,102,108,108,107,110,108,107,105,106,106,107,108,109,109,108,106,109,100,107,107,106,109,108,108,109,106,105,106,108,107,113,111,109,109,109,111,111,107,109,110,107,109,110,107,110,112,108,112,111,108,109,109
110,108,107,111,109,110,109,111,107,108,110,106,107,109,113,110,113,109,108,104,105,106,109,106,110,106,108,112,111,109,105,106,111,109,108,112,110,106,109,109,106,106,108,106,107,109,108,108,109,111,107,106,107,109,104,108,111,111,111,109
112,108,108,107,107,109,111,108,106,110,109,108,106,104,107,103,107,108,105,108,108,109,113,112,109,104,105,106,109,109,112,109,113,111,104,107,106,109,110,110,110,107,106,106,103,107,111,112,111,109,110,107,107,109,108,113,114,108,110,110
107,108,111,105,103,107,112,108,110,113,102,111,106,109,109,110,107,111,107,106,104,113,107,109,110,110,110,106,109,107,110,111,111,111,107,111,109,107,109,112,109,108,109,112,106,108,111,108,111,109,112,105,105,111,108,110,110,111,110,110
105,111,108,106,108,110,112,110,109,107,107,114,105,111,105,107,106,107,112,111,104,108,107,108,107,109,107,103,109,105,108,109,109,109,109,113,108,108,106,109,106,108,109,109,105,108,111,110,109,110,113,110,108,111,111,109,108,113,113,111
102,109,110,110,107,107,109,111,109,105,105,108,104,106,109,106,109,106,104,107,108,109,108,109,107,111,110,105,108,107,110,108,109,108,106,109,109,113,109,109,107,110,107,111,110,111,112,111,105,107,107,111,110,108,107,111,111,112,118,117
108,109,108,112,110,110,110,108,105,107,108,108,111,106,110,107,106,111,101,106,107,107,108,106,109,112,110,111,113,109,107,104,109,109,108,107,106,104,113,110,106,109,105,108,105,106,108,107,108,111,111,112,108,108,105,111,110,106,112,117
108,104,107,107,108,109,110,110,110,107,106,108,109,105,108,111,105,108,109,112,111,108,110,107,107,106,110,110,111,111,110,106,111,106,110,104,111,108,108,105,105,108,109,109,107,106,106,109,107,106,108,110,110,108,104,110,110,109,111,115
112,106,111,108,110,105,102,106,111,111,108,108,111,108,106,110,110,110,107,104,109,105,108,109,110,107,111,107,107,108,108,104,112,106,114,109,110,108,110,109,105,105,109,108,111,108,108,113,108,113,113,112,110,110,106,108,109,107,107,108
111,106,110,109,111,108,108,107,106,107,108,106,108,105,106,110,108,106,111,106,114,110,104,106,107,106,108,110,111,108,109,110,108,104,113,112,111,106,109,111,108,105,107,108,108,108,110,110,108,107,105,108,110,111,111,108,106,106,107,105
110,108,110,109,109,107,109,108,109,110,108,105,109,107,108,111,110,105,107,107,107,112,111,110,110,107,109,108,106,106,103,110,109,104,107,108,116,106,106,110,110,105,107,104,106,109,108,106,110,108,107,106,111,109,108,108,107,107,109,105
107,107,106,107,107,107,110,110,112,109,110,110,108,110,108,108,106,113,106,107,107,108,108,108,111,104,109,111,109,110,108,112,110,107,112,108,108,107,109,111,112,105,108,110,111,109,109,111,107,108,113,105,103,106,106,109,107,107,110,106
109,109,107,110,110,107,108,107,109,104,106,106,107,107,107,112,105,113,110,107,107,106,106,107,111,104,108,106,108,109,108,112,109,108,106,106,105,110,107,107,108,109,111,106,106,109,107,109,106,106,111,108,107,106,105,109,106,108,111,109
106,105,104,109,108,107,110,107,107,106,109,106,109,108,108,108,104,106,109,110,110,106,108,106,110,108,109,107,108,105,103,109,106,109,106,110,110,111,108,113,109,109,106,105,110,110,108,108,107,108,111,109,109,111,109,110,106,105,107,108
110,107,105,107,108,108,112,109,111,108,108,106,105,108,107,110,109,106,110,105,108,107,108,106,111,109,108,107,110,109,106,112,109,109,113,113,107,105,103,107,105,109,109,109,109,105,111,110,111,113,108,106,106,107,110,111,107,107,109,108
103,107,108,108,108,105,112,107,106,104,107,106,107,112,106,108,108,106,112,108,107,108,108,106,110,111,112,110,110,109,108,109,108,108,111,108,108,108,106,108,105,109,106,111,112,106,108,105,105,110,108,106,110,106,107,105,105,105,108,111
106,108,108,104,107,105,109,111,110,103,105,105,103,109,107,107,107,106,109,109,107,109,108,107,107,106,109,110,108,105,104,109,108,106,110,106,108,111,105,110,106,108,106,109,108,105,109,112,112,108,110,107,108,106,111,105,108,110,108,107
106,105,109,106,110,108,109,107,107,107,107,109,106,110,112,107,110,111,109,108,109,107,105,107,109,109,105,107,109,108,105,110,108,105,106,108,104,106,105,108,108,110,109,108,108,104,107,107,109,108,109,110,108,108,112,107,107,108,111,108
110,104,106,103,108,103,114,109,111,108,108,107,106,106,110,109,106,108,105,108,112,110,113,108,108,108,108,108,107,109,111,110,107,112,109,112,108,104,106,106,105,107,105,103,111,106,107,108,105,105,108,110,107,105,109,110,109,108,110,105
113,109,111,109,110,106,114,112,106,106,111,110,108,107,108,109,105,106,109,112,107,105,113,112,108,106,108,108,106,108,111,105,103,111,110,106,104,105,106,107,106,107,108,105,105,107,108,110,108,109,110,110,111,108,107,108,111,105,109,106
102,104,109,109,106,108,107,111,108,108,107,110,107,106,104,108,108,104,107,110,105,105,108,111,110,107,108,109,109,110,109,107,105,112,108,107,105,108,106,107,109,107,108,107,108,108,109,107,104,105,105,105,108,112,111,107,110,104,106,107
106,109,108,111,110,110,105,106,104,107,107,106,106,109,107,109,111,104,105,111,111,109,108,108,110,106,108,110,111,107,105,104,106,113,107,108,107,111,110,106,113,112,110,109,110,103,106,107,106,110,113,108,110,110,111,103,108,111,109,108
108,111,108,109,108,110,108,111,106,106,108,108,108,109,110,109,111,107,109,107,116,106,106,107,103,106,107,107,106,109,112,109,109,109,108,108,107,110,109,106,112,109,106,106,109,110,109,111,106,106,111,110,111,107,106,107,110,109,107,108
107,108,110,109,106,105,101,112,109,108,108,105,107,102,107,107,108,106,114,105,110,110,108,112,105,109,111,111,107,108,104,108,115,109,107,104,108,111,106,102,106,104,107,110,109,107,104,106,111,106,109,112,110,105,108,107,106,106,109,109
109,109,107,105,110,115,106,109,107,107,113,109,109,106,112,109,112,109,107,109,108,110,107,112,111,110,107,108,109,109,104,108,110,108,111,108,110,110,107,108,110,110,110,109,111,106,109,107,111,108,106,107,109,102,111,110,109,106,108,106
106,105,106,107,111,106,105,111,110,110,106,110,109,106,110,100,107,104,106,109,107,110,104,108,111,110,109,105,111,113,108,106,109,106,111,109,106,110,107,108,107,107,111,105,105,104,108,109,108,108,107,105,112,103,110,107,107,106,107,105
110,110,108,107,112,105,106,112,105,111,104,107,110,107,113,107,110,108,108,106,104,105,109,110,109,105,108,104,112,108,108,108,109,107,112,108,103,107,106,108,108,105,109,108,107,106,106,108,108,110,115,109,110,104,112,111,106,108,109,109
