53,61,69
110,115,114,111,113,108,110,113,112,108,114,110,112,109,110,106,107,113,110,115,110,112,112,111,106,107,112,113,110,111,111,115,111,110,106,113,112,110,112,107,108,109,112,107,109,111,108,115,113,111,110,109,111,111,110,110,114,112,112,109
111,113,112,111,114,114,113,113,111,110,106,108,110,113,116,114,108,112,111,106,107,111,109,111,114,115,112,110,112,110,116,115,117,114,111,110,109,110,110,109,113,113,111,108,109,114,112,112,112,111,109,109,107,112,114,108,116,111,111,110
110,107,110,110,109,108,110,116,112,110,109,108,112,114,112,110,113,112,111,110,110,108,114,109,110,108,108,111,112,113,114,106,113,108,114,116,110,110,110,110,113,115,114,111,110,114,112,111,111,111,109,108,109,108,110,113,111,111,110,109
104,113,107,111,105,113,111,111,111,110,110,112,110,108,114,116,115,111,112,111,108,111,110,109,111,108,112,110,113,113,108,108,112,110,111,114,108,110,110,112,114,110,110,116,111,108,111,108,110,109,109,110,109,110,113,108,109,112,114,113
108,111,111,113,115,112,111,107,110,110,111,110,108,110,106,114,111,114,110,113,111,111,111,109,107,108,112,111,113,118,111,111,110,111,109,109,112,109,108,107,107,112,109,116,112,114,113,112,111,116,114,112,113,107,113,107,110,112,112,116
114,112,115,111,108,108,109,111,106,112,109,110,113,115,113,112,111,111,111,114,111,111,108,113,108,109,113,111,108,119,112,108,110,112,111,108,113,112,112,109,110,114,107,114,112,111,113,110,113,112,108,111,114,109,112,117,110,110,104,107
112,107,107,115,109,110,112,114,109,110,113,111,111,111,110,109,109,111,113,110,110,112,110,110,110,107,110,104,109,114,113,115,112,113,110,110,112,111,113,112,110,115,110,112,110,107,112,109,113,110,112,109,110,111,113,116,112,109,111,109
110,112,112,114,114,113,112,111,114,114,108,114,110,109,115,112,109,112,114,110,110,110,110,111,109,107,115,116,110,115,112,105,112,111,110,115,110,109,112,112,113,113,114,108,110,112,113,108,111,114,111,108,109,108,105,109,113,112,113,110
114,114,111,109,115,108,110,113,112,112,111,113,109,115,113,113,113,111,111,112,113,115,115,112,112,116,111,109,110,112,112,115,112,107,113,111,111,109,113,113,114,111,110,112,110,111,112,113,115,106,117,117,106,114,113,109,108,105,110,112
112,111,110,111,109,107,111,114,111,111,113,115,116,110,108,110,112,109,115,111,112,108,108,111,111,114,112,112,111,111,110,110,110,109,112,112,111,111,109,109,109,108,109,108,113,112,111,114,106,108,117,111,111,115,111,111,109,109,111,113
112,107,113,110,107,110,111,111,112,113,112,112,112,115,114,113,115,113,104,111,109,114,115,113,115,107,109,114,112,112,113,109,113,114,109,109,107,111,113,110,111,113,112,109,113,115,113,115,110,111,109,109,112,112,112,111,118,110,107,107
110,109,112,113,110,109,112,109,107,107,109,110,109,113,110,109,111,109,109,111,109,112,113,113,112,111,112,109,113,114,108,115,110,110,108,108,118,111,114,112,111,113,111,111,108,113,110,112,110,109,113,112,110,110,108,110,114,111,109,113
111,114,109,112,108,113,113,112,114,111,115,110,107,112,113,108,111,111,113,117,111,106,108,109,106,109,112,109,112,113,108,110,109,110,109,107,112,108,111,112,104,113,114,112,109,108,108,110,110,111,111,110,106,114,111,111,107,109,111,112
108,109,111,110,110,107,112,114,109,107,112,111,115,109,110,110,109,108,114,110,111,115,114,108,108,109,108,111,111,113,111,107,112,113,112,114,112,111,109,110,108,112,113,111,112,108,109,111,109,108,110,113,111,106,109,110,115,109,110,108
104,111,111,108,113,107,109,109,107,111,109,114,112,110,106,109,115,112,116,109,111,107,108,113,110,116,115,111,113,112,111,109,115,113,109,110,109,112,114,112,114,110,109,110,113,110,108,109,112,109,112,109,109,113,108,109,114,113,112,116
111,113,116,113,109,111,110,112,111,108,108,112,111,111,110,108,112,111,110,111,103,110,111,112,112,111,111,112,110,108,110,112,112,106,110,113,110,112,115,110,111,112,113,112,110,109,109,107,111,112,108,108,111,116,113,112,113,112,110,111
113,110,115,110,110,117,115,109,109,113,114,114,112,107,112,109,111,111,107,111,114,112,110,110,112,111,108,108,109,114,113,112,107,109,109,113,112,111,111,116,110,109,114,110,110,112,111,113,107,113,110,111,110,107,108,109,111,109,109,107
116,112,112,110,111,111,111,107,113,112,113,109,111,113,110,109,112,111,110,112,113,114,114,112,110,112,112,109,111,110,110,110,111,117,113,108,109,110,107,111,107,110,109,109,110,111,110,110,109,113,109,112,108,113,109,112,107,109,113,112
113,112,113,111,107,109,111,116,113,109,110,108,109,113,113,113,119,107,114,111,108,111,113,109,113,110,109,108,112,111,108,113,111,112,112,107,109,111,106,113,113,110,109,113,109,114,114,109,112,111,112,115,111,109,108,116,111,109,109,112
108,113,109,110,112,112,113,111,109,108,110,111,117,111,111,110,118,117,114,109,110,106,111,110,115,104,109,108,111,110,117,115,111,108,111,114,114,117,116,112,113,108,108,108,109,111,112,113,115,113,112,109,113,107,109,109,109,108,117,112
112,112,111,111,113,114,113,108,111,113,112,115,113,111,110,113,110,110,111,109,110,113,109,113,110,112,112,107,114,110,105,111,112,109,110,115,111,111,114,109,112,109,112,113,109,109,111,111,105,108,113,110,112,111,111,111,111,112,114,110
113,108,116,117,112,112,105,112,111,114,107,109,113,114,110,110,116,114,110,112,110,111,109,112,111,111,113,107,108,114,112,107,112,112,112,110,109,109,107,109,113,114,114,111,111,113,110,110,112,107,110,111,109,111,110,110,111,108,110,110
107,111,113,112,109,113,113,110,112,114,109,114,110,109,110,110,114,113,113,113,110,114,109,115,118,113,113,114,110,106,110,112,110,108,111,110,113,114,109,114,109,112,111,109,108,112,109,115,108,110,110,111,111,112,111,112,113,112,114,113
111,115,112,113,111,111,111,110,112,112,111,110,107,109,115,112,107,114,110,110,111,112,109,108,109,114,112,112,110,108,112,110,107,110,113,107,111,115,110,108,109,113,111,109,112,111,107,113,111,114,110,111,115,111,110,110,114,108,109,110
109,115,112,115,111,109,114,114,111,110,112,111,113,113,111,109,109,111,109,108,113,111,110,106,104,108,109,108,113,112,110,110,113,112,115,111,111,110,108,107,110,109,113,111,108,113,111,109,112,110,109,111,113,115,113,111,117,112,108,111
112,109,106,111,111,113,115,115,111,110,110,112,112,110,108,110,112,109,109,113,115,111,112,113,113,113,112,111,111,115,110,109,111,109,111,111,110,110,114,113,111,113,110,112,112,114,110,111,108,109,109,114,115,111,111,112,113,110,109,112
111,112,110,106,116,110,104,110,110,113,112,107,110,109,112,109,109,108,106,108,111,111,109,111,111,112,110,110,111,108,109,111,108,110,110,111,111,110,107,109,113,113,112,112,109,109,108,107,107,112,112,111,110,113,111,111,112,111,111,111
114,116,112,113,115,111,110,114,109,112,111,116,110,112,111,108,113,115,110,108,110,113,111,112,108,109,112,109,108,111,114,111,110,108,106,112,117,113,112,112,113,110,107,111,113,116,117,113,111,107,109,115,110,114,110,113,109,110,114,110
111,108,107,107,108,114,113,110,111,109,109,108,113,111,105,110,114,110,112,108,104,109,113,109,112,110,111,112,114,106,110,107,111,112,108,107,116,113,115,110,109,112,115,114,113,113,112,114,114,113,112,113,108,110,107,108,111,109,108,110
109,111,118,112,112,107,109,110,116,112,110,110,108,109,112,111,113,109,109,116,113,108,114,113,111,111,111,112,110,111,109,110,113,114,111,108,111,112,114,111,112,109,110,109,109,113,110,108,113,112,108,105,111,110,111,109,110,110,106,113
108,108,110,113,114,113,113,111,110,115,112,111,116,113,117,112,107,110,113,112,112,106,109,109,109,109,109,112,111,111,110,108,111,114,114,104,112,108,108,111,108,115,116,114,106,108,114,108,110,108,106,108,105,107,111,110,104,108,112,112
113,110,109,109,110,108,111,117,107,107,113,110,113,108,109,106,106,113,110,112,109,109,111,112,115,114,110,114,116,113,112,107,109,116,117,107,109,115,115,113,114,114,112,113,107,111,113,108,111,111,110,111,113,112,110,107,111,110,115,112
110,111,108,109,114,109,107,115,113,106,110,110,110,111,110,111,114,115,109,114,110,114,115,116,112,110,118,110,113,110,113,111,107,107,114,117,111,106,111,110,111,108,108,111,111,110,112,111,109,109,111,110,111,107,112,110,111,110,110,112
109,113,106,106,113,109,108,113,113,111,109,107,109,113,113,114,113,114,114,111,110,113,114,111,112,113,110,109,109,112,113,111,113,108,109,112,112,110,110,109,112,108,109,105,108,109,112,109,108,108,107,112,113,110,112,114,108,108,109,111
114,116,111,112,115,113,107,109,111,114,116,114,110,111,109,109,110,113,112,111,116,113,109,111,108,111,110,115,112,109,109,111,113,115,109,108,112,110,109,112,111,110,113,111,110,105,114,116,112,113,110,111,111,113,111,111,110,108,112,110
111,113,106,114,112,112,111,110,110,112,112,114,112,112,114,116,110,110,118,108,106,110,113,116,112,109,112,112,111,110,113,113,109,110,114,113,114,110,111,110,107,111,109,112,109,113,110,107,114,110,107,106,107,111,111,109,111,109,113,109
109,111,109,110,111,110,108,107,112,114,109,109,112,107,113,108,111,106,111,111,110,110,114,109,113,112,110,114,113,111,112,110,108,109,113,113,111,106,109,114,109,111,110,110,112,110,110,108,113,106,110,110,111,110,112,113,113,116,115,108
113,112,114,114,113,108,113,111,111,109,113,114,110,110,112,114,112,110,112,110,113,115,110,115,109,110,109,114,117,111,112,116,108,108,111,111,109,109,111,112,112,107,111,109,113,112,113,107,108,114,111,112,112,110,107,104,108,111,107,109
110,118,113,111,116,114,109,112,114,113,111,114,111,110,109,115,115,111,112,114,112,110,106,113,110,112,116,111,107,107,115,113,110,107,109,115,113,114,112,109,111,114,113,111,113,112,111,113,109,110,109,110,111,111,113,114,107,107,112,110
107,111,110,112,111,109,113,114,113,112,114,115,108,113,113,111,112,110,110,110,110,112,109,111,110,111,113,109,111,111,110,110,108,108,108,110,112,114,108,109,109,110,108,112,108,112,108,111,109,114,115,115,110,110,110,111,114,112,117,112
110,114,112,109,111,114,115,107,111,109,106,113,109,114,112,110,110,112,114,110,113,114,113,110,115,111,112,109,110,111,106,108,116,115,110,110,109,109,112,113,111,112,112,110,111,111,109,110,110,108,112,112,107,109,110,108,116,113,113,115
108,109,111,107,112,109,110,112,116,114,107,111,112,111,111,111,112,109,111,111,112,113,115,110,109,111,113,110,110,114,108,114,109,107,111,112,111,110,108,113,110,108,110,110,109,113,112,110,112,115,106,112,114,113,109,113,110,108,110,112
114,110,109,105,109,113,112,112,113,112,110,110,109,113,112,112,115,110,113,115,112,113,110,114,111,113,112,117,116,108,109,112,115,110,111,110,110,111,108,113,111,113,112,110,112,114,110,111,108,109,111,112,113,113,113,112,111,112,111,113
114,115,114,113,110,111,110,110,109,113,114,113,111,110,116,112,112,111,109,114,113,109,108,112,113,117,117,115,113,113,115,111,112,113,114,113,113,113,111,109,108,114,113,111,110,111,110,110,112,115,109,109,111,108,111,112,112,112,110,111
109,112,117,117,111,107,108,113,110,112,108,107,110,110,108,107,113,111,109,104,111,114,115,114,118,119,120,121,123,122,120,118,114,113,116,115,110,108,112,114,115,109,108,109,110,111,114,109,112,110,107,108,110,110,114,110,107,113,111,110
113,108,111,114,115,113,113,113,112,115,114,113,111,116,116,111,111,117,115,111,113,112,109,116,123,122,129,127,130,123,120,115,116,115,113,111,114,108,111,113,110,109,109,110,110,111,113,111,112,113,112,114,111,114,112,111,108,106,115,118
116,113,107,112,114,111,107,108,108,113,112,112,109,112,113,114,114,113,112,114,112,115,114,118,124,131,128,131,137,131,126,119,121,116,111,110,109,112,109,108,112,110,111,115,113,109,110,113,110,110,113,113,114,112,109,109,112,112,114,110
109,111,108,109,107,112,108,110,112,109,110,112,114,113,109,109,113,114,112,108,112,115,115,119,126,132,135,139,137,138,129,127,119,120,116,110,110,115,107,111,113,111,110,113,111,107,112,109,110,109,110,110,113,114,111,106,110,113,109,109
112,113,111,113,112,108,110,113,112,110,113,114,111,109,115,111,112,112,109,110,111,114,114,123,128,136,139,141,140,136,131,123,121,122,115,113,112,108,112,110,106,113,111,112,113,115,113,108,111,112,116,113,115,111,110,109,107,107,111,110
109,114,115,113,105,113,112,110,113,111,111,108,112,109,108,113,112,115,114,114,111,112,115,121,129,133,135,131,139,135,130,128,124,119,111,112,110,106,110,110,111,113,113,107,109,113,111,110,107,108,111,111,111,105,113,111,119,110,108,112
105,109,112,114,111,111,112,107,108,113,109,108,113,115,111,111,104,113,111,114,117,116,123,122,136,135,137,135,134,134,138,132,122,120,114,112,110,110,113,111,114,114,114,113,112,113,113,112,111,114,114,111,112,111,112,113,113,110,112,114
110,106,109,111,115,109,112,112,108,113,112,113,115,113,112,110,106,113,113,111,111,112,125,126,137,134,134,139,135,140,140,128,122,120,119,112,114,111,104,112,114,116,111,109,113,112,109,109,110,113,114,108,109,113,110,110,108,112,113,114
109,112,105,112,112,112,112,110,113,112,111,111,114,110,110,112,114,113,109,108,110,113,121,127,133,135,136,139,137,134,133,135,125,118,111,113,108,111,112,114,113,111,112,108,107,113,109,110,110,103,109,111,110,109,108,110,110,110,107,110
112,115,110,109,107,113,112,114,108,114,111,112,109,110,111,109,109,114,111,114,112,117,122,126,131,139,146,141,134,139,139,128,123,119,113,114,109,110,110,108,109,108,112,113,111,115,111,111,113,110,112,109,114,110,112,115,109,111,109,111
112,116,113,111,111,111,111,111,114,111,110,111,106,109,113,111,113,114,110,114,111,112,115,130,128,132,136,140,139,140,143,133,125,124,112,108,113,113,115,114,111,112,109,110,110,114,112,109,108,112,114,114,110,115,114,109,111,108,111,115
112,111,112,113,113,114,114,109,111,113,108,112,116,112,111,111,110,110,110,109,115,117,124,125,132,138,139,143,136,139,132,131,124,117,111,113,110,111,109,110,112,112,110,109,109,111,111,112,112,110,111,111,108,107,111,110,111,110,111,113
112,114,113,111,108,110,113,113,115,113,110,114,118,112,110,112,113,110,109,110,114,118,121,123,136,140,138,138,135,147,142,141,126,120,116,115,109,112,115,108,111,112,111,110,111,111,111,111,111,111,112,113,113,111,111,109,107,111,113,113
112,111,111,110,110,112,108,110,111,107,113,113,112,110,109,112,111,112,114,114,116,117,119,128,139,138,135,140,143,147,144,133,126,120,111,116,113,113,113,107,109,114,111,109,111,111,112,111,110,112,107,114,114,110,109,110,112,110,110,110
112,110,112,109,111,114,112,110,108,111,110,111,111,112,111,112,113,113,114,112,108,111,122,128,134,133,137,142,140,138,144,139,125,122,113,114,116,109,112,113,109,111,111,109,110,112,108,109,111,112,109,114,109,109,111,114,110,110,110,112
112,108,112,113,109,111,111,113,113,110,114,110,115,115,112,111,110,114,112,113,116,114,121,126,126,133,135,134,133,137,140,140,124,118,116,114,114,111,112,113,109,112,113,112,112,113,109,113,114,112,113,110,111,111,107,107,110,112,110,114
109,108,110,114,113,108,111,110,109,108,111,107,110,113,110,112,113,110,113,114,115,118,124,125,133,139,130,138,142,130,131,131,125,116,113,110,109,112,113,110,110,112,112,108,107,109,109,110,115,111,107,110,109,112,113,112,113,110,108,111
109,111,109,113,109,111,110,110,114,111,107,114,111,110,115,113,112,114,114,115,116,119,122,132,132,137,139,140,143,142,137,132,124,117,115,111,110,109,111,114,112,112,113,109,110,106,112,110,110,110,101,105,113,111,117,114,114,113,109,111
112,110,108,110,110,115,112,114,112,113,108,112,113,109,118,112,112,116,113,114,112,117,124,136,133,132,136,138,133,138,146,135,125,121,116,116,111,109,111,115,109,109,110,111,108,112,107,108,105,111,115,111,109,111,109,109,111,115,111,112
114,110,112,112,113,111,110,113,108,109,111,111,115,112,110,109,111,112,112,108,113,114,126,128,136,137,131,136,142,134,139,136,127,119,117,114,109,112,115,111,109,111,111,114,112,109,107,116,112,109,113,115,113,112,108,115,115,111,112,111
110,112,111,113,111,112,110,110,113,112,110,113,113,109,110,112,108,113,112,114,116,119,130,138,139,143,135,131,143,132,139,133,124,119,113,108,109,111,109,112,111,111,110,107,112,113,110,109,109,108,109,110,109,112,111,110,112,109,112,110
109,116,112,109,110,114,109,108,108,108,108,113,113,111,112,111,112,113,111,113,115,119,126,137,134,135,143,134,141,138,134,130,127,121,116,113,115,115,112,112,110,110,112,112,112,114,112,108,111,112,109,113,112,110,110,109,113,111,111,111
113,111,107,112,115,112,110,113,107,109,112,107,111,115,112,113,114,115,114,115,114,119,125,132,138,135,137,134,131,131,135,132,123,117,115,113,111,107,112,110,109,109,113,115,113,111,111,109,109,113,111,113,107,110,113,110,106,110,110,110
112,109,110,112,112,108,111,117,111,111,109,115,113,110,109,110,109,112,116,115,115,116,125,134,137,140,132,132,131,134,138,131,122,118,112,113,113,110,109,115,119,118,114,111,110,110,107,108,107,107,108,111,109,112,111,113,109,109,115,111
110,109,113,111,108,109,110,114,113,110,108,111,114,109,109,109,111,114,110,109,112,114,120,130,135,139,141,137,131,131,134,132,124,121,109,114,116,111,109,114,113,109,114,112,109,109,112,112,112,109,114,114,112,109,109,111,110,111,111,110
106,115,111,114,110,112,112,114,111,113,114,110,113,115,113,116,112,112,111,114,120,118,120,129,138,140,140,140,132,128,134,127,129,119,113,113,112,108,116,110,105,111,108,110,115,109,114,112,112,112,111,111,109,111,109,108,114,113,108,109
112,115,113,114,109,111,110,110,113,112,113,114,113,113,109,112,116,111,120,113,114,119,121,126,131,131,132,135,135,135,131,126,124,117,115,113,115,109,111,112,113,108,112,114,107,108,114,110,110,108,111,107,109,112,112,108,106,113,112,111
107,106,112,110,113,112,113,110,113,108,110,109,113,109,113,112,108,108,113,116,116,116,115,126,132,136,139,140,136,136,132,126,122,121,116,113,112,110,112,113,111,109,110,110,109,113,108,109,110,115,106,110,104,110,111,114,114,114,112,102
113,113,111,108,111,113,112,109,110,113,109,109,111,113,109,112,113,110,111,117,112,115,118,129,131,136,138,145,148,138,130,127,121,113,112,113,115,114,112,114,112,113,111,109,110,111,116,115,111,114,114,113,108,113,111,114,108,110,110,113
112,112,114,112,109,113,113,111,110,114,111,108,111,116,115,109,113,113,111,112,115,115,119,124,131,139,138,139,137,138,133,127,121,120,114,111,111,116,106,107,113,115,114,109,109,108,106,108,108,109,111,111,110,112,111,106,109,107,111,107
112,113,113,110,111,109,115,114,113,110,110,110,112,110,112,111,109,111,111,113,115,114,115,124,130,134,139,142,140,137,134,126,124,119,112,111,109,109,115,106,109,109,109,109,110,112,112,108,110,112,114,114,115,110,110,106,111,112,114,114
112,110,110,111,108,107,111,109,114,112,111,109,109,111,111,112,112,113,114,108,108,118,115,118,121,128,134,135,132,128,129,127,121,114,110,111,111,110,115,111,113,115,112,112,112,114,109,111,110,108,109,109,112,109,109,112,116,114,107,109
109,114,109,112,112,109,108,113,112,116,107,112,110,111,112,107,112,113,114,111,114,114,110,114,122,125,124,123,128,127,124,121,116,111,110,113,115,112,111,112,112,109,109,113,113,113,113,111,108,112,111,108,110,112,112,111,110,115,109,110
110,109,109,111,114,116,110,110,110,109,109,110,112,112,116,114,112,110,108,113,114,108,115,107,114,121,119,115,126,125,121,114,118,115,114,109,113,108,112,115,113,109,111,112,109,113,116,109,110,112,110,110,110,112,111,110,109,113,113,111
114,108,114,109,108,109,110,111,111,113,113,109,113,111,108,110,109,113,115,110,109,112,115,115,115,114,116,116,117,116,119,110,113,111,114,110,112,114,111,113,110,108,113,112,111,110,108,112,113,114,111,110,108,110,110,110,111,110,112,113
110,115,106,112,116,109,112,114,111,114,110,115,114,110,113,113,111,112,117,112,112,109,113,109,112,110,111,115,113,115,117,116,114,111,110,117,110,115,112,112,110,111,111,115,113,116,107,110,111,108,112,113,107,114,112,111,111,110,111,114
111,110,109,110,112,109,107,113,112,110,113,113,114,111,114,110,113,108,116,114,112,105,108,111,108,112,112,114,109,111,111,109,110,110,109,112,110,111,113,112,111,113,105,111,109,110,109,109,110,115,106,107,108,108,110,107,112,117,107,114
110,113,116,111,111,112,110,110,109,113,113,111,109,110,113,112,108,110,113,108,114,113,108,108,111,114,115,107,113,113,109,114,109,114,114,108,113,112,110,111,108,111,107,107,111,110,114,115,110,109,114,115,115,111,113,107,111,112,112,113
109,113,114,111,109,110,113,110,111,112,108,110,112,112,109,112,108,110,113,108,114,113,110,114,115,111,117,112,110,111,113,111,112,111,114,108,111,110,109,108,111,113,109,109,112,111,112,112,112,110,110,110,110,111,111,114,111,109,108,110
110,110,113,111,117,114,115,111,113,109,109,113,111,113,108,114,111,109,111,109,110,112,111,113,112,108,110,115,116,114,119,113,110,110,110,106,112,112,111,112,111,112,111,110,106,115,111,107,111,108,112,112,108,105,107,114,112,110,116,111
108,111,111,113,110,112,112,111,112,115,111,108,108,110,109,112,112,115,114,114,111,114,113,111,109,110,116,114,112,112,112,112,110,111,112,115,113,110,112,114,108,108,115,112,110,108,112,106,112,115,111,110,113,112,110,110,109,112,109,109
111,114,108,111,114,112,111,112,111,110,110,106,112,115,113,114,114,113,105,107,111,110,108,110,112,117,110,114,111,113,115,117,113,112,113,111,110,112,110,111,117,111,111,114,110,107,113,109,113,110,110,108,115,109,114,111,109,119,111,111
113,107,111,110,112,113,113,112,110,110,110,109,111,104,111,114,110,111,108,107,110,110,112,113,118,112,105,109,110,111,109,107,114,108,110,111,111,110,114,110,110,111,109,106,109,108,113,113,112,111,113,109,110,111,112,114,109,104,110,109
112,104,112,109,108,113,107,115,114,108,111,107,109,113,111,113,109,109,114,115,112,111,111,110,112,110,109,112,112,108,109,113,110,111,111,110,114,113,114,108,110,114,110,111,114,112,111,111,112,108,111,109,107,107,107,109,113,114,114,113
113,113,109,108,115,112,108,114,111,112,116,115,109,112,111,112,112,109,111,111,110,110,111,111,111,114,108,111,111,109,110,113,108,113,111,114,108,110,109,112,113,111,112,111,104,115,108,108,106,108,109,112,114,109,109,107,111,113,111,106
113,112,112,111,109,111,113,110,114,114,108,111,109,112,110,108,114,109,109,108,110,109,106,115,112,113,108,108,110,112,116,112,109,112,109,109,116,114,113,112,116,114,110,110,114,111,110,113,112,115,109,113,109,109,112,109,112,108,112,110
112,112,114,113,109,109,114,112,108,112,109,112,110,116,112,110,110,113,110,105,114,109,114,110,108,113,115,112,110,114,105,108,111,109,112,110,110,108,109,108,109,112,113,115,112,109,111,110,110,111,113,110,110,115,113,114,115,111,109,115
115,111,110,114,115,116,113,114,109,114,111,113,113,113,110,111,115,112,110,111,114,108,110,112,112,110,109,112,109,110,113,108,107,109,112,113,111,107,111,117,112,108,110,112,107,107,112,108,108,111,114,113,110,112,110,110,112,115,110,109
114,112,110,113,110,111,108,113,105,113,107,107,110,112,112,111,108,108,112,111,111,112,111,115,113,108,112,113,110,107,110,109,111,111,115,112,108,110,112,110,113,111,107,111,110,110,112,109,111,111,115,111,108,108,110,111,110,110,111,109
111,109,114,111,107,113,111,110,112,111,111,112,108,114,108,108,109,111,110,111,113,108,110,111,111,112,113,113,114,111,109,105,110,114,108,108,113,116,115,108,109,110,106,112,112,114,113,112,116,113,110,112,108,111,109,110,113,111,109,109
106,109,111,112,112,115,113,112,116,111,113,114,110,106,113,115,110,110,111,113,112,113,112,115,113,111,112,108,116,108,113,112,111,115,111,107,110,112,110,112,112,110,114,117,111,111,112,109,112,110,103,111,108,111,112,112,114,109,114,106
110,114,109,110,109,107,108,110,114,114,110,108,112,115,116,111,110,114,110,112,109,115,106,110,111,112,108,110,113,110,112,115,110,108,112,110,110,109,110,111,110,112,110,111,106,109,114,111,110,111,111,109,108,112,114,112,110,111,110,110
108,111,113,116,108,109,111,112,108,110,110,113,114,109,108,112,107,108,111,113,113,108,110,111,111,109,112,110,109,112,108,114,109,114,111,108,112,113,112,109,107,113,108,114,112,107,111,111,116,115,111,113,112,110,109,111,110,108,110,111
115,111,112,110,107,110,113,109,110,114,106,110,108,110,110,110,112,106,108,110,113,108,111,114,112,111,109,109,111,114,114,112,107,108,107,110,113,113,111,113,113,112,113,110,107,107,112,118,105,110,107,111,107,109,114,110,112,113,110,109
111,109,108,118,116,109,111,113,112,110,109,112,107,115,111,109,113,111,109,112,112,108,112,110,112,111,112,111,109,115,113,110,111,112,113,113,110,109,112,115,110,107,106,110,111,110,108,116,111,110,108,108,116,111,114,109,110,111,112,109
108,108,109,108,110,112,111,111,109,107,110,108,109,110,111,111,111,106,107,110,106,108,114,109,108,109,112,111,110,114,109,108,111,111,109,112,112,110,108,114,108,107,108,112,115,113,111,109,109,110,108,110,113,112,110,113,111,112,112,109
112,111,113,112,108,113,111,111,110,109,112,111,117,109,110,113,110,111,115,111,110,116,111,113,116,110,111,113,111,111,115,110,112,111,111,105,112,110,115,110,111,113,112,108,112,109,108,112,112,111,110,108,112,110,107,110,111,112,111,110
111,113,108,106,115,110,109,111,116,112,113,114,113,112,112,115,112,111,114,114,110,116,113,113,114,112,110,107,110,113,111,113,110,108,117,113,111,113,116,108,111,107,110,110,109,115,114,112,113,106,114,106,102,114,111,113,111,109,112,114
106,107,110,111,114,107,113,111,112,106,109,115,111,108,110,108,110,107,111,111,108,108,111,114,117,114,111,110,111,112,112,116,113,112,112,110,109,110,107,108,113,112,114,115,110,111,117,111,111,109,111,113,105,110,113,112,113,109,110,110
105,106,112,114,112,110,111,111,112,109,113,108,114,111,114,109,111,110,112,109,108,112,110,106,113,104,108,111,110,113,111,115,112,111,111,111,111,108,113,110,114,117,116,113,110,106,109,110,109,112,111,112,115,110,113,111,109,112,107,111
109,112,108,110,111,111,111,108,108,112,112,110,111,113,110,113,114,112,114,111,110,112,107,110,107,108,110,109,110,108,113,108,112,112,110,113,115,105,106,107,112,108,108,112,112,113,110,111,111,106,110,106,108,109,108,111,111,111,105,114
111,110,110,108,109,115,109,109,109,114,113,108,109,110,111,110,110,111,112,115,113,111,112,111,112,111,110,109,109,108,112,108,112,112,115,111,112,116,107,107,110,109,110,111,108,108,108,109,112,110,111,112,112,114,110,106,108,114,109,107
110,106,114,109,107,113,110,111,110,107,111,112,110,110,111,109,111,110,111,112,113,111,112,109,110,111,108,108,109,113,111,111,109,110,112,108,110,113,111,112,110,110,105,111,111,111,112,114,118,113,106,112,114,112,113,109,111,115,113,110
112,114,112,114,112,111,117,113,108,111,106,109,113,111,110,111,115,111,112,109,108,109,111,110,113,113,114,109,108,110,112,109,111,107,109,109,108,112,112,113,111,106,111,113,111,111,115,109,110,107,114,111,109,108,111,110,108,114,116,110
111,111,111,111,113,112,110,109,111,113,114,112,111,110,109,112,110,110,107,112,110,112,114,107,110,114,111,113,111,109,112,109,110,115,114,113,112,112,113,111,112,112,111,111,111,109,112,112,108,112,110,106,110,114,112,110,111,113,109,112
109,112,111,112,109,112,113,109,111,112,111,106,110,110,105,111,111,110,112,110,111,111,111,112,110,107,107,112,113,116,110,117,112,113,111,111,108,110,112,109,109,108,114,113,112,108,105,109,109,113,111,109,112,115,111,110,108,109,106,109
110,114,112,114,109,112,112,111,111,110,110,114,107,111,111,112,114,110,113,110,113,110,112,115,110,113,114,108,111,110,109,111,110,108,110,110,112,109,117,111,113,113,114,107,110,113,111,112,115,112,115,112,111,109,109,111,113,112,108,108
111,112,109,112,113,116,114,110,112,110,111,114,108,114,114,106,109,112,109,109,108,109,109,108,118,112,111,107,110,112,109,106,107,109,113,110,112,110,113,112,111,112,112,110,112,116,110,112,111,108,111,108,111,108,114,109,112,113,111,111
109,108,107,110,112,116,116,113,113,110,111,108,110,112,108,110,112,111,110,113,107,110,110,115,110,102,107,111,113,115,113,110,111,112,112,112,113,107,109,112,109,108,107,111,111,110,113,109,109,109,108,109,109,110,111,109,109,113,111,109
112,109,110,110,108,111,110,107,110,109,112,113,111,112,110,110,112,110,111,115,114,108,106,113,113,109,108,110,114,108,117,114,112,112,113,112,112,112,114,106,110,111,111,110,112,109,109,107,109,110,116,113,111,116,113,112,114,110,111,110
115,112,114,111,109,107,109,109,108,108,109,109,108,109,110,113,112,109,107,109,110,113,111,112,114,114,114,111,111,110,111,111,111,113,109,111,111,109,113,112,117,111,115,111,112,112,110,113,113,111,109,111,106,112,111,112,111,111,111,108
112,114,116,110,113,113,109,113,113,110,111,110,107,109,111,107,108,109,112,114,110,115,116,111,111,112,114,110,109,114,111,111,111,111,107,113,112,106,114,116,112,114,113,109,109,109,108,117,112,110,107,110,107,113,114,110,110,108,110,109
110,115,108,108,113,111,110,110,111,114,113,114,112,109,114,113,114,110,109,111,107,108,110,109,112,111,111,111,111,112,112,109,109,114,114,109,112,110,111,110,106,110,110,109,107,109,111,110,108,108,112,112,116,109,110,110,111,107,112,110
111,111,111,112,114,111,112,110,109,109,110,110,111,108,104,107,114,109,107,112,114,111,111,110,111,110,111,109,108,105,113,109,113,111,115,111,109,111,109,112,102,106,109,107,113,110,108,114,109,106,108,112,112,113,112,107,108,113,110,107
112,109,112,112,110,109,112,111,113,113,113,111,110,116,112,108,111,111,111,108,109,109,112,112,113,108,112,109,107,111,110,107,111,112,112,112,111,108,107,111,113,114,109,115,116,112,108,114,111,107,111,113,111,112,116,115,108,111,113,111
116,107,108,112,112,115,111,110,110,109,111,109,115,112,110,110,108,108,111,112,112,113,116,112,111,114,111,110,111,112,109,111,109,112,109,108,110,112,114,112,115,112,116,114,107,112,106,108,115,113,109,109,116,110,111,108,108,114,116,111
