44,54,64
113,115,111,113,120,113,113,117,119,119,113,119,118,116,121,112,117,114,115,115,116,119,113,120,119,116,119,114,112,114,119,117,118,114,115,115,115,121,117,113,114,114,116,115,119,113,113,120,113,116,119,118,113,113,113,119,119,114,118,115
114,120,115,117,114,119,121,117,115,118,112,118,115,115,115,116,118,119,118,111,113,115,118,111,118,115,117,117,115,117,111,119,114,118,116,121,114,117,113,119,119,117,114,113,121,114,118,114,114,120,116,111,117,117,118,114,115,120,110,116
119,120,117,114,115,117,121,112,113,120,111,115,113,115,116,116,114,116,120,119,120,117,120,109,117,116,117,113,113,113,117,115,112,121,113,114,114,122,116,116,114,122,113,119,118,120,119,114,114,116,118,115,119,118,121,111,117,117,114,119
113,117,118,118,120,115,117,114,113,119,117,114,113,115,115,118,115,118,121,120,116,114,114,115,113,115,120,113,118,113,117,117,112,119,115,116,113,118,119,116,116,120,116,113,115,113,117,114,113,117,117,115,113,116,116,114,114,117,116,114
111,110,116,117,118,116,118,120,115,117,115,117,118,116,113,118,108,114,121,117,115,112,116,118,120,116,117,116,113,113,114,117,116,122,115,119,112,120,117,121,117,120,114,117,116,118,117,118,119,119,117,115,116,113,114,116,116,116,113,118
119,113,112,116,116,114,117,117,115,118,115,117,118,123,117,115,112,114,112,117,116,118,114,119,116,113,121,115,113,115,112,118,116,117,115,115,115,120,112,118,117,120,115,110,118,114,116,116,121,116,121,116,117,119,115,117,119,117,114,122
113,112,119,116,116,112,117,116,116,116,114,117,114,117,115,115,114,117,114,115,114,118,113,117,121,114,119,110,118,115,115,118,114,115,119,117,118,115,117,114,121,120,114,110,118,115,117,118,116,114,115,122,115,113,118,117,122,116,116,115
116,115,121,117,115,117,119,117,118,112,114,120,116,113,111,113,119,118,118,118,118,116,119,113,114,117,117,118,113,117,118,118,117,115,118,119,114,112,114,117,121,115,119,116,119,113,116,118,114,117,116,121,120,107,119,117,116,113,118,119
117,116,110,119,114,115,117,115,113,110,118,116,119,118,114,117,116,119,115,110,115,112,114,116,117,116,116,116,120,115,116,114,115,117,117,118,116,118,117,115,116,117,119,120,109,120,120,110,116,118,116,116,118,114,109,115,115,115,119,117
116,117,117,111,112,115,120,113,112,115,117,115,118,119,116,115,115,121,116,113,117,113,118,114,117,115,112,113,113,115,115,114,114,118,118,114,114,117,119,115,119,118,116,120,112,115,116,114,115,118,115,117,118,118,113,115,121,120,113,114
113,119,118,118,114,116,121,114,115,117,113,118,117,118,114,118,114,111,112,113,118,112,112,120,120,116,117,116,115,119,112,115,117,113,114,119,118,114,120,115,120,116,118,123,116,118,118,120,116,116,119,119,115,118,115,113,120,116,115,117
116,122,116,113,114,118,119,119,118,114,110,117,115,118,112,117,116,112,116,111,121,116,116,117,116,117,118,118,117,118,110,113,116,114,114,122,121,116,116,113,117,118,113,117,114,113,115,114,118,118,118,115,117,116,113,117,115,116,115,112
115,117,115,111,111,117,117,117,118,116,113,114,117,115,117,114,117,111,115,115,115,118,115,116,114,113,118,116,112,117,116,114,116,117,117,116,115,114,116,119,111,117,119,117,118,114,116,116,116,115,116,115,118,119,117,113,113,116,117,118
113,118,117,118,115,115,117,115,115,117,120,116,118,117,117,116,114,114,110,114,116,113,119,118,116,117,118,118,109,114,118,114,116,115,116,115,111,118,117,111,114,118,118,116,117,117,116,114,115,115,113,116,115,118,114,114,114,114,119,116
118,119,119,117,117,115,118,114,114,118,118,119,115,118,121,117,117,118,112,117,117,115,119,116,115,116,115,120,115,113,118,116,116,114,117,119,114,115,113,113,113,116,118,115,116,115,110,118,117,111,119,117,114,115,117,119,120,118,118,115
116,114,113,115,120,114,116,113,118,124,114,115,115,118,118,115,118,112,111,118,123,111,114,122,119,120,117,116,116,115,117,115,114,118,122,119,115,114,114,114,120,122,120,117,115,114,116,115,113,116,117,113,116,117,120,118,117,116,120,119
116,114,115,116,119,117,114,114,118,120,115,114,117,119,112,116,121,116,117,116,116,118,119,111,115,118,116,118,120,114,114,116,116,119,119,116,114,115,117,118,118,119,113,117,119,117,118,118,117,116,118,114,116,117,115,116,117,119,116,117
114,117,115,118,118,114,115,115,115,116,114,113,115,115,118,121,120,118,110,113,118,116,114,116,115,118,114,117,121,111,113,116,116,119,114,117,116,119,116,118,116,116,115,113,118,119,115,119,119,115,119,117,113,118,113,115,117,115,117,113
117,119,116,116,121,112,116,119,114,116,118,115,115,115,119,118,117,119,115,119,120,117,114,114,114,117,115,114,120,122,116,111,114,120,114,119,120,118,114,116,120,112,114,115,115,120,115,119,117,114,114,118,116,114,119,114,114,115,121,116
117,114,117,115,114,116,116,118,116,112,118,118,117,116,115,112,113,116,116,115,119,120,118,117,116,113,119,117,115,118,119,115,119,113,118,113,118,118,119,120,114,116,123,114,115,116,114,115,113,117,117,113,116,116,117,114,114,116,119,116
118,115,114,119,117,117,115,119,119,116,116,115,117,117,118,118,118,114,114,113,118,116,116,115,110,115,117,113,116,116,116,117,114,112,113,114,116,116,119,120,115,122,119,116,115,114,116,118,118,115,120,115,113,118,118,115,114,111,118,118
118,115,120,113,118,115,119,113,111,120,117,113,120,114,119,116,119,116,116,112,117,120,118,117,115,117,113,115,120,115,111,114,116,116,118,118,113,121,117,117,114,113,115,117,113,118,117,118,115,114,120,118,117,111,118,115,117,116,115,114
114,120,119,118,116,118,119,113,113,115,115,112,119,115,119,116,117,113,114,120,119,116,115,122,113,116,114,117,119,114,113,114,119,115,117,117,116,115,114,116,115,122,117,114,113,113,119,114,108,119,116,116,116,114,114,118,114,116,114,117
113,115,114,119,114,117,116,118,117,113,119,120,116,113,117,123,113,121,115,119,121,115,115,118,117,115,115,118,117,117,114,116,113,114,112,117,116,118,119,109,113,117,119,115,117,122,119,117,116,117,111,116,113,118,115,118,116,116,116,117
119,116,118,112,115,124,115,119,114,117,119,115,112,126,117,115,117,109,116,119,117,118,116,113,117,115,113,117,116,119,116,116,115,115,116,122,113,113,116,120,116,115,117,118,119,114,115,118,116,116,116,114,117,116,115,116,117,116,120,116
119,117,118,112,116,122,114,119,116,115,119,115,113,120,117,116,117,115,118,121,118,116,115,118,116,118,119,119,118,117,119,115,118,114,115,119,115,116,118,117,116,112,116,112,113,114,116,121,114,117,119,113,119,113,120,119,111,114,118,118
116,119,118,118,119,117,116,117,119,114,115,116,111,118,115,120,114,117,113,114,118,120,117,118,106,114,121,118,119,118,116,117,116,115,117,115,119,115,118,120,109,120,118,110,118,115,119,122,113,119,117,113,117,115,119,115,113,114,120,118
120,119,117,115,117,121,114,117,115,116,110,111,116,119,116,119,111,114,122,118,119,118,116,117,118,115,115,118,120,118,111,118,116,118,117,118,113,114,117,117,112,122,120,112,121,115,124,120,115,116,116,111,115,113,116,114,114,116,114,118
121,118,111,117,115,116,115,114,112,121,118,116,118,119,117,118,118,117,117,116,114,119,118,114,121,117,116,123,118,117,115,117,114,120,114,121,117,118,112,119,117,116,114,119,118,117,115,115,118,112,117,118,116,113,120,113,113,115,118,116
119,117,117,117,120,114,116,113,114,118,121,120,115,118,120,121,116,119,122,117,113,114,118,118,113,118,119,118,115,122,118,114,114,117,115,117,122,120,124,119,120,117,118,121,113,118,116,117,119,116,117,120,117,117,119,111,115,119,117,115
119,122,115,116,118,114,116,117,115,117,120,119,115,118,115,117,114,117,112,116,116,113,117,118,114,121,118,115,114,118,119,122,118,117,118,121,116,116,110,114,114,119,117,118,115,116,120,115,120,117,118,112,115,116,117,122,113,119,115,116
117,116,112,115,124,120,117,120,112,120,119,116,113,116,115,116,118,120,121,116,118,116,120,119,118,116,116,118,117,120,119,119,118,118,115,117,119,116,115,118,115,119,115,117,113,115,115,121,120,114,117,113,119,119,113,118,116,116,114,117
121,117,114,117,118,118,118,115,110,118,116,116,116,113,113,116,119,118,116,116,117,118,121,119,115,118,121,114,115,120,118,118,115,114,118,118,118,120,113,113,122,117,114,117,116,115,119,116,115,115,114,119,117,118,113,111,120,117,111,114
125,121,116,115,112,116,118,114,114,113,116,116,119,120,115,117,117,120,116,116,120,116,112,114,120,120,120,118,118,118,119,119,115,116,120,115,115,119,117,116,117,118,113,118,115,115,118,114,118,119,114,114,118,116,113,118,117,116,116,114
119,118,115,117,115,118,117,119,116,113,121,116,117,117,117,117,110,113,117,112,115,115,120,118,117,120,120,120,121,121,121,120,120,120,120,118,124,118,117,120,115,117,124,117,112,116,119,118,117,116,116,119,116,116,116,121,115,113,116,112
113,117,122,119,117,118,116,118,119,114,123,121,114,116,117,117,116,117,120,113,113,117,121,122,115,120,123,130,130,126,124,124,124,120,118,115,119,118,116,114,119,117,122,120,114,116,114,117,114,115,118,116,113,118,117,117,116,112,114,114
116,117,116,115,116,113,118,118,119,116,118,118,115,119,114,116,121,119,115,113,117,121,119,123,117,120,133,135,136,136,129,122,126,124,119,116,122,119,115,117,116,114,115,118,116,116,118,116,116,116,117,118,118,116,116,117,116,115,117,118
117,119,115,114,115,115,118,115,116,118,115,114,112,117,119,119,116,110,117,114,112,121,120,123,121,121,134,136,138,138,132,128,126,127,119,117,118,118,120,124,122,118,116,116,116,120,121,115,115,116,116,116,119,116,116,118,118,118,117,116
120,118,118,115,117,120,116,115,117,116,114,117,116,117,120,115,117,119,117,120,118,117,122,120,119,127,132,140,137,133,132,127,121,124,124,116,120,119,118,118,114,119,120,112,116,120,117,120,116,114,118,115,117,114,117,120,114,118,116,115
115,114,116,114,115,118,118,118,119,116,119,117,119,118,116,118,115,117,118,122,120,113,120,118,120,128,137,135,131,137,136,123,121,124,122,117,115,117,119,121,119,119,117,117,116,118,119,112,114,115,117,116,113,115,117,116,114,119,118,119
113,114,115,119,114,116,117,116,118,117,113,118,119,118,115,121,118,116,116,117,121,120,119,116,124,131,136,130,134,135,135,128,121,126,117,114,122,121,120,119,117,114,119,118,116,119,117,116,116,118,116,114,114,121,118,114,114,117,113,116
122,114,113,117,117,113,114,112,111,120,117,114,121,116,118,120,116,117,118,121,114,119,120,119,129,126,129,135,128,135,140,128,124,121,120,118,121,120,119,118,120,114,117,118,119,117,114,121,116,117,117,114,114,115,119,116,119,115,110,113
116,116,119,115,112,113,118,113,110,118,121,118,118,116,118,115,120,120,120,115,121,122,122,115,119,126,130,130,129,135,135,127,127,123,123,123,121,120,118,115,124,119,118,124,110,112,119,118,115,117,117,117,117,114,116,112,117,117,113,113
113,120,117,117,114,122,117,117,116,119,117,122,113,113,122,113,117,116,118,125,118,115,121,122,124,135,128,127,137,131,131,129,121,126,120,122,119,116,122,119,119,117,117,114,122,120,115,114,118,114,115,113,120,119,113,112,114,117,118,112
115,118,113,119,117,122,116,114,116,119,114,118,110,116,123,115,118,118,124,119,118,119,118,119,121,135,132,130,130,135,134,131,124,121,122,119,117,116,117,121,118,119,116,114,124,120,114,116,115,115,119,114,116,119,113,115,120,115,118,117
112,115,118,112,121,117,118,115,116,118,114,114,112,117,118,115,116,115,119,117,117,122,122,122,121,135,136,132,133,139,129,130,122,123,122,120,118,119,123,118,115,120,117,116,123,120,118,115,118,113,120,116,113,117,114,117,121,116,117,112
119,116,119,116,116,119,116,116,119,117,119,117,113,119,118,117,114,117,114,120,120,120,125,124,131,133,137,135,136,141,131,128,119,125,126,123,117,121,118,115,116,114,120,115,121,120,112,114,120,113,119,116,116,112,113,119,118,120,118,115
114,114,113,119,116,113,122,117,114,117,117,115,119,122,115,117,118,116,117,116,122,119,120,124,121,129,133,134,139,138,134,131,122,126,121,117,119,118,116,119,122,117,116,116,113,119,115,120,121,117,118,115,116,113,119,121,115,113,113,114
114,118,110,114,120,113,119,118,111,118,115,116,121,117,119,120,116,117,117,121,118,119,123,117,125,129,138,142,140,139,133,132,119,124,119,116,122,119,111,117,115,122,121,119,114,114,116,115,117,115,119,116,116,113,121,121,119,118,119,116
114,117,114,116,119,115,118,115,116,113,115,116,116,116,121,120,114,119,123,120,116,120,124,124,129,137,136,141,138,142,140,129,119,121,125,118,119,115,118,122,116,117,111,119,118,116,116,119,119,113,123,113,119,115,112,118,120,116,115,119
115,119,115,121,116,112,117,116,119,116,116,113,114,115,115,112,122,116,120,120,117,124,119,125,128,135,133,139,141,145,137,126,122,120,121,121,113,116,114,122,119,115,117,113,118,120,116,113,119,116,118,112,118,116,115,118,116,116,117,112
121,116,120,118,114,112,114,115,114,121,117,117,118,119,118,118,112,127,123,120,124,117,123,122,131,133,140,135,139,146,133,123,122,120,116,117,123,120,125,115,118,114,116,121,121,117,115,119,116,116,115,114,117,116,119,114,114,117,117,114
118,116,118,117,115,116,117,114,117,119,113,118,122,115,120,115,116,119,118,113,123,117,122,123,121,136,142,142,139,138,135,126,122,119,123,124,119,116,120,119,115,118,121,119,118,114,116,115,117,114,116,116,113,116,118,118,118,114,118,116
116,114,118,118,117,116,119,118,117,113,114,121,114,118,115,118,119,116,116,117,119,125,122,122,125,129,138,148,143,142,132,125,120,120,121,118,121,117,119,118,121,112,119,125,115,124,120,117,116,116,118,116,114,117,118,121,115,115,118,117
116,112,117,118,117,117,117,114,114,115,122,112,113,115,119,118,115,118,121,121,119,120,124,123,120,130,142,148,147,143,134,127,121,117,122,119,120,121,120,113,112,116,118,115,118,121,118,116,116,117,119,116,115,115,117,116,114,117,116,112
118,115,115,115,113,114,118,115,115,115,121,116,118,112,113,116,118,117,120,118,119,122,124,120,124,132,141,148,143,141,134,128,126,121,120,122,121,115,114,118,116,117,119,116,117,113,116,115,124,117,113,118,116,117,118,114,117,118,117,116
112,117,117,116,119,115,115,113,112,116,117,119,118,117,115,119,119,120,122,117,117,120,118,122,127,134,133,139,137,139,136,130,124,120,120,121,117,123,120,112,118,116,117,114,120,117,117,118,119,120,113,115,119,117,116,116,119,116,116,119
114,117,118,116,115,118,116,118,113,115,116,112,118,116,116,117,120,116,116,120,121,123,120,120,124,130,133,133,136,135,136,131,123,120,118,120,122,121,117,119,117,118,119,113,117,123,118,117,117,119,119,115,116,116,114,116,113,118,115,112
115,115,118,113,114,119,115,116,114,117,119,116,118,115,122,122,114,118,117,121,118,118,121,123,125,125,137,138,139,135,128,126,123,124,120,120,121,122,120,115,118,117,118,116,118,115,116,118,115,115,118,117,119,115,114,116,115,118,111,116
118,112,117,118,113,117,115,110,115,114,117,117,118,115,114,123,118,118,121,120,122,119,120,123,125,133,134,142,140,137,130,124,127,127,121,120,120,114,119,121,120,120,117,117,117,115,118,121,114,112,117,118,116,111,118,119,113,115,116,117
116,117,110,118,119,115,114,112,118,118,116,119,117,113,115,121,119,118,121,117,114,119,116,121,123,132,135,132,136,135,133,128,127,126,124,121,122,119,116,114,118,123,117,115,118,118,113,114,120,114,115,118,113,113,116,117,115,114,119,119
114,116,116,116,119,115,115,115,118,120,119,117,118,117,111,117,116,117,122,120,115,118,123,123,123,126,133,135,135,135,135,126,123,122,120,123,119,119,120,117,117,116,116,119,117,115,115,116,118,115,117,118,117,118,115,114,116,115,116,119
115,112,115,119,118,111,115,117,114,117,116,117,118,115,116,116,117,117,118,121,125,117,120,121,121,129,128,137,137,133,133,127,119,122,119,119,124,118,115,118,118,116,120,116,113,116,118,118,115,115,115,115,117,116,115,116,116,115,119,118
117,116,116,116,118,117,114,117,117,118,117,118,118,114,118,120,116,114,116,121,119,122,120,118,122,126,128,134,139,135,131,133,122,128,122,118,121,118,116,114,119,121,116,114,115,120,119,120,111,111,115,116,118,110,116,117,116,119,117,115
116,118,117,113,115,118,117,116,119,120,114,117,118,113,116,119,116,123,121,113,117,119,120,123,123,128,128,131,128,139,134,127,126,122,117,120,119,114,113,120,118,116,118,117,114,117,119,118,116,113,109,119,117,114,118,115,114,119,117,119
117,119,115,114,120,118,114,115,119,119,116,118,117,114,121,117,115,113,117,118,122,116,120,123,126,124,132,134,128,133,133,125,120,120,120,122,119,116,117,114,117,116,120,119,120,118,118,113,117,116,113,115,113,116,115,113,115,117,116,119
113,116,113,115,118,116,115,118,118,116,120,117,119,112,116,117,119,114,120,120,120,119,119,119,125,124,129,128,132,131,132,129,114,123,119,119,116,113,116,123,117,116,120,118,119,116,113,113,116,117,118,117,117,115,119,115,114,116,119,115
115,117,117,114,112,116,120,116,114,116,114,125,117,117,115,115,117,114,116,120,121,116,117,116,122,123,128,128,127,131,135,131,119,117,121,119,116,118,111,116,120,117,114,111,120,121,118,117,114,116,118,120,120,115,118,114,116,115,115,116
115,118,120,114,114,115,121,114,118,119,113,117,119,117,117,114,120,118,119,116,120,119,119,122,122,122,129,137,129,128,137,131,121,119,122,119,116,121,121,117,114,121,117,115,115,115,118,117,114,120,112,114,117,114,116,112,117,120,110,119
120,119,111,117,115,113,118,117,122,115,123,111,115,111,118,117,117,115,116,121,115,119,119,116,124,124,128,137,133,132,132,129,122,125,118,118,114,121,117,118,119,115,114,114,116,115,121,116,117,112,115,114,117,119,118,113,114,115,120,112
119,115,110,116,118,117,119,114,115,115,120,122,114,114,116,113,115,118,116,115,119,120,120,115,119,126,127,127,133,133,133,126,123,122,117,115,119,119,117,116,115,125,110,116,117,113,117,117,114,116,120,115,120,118,115,114,113,118,118,112
113,119,115,116,113,116,116,117,115,116,118,114,116,118,114,112,117,113,116,116,119,118,118,119,122,123,127,131,133,137,134,125,123,115,118,117,122,118,115,118,117,121,121,118,118,114,114,117,115,115,115,115,118,117,117,114,119,119,114,115
116,117,116,120,114,120,115,115,111,114,119,111,121,116,115,119,117,118,118,118,117,115,119,122,118,117,134,133,126,137,129,125,122,115,117,117,122,121,118,116,115,116,117,116,115,116,115,115,117,115,113,116,120,116,117,111,118,117,114,118
112,119,115,118,119,115,117,112,113,118,119,117,115,115,115,121,114,116,113,115,117,119,118,113,121,117,124,130,120,126,127,122,118,118,115,120,117,118,116,116,113,116,117,116,112,117,120,116,119,115,116,116,121,117,118,112,122,114,112,118
118,115,116,116,118,109,117,119,112,117,120,121,117,115,122,111,117,118,115,119,113,118,121,117,121,122,118,125,118,118,121,116,116,120,119,118,123,121,118,115,119,118,115,117,116,115,110,117,112,116,118,115,119,117,120,118,118,112,116,124
116,116,115,116,115,115,113,119,111,117,116,117,115,115,115,117,117,113,121,112,119,118,116,120,119,120,119,116,117,119,116,117,117,122,121,122,119,118,115,113,122,113,116,120,114,115,113,118,114,116,117,113,117,118,118,120,112,119,114,122
117,117,122,112,113,118,114,118,114,119,118,114,114,113,121,120,118,117,116,118,117,122,115,122,121,119,121,116,118,118,122,117,115,120,111,118,115,112,118,117,113,119,117,114,115,116,125,115,118,115,119,114,117,117,114,114,118,118,115,115
117,116,114,113,116,119,119,115,116,119,116,116,116,112,111,117,116,118,119,118,112,120,115,112,121,120,117,118,117,116,117,117,117,115,112,115,114,117,119,115,120,116,117,114,117,118,114,115,118,118,115,113,116,114,115,118,120,113,112,114
115,111,115,119,115,114,117,115,117,117,115,117,115,118,119,112,115,118,111,116,118,118,118,113,119,117,116,115,115,119,117,120,116,117,120,113,118,117,115,117,113,114,118,116,117,120,119,114,115,114,115,113,118,119,116,116,118,117,113,117
114,114,113,115,117,115,115,116,116,117,117,120,116,112,113,121,118,117,115,120,115,118,118,118,119,121,116,117,117,117,118,119,120,118,116,114,119,115,115,119,118,115,116,113,113,119,119,115,113,116,114,120,115,117,116,116,113,118,118,116
111,116,117,115,118,117,114,115,118,117,117,115,118,116,112,115,118,117,118,122,117,115,117,115,119,118,113,118,118,114,117,116,113,116,118,115,118,118,113,116,118,115,114,112,113,114,118,119,114,113,113,119,115,113,113,117,117,117,120,114
114,112,118,118,116,113,118,118,114,118,118,116,113,113,117,116,119,115,116,116,117,116,113,122,118,115,114,112,118,116,116,115,119,121,117,119,114,115,115,117,120,115,115,119,118,117,116,116,113,113,118,115,118,113,113,116,116,119,119,115
117,114,117,125,116,114,119,116,113,118,119,114,114,116,114,115,118,119,120,114,112,120,119,118,114,114,119,119,121,119,115,118,120,116,116,118,115,111,113,119,118,115,120,118,113,116,117,114,115,118,117,116,121,114,112,120,116,115,121,118
115,111,119,117,113,116,117,118,119,115,115,117,120,121,114,114,116,111,110,118,117,117,121,119,117,112,117,121,117,116,115,118,114,115,118,113,114,117,117,117,121,116,112,118,113,116,118,115,119,114,115,119,118,117,114,116,121,118,116,117
116,118,117,114,115,116,117,117,119,117,114,117,120,111,109,119,118,116,118,118,115,117,120,115,115,118,116,119,118,114,118,117,115,119,118,114,118,121,117,115,115,114,119,118,118,118,114,117,117,117,118,116,110,118,120,115,120,113,112,118
117,116,119,116,116,118,113,116,119,116,114,118,117,114,115,118,121,118,110,117,117,114,117,112,112,118,121,120,115,118,121,123,120,113,116,114,116,121,113,116,114,112,117,115,115,117,115,117,111,118,119,116,116,116,118,118,119,114,112,120
114,118,113,115,121,116,116,117,116,112,117,118,112,117,117,117,113,113,120,117,117,122,116,114,116,111,117,116,115,119,114,120,115,113,117,113,117,117,114,117,116,114,119,117,112,112,115,116,117,115,116,115,120,116,114,117,122,112,113,118
116,116,118,113,118,115,116,113,117,118,120,118,116,111,112,120,117,116,121,120,114,119,119,116,116,116,116,118,119,120,116,113,115,119,119,117,113,119,115,116,123,116,113,114,116,116,115,117,119,120,116,114,116,115,116,118,114,113,117,120
117,117,114,116,116,114,112,114,122,117,118,119,116,119,117,109,117,117,117,116,117,116,114,116,114,118,118,112,120,119,116,112,117,117,113,116,113,116,120,117,115,117,116,115,119,118,116,115,118,116,117,115,117,118,118,119,113,117,120,114
115,116,117,115,117,117,116,113,116,112,119,118,114,118,120,116,121,113,113,115,116,119,116,113,119,119,113,118,118,118,116,116,118,113,113,119,117,119,117,115,120,116,117,116,116,115,116,119,117,116,118,120,118,119,119,116,115,113,122,115
115,115,122,116,117,118,118,116,112,118,115,119,119,116,117,117,112,117,114,119,115,125,116,117,115,119,113,119,118,118,115,122,115,114,116,115,115,114,117,117,113,114,116,118,117,112,115,119,114,118,116,119,117,113,115,117,112,117,120,116
116,117,117,115,115,117,113,117,113,120,115,118,120,113,114,118,117,113,116,119,119,116,119,118,118,117,115,115,122,118,116,116,115,119,119,115,116,114,120,119,118,119,114,120,111,116,118,117,118,116,117,112,117,119,113,114,119,114,115,112
114,115,117,115,114,115,118,111,116,115,117,113,116,116,116,120,107,121,117,121,116,120,116,111,117,112,119,113,120,114,119,113,115,116,118,113,117,120,112,119,112,110,117,114,114,115,115,113,119,115,117,113,114,123,116,113,119,117,113,116
112,115,115,111,123,115,120,111,119,117,119,117,111,116,115,114,116,117,113,117,112,117,116,115,120,111,116,112,119,114,117,117,115,115,118,114,118,113,117,112,117,120,115,120,116,115,115,115,115,122,114,112,115,115,122,114,120,118,115,113
115,117,119,118,120,116,117,116,115,119,114,112,117,116,118,121,113,114,116,118,116,114,121,116,115,118,116,116,113,118,116,124,116,120,119,112,114,113,117,116,120,116,115,111,120,116,116,114,117,114,120,115,114,114,118,113,120,119,115,116
114,120,112,122,115,119,111,116,113,116,114,118,115,114,120,117,120,121,111,119,110,118,118,119,118,115,119,116,111,119,119,115,115,116,113,117,119,115,117,116,118,115,119,116,119,115,118,110,119,117,118,119,116,111,114,117,120,118,117,115
119,117,112,116,118,116,109,116,115,116,117,115,114,116,114,117,120,117,117,111,120,115,113,117,117,116,115,113,117,117,121,118,113,114,115,116,120,111,120,117,114,115,119,118,115,114,117,117,115,118,113,118,117,116,118,119,122,115,120,116
120,120,117,113,117,118,114,118,116,117,113,117,116,115,111,112,120,115,112,125,115,120,114,117,116,116,117,114,113,119,116,116,116,118,115,119,116,117,121,114,119,115,112,118,115,113,117,113,120,117,113,120,114,116,120,116,117,116,114,122
116,117,120,121,119,116,114,118,114,116,114,116,118,117,114,112,114,118,113,117,116,117,117,119,116,118,116,114,113,119,115,117,116,118,119,113,114,115,115,117,117,119,118,118,114,114,115,113,122,112,116,117,117,116,121,118,113,116,114,116
114,121,115,116,119,111,116,118,116,115,117,117,114,118,117,115,116,117,117,116,121,118,113,118,115,119,117,115,120,115,118,118,114,116,118,116,118,118,117,120,117,118,114,115,116,120,112,116,115,115,117,114,117,116,117,117,117,112,121,115
113,118,121,113,119,117,116,116,119,120,117,115,112,114,120,116,121,115,116,116,119,117,115,116,119,117,117,113,118,118,118,115,116,117,115,117,113,116,118,116,123,116,113,117,114,122,122,113,112,117,117,116,115,117,118,115,121,115,118,116
115,111,119,115,118,116,113,114,117,117,113,114,115,117,118,117,118,111,116,119,114,113,115,116,116,116,117,115,116,118,118,118,113,112,114,114,114,122,119,121,121,115,115,117,115,117,116,114,116,115,119,117,115,118,115,115,117,114,117,116
114,114,121,118,119,113,112,120,118,114,115,119,118,119,119,112,116,119,119,118,120,115,115,116,116,119,116,119,116,117,115,114,116,115,117,114,118,118,115,118,118,114,118,113,112,120,116,116,119,117,115,116,115,114,115,119,118,114,117,120
112,114,122,121,116,117,116,116,117,118,118,115,116,116,116,115,112,113,114,116,116,112,115,118,121,116,114,111,116,115,114,115,116,116,118,116,117,115,114,115,120,118,117,119,114,116,119,121,120,117,119,117,118,118,116,115,121,120,115,113
116,113,119,115,111,118,116,115,119,115,112,115,117,117,116,114,115,116,118,112,114,118,116,115,111,114,114,112,118,117,114,117,113,114,118,117,116,114,114,117,114,115,118,119,118,119,115,116,118,118,118,116,118,117,118,118,117,119,115,119
117,118,118,117,114,117,114,115,120,115,111,117,121,113,113,121,112,115,123,118,112,113,120,116,111,114,116,117,117,118,118,116,115,118,117,117,120,116,116,116,115,115,116,119,118,118,118,116,115,116,115,116,118,117,117,118,118,116,118,117
117,118,113,115,116,113,116,119,116,116,118,116,114,119,115,114,120,115,118,118,116,118,116,116,120,120,115,115,116,116,118,117,118,117,116,120,115,111,116,118,116,114,117,115,112,118,117,113,116,116,114,117,119,118,113,115,114,114,115,116
115,120,116,116,117,114,114,115,112,114,117,116,115,115,119,115,113,117,111,116,116,114,118,115,119,119,114,118,117,115,119,120,116,116,115,116,120,117,110,114,117,117,114,115,116,114,117,115,113,119,119,113,114,116,113,115,117,115,112,115
115,116,116,115,118,118,117,118,118,116,119,118,115,116,118,117,118,115,114,118,118,116,117,118,112,113,117,118,119,118,112,117,116,115,118,118,118,117,115,115,113,117,121,116,118,119,120,116,114,116,119,114,113,117,114,119,119,115,113,116
120,113,111,116,120,115,121,119,116,120,116,114,119,115,113,115,115,118,116,114,112,117,117,118,114,110,116,118,117,116,115,120,116,116,119,114,114,118,116,117,119,116,117,113,117,119,118,120,117,113,120,118,113,118,117,118,119,118,114,114
117,117,115,116,117,113,116,115,116,121,117,114,116,117,117,118,115,115,116,114,115,121,116,113,114,116,121,118,114,117,121,119,119,117,120,118,117,114,110,116,117,115,112,117,117,119,115,114,118,117,118,116,118,118,114,120,116,112,115,117
118,118,112,119,117,118,119,116,118,116,116,117,118,119,117,116,108,117,115,115,117,115,117,117,113,121,119,120,119,118,114,117,118,116,114,117,115,114,115,116,113,117,117,114,119,114,110,118,120,114,115,113,117,117,116,117,113,116,122,114
114,115,119,115,119,120,119,115,117,117,113,115,116,117,118,115,118,117,111,118,112,114,112,111,117,118,113,115,116,118,115,118,115,116,116,115,120,113,119,116,116,116,119,109,119,114,113,118,119,113,117,115,114,116,120,118,116,118,116,120
113,115,121,117,115,114,117,119,119,112,117,110,116,120,120,118,117,117,115,116,117,118,111,111,123,114,114,117,116,115,117,115,120,114,120,119,117,118,117,118,119,114,121,118,116,120,114,111,117,117,119,120,113,119,118,119,116,113,112,115
114,114,116,119,117,116,117,117,118,110,118,122,118,121,119,118,116,113,115,120,123,116,109,113,121,115,118,123,114,116,110,118,121,113,120,112,115,119,113,116,117,120,113,116,118,118,114,117,119,118,116,114,114,118,119,120,113,122,113,117
120,115,115,115,120,118,117,114,116,117,117,122,117,119,117,115,117,120,118,118,116,118,121,120,119,115,121,116,118,121,114,120,114,117,115,116,115,112,115,118,115,117,114,112,121,117,118,116,120,119,115,114,119,113,118,116,119,117,114,119
117,119,117,116,118,114,116,114,115,120,115,114,114,116,116,122,113,117,116,116,115,119,120,113,113,117,123,119,118,116,117,118,115,122,118,115,118,119,117,116,119,120,118,119,113,113,119,110,118,117,118,118,116,116,117,114,114,119,115,113
116,120,118,118,116,119,117,107,120,116,115,115,116,119,108,116,114,109,119,119,119,119,114,118,114,117,119,117,115,117,115,118,114,118,116,117,121,120,115,117,117,115,113,116,114,116,118,115,117,116,112,118,114,120,113,116,114,119,115,118
117,115,120,114,116,118,114,116,120,115,115,115,118,119,117,118,119,119,116,114,114,118,112,118,113,113,117,115,121,117,118,113,113,123,115,120,114,116,114,112,115,112,114,118,115,115,119,118,117,117,111,121,118,118,111,117,118,123,116,117
119,119,117,118,120,116,113,120,114,116,119,111,120,115,116,114,118,114,114,118,117,118,112,121,115,112,119,114,114,121,118,113,112,113,112,121,116,115,118,116,115,115,114,113,120,116,116,118,114,119,119,121,115,116,113,117,121,119,117,118
