52,61,70
110,112,114,112,115,117,114,114,118,114,116,112,119,114,109,118,115,115,111,112,116,116,114,119,117,114,112,113,114,115,111,118,116,115,114,109,113,117,118,116,117,112,115,109,117,122,115,117,113,118,112,114,112,113,108,113,112,112,115,111
117,113,114,111,116,115,113,113,116,114,109,109,114,112,112,118,113,114,115,113,121,115,113,113,111,117,115,114,116,115,110,118,114,116,118,116,119,114,114,111,116,114,120,111,111,109,109,118,112,117,114,114,116,116,112,116,114,114,118,113
113,118,121,114,118,115,111,118,116,115,114,115,113,113,112,114,114,108,112,113,114,108,115,118,114,113,114,117,114,112,113,115,116,118,113,109,112,112,112,112,115,112,117,113,118,115,117,113,109,116,112,106,111,113,113,119,112,110,113,113
118,117,112,112,118,111,110,114,111,110,119,118,116,121,118,114,117,117,117,116,116,113,112,117,110,115,119,117,114,114,116,112,113,112,114,114,114,113,116,117,115,113,116,113,115,116,119,112,112,111,114,115,118,120,112,111,113,113,113,113
116,112,111,113,114,116,118,111,113,116,115,110,113,114,111,113,114,115,117,112,112,112,109,117,113,119,115,114,113,112,115,115,117,109,113,115,114,116,120,116,112,116,117,115,111,111,112,111,117,113,116,118,113,116,108,112,115,115,116,114
117,116,117,119,113,116,113,112,117,115,113,115,113,111,111,114,114,112,115,112,114,116,113,115,112,114,115,115,120,112,108,113,114,112,116,111,116,114,117,116,117,118,116,116,114,117,116,117,117,115,115,116,107,112,113,113,116,116,115,117
115,115,116,114,115,117,113,114,113,113,113,115,113,115,116,115,116,113,117,115,114,110,107,112,114,116,118,112,112,111,117,114,110,112,113,113,118,109,117,111,112,112,117,117,115,109,114,118,115,112,115,114,114,116,115,112,115,117,112,114
115,114,115,114,116,111,113,111,112,113,112,117,118,114,119,116,112,116,117,113,114,111,115,116,115,114,117,112,115,115,118,113,108,114,113,113,117,113,121,110,110,110,114,112,114,111,120,115,111,110,114,112,116,115,113,113,117,117,112,114
114,117,116,116,116,109,112,113,118,113,116,118,112,111,115,114,109,114,114,115,118,114,117,115,111,111,114,116,118,111,114,115,112,115,116,117,118,110,117,117,117,117,119,116,113,111,114,112,114,113,110,111,118,115,112,114,112,114,114,117
116,116,114,113,116,114,114,111,116,109,115,111,113,117,109,111,115,114,112,115,115,117,114,112,113,116,112,114,117,116,120,118,113,119,118,113,115,111,117,112,113,114,114,119,116,111,112,108,113,117,114,113,115,109,110,117,114,117,114,116
115,108,117,109,117,111,118,115,119,116,120,111,112,113,113,115,115,111,114,117,113,113,113,115,112,117,114,114,116,112,114,116,112,119,120,114,111,109,115,113,120,117,114,116,115,115,114,110,114,113,110,114,116,112,113,118,112,117,114,114
119,111,116,109,118,110,118,111,114,114,114,111,113,115,118,107,114,110,115,116,115,115,114,114,112,115,114,111,115,118,113,114,111,113,113,110,111,118,115,110,119,114,114,113,115,113,115,114,117,115,114,115,111,108,110,116,113,115,115,116
112,116,115,109,117,116,118,117,115,111,115,116,111,114,122,111,113,112,114,113,112,114,114,113,113,114,114,111,110,117,114,117,115,117,119,113,114,116,115,114,116,110,114,113,120,109,109,111,114,113,111,112,115,114,111,116,112,112,114,114
108,113,114,113,115,114,110,113,118,113,114,114,109,112,114,114,115,114,114,113,118,116,115,116,112,114,116,113,115,118,114,117,112,111,112,112,118,115,111,112,114,115,115,110,120,114,121,115,113,113,112,114,113,114,113,112,111,117,118,113
113,115,114,113,115,114,113,114,114,112,117,111,114,116,115,113,111,115,115,115,117,116,114,115,113,111,110,109,111,114,113,112,118,122,117,113,115,113,108,114,120,117,112,111,118,109,111,111,117,116,109,114,115,115,120,117,112,115,116,114
114,115,110,113,116,115,114,116,116,117,117,111,114,112,119,117,113,115,114,116,111,111,111,110,114,112,116,113,115,115,115,113,114,116,113,116,113,115,114,112,118,116,113,112,114,115,117,112,115,115,112,116,115,111,113,112,113,112,115,118
117,115,113,117,115,115,112,113,113,116,112,114,119,114,114,115,115,113,110,111,112,116,114,112,114,111,115,110,114,116,113,115,114,115,111,113,113,115,114,112,113,113,117,113,113,113,113,112,116,115,118,116,110,111,117,113,119,118,118,118
115,116,111,114,115,114,112,116,113,113,113,116,119,115,113,117,117,115,117,117,117,112,110,115,116,113,116,117,116,116,115,117,112,116,114,113,114,114,112,116,120,120,115,113,115,116,119,118,115,116,119,116,113,116,118,112,115,115,113,112
113,115,113,114,117,115,113,114,113,114,120,115,113,113,115,114,114,112,115,118,117,112,116,116,114,116,111,109,111,114,114,115,115,118,112,114,115,118,116,116,116,115,112,114,113,112,116,117,113,116,113,117,115,114,116,115,111,112,112,115
114,117,120,112,112,115,114,111,113,114,116,111,121,116,116,113,114,118,115,113,114,112,113,112,113,115,110,113,113,116,116,115,111,111,112,116,116,114,111,114,114,113,114,118,116,114,115,113,108,115,108,114,113,111,114,116,113,115,110,116
114,116,121,109,114,116,114,115,115,114,115,112,116,106,110,110,111,115,111,115,117,115,113,115,116,112,113,117,114,118,116,112,110,116,119,118,116,114,116,115,112,119,119,113,111,111,117,116,114,119,114,117,112,113,118,114,113,117,113,113
115,111,120,112,117,118,115,118,113,114,112,113,120,115,119,117,114,118,115,115,116,117,115,121,114,108,114,119,113,113,112,116,114,115,118,117,113,111,114,114,113,116,112,112,113,115,114,113,109,115,115,118,116,113,112,116,119,115,114,115
114,110,121,115,116,115,115,118,110,114,110,113,117,115,117,112,112,114,114,111,115,117,113,116,112,118,116,114,114,114,116,116,112,112,118,113,113,114,112,116,116,114,114,115,111,112,110,115,114,115,113,111,111,112,109,114,118,115,117,112
116,111,119,115,116,115,111,116,111,115,116,119,119,115,116,116,113,112,116,114,112,114,108,112,112,115,113,114,110,107,112,107,112,108,110,112,113,116,114,118,118,112,112,115,117,117,116,111,110,112,113,114,114,114,114,118,117,112,118,113
115,113,116,116,119,115,112,120,113,111,115,112,112,113,111,113,109,114,118,112,114,120,109,115,110,113,112,117,112,118,120,116,119,116,113,117,117,116,115,113,115,114,111,111,110,114,115,113,113,118,115,113,115,111,112,113,118,114,114,113
114,111,117,115,111,115,116,117,115,116,119,111,113,118,116,116,115,117,117,116,115,117,111,116,114,116,115,116,113,115,113,110,118,117,113,118,115,115,112,113,118,121,117,116,110,113,113,118,110,112,109,115,120,110,114,115,115,108,120,120
111,114,113,112,114,117,115,116,114,113,116,116,113,114,113,113,115,115,113,115,114,113,114,115,113,114,115,115,112,111,112,115,119,114,112,117,113,115,111,114,112,111,111,114,112,114,114,116,114,117,113,116,115,112,114,117,116,111,117,112
111,118,112,110,113,115,116,115,111,112,113,114,110,117,115,112,115,117,114,115,110,112,114,109,112,119,118,115,117,113,116,116,114,114,111,111,109,113,111,118,116,114,112,116,119,114,116,116,114,114,112,112,115,117,113,116,115,119,118,112
115,116,113,117,115,115,114,115,116,119,111,115,110,117,116,114,114,115,114,115,112,115,117,116,117,113,114,112,114,108,116,115,116,115,109,110,110,113,111,116,112,111,110,114,114,113,112,109,111,115,113,113,115,115,113,117,115,112,111,115
113,115,114,115,113,116,115,117,116,117,111,117,118,119,115,113,115,116,111,113,111,111,111,113,115,114,117,117,117,111,116,111,112,114,116,118,116,116,114,118,112,112,113,119,110,114,114,112,113,112,113,115,116,110,118,117,115,116,120,116
113,113,114,112,114,118,118,117,115,111,111,114,115,113,114,111,112,115,113,115,116,119,114,112,113,117,114,112,112,114,120,117,114,116,116,114,115,113,108,113,108,111,113,116,112,120,112,114,117,112,117,112,118,113,119,115,115,115,118,117
116,110,115,114,111,114,115,114,113,115,116,117,115,115,119,113,116,115,112,115,115,115,112,118,115,114,114,110,114,116,114,116,116,113,115,114,114,118,114,119,113,117,119,116,110,116,116,116,113,111,116,111,117,111,114,111,114,113,109,113
112,114,117,118,115,116,117,120,115,114,111,115,115,114,116,112,118,115,112,111,111,110,108,121,113,115,117,112,113,119,113,116,114,115,117,115,112,116,115,118,109,116,113,112,116,116,117,114,113,116,116,111,121,114,115,115,117,114,110,113
115,114,112,113,113,113,113,117,113,114,114,115,116,115,114,116,118,115,117,117,114,114,113,117,114,112,115,117,117,118,116,119,114,118,114,112,108,113,112,115,117,120,115,109,113,114,115,114,115,115,112,109,115,113,115,115,114,116,110,113
114,117,112,115,114,114,113,119,113,111,112,117,119,115,114,115,111,115,115,118,115,116,112,110,116,115,115,114,112,116,116,116,114,118,113,116,111,114,118,114,118,113,115,113,111,112,114,113,115,112,114,111,114,114,113,115,112,116,112,115
113,115,110,115,115,118,115,112,111,113,110,114,116,114,112,114,113,117,111,112,115,118,114,115,116,115,115,118,115,113,114,113,115,117,112,114,117,115,116,111,110,105,112,113,112,112,117,113,112,111,113,115,115,114,112,117,114,113,115,116
114,120,112,116,115,113,111,114,114,115,115,122,117,117,115,113,115,116,111,113,114,118,113,114,115,117,114,118,118,116,113,113,115,115,114,114,111,110,111,114,115,114,116,110,111,113,118,117,116,119,115,114,112,112,111,117,116,115,113,109
119,115,115,112,117,114,115,114,115,115,115,115,111,112,112,111,114,115,118,117,112,117,114,117,114,114,111,115,112,113,115,118,113,112,114,113,112,114,112,115,116,117,109,110,115,115,114,114,115,117,116,115,114,113,114,115,109,116,116,116
118,112,117,111,112,113,117,112,117,117,115,117,114,116,115,111,117,117,115,112,114,116,112,114,114,115,111,109,111,117,112,114,114,114,116,111,110,113,113,112,113,118,117,114,114,115,115,115,112,115,118,116,114,111,112,113,114,116,111,112
115,115,115,112,112,112,114,116,115,114,116,118,114,111,111,117,116,114,119,116,111,114,119,114,116,116,117,113,117,123,114,116,115,113,114,115,116,113,112,120,116,117,117,113,112,112,114,116,116,114,113,112,113,113,113,107,113,115,114,114
112,114,115,115,117,117,116,117,114,113,116,114,113,116,120,116,109,112,115,114,116,114,117,114,117,111,116,113,116,116,111,113,111,112,116,115,117,117,111,116,114,114,113,115,115,115,115,112,115,115,115,115,114,114,115,114,114,113,115,114
115,114,112,110,112,116,116,115,113,112,111,110,110,112,110,111,112,115,114,114,117,115,117,114,119,111,114,112,115,110,114,115,111,109,114,109,118,115,110,114,116,117,112,116,109,113,117,114,116,112,115,116,115,113,111,119,116,119,116,113
112,114,116,116,113,116,116,113,113,113,113,118,115,114,114,117,111,109,110,112,116,114,115,117,119,112,117,115,114,114,115,114,116,114,115,113,122,116,113,115,115,116,114,116,114,117,117,115,115,111,116,114,113,114,112,116,110,114,113,111
116,110,113,116,118,119,112,113,117,114,115,115,110,116,118,115,111,115,118,115,117,116,115,118,118,116,117,112,114,119,118,116,120,114,112,114,118,112,113,116,117,115,115,110,112,115,115,117,116,114,116,114,114,117,115,116,115,113,112,112
114,114,121,117,116,114,113,117,123,113,115,113,113,115,114,115,113,115,114,113,114,112,114,117,116,113,114,118,117,116,119,119,117,115,116,117,121,113,113,115,119,113,117,116,117,115,112,115,114,117,115,113,114,117,112,110,120,117,114,115
119,113,117,115,115,120,115,112,117,113,117,114,118,116,115,115,117,118,114,113,116,115,116,114,117,116,115,117,116,126,125,125,115,120,114,113,118,111,113,116,118,114,116,114,111,111,115,119,107,113,110,112,116,119,114,114,113,113,116,117
118,115,117,117,115,116,117,112,117,117,116,114,115,109,117,115,116,120,118,113,118,113,112,115,117,116,118,122,119,125,126,127,119,121,117,116,114,114,117,118,120,117,115,118,112,114,118,119,116,122,118,115,117,114,113,113,114,114,114,115
113,111,113,115,115,111,118,112,113,110,113,117,120,116,117,114,115,116,110,111,119,112,110,114,115,123,119,122,123,129,132,130,127,121,115,115,116,119,115,111,112,114,112,117,111,115,116,111,114,115,114,112,117,110,116,117,114,110,114,116
116,117,116,117,116,112,115,112,112,111,113,113,112,108,116,119,116,117,122,119,113,111,111,116,112,118,118,122,124,130,133,133,129,125,120,115,116,116,111,113,115,117,112,116,111,116,117,114,118,113,113,114,117,108,114,114,113,113,116,114
113,115,115,115,114,109,112,116,111,119,118,117,117,117,117,115,115,113,116,115,112,115,114,115,116,116,116,119,125,132,129,131,131,126,122,112,113,120,116,115,114,117,115,117,112,116,120,113,115,113,115,112,117,113,113,110,110,114,114,117
115,113,112,112,112,112,113,118,113,119,114,116,114,114,115,114,118,114,114,115,113,115,115,114,117,117,118,117,123,130,126,125,131,123,122,118,121,119,113,117,114,116,115,114,114,112,114,112,117,115,116,114,114,113,116,113,113,112,111,116
116,115,118,114,116,113,113,113,112,121,112,110,115,112,117,114,116,116,116,111,110,111,112,112,115,117,121,121,123,124,124,129,132,124,119,118,116,114,110,113,112,117,115,111,116,115,113,111,121,117,113,114,114,114,115,112,116,116,113,115
113,114,116,114,121,113,114,113,109,116,114,114,115,113,117,111,113,115,116,114,117,119,116,118,120,116,113,116,123,128,128,127,129,133,127,118,112,115,114,115,116,114,111,111,117,116,116,112,116,116,119,117,112,114,116,114,116,116,113,117
112,116,116,113,118,113,114,116,113,116,113,115,117,115,117,113,115,118,117,112,116,113,107,109,116,113,117,123,125,130,129,130,132,125,119,115,115,117,118,118,115,116,119,116,118,113,117,114,117,117,117,115,112,116,116,117,118,115,112,112
111,114,113,112,114,111,113,116,118,118,112,113,113,114,115,111,113,115,115,107,115,115,115,111,118,116,118,119,122,125,124,125,126,128,123,123,119,114,110,116,113,115,112,110,112,114,117,115,121,113,113,112,112,112,113,116,112,115,113,115
112,115,116,115,114,115,113,119,117,113,117,116,111,113,117,116,115,114,114,108,115,117,115,111,119,122,120,117,124,131,126,125,126,135,124,119,113,117,110,118,114,117,109,113,110,111,112,112,121,114,113,113,116,114,111,115,113,115,110,114
113,113,111,111,112,114,115,117,109,111,118,114,109,114,118,115,118,110,116,111,115,114,115,118,116,119,119,121,127,125,128,132,128,134,120,120,118,119,119,122,115,116,111,118,115,113,115,113,111,111,109,114,116,113,114,119,114,114,111,113
116,113,114,118,118,113,115,118,113,114,114,112,112,115,112,111,112,107,118,119,119,115,113,118,112,116,120,121,120,127,133,133,127,135,125,122,119,113,110,113,110,115,109,116,115,114,119,119,115,116,113,113,112,115,111,114,110,119,117,114
114,114,112,111,113,112,116,116,113,116,112,117,118,114,112,116,113,115,116,117,114,115,115,120,113,115,118,120,124,131,126,129,128,130,126,121,117,114,115,118,111,115,113,117,118,116,116,116,117,116,112,110,114,116,115,120,111,117,115,113
114,116,116,117,116,114,113,114,112,116,109,116,114,117,116,116,113,118,115,116,117,116,114,116,115,114,116,119,122,128,126,127,123,125,124,119,116,116,118,116,111,114,116,118,116,115,110,109,111,114,113,114,121,115,111,112,110,112,110,110
113,115,113,118,115,109,111,119,112,116,116,115,109,114,112,117,116,116,115,115,113,114,117,115,112,115,119,119,119,130,131,132,133,128,125,121,115,114,116,114,111,116,114,118,118,117,112,115,114,111,114,110,115,111,115,112,115,118,119,112
114,113,110,113,112,112,115,117,114,117,116,111,116,119,111,114,114,113,117,120,115,115,115,115,112,119,122,122,122,128,125,121,131,129,127,123,116,113,113,115,110,120,116,118,113,116,111,117,119,115,121,115,120,117,116,112,113,115,113,110
115,115,113,114,118,115,117,113,113,117,116,112,116,115,115,113,113,113,113,116,115,115,118,118,117,123,113,116,115,125,128,125,130,126,126,122,116,118,119,116,115,118,116,111,111,115,114,116,116,111,117,113,117,114,115,116,116,113,116,113
111,114,113,110,112,113,116,117,115,117,116,114,120,108,116,116,114,115,116,113,113,120,122,114,115,117,115,120,120,130,132,129,129,128,124,119,115,116,115,111,116,115,117,112,117,114,112,112,114,115,118,112,114,112,115,114,117,113,115,115
115,114,117,117,118,119,115,115,115,117,116,113,119,111,115,115,115,116,116,113,111,112,113,117,123,112,117,120,121,130,127,126,128,129,125,127,119,115,115,114,116,111,117,112,114,110,115,115,114,116,115,114,117,111,115,113,113,112,111,113
117,115,114,114,114,112,112,112,113,117,115,111,116,112,117,116,113,112,113,115,116,114,117,115,117,113,116,118,122,132,130,131,136,130,123,123,116,114,116,111,115,114,118,111,116,114,115,114,114,118,115,115,114,111,118,115,115,116,117,115
117,117,115,112,111,116,119,115,115,117,114,112,115,111,115,114,115,113,111,117,116,115,118,116,116,118,124,122,123,128,131,130,130,126,125,124,123,117,117,115,117,112,117,115,118,118,113,114,115,116,113,107,110,113,111,114,113,114,117,115
118,112,114,116,116,116,116,112,115,114,118,118,117,115,115,116,117,114,113,115,114,113,118,120,116,112,118,118,119,126,132,133,131,131,127,121,120,116,117,118,119,112,116,112,113,118,112,116,115,113,114,114,117,113,108,115,113,115,114,118
118,113,112,111,110,112,114,115,123,116,116,112,112,116,119,122,115,111,114,113,116,115,116,113,115,113,116,118,121,125,123,127,130,137,128,119,117,116,118,119,119,115,119,114,110,115,112,117,116,114,112,117,117,114,114,113,111,114,114,114
110,112,116,116,115,115,113,112,113,116,109,117,117,113,115,112,113,115,116,116,116,113,113,116,119,118,121,123,127,132,129,130,130,127,119,117,119,118,118,117,116,117,115,114,112,115,116,113,112,113,115,117,117,116,112,112,114,112,116,111
119,119,114,117,117,118,117,118,116,117,113,114,108,112,117,117,118,116,115,112,114,116,112,115,114,114,116,119,125,133,128,131,131,124,122,121,118,118,114,115,114,115,111,116,110,114,119,114,114,115,116,117,117,119,117,117,113,114,114,109
116,117,111,113,108,114,116,115,116,113,113,115,118,119,115,110,110,111,113,110,112,116,114,115,113,118,119,120,126,129,124,129,131,128,124,123,114,115,110,116,114,119,111,116,112,114,113,112,116,116,115,117,114,114,113,115,115,114,109,110
113,115,109,118,117,114,118,116,119,119,114,115,117,114,110,112,115,118,117,115,115,111,113,116,116,119,116,123,125,130,129,130,133,132,119,119,113,113,114,118,114,116,111,117,115,118,113,116,114,113,112,114,111,113,113,113,113,110,115,117
112,114,111,116,112,112,117,116,119,115,113,117,112,114,117,116,111,115,112,114,114,114,114,114,112,114,117,123,125,131,132,131,131,129,117,120,115,114,115,115,114,115,113,119,118,119,113,117,115,116,114,115,114,111,113,113,116,113,117,120
114,117,116,118,113,114,117,114,117,111,112,110,111,114,115,111,115,113,109,113,115,118,116,114,114,117,119,124,127,132,135,134,127,125,118,119,114,112,119,120,114,116,115,116,113,112,112,113,112,111,110,114,113,109,114,114,115,117,116,116
114,116,114,121,115,114,116,106,111,113,117,114,119,113,112,115,119,111,111,114,115,116,111,113,116,114,112,122,126,126,127,129,123,121,119,120,116,118,120,117,117,120,116,116,115,114,118,115,118,115,111,115,114,115,118,114,114,114,110,111
113,116,119,119,112,116,118,115,115,114,117,116,117,111,110,116,116,112,116,116,118,116,116,115,116,121,114,121,122,121,127,129,122,118,119,116,111,117,113,114,113,116,112,112,116,114,113,113,117,113,112,116,113,117,118,117,114,115,117,116
115,114,115,114,113,115,114,118,121,119,118,117,113,114,119,120,115,116,116,114,114,113,116,116,115,116,114,123,118,120,123,118,116,111,118,114,111,117,113,114,113,117,114,118,118,111,113,113,117,115,116,115,113,115,109,109,113,113,114,113
119,122,118,116,113,114,116,116,114,118,117,110,113,118,117,114,113,118,117,116,112,112,114,118,119,115,113,116,118,119,115,117,119,119,118,110,114,118,111,114,115,117,114,117,117,114,117,112,111,115,115,112,111,116,113,113,113,110,114,114
117,113,113,114,113,111,112,116,114,111,113,117,120,119,117,119,114,112,112,116,116,117,116,115,114,114,117,119,120,120,116,117,115,114,113,115,122,117,108,115,114,112,110,116,115,115,116,115,115,117,112,113,112,116,113,115,116,111,112,111
116,118,115,112,113,110,115,118,117,114,118,117,110,117,114,112,115,114,117,118,113,114,114,115,113,113,116,118,119,121,114,116,116,110,114,116,117,110,111,115,116,119,116,115,114,118,114,112,114,115,114,116,117,116,115,117,121,111,115,120
115,115,111,113,115,114,117,113,114,110,116,116,113,115,112,114,114,114,117,116,115,114,111,115,115,112,117,120,117,119,114,113,115,112,114,113,113,112,117,114,117,116,112,111,113,116,114,116,115,113,115,112,115,113,115,116,117,112,121,116
121,115,116,118,117,114,116,114,121,118,115,110,117,116,115,113,110,114,114,116,112,112,119,120,113,111,115,114,110,112,113,112,114,110,122,116,115,116,115,115,118,113,110,109,116,116,112,114,113,115,109,110,114,120,117,117,115,115,118,112
115,110,114,117,117,115,117,114,119,116,115,111,113,111,113,112,119,115,110,113,112,115,113,110,116,114,113,114,114,110,111,114,118,114,116,113,117,113,117,117,115,113,118,114,115,108,112,114,113,114,115,114,114,115,113,117,115,110,114,113
110,111,114,112,114,119,114,111,114,112,113,115,116,114,111,109,114,116,116,114,119,116,114,110,115,114,116,116,116,117,119,118,118,114,113,114,119,110,111,111,113,111,117,114,117,114,117,112,117,115,116,115,120,116,115,115,113,112,115,112
110,115,113,116,114,118,118,117,118,114,112,113,117,110,112,119,115,118,116,115,114,112,116,113,118,113,116,119,114,120,116,116,117,110,114,114,113,111,114,113,115,111,113,112,116,113,116,115,119,120,119,114,116,113,114,116,120,116,115,113
110,118,113,116,114,116,115,117,116,109,111,113,119,117,114,120,114,115,113,113,113,115,119,117,120,111,111,115,113,116,111,117,116,110,112,113,112,111,113,114,116,115,111,110,113,113,116,114,118,118,117,115,114,114,116,115,113,114,120,117
118,115,109,112,115,119,118,113,111,112,118,122,116,119,116,115,112,112,119,117,114,114,115,115,112,110,116,116,117,114,112,116,111,115,112,114,118,118,113,110,113,117,114,114,111,114,116,110,111,113,114,111,111,110,112,114,116,116,114,115
116,113,113,113,116,116,119,117,110,115,115,117,113,112,113,112,118,116,118,110,111,115,117,118,114,117,115,115,117,110,117,117,112,114,113,115,116,113,113,116,121,115,112,113,113,118,115,113,116,114,110,114,117,115,117,113,111,116,111,112
113,116,114,115,115,115,118,119,115,117,114,117,115,112,115,115,118,120,117,111,114,111,111,113,114,117,116,114,114,114,113,111,115,110,112,113,113,114,116,117,113,116,119,117,116,113,114,115,118,111,111,116,115,113,116,118,114,114,113,114
116,114,111,114,114,116,113,116,116,117,115,116,115,112,117,115,112,112,110,114,118,112,110,111,114,114,114,110,111,119,119,114,118,117,119,113,114,114,114,117,112,114,111,109,114,115,116,114,116,107,114,114,116,117,120,114,111,112,114,114
122,114,110,113,116,114,114,119,113,116,112,114,118,114,117,116,114,117,110,114,120,111,118,116,112,113,114,117,117,116,113,110,113,113,113,116,119,116,112,116,114,112,116,112,112,114,111,114,118,116,120,115,117,115,118,115,114,114,114,115
118,111,115,117,117,116,120,115,107,116,115,114,117,114,111,115,113,115,109,112,118,113,115,112,111,113,114,117,115,114,117,119,119,112,115,119,116,115,116,119,116,111,115,115,113,116,114,118,116,111,113,111,113,111,118,115,117,116,113,117
116,111,114,118,114,115,117,114,113,115,114,114,116,116,113,115,110,117,117,118,117,116,116,116,114,113,110,112,109,113,118,112,113,109,116,114,116,118,116,115,114,110,113,114,112,108,118,117,113,115,119,115,117,114,117,114,116,114,112,118
111,116,115,116,114,117,111,116,121,117,112,113,115,116,113,109,109,115,114,113,114,114,112,117,114,114,121,120,118,116,118,117,117,112,118,115,119,119,113,112,113,117,117,110,115,116,118,111,114,116,110,111,114,114,112,115,117,117,115,122
110,117,116,116,115,115,115,118,119,117,112,115,115,112,112,111,115,116,113,111,118,114,113,117,114,114,114,107,114,114,115,112,113,114,112,115,118,116,114,115,112,115,113,111,118,111,110,111,116,116,112,110,113,118,116,118,115,117,116,116
116,118,117,116,115,107,116,113,113,117,114,118,117,114,115,115,117,116,116,118,117,114,113,116,115,113,114,115,116,118,116,112,115,120,115,115,114,111,112,113,113,113,110,109,117,114,116,112,116,117,119,117,117,121,114,115,114,114,113,116
113,117,118,110,110,113,119,114,116,119,115,120,114,111,118,117,115,113,114,115,115,118,115,117,117,112,114,119,114,118,119,120,112,117,114,119,116,113,117,115,117,118,114,113,116,113,116,115,115,111,110,107,114,119,113,117,117,116,112,115
114,115,114,114,117,113,112,113,116,112,111,116,112,112,114,113,119,120,116,113,111,116,115,117,118,107,108,117,116,118,112,119,114,117,114,121,117,113,115,116,112,116,115,116,118,116,117,121,116,114,116,114,115,116,115,118,114,116,115,114
114,110,112,113,113,116,119,117,120,117,120,117,111,111,115,113,117,117,114,117,114,114,112,110,112,108,118,118,113,114,111,113,111,115,115,114,114,116,116,118,112,115,112,114,116,113,117,120,109,111,114,115,116,115,112,113,115,115,115,117
117,117,115,112,114,115,111,111,114,111,112,110,111,118,118,114,114,113,115,118,115,114,120,115,112,112,119,115,113,111,110,116,114,115,118,114,115,115,113,115,113,116,110,115,118,111,113,114,110,113,116,111,116,117,118,115,120,112,111,112
113,114,116,116,115,115,118,120,117,116,113,111,111,113,111,114,116,116,112,112,113,111,116,114,113,114,121,119,116,114,110,115,117,116,114,115,119,118,114,117,116,113,107,114,117,114,116,117,114,115,118,110,113,108,114,114,115,113,115,117
115,115,118,109,111,113,115,110,110,111,111,110,113,115,112,111,114,109,114,112,117,115,115,114,112,114,115,111,113,117,117,117,115,115,118,116,112,112,116,116,114,113,115,116,113,113,116,114,111,115,116,114,119,114,111,112,115,115,116,115
115,116,120,114,121,111,113,115,116,114,116,119,116,114,113,115,119,113,119,116,116,113,117,115,114,114,110,112,113,117,118,114,113,112,114,113,119,114,114,114,112,114,115,112,113,114,114,113,117,116,115,118,117,114,113,114,113,112,116,114
114,107,115,112,118,112,117,111,113,115,113,119,120,114,112,117,114,111,113,118,118,113,119,112,115,115,117,119,115,117,116,114,116,112,114,109,115,113,117,115,116,117,116,112,112,113,114,116,120,115,117,116,112,119,115,115,115,120,116,112
120,118,117,114,115,112,114,113,119,110,108,111,114,112,114,120,117,115,114,114,115,113,118,117,121,116,114,112,117,117,118,111,111,115,116,113,118,112,115,112,115,114,116,115,117,114,117,114,112,112,114,118,112,113,110,110,110,113,115,120
116,111,117,117,118,117,114,112,116,114,117,112,115,113,115,115,115,115,115,118,117,116,111,111,115,113,112,110,115,112,117,114,111,114,117,118,123,114,118,114,114,114,116,114,114,111,118,114,113,112,111,118,116,114,116,114,119,116,117,116
119,113,117,111,116,117,115,113,112,113,114,113,121,113,119,117,118,117,113,122,115,115,117,113,115,116,116,112,114,113,112,115,118,112,119,114,114,111,114,117,115,113,115,114,112,112,116,113,114,112,110,112,115,118,118,112,116,113,112,113
116,114,117,113,116,115,118,114,115,116,113,114,117,113,118,110,110,113,113,118,114,115,120,114,117,113,112,116,117,114,116,114,117,108,114,109,112,115,116,114,112,113,113,115,116,116,121,118,117,117,118,118,117,115,118,120,112,112,111,113
114,116,117,116,114,115,121,110,113,113,113,118,116,113,113,112,114,117,117,116,114,112,112,112,116,115,115,116,113,113,117,113,115,113,111,108,115,117,114,113,113,114,113,117,115,114,116,110,109,114,111,111,112,116,114,114,113,117,113,113
114,113,114,111,114,114,117,111,114,113,116,116,112,111,112,116,116,115,111,113,114,119,118,116,115,115,115,115,111,114,111,114,114,112,113,113,112,116,114,115,118,112,113,114,112,116,118,115,113,119,117,115,111,114,111,114,118,113,112,115
114,118,119,115,118,120,118,114,119,118,118,117,114,114,113,118,116,116,114,117,116,116,111,113,113,114,114,117,117,113,111,117,117,111,116,118,116,116,113,113,117,115,115,115,116,118,119,115,116,114,114,115,111,117,116,116,116,116,118,117
115,115,113,111,112,114,116,113,113,114,112,113,110,117,114,117,117,116,112,113,116,117,118,115,115,116,113,117,119,111,113,114,116,118,116,112,114,114,115,112,116,113,113,116,113,114,115,111,114,115,113,114,114,117,114,116,116,111,108,114
117,116,117,113,115,110,113,115,113,111,113,118,116,119,115,113,115,111,113,115,114,115,114,111,116,116,119,118,116,114,117,114,108,116,115,114,113,115,118,112,116,114,114,117,114,112,109,110,115,114,110,117,118,119,116,116,115,114,110,114
116,113,112,109,118,115,117,111,112,114,112,113,113,114,118,117,114,114,120,117,112,118,119,116,118,114,113,113,109,114,116,113,113,116,114,116,113,114,112,110,113,114,117,115,111,112,116,116,115,117,114,117,113,115,115,116,115,115,115,114
119,116,113,112,112,110,112,110,115,116,113,116,115,113,112,116,114,112,115,115,114,116,118,112,111,112,118,119,113,116,114,109,115,116,118,117,111,115,120,118,117,115,117,116,115,111,117,115,114,118,115,115,114,115,111,113,112,113,116,114
113,110,111,116,115,113,115,110,113,114,111,111,111,112,112,117,112,115,116,114,115,114,111,115,116,114,115,113,113,118,118,114,115,110,115,113,113,115,116,111,110,114,115,118,117,114,119,116,113,119,114,113,117,118,117,115,113,116,113,111
120,115,114,118,117,115,116,116,114,114,114,115,115,113,114,119,112,114,116,113,112,115,115,115,118,118,115,112,109,114,118,116,120,113,117,113,116,114,115,112,116,115,111,119,111,116,120,115,114,116,113,115,119,116,112,113,115,119,116,112
112,117,114,117,117,117,113,114,114,112,113,115,116,115,115,116,115,114,117,115,114,116,114,111,112,111,111,116,110,113,114,111,115,113,113,114,118,115,117,113,118,115,113,118,115,118,112,111,115,115,111,115,120,116,115,120,119,117,111,111
115,120,113,118,114,115,116,113,117,115,116,114,116,116,113,110,112,117,117,115,113,115,113,115,120,114,119,117,113,113,118,116,111,116,117,117,112,112,118,115,121,112,115,118,114,115,116,115,114,117,115,113,114,113,114,117,114,113,110,116
