50,60,70
110,118,116,117,111,113,109,114,116,115,117,121,116,119,116,115,114,115,117,110,112,111,116,110,113,117,109,115,116,112,118,114,116,116,115,112,110,112,112,115,115,117,117,111,110,116,117,113,115,116,117,121,119,115,121,118,113,112,115,116
112,117,113,117,111,114,112,117,114,109,115,117,110,113,115,115,115,114,116,113,116,114,118,116,115,116,109,115,113,114,118,112,111,114,115,116,115,117,115,116,117,116,115,115,118,115,115,111,115,116,117,118,116,116,116,113,114,114,114,118
116,118,112,115,112,120,113,118,115,113,113,114,114,113,115,114,112,112,115,113,117,115,116,117,113,117,113,121,108,111,110,115,115,117,114,117,116,112,113,115,109,115,118,116,114,113,114,111,116,114,115,115,116,119,112,112,115,115,116,117
110,114,111,117,116,115,111,114,112,115,115,117,119,113,117,118,115,115,118,110,118,116,112,117,117,117,107,114,116,116,110,116,116,116,111,112,115,112,116,117,114,116,114,113,115,118,116,110,115,115,115,116,113,112,110,113,116,114,115,115
113,117,112,116,116,113,116,112,108,112,111,114,115,112,116,115,114,114,120,114,118,116,116,114,114,115,113,116,116,115,119,120,115,116,113,115,118,112,113,114,114,116,115,112,112,116,118,112,110,115,117,117,112,115,116,119,118,116,114,115
114,116,112,114,118,117,116,115,116,116,117,117,115,113,117,116,117,113,113,110,116,115,116,112,116,112,115,120,114,113,112,113,113,116,115,114,115,114,117,117,112,111,111,106,112,111,115,111,114,115,114,115,110,116,116,118,115,116,111,114
118,113,114,114,114,117,113,114,119,115,114,113,115,111,115,111,112,113,116,113,118,117,114,109,116,114,116,113,116,118,115,113,114,119,119,112,115,116,114,115,115,115,121,116,121,114,117,111,113,111,110,114,119,120,115,114,112,118,114,115
116,113,121,112,118,121,114,115,114,114,120,117,118,115,121,114,114,116,113,113,114,114,114,114,120,114,116,113,116,114,113,114,113,117,114,111,119,118,113,113,113,114,122,117,119,114,116,114,116,116,118,114,118,116,113,111,115,116,113,114
117,111,119,117,123,117,111,112,111,119,114,116,118,113,118,114,115,120,115,115,111,115,115,109,115,115,116,114,116,116,116,119,116,116,114,115,118,116,113,117,116,115,117,112,118,111,111,115,117,114,116,112,115,111,118,112,115,113,115,116
119,116,119,116,115,114,115,116,118,120,113,117,112,111,115,117,115,115,113,117,115,114,116,110,116,116,113,114,112,113,119,117,118,119,117,114,112,114,115,117,118,117,116,116,120,118,114,115,116,113,117,116,120,111,121,111,115,117,117,115
113,114,117,114,115,114,118,115,115,115,116,116,114,118,117,118,113,110,112,116,114,112,115,114,118,118,113,117,119,115,115,114,116,115,112,114,114,119,115,114,117,117,114,113,109,115,119,118,115,112,114,113,116,112,117,110,115,116,115,113
114,109,116,115,119,115,117,115,114,114,115,112,110,113,114,115,117,113,115,116,113,116,115,112,114,115,114,114,112,110,113,117,115,114,112,114,113,118,117,115,119,115,112,114,116,116,119,118,112,113,113,114,117,115,118,121,118,115,116,117
115,115,114,112,118,115,118,114,112,112,114,112,114,119,119,112,115,114,117,116,113,116,115,112,113,114,115,117,114,117,112,111,113,112,110,113,117,115,110,110,112,110,115,117,118,115,115,113,111,117,114,116,115,115,115,119,115,116,111,112
111,113,116,118,114,113,120,112,112,113,116,118,112,114,115,115,117,115,114,110,112,118,119,115,116,114,116,115,111,116,114,114,119,119,117,118,117,115,117,118,117,117,112,114,116,117,115,115,111,117,116,117,112,114,115,117,115,115,114,113
117,113,116,118,116,118,115,110,113,114,112,115,110,113,117,118,114,112,109,108,115,117,112,113,115,111,114,114,116,119,117,117,118,113,109,115,116,116,114,115,115,116,114,118,113,114,111,118,114,116,116,115,119,117,117,116,116,115,112,109
113,114,111,113,118,115,114,116,115,117,115,115,111,115,117,116,115,114,114,114,109,116,114,121,116,112,117,116,113,116,115,117,115,113,114,118,114,116,109,115,113,114,115,111,108,116,115,122,116,115,116,111,113,112,118,117,117,116,113,115
120,119,116,115,119,117,116,114,114,115,115,114,115,116,114,116,116,113,113,115,114,120,114,116,113,113,115,118,112,116,118,117,116,116,117,118,112,121,116,114,112,118,120,113,112,118,113,113,108,112,117,116,111,114,113,113,113,115,114,116
117,112,121,114,115,115,113,114,116,112,118,118,118,115,117,118,118,113,115,118,117,112,115,116,112,116,117,118,109,118,117,113,114,116,113,113,108,115,115,116,111,117,117,115,115,116,116,116,114,114,112,113,112,116,116,116,114,116,114,114
112,111,116,113,111,114,110,111,115,116,117,113,112,110,114,113,116,112,116,117,115,113,115,115,115,115,117,119,113,118,115,113,114,118,118,121,115,116,114,118,117,118,115,117,112,110,116,116,114,114,115,115,116,113,116,114,116,117,115,116
117,114,112,116,113,115,114,117,114,118,118,114,117,113,117,115,114,112,120,121,117,116,114,116,116,113,113,115,110,115,117,112,111,115,112,111,109,112,115,115,113,114,120,120,117,117,117,114,114,118,118,118,121,114,114,110,116,112,112,114
118,116,115,115,115,115,118,114,112,120,113,114,117,111,116,117,116,113,118,115,111,116,117,114,118,118,115,117,114,112,115,113,115,118,117,118,118,116,115,116,114,112,116,111,115,118,115,113,116,115,113,115,117,113,116,113,116,115,117,116
119,113,115,116,118,113,116,113,116,118,110,115,115,113,114,112,113,115,118,114,110,112,117,112,114,115,113,114,113,111,118,117,116,115,113,113,112,115,113,115,116,115,118,115,117,117,111,115,117,120,115,115,118,116,119,114,115,115,115,117
116,114,116,115,118,115,119,113,117,119,111,114,118,118,115,114,116,117,115,113,113,113,115,115,117,115,118,118,112,112,118,115,113,116,117,117,116,120,112,116,119,119,116,109,115,116,113,113,115,121,115,112,114,113,114,112,113,111,114,118
119,120,116,114,116,114,117,114,116,118,117,112,117,116,115,114,114,115,115,114,112,117,116,111,116,114,113,116,112,117,117,114,113,117,119,115,114,119,112,117,114,114,114,108,116,113,111,111,122,119,110,115,116,113,109,110,116,107,111,111
114,116,114,114,116,119,120,117,120,114,114,111,119,116,117,118,116,116,117,115,112,116,117,114,117,117,117,119,117,119,112,116,112,118,117,113,113,117,112,121,114,113,117,116,116,110,115,114,115,115,115,117,115,114,114,115,116,107,117,115
115,113,111,112,115,115,115,110,112,111,113,114,111,109,114,117,115,115,113,114,117,120,114,110,111,114,116,116,114,118,110,115,110,115,113,115,117,118,110,116,111,111,119,117,114,112,117,120,116,118,115,112,110,114,116,115,114,116,116,110
115,114,113,118,115,111,115,116,116,114,115,119,118,119,117,118,120,121,111,112,114,115,116,114,115,115,115,116,116,117,113,113,110,115,113,113,113,114,113,117,114,117,119,115,113,112,111,116,115,113,115,110,112,114,114,114,112,114,114,119
115,115,116,119,115,113,114,114,116,118,117,115,115,113,114,113,116,119,110,115,117,114,115,111,115,115,115,116,115,110,115,115,117,120,118,117,117,116,116,114,117,118,118,115,116,119,113,117,119,111,117,115,116,118,115,117,116,114,115,117
118,113,112,114,113,114,113,112,116,117,115,115,114,112,113,112,115,116,110,116,115,116,118,113,115,112,111,116,117,113,117,114,117,117,113,117,119,115,115,114,115,111,116,118,113,112,118,121,118,106,117,118,115,117,110,116,118,113,118,116
114,112,115,116,116,117,114,116,116,118,116,114,115,113,111,113,116,116,113,115,112,119,116,112,114,111,114,114,113,117,118,114,118,115,117,116,110,109,114,116,116,108,116,115,109,115,116,118,116,115,115,115,111,112,108,117,111,113,118,109
120,117,119,115,114,116,115,115,114,120,110,110,118,117,117,117,113,118,118,119,108,111,112,115,116,115,117,111,114,113,114,111,111,114,116,115,114,116,118,114,113,112,121,116,116,119,112,108,114,118,110,121,117,120,119,112,107,114,117,114
114,116,120,115,116,115,112,110,111,118,114,119,113,114,117,115,112,113,110,115,116,114,116,116,114,111,113,111,117,115,119,119,117,117,114,113,112,114,115,114,115,114,113,113,116,111,111,111,113,116,111,118,113,117,117,112,113,118,117,112
119,117,111,112,113,113,113,114,116,117,118,117,114,121,113,116,116,116,112,116,115,112,120,118,112,111,115,118,122,114,114,116,114,110,112,113,115,119,116,117,117,115,115,115,117,117,117,119,119,118,111,116,119,120,115,114,113,114,116,115
119,118,113,115,115,118,118,115,117,118,115,116,117,116,110,114,113,112,110,119,116,113,121,120,118,115,115,116,115,114,116,116,117,113,120,115,112,115,113,120,117,114,117,115,110,112,113,113,118,116,111,118,119,118,113,116,120,117,117,114
112,114,113,114,111,110,112,114,116,114,113,118,112,111,116,116,116,117,113,112,113,110,114,114,113,117,113,116,114,116,118,115,115,110,115,114,113,118,114,117,114,110,118,112,110,116,116,113,117,112,117,118,114,115,120,121,117,110,114,116
114,115,112,119,113,117,118,115,115,112,114,112,112,112,115,116,116,119,122,117,118,115,116,119,113,120,111,115,114,119,120,118,117,118,118,115,113,119,115,116,118,118,116,110,112,114,118,116,116,113,116,112,115,116,117,118,116,113,118,118
117,116,111,119,111,116,119,113,113,119,116,112,121,113,115,113,110,113,116,111,115,116,115,120,116,116,112,119,117,115,113,116,114,113,112,113,118,115,113,117,115,115,113,115,115,117,116,111,114,117,120,111,119,115,113,118,117,115,116,114
113,117,113,113,110,115,117,113,114,116,117,114,116,114,116,115,114,119,122,114,113,114,114,116,115,113,115,117,119,117,116,116,115,111,108,116,116,111,118,118,115,113,116,114,115,120,116,117,116,112,120,114,119,112,116,118,110,111,116,116
110,113,115,114,113,116,115,109,114,115,118,112,114,122,115,116,118,115,115,112,115,117,118,115,118,118,117,115,116,117,116,117,118,112,117,121,116,117,119,115,117,116,118,114,113,116,116,118,116,114,117,116,115,115,115,116,114,117,118,117
110,114,110,113,113,119,117,114,119,117,119,114,112,118,115,116,119,116,116,116,117,113,112,109,119,114,117,120,119,119,117,118,119,109,115,117,114,115,116,109,115,116,114,112,114,117,117,116,121,119,116,118,112,116,114,117,113,110,107,115
114,116,111,116,110,115,114,113,115,112,116,117,120,115,111,110,116,114,112,115,118,113,114,115,119,112,117,116,121,124,125,122,121,119,121,118,116,118,123,113,113,117,117,113,118,118,118,115,117,112,112,118,115,121,115,115,112,112,116,118
117,119,114,119,113,117,115,111,116,115,117,115,117,116,117,114,119,118,116,115,118,114,116,115,118,113,121,123,132,129,128,126,118,120,111,113,115,117,118,114,116,118,114,111,116,110,114,113,115,113,117,119,115,118,117,117,115,113,113,112
113,114,114,115,111,118,120,115,117,118,118,115,113,109,114,112,117,119,116,116,114,116,115,115,118,118,120,119,125,127,126,127,121,123,115,122,117,116,117,117,119,115,111,112,114,113,118,116,114,111,111,111,115,115,115,112,114,118,113,114
114,115,116,117,117,118,117,115,117,117,114,113,118,111,113,115,115,115,109,115,114,115,113,120,115,118,119,125,132,132,130,130,128,124,114,119,117,116,114,111,117,116,119,114,115,116,116,116,117,117,114,114,117,112,116,117,118,116,112,115
118,117,116,119,119,115,108,111,115,113,113,117,121,115,117,114,114,118,117,116,115,117,114,123,117,118,119,129,136,133,135,128,130,126,119,121,118,116,117,116,115,113,113,109,111,112,114,112,113,120,114,114,118,117,119,116,119,119,117,117
118,116,115,121,119,115,112,112,113,110,118,117,113,114,117,114,115,118,114,115,116,112,117,121,117,119,120,129,133,128,131,126,132,124,120,118,117,117,114,118,119,118,118,114,116,118,122,112,114,120,114,114,114,111,114,113,115,115,114,114
120,116,112,117,116,116,114,114,117,115,121,118,113,117,118,115,118,118,114,116,117,116,120,116,116,117,126,132,134,127,128,128,137,124,124,121,116,117,116,117,117,114,119,116,115,114,119,109,112,118,116,117,118,117,115,116,118,113,114,117
113,112,111,116,118,117,111,115,112,111,114,116,114,117,111,114,114,112,121,112,115,116,114,118,120,113,123,131,133,129,135,131,136,119,119,117,118,118,120,119,123,119,117,115,113,117,119,114,116,115,115,116,114,114,114,116,118,114,114,120
115,121,117,120,119,115,111,115,113,116,112,115,116,119,110,111,116,114,118,115,122,118,116,120,121,121,127,130,132,130,133,128,135,127,126,118,118,115,117,113,114,113,113,115,115,116,112,117,115,113,113,115,117,115,114,116,117,117,115,121
114,116,112,115,116,115,115,116,115,116,114,118,120,115,112,113,115,116,117,112,114,111,113,115,119,118,127,132,132,129,133,132,131,124,117,119,119,114,117,114,114,116,119,117,114,116,115,117,117,118,111,111,114,118,116,115,114,115,111,114
115,115,117,118,115,116,119,115,111,113,116,116,119,115,115,110,113,115,115,112,113,111,116,118,118,113,130,134,134,128,134,132,127,125,117,116,116,114,118,117,116,117,117,114,111,115,119,122,116,116,114,118,116,113,115,115,113,117,114,117
116,116,116,116,115,117,111,112,111,114,116,113,116,116,119,115,117,114,118,116,119,117,116,120,124,120,130,132,132,125,130,131,128,123,121,117,110,117,118,119,119,118,118,116,116,117,113,115,112,115,114,117,116,110,110,113,117,119,116,117
115,121,118,110,117,117,115,119,115,118,121,117,119,114,117,116,111,112,118,112,117,120,115,122,123,121,132,136,133,127,131,131,126,121,122,118,115,120,114,117,116,112,115,116,118,118,111,112,114,117,113,115,116,114,112,115,119,116,113,113
115,113,117,112,119,117,116,119,111,113,116,110,117,115,116,117,112,113,116,114,114,116,115,125,122,124,137,135,131,128,128,134,125,119,123,118,119,124,114,120,120,116,119,118,117,116,118,117,117,115,113,118,119,113,116,118,117,111,114,114
114,113,116,110,113,114,115,114,112,114,116,115,119,115,114,114,111,112,115,117,116,113,117,122,118,125,130,126,129,128,132,140,131,120,121,114,114,121,114,115,116,116,116,116,116,112,118,114,111,113,115,117,121,117,117,117,117,113,117,111
116,114,116,117,119,116,115,109,113,114,116,116,113,112,114,116,113,118,118,118,116,119,122,122,123,124,128,134,135,135,136,132,130,123,118,116,117,119,113,118,113,117,119,115,116,113,116,114,114,118,118,116,115,114,115,115,116,111,115,113
116,116,117,120,120,116,114,117,120,116,116,115,119,115,114,115,113,118,119,112,114,117,114,121,122,123,133,135,133,135,135,138,133,124,120,119,116,113,110,116,112,115,115,115,117,116,115,116,118,122,116,116,117,112,116,116,117,116,117,114
116,116,114,116,111,113,117,116,117,111,119,112,116,113,116,118,119,112,122,121,119,113,118,121,121,127,133,131,129,132,134,134,126,119,118,119,117,118,119,120,119,114,113,117,121,114,113,116,112,117,116,114,114,112,114,112,112,115,115,115
113,114,111,114,110,113,115,113,116,112,119,112,114,114,118,113,116,112,117,113,115,113,119,118,122,124,129,136,135,134,140,129,126,125,121,115,119,118,117,115,119,113,113,113,117,114,117,114,115,114,114,114,114,116,117,116,114,115,114,114
119,117,114,115,116,118,116,116,118,114,120,118,114,112,113,114,117,117,125,117,119,114,114,120,123,126,135,138,139,135,145,136,129,120,124,119,124,114,114,115,118,113,115,114,117,114,117,112,115,114,116,115,113,115,117,117,113,115,116,115
123,114,114,117,117,119,115,116,118,114,113,112,111,115,111,114,114,112,116,114,118,115,121,125,122,124,131,134,139,134,143,133,130,125,125,115,121,121,119,116,111,113,117,118,117,113,116,119,117,120,119,114,111,112,117,119,114,116,118,117
117,118,116,119,119,117,115,110,116,116,121,116,117,116,113,116,114,116,116,116,116,115,117,117,119,126,130,133,135,137,144,132,125,121,120,119,119,117,116,113,113,115,115,116,113,113,115,114,111,116,112,111,114,114,115,118,115,117,115,114
113,114,112,109,112,115,121,113,122,116,117,110,111,112,114,115,115,117,118,120,117,119,120,118,120,127,129,137,133,133,137,134,128,123,115,119,120,111,111,114,116,114,113,113,112,111,114,117,115,116,116,116,120,117,115,117,118,116,111,116
114,115,117,117,116,114,118,116,123,117,112,114,118,118,116,115,113,112,114,118,117,120,122,119,120,127,132,138,134,136,131,131,126,119,116,121,120,113,114,114,109,114,114,115,122,116,117,120,114,118,116,113,114,116,114,114,117,117,112,115
118,111,111,114,114,111,117,112,113,116,117,119,114,113,116,118,116,115,113,110,115,117,116,115,119,128,130,133,136,137,133,141,128,123,122,123,116,114,117,118,118,120,114,114,117,112,115,112,113,119,113,116,118,114,111,116,117,117,114,116
117,116,115,116,116,116,119,111,117,118,116,118,115,116,119,115,113,114,118,121,120,117,115,120,119,128,131,131,133,134,131,129,122,121,119,117,115,116,114,115,112,110,111,114,119,114,117,118,117,117,116,118,120,114,121,121,117,113,116,117
113,116,114,116,116,119,114,114,116,115,114,118,114,115,113,115,114,112,119,118,117,117,115,120,122,129,126,128,132,139,135,132,128,117,120,121,121,118,115,118,114,113,112,112,117,115,114,116,114,115,115,116,116,113,117,111,117,114,115,116
115,119,115,116,114,117,111,115,114,114,113,117,111,113,112,115,116,114,119,114,121,119,117,122,124,128,130,133,129,133,134,142,129,120,122,120,114,113,113,117,113,114,114,120,115,114,118,115,119,117,112,115,118,117,115,113,117,111,109,113
113,113,115,121,119,119,112,116,113,114,115,118,115,116,114,114,117,117,120,117,117,116,116,119,119,123,133,131,130,134,137,142,127,123,116,118,115,118,115,114,111,120,117,117,112,114,114,110,116,110,110,115,117,116,117,115,112,115,114,112
114,112,119,118,116,115,113,114,115,116,115,112,113,114,114,116,119,117,113,114,116,121,119,118,120,123,132,137,139,130,134,137,125,126,119,117,115,117,115,115,115,121,117,116,113,116,114,112,121,116,113,115,119,117,112,114,112,113,115,111
113,114,119,114,114,116,118,114,113,115,116,120,116,115,117,117,116,116,114,116,117,126,121,121,123,126,134,137,135,132,138,133,123,121,119,115,117,116,115,117,116,117,112,118,114,116,115,115,116,112,108,111,117,117,112,115,111,115,120,117
115,110,114,118,115,115,113,108,113,116,110,115,118,118,119,115,110,114,116,120,115,117,111,120,121,124,136,142,140,135,135,125,123,123,124,118,118,117,119,121,116,118,114,113,113,117,117,116,115,114,114,115,116,115,111,112,111,117,118,114
116,113,115,121,111,115,117,113,121,123,119,117,117,118,118,116,118,119,118,121,118,118,121,119,117,123,134,136,132,131,136,128,126,122,120,116,116,117,117,118,112,117,115,115,117,118,116,116,117,116,116,116,114,116,117,117,113,114,114,113
113,114,115,118,111,115,112,111,119,114,115,115,114,116,118,114,116,118,115,119,118,119,121,116,115,123,130,134,137,132,134,130,133,128,122,119,117,117,116,119,114,115,112,118,114,112,113,115,115,115,115,116,118,117,109,113,113,114,111,113
117,116,115,110,114,116,114,117,116,112,114,116,116,113,114,114,114,116,113,116,116,118,116,120,118,122,123,129,136,132,129,130,133,125,120,119,116,114,112,118,113,117,115,117,112,113,120,115,113,119,119,115,114,113,112,114,115,114,113,113
115,112,114,116,115,116,113,116,117,115,109,110,111,110,113,116,115,119,120,114,114,117,115,118,120,123,126,131,130,132,134,132,133,121,119,119,118,116,115,118,113,122,116,117,117,116,113,111,115,118,115,112,115,114,115,114,115,113,115,113
114,114,118,118,116,118,115,113,114,112,112,116,117,118,120,118,114,112,115,112,120,116,113,114,121,116,122,133,135,132,133,130,137,125,123,118,123,116,116,115,115,117,111,119,118,120,114,114,116,114,114,116,114,113,116,114,118,113,119,116
115,112,113,114,119,117,117,115,115,117,116,116,116,116,118,112,116,115,115,111,117,114,115,111,122,117,122,128,132,131,132,133,133,119,118,117,121,113,115,112,120,120,110,118,113,114,113,113,115,112,115,118,115,118,121,113,118,116,114,115
113,114,117,113,113,111,114,115,114,117,116,116,118,113,115,114,118,117,115,114,117,113,117,112,119,120,120,123,128,132,129,132,129,122,118,117,116,120,119,115,118,116,116,122,113,112,116,115,116,115,114,113,112,119,122,112,115,115,114,117
112,118,120,115,113,117,118,120,117,118,118,116,115,111,118,116,114,113,117,113,115,116,116,114,119,120,119,121,125,127,129,129,126,120,121,125,117,120,115,112,116,115,116,112,116,113,113,114,118,116,116,114,112,113,119,113,113,114,113,110
113,115,117,117,120,120,117,120,114,115,111,113,118,116,119,115,117,112,118,111,113,118,117,116,116,117,116,119,121,121,127,122,122,114,113,115,113,116,116,110,116,118,116,114,120,115,113,113,116,113,116,116,115,115,121,116,114,115,115,117
114,111,113,113,113,115,112,116,114,116,112,118,119,115,115,112,118,114,117,117,116,121,119,118,116,117,115,118,120,121,119,120,122,118,117,116,120,114,118,116,117,117,117,117,117,114,116,111,112,120,118,118,113,117,117,113,115,117,113,118
117,112,118,115,113,119,115,120,118,113,112,114,113,115,115,116,122,115,116,119,117,116,117,117,113,117,117,121,117,119,118,120,117,116,119,114,119,111,118,118,114,116,115,116,113,115,119,113,116,121,115,121,114,117,114,114,115,116,107,118
116,113,117,115,117,118,118,119,114,112,118,117,118,119,115,115,116,113,115,117,119,113,112,115,111,116,115,119,119,116,115,116,119,117,113,115,119,115,121,117,115,120,111,117,117,118,113,113,117,114,117,120,114,116,115,117,117,119,109,114
114,115,115,114,112,112,117,114,115,113,116,115,117,116,113,117,115,113,114,116,114,109,117,119,115,116,110,112,116,120,118,117,117,119,114,117,114,112,113,115,116,115,109,118,117,117,118,121,124,114,117,115,114,114,113,114,114,118,114,117
114,119,113,115,115,118,118,115,117,114,115,114,115,113,115,118,115,118,116,116,116,116,119,113,116,118,115,116,116,116,117,118,116,115,111,116,114,114,115,116,113,113,113,118,115,115,116,112,119,114,120,115,116,119,119,114,116,118,114,115
119,118,113,118,113,115,113,115,117,117,117,116,113,116,115,113,117,117,114,112,113,116,120,113,120,115,115,116,113,115,121,116,115,116,118,118,114,120,118,117,114,114,113,115,115,116,115,112,116,115,117,113,114,116,119,118,117,116,114,119
115,111,111,117,114,119,117,118,117,113,110,117,115,116,110,115,114,112,118,118,117,117,116,114,119,112,117,116,115,116,115,118,114,110,112,117,112,118,112,113,114,117,114,115,114,109,112,116,115,116,116,111,112,116,118,116,108,117,117,119
114,114,116,116,110,114,113,110,114,114,117,118,112,115,115,119,115,116,121,119,117,112,113,116,119,115,115,115,116,114,112,120,116,117,119,120,116,118,111,113,115,115,114,117,113,114,114,115,114,114,113,109,117,119,112,115,110,119,115,116
113,113,118,118,114,115,113,111,118,116,116,113,114,118,118,114,116,117,116,112,114,114,115,119,116,113,112,113,116,115,113,115,112,116,119,112,112,118,115,115,115,116,117,112,114,117,114,114,115,118,117,114,119,119,115,118,110,115,115,115
120,115,116,116,115,115,113,115,116,115,114,114,114,116,114,114,114,115,117,112,115,116,115,119,119,118,116,116,117,115,119,116,114,117,116,113,112,114,112,113,116,118,115,116,118,115,113,119,121,115,113,113,114,116,114,115,111,114,115,116
116,111,112,113,116,116,112,115,114,118,113,114,116,119,111,114,114,112,116,117,120,120,116,114,114,112,113,118,122,111,119,115,121,120,118,119,114,114,116,116,113,118,113,117,114,115,115,110,113,113,115,119,119,117,118,118,113,115,112,111
111,112,118,114,111,118,113,115,114,113,111,112,113,119,112,117,115,113,116,115,115,116,115,114,115,115,114,116,118,112,116,106,117,116,114,116,117,114,114,119,111,116,113,115,113,109,115,117,120,118,114,113,113,113,114,114,113,119,116,111
113,110,114,116,114,121,117,115,116,116,118,115,115,119,112,117,115,117,120,116,117,118,116,119,117,118,115,116,115,115,121,115,119,110,112,114,117,116,111,119,114,117,114,117,120,112,116,118,114,116,116,115,117,120,114,115,117,118,116,111
110,111,116,117,112,115,121,112,113,116,118,116,117,114,113,116,113,117,115,113,115,112,111,114,111,114,110,111,117,114,115,115,116,115,114,115,117,111,108,118,113,117,118,118,117,114,115,116,109,117,116,114,115,116,113,119,120,117,115,116
116,112,116,117,119,112,118,115,116,116,113,111,114,112,113,117,116,112,114,122,117,114,115,113,114,114,114,111,118,113,112,118,116,117,114,113,115,113,117,119,115,114,117,113,114,113,112,116,113,120,111,113,116,115,117,114,112,117,113,114
116,112,115,110,111,112,115,112,118,113,113,117,118,117,116,116,115,112,115,117,116,114,115,113,120,115,115,111,117,115,114,117,114,113,117,117,118,112,111,111,115,118,118,113,116,118,118,119,111,118,113,112,117,112,117,116,115,116,111,116
118,110,113,118,119,119,117,111,115,108,119,119,117,117,115,116,118,120,118,114,116,116,115,114,121,113,115,113,115,118,117,119,117,116,115,114,114,114,116,118,119,116,117,111,114,115,115,116,114,118,118,116,119,114,118,114,116,116,113,116
113,111,116,116,115,112,113,110,114,114,114,112,116,115,113,113,117,115,113,113,115,112,115,115,118,115,118,114,112,113,112,118,112,115,112,116,115,118,117,115,115,111,117,112,111,111,113,114,114,116,115,116,115,116,117,112,114,116,118,118
115,115,120,111,111,114,116,118,117,118,111,118,115,111,113,116,116,118,118,118,117,114,120,114,119,120,117,118,115,117,117,116,112,120,114,115,113,116,111,114,116,111,117,112,112,115,113,114,115,112,115,120,113,114,118,115,117,124,117,113
117,114,116,112,116,116,108,114,117,120,112,115,116,117,117,115,113,119,117,115,114,112,113,109,117,118,116,118,114,114,116,115,115,118,112,116,116,118,114,116,113,111,117,114,115,119,113,116,117,117,119,117,114,116,118,115,116,118,115,116
122,113,116,112,116,116,114,116,115,115,112,115,115,112,110,108,112,117,113,113,115,113,114,115,117,115,114,115,118,117,120,114,114,111,113,119,115,113,111,111,113,114,117,110,114,115,117,119,118,114,116,115,114,117,118,114,115,114,117,114
111,107,115,115,115,115,118,116,117,114,112,114,115,114,113,110,115,117,113,115,115,113,114,115,114,111,114,115,114,110,117,115,116,111,117,117,114,114,113,115,119,117,119,116,121,112,112,114,114,114,115,118,118,114,117,115,116,113,115,115
114,116,116,116,115,112,118,116,115,115,114,113,113,112,112,113,115,116,115,116,118,120,114,116,119,118,114,119,118,114,116,117,118,114,116,114,116,112,117,112,111,111,116,114,114,113,114,115,110,114,117,116,116,117,117,118,116,115,117,118
111,115,114,113,113,111,116,115,113,120,117,115,119,113,119,119,115,119,116,114,116,116,111,112,113,116,110,117,117,115,115,116,115,115,118,116,114,110,119,115,116,117,118,116,111,115,114,112,114,114,114,112,112,115,109,112,113,116,117,116
117,119,116,116,117,113,116,119,116,117,114,115,113,111,117,112,114,119,117,115,114,115,119,118,118,117,109,116,115,114,116,112,115,116,118,115,115,116,120,117,116,117,113,115,117,124,115,112,115,114,115,117,116,119,114,119,121,122,122,114
120,117,115,116,117,111,115,117,116,116,116,117,115,117,115,115,116,113,114,117,114,114,117,114,115,112,115,118,116,112,116,114,119,114,118,117,119,114,118,114,113,118,115,115,116,113,112,116,112,115,118,120,116,115,115,117,118,113,114,115
118,115,118,115,115,114,114,113,113,114,114,114,112,113,111,116,117,115,115,116,112,113,117,114,118,115,121,113,113,118,119,114,118,113,115,109,115,112,114,109,113,115,115,110,113,114,117,113,114,116,115,113,112,114,119,113,115,113,114,118
113,110,112,112,117,116,111,109,116,117,115,115,110,117,116,117,114,111,115,113,112,115,120,115,115,111,116,113,114,114,108,114,115,112,117,113,118,117,116,119,118,116,121,111,112,114,121,117,115,113,118,116,113,115,117,114,115,114,117,116
114,116,118,116,117,115,114,110,117,119,112,116,113,121,117,112,115,114,118,114,116,116,112,114,112,114,112,114,121,113,108,119,116,116,116,114,117,111,112,116,108,115,118,107,111,115,118,117,114,116,117,116,114,113,113,116,118,114,116,112
117,116,116,114,116,116,115,117,118,114,112,118,114,114,119,116,116,115,120,116,117,113,112,120,115,114,114,114,114,117,111,118,111,113,113,115,116,114,116,120,116,119,120,116,116,114,112,114,114,117,114,116,116,117,113,116,116,115,122,120
118,115,116,115,110,117,112,115,118,113,114,115,112,113,113,114,113,113,116,111,117,112,111,113,113,113,116,116,113,113,109,117,112,116,113,115,114,115,115,114,116,118,116,117,117,114,116,116,116,116,114,116,114,116,118,117,115,120,116,114
117,114,115,118,115,121,112,115,115,114,117,114,117,120,111,118,116,115,116,112,116,116,114,116,116,116,116,113,115,116,112,117,113,115,115,113,110,115,113,111,115,115,115,114,114,115,117,115,116,111,115,122,112,112,116,114,114,119,113,115
117,115,111,112,114,115,113,119,115,116,116,112,114,117,112,118,116,115,116,116,117,115,116,121,118,119,116,113,117,113,111,114,114,116,116,112,115,116,117,120,115,114,117,119,117,116,118,112,118,115,118,120,113,117,121,120,110,116,116,115
116,116,114,116,114,117,117,120,115,115,115,117,117,117,117,116,111,115,114,112,115,114,113,119,112,116,118,117,115,115,119,114,114,113,112,114,117,115,121,114,111,116,112,113,112,111,114,114,118,111,112,116,115,118,114,117,112,115,119,116
116,115,113,119,115,119,117,115,114,114,113,117,114,112,113,116,112,115,112,113,117,120,115,117,110,114,113,113,113,118,114,113,118,119,115,118,123,114,117,114,116,114,117,116,115,116,120,120,117,115,114,114,117,121,117,118,116,118,116,113
115,115,118,116,113,119,115,111,111,117,114,117,113,112,116,116,113,114,115,116,116,113,114,116,115,118,115,110,113,112,109,109,111,118,111,113,115,111,114,113,119,113,116,113,113,114,114,115,111,114,115,116,119,118,113,116,118,121,116,118
113,112,114,115,117,114,114,118,115,115,112,115,112,115,116,113,114,118,118,111,118,116,118,112,114,116,119,116,119,117,115,114,109,118,114,114,114,111,115,111,111,111,116,111,117,119,115,114,112,118,115,116,116,116,114,116,117,118,113,114
113,116,112,113,116,112,114,115,114,116,116,111,111,115,110,115,116,117,115,112,117,113,117,119,120,117,114,111,113,115,117,123,117,119,113,112,115,114,118,113,110,117,118,113,117,115,116,116,115,114,116,117,115,119,116,116,116,114,115,119
113,118,113,113,116,117,115,117,117,118,116,111,113,113,112,118,116,116,114,113,115,113,113,116,111,114,115,115,116,116,112,120,113,113,110,115,117,111,117,115,112,121,116,114,114,115,119,119,118,114,119,115,112,117,114,115,114,115,113,117
