50,59,68
116,116,114,116,115,113,117,118,121,111,117,111,115,114,116,113,112,112,113,113,111,109,114,115,118,118,113,116,117,113,115,110,113,119,117,115,112,114,115,116,113,111,114,111,118,113,113,111,110,114,119,117,118,114,111,118,110,117,115,114
116,111,114,117,118,113,113,115,115,110,116,114,115,112,115,113,111,112,114,116,117,111,111,115,114,114,112,112,112,115,116,116,114,114,113,110,113,114,111,116,116,113,115,108,118,118,116,112,114,116,114,109,115,113,109,117,116,116,116,115
115,118,113,110,112,113,112,120,114,111,116,115,119,118,117,116,116,118,116,114,116,111,114,116,118,112,113,117,113,111,113,116,118,115,118,112,117,120,112,117,120,117,117,112,115,112,113,115,114,112,118,117,116,118,114,118,120,111,115,111
109,111,117,118,118,117,114,114,116,116,113,112,110,113,114,116,113,115,113,116,119,116,114,113,116,111,113,117,116,115,115,114,109,111,117,110,115,118,111,115,116,111,115,112,112,109,115,116,118,111,110,114,116,113,110,114,116,112,115,111
116,112,118,114,113,114,113,111,116,112,115,115,111,114,112,115,113,117,110,115,118,117,119,121,118,117,111,113,112,117,115,122,117,112,115,117,116,117,115,115,111,113,118,116,114,112,116,112,117,115,116,114,113,111,114,119,114,115,116,118
115,113,116,114,114,115,115,116,119,110,116,116,112,113,113,115,114,114,110,114,115,114,114,111,111,118,113,116,112,120,119,120,118,114,115,117,111,113,118,121,116,120,116,118,116,112,117,114,117,114,115,121,118,116,111,114,115,116,115,115
114,112,114,115,114,112,112,112,115,112,116,114,115,117,116,111,113,116,116,117,113,114,115,116,113,118,117,116,109,111,114,113,115,114,113,116,117,113,114,111,114,112,110,111,110,110,114,115,118,115,116,119,116,116,116,116,114,115,113,113
115,118,116,113,113,113,117,119,113,109,116,113,114,113,115,113,115,111,116,115,113,119,117,118,119,117,114,111,111,115,113,114,120,112,115,116,116,111,116,113,117,115,116,116,116,117,115,115,115,115,114,116,117,114,113,116,114,114,111,114
114,114,114,113,116,115,115,117,112,113,118,114,113,116,119,115,114,111,117,115,112,115,121,117,115,111,114,113,111,116,112,116,118,109,116,119,113,108,115,115,118,117,117,117,117,117,113,119,118,114,112,116,118,115,113,114,119,117,115,117
109,112,117,116,117,112,112,116,112,115,113,116,120,116,116,116,116,111,114,115,115,112,115,118,116,111,113,115,110,114,115,118,119,117,116,117,116,111,113,115,116,115,111,112,116,112,110,115,117,116,114,115,115,111,114,111,116,112,115,112
118,113,114,114,117,113,115,118,113,117,112,110,113,118,118,118,114,114,115,114,113,118,115,111,115,113,115,118,113,115,118,116,116,113,115,116,116,120,111,112,113,120,117,113,116,109,114,112,114,113,111,112,117,117,116,109,115,110,112,112
114,110,113,110,114,114,117,116,111,117,120,118,112,114,111,116,116,115,117,112,117,112,115,113,114,113,117,119,118,114,116,111,115,110,109,111,114,120,109,114,113,116,114,107,116,114,118,113,117,118,114,115,116,114,116,114,115,111,115,114
115,119,117,116,114,115,118,114,114,110,116,117,114,116,111,115,115,106,117,117,117,110,116,117,116,114,117,110,116,116,116,112,117,113,115,116,114,117,115,113,110,115,117,114,114,113,114,111,114,113,113,115,114,113,115,116,113,112,114,113
111,117,111,117,112,112,113,115,120,114,115,116,113,119,115,113,120,112,116,111,113,117,114,116,117,112,115,114,114,116,116,113,112,111,113,116,115,117,118,115,114,116,113,112,114,117,117,114,114,114,114,116,116,117,117,115,112,114,117,112
111,118,115,120,116,117,115,113,114,111,110,112,115,116,115,112,116,111,118,113,111,119,116,113,113,116,113,116,113,114,111,115,117,117,114,115,115,116,117,116,115,115,114,118,115,113,112,111,115,119,113,113,114,115,114,112,112,111,119,111
118,112,112,118,117,115,115,112,113,114,117,112,116,115,118,118,116,113,117,116,115,115,115,117,116,120,113,115,114,115,113,115,113,114,114,117,115,115,115,109,110,119,114,112,112,115,119,116,110,116,113,114,115,114,112,113,120,115,113,108
115,113,113,114,115,115,113,112,116,115,118,111,115,113,115,116,116,113,114,111,111,111,111,115,113,117,117,114,113,116,119,118,116,117,111,114,114,113,114,114,114,119,111,110,113,111,112,119,116,116,112,113,113,113,112,113,116,120,116,112
115,116,115,113,115,118,120,111,113,116,115,114,117,112,112,113,115,115,114,116,115,114,110,108,115,116,117,116,115,113,115,114,112,114,114,114,111,113,114,117,114,115,118,119,119,115,116,113,113,115,114,117,113,115,113,114,112,114,114,113
111,110,109,116,117,107,116,115,113,115,112,116,117,113,115,113,117,117,115,114,115,116,116,112,117,113,115,113,114,112,116,117,119,117,114,115,114,118,114,110,113,111,115,115,115,119,117,116,115,117,116,116,116,115,113,114,114,118,118,114
121,117,117,113,119,114,115,114,117,115,112,116,118,108,110,109,115,111,118,113,116,113,116,116,114,116,119,118,119,118,114,113,110,112,115,119,113,113,116,114,118,113,115,118,113,114,111,112,116,115,113,112,113,117,114,112,111,117,123,118
121,107,112,112,114,109,117,112,112,113,115,113,118,116,116,112,116,111,118,113,115,114,116,119,112,113,115,118,117,119,119,120,115,114,116,117,118,115,115,114,117,115,113,114,115,117,115,116,113,114,114,116,112,116,117,113,107,110,116,113
114,113,117,115,116,113,119,114,115,112,115,118,118,114,118,115,115,112,116,115,113,113,117,120,112,112,115,114,108,112,111,114,116,114,114,110,115,115,113,116,115,113,118,119,116,113,114,117,113,117,113,109,115,114,111,110,108,113,115,114
113,116,114,112,116,113,116,119,120,114,115,114,118,112,113,116,115,116,116,115,111,109,118,117,112,112,113,116,111,115,112,113,115,111,117,115,116,114,111,112,117,112,115,112,116,114,117,115,113,111,117,116,115,112,115,118,113,117,111,114
112,113,120,115,118,119,113,113,115,111,119,111,115,114,116,117,112,112,114,112,117,113,115,115,115,118,112,115,115,119,116,117,117,112,114,110,114,115,115,115,119,115,116,111,120,110,113,112,112,113,117,115,115,112,113,120,113,115,114,118
115,111,115,113,112,116,110,110,115,111,114,113,115,114,114,111,115,114,117,114,113,114,114,117,116,113,113,113,115,117,112,114,116,117,115,117,117,116,111,113,113,115,114,111,117,120,115,112,115,114,114,112,120,116,115,117,115,113,115,113
113,118,113,114,109,111,114,114,115,118,118,119,114,115,114,111,118,114,116,118,114,117,114,116,117,115,116,113,114,114,112,116,117,119,113,113,111,118,114,116,114,117,114,118,114,118,116,113,116,111,114,113,114,115,114,112,115,113,114,113
114,115,110,113,114,112,112,117,116,117,114,109,113,117,113,114,115,111,107,118,116,117,114,112,113,112,114,116,119,115,113,113,111,112,116,116,111,116,112,113,113,115,110,115,116,115,114,110,115,116,113,118,117,119,115,113,116,117,118,115
116,117,116,114,116,118,114,110,111,109,112,109,113,114,114,116,112,116,111,113,116,113,114,113,117,115,114,113,120,119,118,121,116,111,112,117,113,116,115,117,117,117,114,115,113,114,112,112,115,114,107,115,110,115,117,117,114,110,114,111
114,113,116,113,110,113,116,112,115,113,113,114,119,116,114,117,112,116,115,112,117,112,115,115,117,117,111,113,116,114,114,116,113,117,114,109,115,115,112,112,116,115,114,118,117,117,117,113,115,115,114,115,114,116,111,113,114,117,115,107
116,116,118,116,114,115,115,114,115,113,115,115,116,112,113,115,113,116,116,114,117,115,118,112,112,115,114,116,115,116,117,111,108,119,115,115,118,116,115,113,117,120,118,112,114,110,114,112,111,112,116,115,113,118,114,113,112,115,116,113
116,117,114,113,113,114,113,116,113,112,115,117,119,115,115,114,112,115,118,116,116,112,112,115,116,120,113,112,110,113,117,117,111,114,113,119,115,117,113,110,114,114,115,110,118,114,115,118,111,108,115,119,115,117,118,114,112,115,115,113
111,117,113,115,114,113,114,113,115,119,115,113,118,113,115,117,116,116,113,111,111,114,115,121,111,117,109,119,119,112,114,115,110,112,115,117,114,115,113,113,115,112,115,111,117,116,114,116,112,115,113,116,118,121,116,113,118,115,110,115
110,114,113,117,114,113,114,111,117,120,119,118,120,116,112,113,114,120,114,115,113,118,113,119,112,121,116,115,117,112,117,120,114,114,118,114,115,109,113,118,119,116,118,116,116,113,112,115,115,119,113,111,109,116,112,110,118,113,114,115
113,115,110,117,120,115,114,110,114,113,111,114,114,116,114,114,114,112,112,114,111,117,116,116,110,112,119,113,114,113,118,118,113,112,117,107,117,116,111,115,112,114,110,114,113,114,117,116,111,111,118,115,112,118,115,114,116,118,117,113
111,115,111,108,115,116,114,116,116,116,113,116,114,115,118,116,116,112,117,117,115,116,119,113,115,115,119,118,118,115,114,114,117,111,116,112,116,116,111,113,115,120,115,119,115,110,111,112,119,112,116,114,109,111,114,115,112,112,115,113
112,116,117,115,113,114,108,116,115,114,111,116,115,115,117,118,118,112,113,115,116,112,119,117,117,115,115,114,114,115,118,113,118,116,112,113,120,114,113,116,118,115,115,114,119,117,116,116,114,113,117,116,115,113,113,115,114,112,113,116
114,117,114,112,114,116,116,118,116,115,113,113,113,109,110,116,111,112,112,114,117,113,117,116,115,114,117,114,119,112,118,114,112,115,114,115,120,113,114,116,113,117,116,112,115,115,114,115,111,114,113,114,115,112,115,118,117,114,112,113
115,113,118,112,118,113,111,116,116,118,117,118,120,113,113,121,119,118,115,114,117,115,114,113,114,113,116,113,121,114,117,117,116,113,113,116,115,108,112,113,108,116,117,115,114,116,115,120,119,120,114,116,117,112,113,114,113,113,114,114
120,114,115,112,116,116,116,113,115,116,114,115,115,112,113,117,118,114,116,118,114,116,112,113,116,113,114,116,121,114,116,116,117,117,114,117,116,113,114,112,113,117,115,113,111,113,114,114,111,114,113,115,115,111,115,116,116,115,117,119
111,110,112,115,114,112,119,110,114,113,109,114,116,116,114,113,116,115,113,118,115,118,118,116,114,117,116,118,117,115,118,113,113,118,115,118,116,115,116,110,114,116,114,115,113,117,113,110,110,117,118,119,115,109,110,113,116,116,110,113
113,115,113,110,119,115,117,113,113,115,113,116,116,117,120,120,114,116,112,116,118,117,118,119,113,115,115,119,121,118,122,118,114,115,115,114,112,116,114,110,113,118,115,114,114,116,113,118,112,113,112,111,112,113,114,119,116,115,114,112
110,115,119,116,115,113,114,117,114,117,119,117,115,115,111,115,114,115,112,108,117,116,117,120,122,122,124,125,123,120,120,117,118,113,115,117,114,119,114,114,113,114,115,114,117,114,120,118,111,113,117,115,111,117,118,119,116,113,115,117
114,116,116,116,115,117,116,119,113,114,115,112,114,112,117,119,118,114,115,112,117,116,117,117,122,127,131,140,134,132,128,118,121,115,117,117,113,115,114,111,116,119,113,113,118,111,120,113,115,111,117,118,111,115,112,113,114,116,115,114
116,116,115,113,111,115,112,117,116,115,117,116,116,113,116,116,115,117,116,115,115,114,118,119,124,130,132,135,133,131,129,120,119,117,115,113,112,114,115,113,111,118,116,113,117,111,115,117,115,111,114,118,115,117,115,121,113,116,120,117
115,114,115,114,113,117,113,116,116,118,117,119,116,115,111,112,117,118,112,117,116,117,122,117,124,128,133,134,138,135,126,123,120,118,115,117,117,115,109,112,112,115,113,112,117,113,110,111,112,114,113,114,114,114,112,117,115,118,114,118
115,114,119,113,112,116,112,116,113,117,111,118,114,109,113,120,117,111,106,117,115,116,122,121,125,129,135,132,132,136,129,122,115,115,115,115,118,115,114,115,116,119,115,113,111,110,115,111,114,118,115,120,117,113,111,115,112,113,114,116
115,111,117,113,117,117,113,116,111,118,115,117,119,119,112,114,113,114,113,124,119,118,115,118,125,133,137,135,136,130,133,132,122,119,119,112,117,118,119,114,109,116,115,116,113,113,115,108,107,114,111,111,116,115,111,114,112,113,118,108
114,113,117,114,119,114,112,117,110,119,117,112,109,118,112,115,115,114,113,114,110,114,116,120,120,126,129,125,137,130,129,128,123,118,116,114,118,112,115,121,110,114,114,117,118,117,121,114,113,114,117,117,119,119,114,118,120,113,115,111
115,113,115,112,117,117,115,113,112,120,116,115,115,118,115,113,114,116,116,115,115,119,119,122,120,125,131,124,134,129,133,125,123,124,125,114,116,115,110,116,115,113,119,115,115,108,115,115,115,117,118,116,112,115,114,113,114,114,114,116
116,113,115,112,110,119,120,115,113,119,118,120,117,114,117,108,114,115,113,113,112,114,114,120,118,127,131,126,131,129,132,126,124,117,122,116,114,117,122,117,117,113,119,112,116,113,113,117,113,116,109,112,111,113,116,114,112,116,116,116
116,112,115,116,113,112,113,116,113,115,108,113,113,112,116,115,121,116,116,117,115,115,117,120,118,128,128,130,132,132,133,131,130,119,119,118,118,115,115,114,119,112,115,115,119,115,113,119,115,119,113,114,111,114,117,115,112,112,114,114
115,113,115,115,118,110,113,118,115,121,117,120,118,117,111,113,116,118,119,117,117,117,115,118,120,128,135,133,132,137,135,129,128,118,119,119,115,114,112,116,117,115,118,116,118,116,112,113,111,118,114,116,115,119,119,114,114,114,114,114
115,112,116,114,118,116,118,116,115,111,116,118,115,120,115,114,115,118,115,113,116,117,123,123,124,126,133,137,132,133,138,132,133,126,124,121,117,123,117,120,113,115,114,115,111,114,117,117,111,116,110,116,110,114,115,113,114,115,115,114
110,114,112,115,116,110,115,111,115,112,113,116,114,116,110,116,116,116,116,119,120,112,120,121,123,128,134,134,132,132,138,125,119,121,123,114,113,115,113,119,109,117,110,113,112,114,116,114,109,114,107,116,113,113,113,115,116,115,115,117
112,120,118,112,113,114,117,113,111,115,114,114,114,119,109,113,114,115,113,114,116,112,118,120,121,130,132,135,141,139,135,131,125,122,122,115,117,117,111,117,116,124,113,116,118,125,119,120,115,115,113,122,118,117,116,121,118,114,115,112
116,111,115,113,118,119,114,116,114,115,113,112,114,115,112,117,114,120,118,117,119,120,119,115,121,128,128,134,139,138,135,133,128,121,122,116,118,117,114,114,112,117,113,113,111,118,112,114,118,116,112,112,112,110,113,113,110,115,118,114
117,116,112,109,116,114,114,116,113,113,121,115,116,115,113,115,114,119,113,113,112,115,116,116,124,123,131,133,139,136,139,131,131,124,124,117,116,115,110,110,115,117,115,115,117,115,115,112,118,116,113,112,114,110,116,115,111,111,113,114
111,112,113,114,115,115,112,113,114,110,116,110,114,115,113,115,117,119,110,118,114,119,113,115,114,120,134,128,137,133,138,129,133,127,123,117,117,116,114,114,117,114,116,116,116,116,118,113,115,120,112,110,115,114,114,116,115,116,116,118
118,115,108,117,119,123,117,112,117,111,119,116,114,114,115,115,117,116,113,120,111,119,116,122,120,121,133,133,137,135,136,131,126,124,119,121,118,115,113,112,118,116,115,115,111,117,117,120,112,116,114,115,113,118,114,112,114,114,113,115
115,115,114,118,114,114,115,112,120,113,116,117,115,113,115,115,118,120,117,120,114,118,116,114,118,121,129,131,134,137,135,133,130,131,124,120,118,118,114,110,112,116,114,118,113,115,112,117,114,115,116,116,111,116,116,116,112,114,115,110
119,112,116,114,114,115,114,112,117,114,114,117,116,113,113,116,114,113,114,116,117,117,120,114,120,121,132,130,127,134,134,129,128,130,127,123,118,120,115,117,112,113,111,112,117,119,116,113,112,110,107,111,114,119,114,116,112,114,114,112
115,114,120,117,114,115,116,116,118,117,114,114,118,120,115,116,117,110,117,110,114,113,121,120,123,121,122,133,133,135,133,129,131,135,130,121,118,119,118,123,114,111,116,111,112,113,114,115,114,118,114,115,110,112,110,114,115,115,113,115
113,115,114,115,112,117,118,118,115,118,120,119,114,115,112,113,121,116,119,116,113,112,117,117,120,127,123,133,137,138,135,133,132,131,128,121,119,112,119,119,113,110,116,114,117,121,122,119,112,116,116,115,114,117,118,116,114,112,115,117
115,119,119,116,115,116,113,115,112,112,114,112,111,109,112,114,113,119,112,113,117,115,118,116,119,123,122,131,135,130,132,135,131,127,129,124,122,114,117,116,116,114,113,115,116,112,115,120,115,117,118,111,113,114,113,114,112,111,116,116
117,111,110,110,113,118,114,115,118,116,117,114,116,111,113,113,111,118,114,116,113,114,116,115,119,123,128,131,136,128,132,136,130,124,120,114,117,111,114,116,114,118,116,111,114,116,117,121,116,113,116,112,115,115,112,117,117,114,116,114
119,115,115,114,113,119,113,118,112,113,116,115,117,112,114,117,116,116,116,120,111,119,118,115,120,125,128,130,133,137,139,135,130,126,125,122,120,113,116,119,113,112,115,117,115,112,111,115,115,117,120,113,115,114,115,117,114,115,115,114
115,113,111,112,112,117,115,120,112,115,115,112,114,114,116,114,114,118,115,120,114,118,118,118,117,126,133,137,136,135,136,135,133,128,120,118,116,115,117,115,116,117,116,118,116,114,117,116,112,107,115,115,118,113,112,117,112,117,113,113
116,118,118,119,120,116,116,116,115,115,114,113,116,114,113,111,111,117,113,117,120,115,109,117,117,123,131,129,134,133,131,129,133,128,120,119,122,118,117,112,110,112,116,114,118,118,116,117,120,113,115,113,113,116,112,114,108,117,113,113
113,115,112,111,112,112,117,118,114,114,116,114,116,115,114,112,115,114,117,118,118,116,118,120,122,126,134,133,131,129,132,132,135,129,125,118,121,120,121,117,120,117,115,114,114,115,111,112,120,115,114,113,112,117,114,116,111,112,114,113
113,114,118,115,115,113,112,113,115,114,118,118,117,112,113,114,116,110,114,114,116,112,114,116,121,125,134,137,135,137,135,133,133,117,121,118,118,117,120,114,118,117,114,117,110,114,116,112,114,115,112,114,114,114,116,118,116,116,118,113
112,105,115,115,114,114,117,110,117,112,113,117,115,115,115,115,116,112,116,114,114,119,115,118,122,126,131,131,132,132,132,131,135,126,122,118,122,116,113,110,117,115,112,116,116,118,113,111,113,119,115,112,113,112,113,115,110,114,117,113
115,114,116,115,116,117,118,112,116,111,114,115,115,115,114,119,118,115,114,114,113,119,114,117,120,125,133,132,133,132,137,134,129,126,118,116,118,115,113,111,118,118,114,115,114,117,117,115,115,119,114,114,118,115,111,116,118,120,119,115
115,114,114,113,110,114,115,116,117,113,113,111,116,113,112,115,113,114,116,117,115,119,116,113,115,119,129,129,129,127,129,131,128,128,123,118,115,113,113,112,117,114,114,116,113,115,118,116,113,113,114,116,114,117,118,112,112,116,113,112
113,114,115,116,114,117,115,114,117,113,111,113,117,113,114,114,116,114,113,112,112,119,117,116,119,127,135,131,129,131,136,136,132,122,119,120,118,119,119,114,120,116,114,116,111,110,112,113,114,115,117,116,114,114,118,118,115,114,114,115
117,114,115,112,111,113,117,115,119,115,115,115,116,111,118,113,113,114,120,117,116,117,116,119,119,122,129,128,132,133,135,134,130,120,123,115,112,113,116,112,118,117,114,116,115,113,112,111,118,117,115,114,114,116,115,111,115,116,114,112
116,109,115,119,115,113,117,117,119,115,118,113,115,118,117,114,114,115,118,111,113,111,114,116,117,118,131,131,135,135,135,132,130,120,122,112,116,115,115,115,115,116,116,115,115,113,120,114,117,112,110,115,115,117,116,112,118,120,122,112
119,119,115,115,114,113,110,116,117,112,113,112,111,115,116,118,117,113,115,112,121,120,121,117,116,115,121,126,127,129,134,129,126,118,122,117,112,115,113,115,115,112,115,114,115,110,115,110,113,113,114,114,116,114,115,112,113,108,115,112
111,114,115,112,112,118,116,117,113,115,109,112,118,113,113,113,116,115,118,115,118,117,115,115,116,118,123,127,125,125,125,120,122,119,121,118,111,118,113,116,113,109,116,115,115,115,117,110,117,115,120,117,121,115,118,113,114,117,112,111
112,114,119,120,117,115,113,113,112,119,115,114,114,112,114,115,116,110,109,108,110,114,114,115,114,114,121,124,122,120,121,118,119,118,117,113,114,113,110,113,111,117,115,116,118,116,114,110,116,112,118,114,118,115,117,112,114,114,113,111
117,115,117,116,113,112,111,114,115,117,118,115,111,110,115,118,118,116,119,116,113,116,115,118,117,116,120,121,116,115,117,116,116,114,114,114,117,117,120,114,110,116,112,112,117,115,119,117,115,112,115,114,117,111,111,115,119,112,112,113
116,112,113,113,116,114,111,114,115,115,115,114,113,108,114,114,110,115,114,113,113,118,112,118,116,115,118,116,121,118,119,115,116,118,118,115,115,112,114,115,113,119,119,112,110,109,113,117,116,113,115,113,114,112,111,111,115,117,118,117
120,118,113,115,117,114,116,113,113,115,112,117,118,115,117,115,116,118,115,120,115,118,113,117,111,113,117,113,117,108,114,115,121,121,117,116,118,114,115,118,116,114,116,116,124,117,114,116,116,112,116,116,112,113,116,111,112,113,113,117
113,113,109,117,116,112,115,112,116,114,110,115,117,116,117,112,113,112,111,117,111,112,114,119,119,115,115,116,118,114,117,114,114,117,114,112,117,113,111,111,113,113,116,112,117,115,114,112,116,117,116,116,110,116,116,114,114,118,115,117
112,115,114,115,114,111,113,115,117,113,113,115,115,115,114,111,117,114,112,117,116,115,117,116,116,117,114,115,115,111,108,109,110,113,111,107,115,112,111,111,112,115,115,109,115,113,113,115,110,111,114,116,113,118,115,117,116,116,114,116
112,114,115,117,118,115,114,117,122,116,118,115,116,120,119,114,118,116,114,111,119,119,115,112,116,115,114,113,115,114,114,119,119,116,121,116,115,112,115,115,114,114,114,111,115,116,111,113,113,115,115,115,113,117,114,110,112,114,112,118
114,112,110,115,114,116,111,109,111,114,118,111,110,112,116,117,120,118,116,115,120,112,111,110,118,119,118,114,116,116,116,114,118,117,118,115,116,118,118,118,117,116,118,117,115,118,118,116,116,114,113,113,117,116,115,112,117,119,117,111
115,114,111,114,111,116,115,120,118,113,115,119,114,113,111,113,112,113,115,114,114,116,116,114,111,117,114,111,112,113,116,117,118,113,114,114,116,116,113,115,115,114,119,113,111,116,113,117,117,117,117,114,115,114,116,113,113,112,115,112
113,113,115,114,112,116,116,119,114,115,111,118,113,115,115,116,113,114,112,119,116,116,112,119,118,116,113,116,113,115,113,111,118,115,115,114,113,114,110,114,115,112,118,111,112,118,112,116,115,115,115,116,118,114,115,117,119,117,115,112
112,112,109,113,116,115,113,117,111,114,115,111,109,112,115,116,116,117,113,117,112,113,112,117,115,111,111,115,115,117,116,111,112,116,113,117,112,116,110,113,115,115,120,117,113,115,114,115,116,117,115,120,119,114,115,110,111,115,119,117
113,118,116,111,113,112,114,118,113,111,119,113,116,113,114,115,116,117,113,112,116,117,118,120,113,113,118,114,110,118,118,120,112,113,114,117,112,112,111,113,114,110,112,117,115,116,114,114,116,117,109,113,115,111,115,115,118,117,109,110
114,117,115,110,114,113,116,112,113,112,117,112,115,112,116,115,116,116,117,116,118,111,113,114,117,115,119,117,113,119,115,113,113,115,113,112,114,111,113,116,115,114,113,115,112,113,112,111,114,119,112,114,116,113,114,116,118,115,115,112
118,118,119,114,117,115,115,116,118,119,113,117,118,115,119,114,119,114,113,112,118,117,114,112,114,113,112,115,112,112,112,113,113,112,115,112,114,114,112,111,114,117,118,111,110,114,117,115,113,112,112,109,117,117,111,113,117,114,117,114
114,111,112,108,113,113,113,115,114,116,116,115,113,113,117,109,113,117,113,114,116,114,112,116,118,119,115,118,114,119,116,117,119,112,113,114,114,111,114,115,111,111,118,112,117,116,117,116,116,116,116,111,115,119,111,113,116,109,110,108
119,116,119,117,117,113,116,113,116,115,117,114,115,116,118,113,111,116,115,117,114,114,114,114,112,108,111,114,111,116,114,111,113,111,114,113,115,114,116,115,113,112,116,113,115,111,117,112,113,115,110,114,117,117,111,110,119,115,118,115
115,113,116,112,114,114,115,113,116,109,116,112,111,113,120,116,116,116,110,117,111,114,112,113,114,115,118,118,113,111,113,115,118,112,117,117,116,117,116,115,113,113,111,114,113,112,118,114,116,116,110,113,113,109,115,113,120,114,111,116
112,112,115,113,116,115,113,115,117,111,116,115,112,117,115,112,114,116,114,115,113,115,112,113,113,117,116,115,117,116,115,111,117,112,114,115,113,117,114,118,114,116,107,117,115,115,119,114,116,114,115,121,119,115,113,110,113,114,114,115
116,113,114,113,121,117,116,115,115,111,114,116,113,116,110,114,112,114,115,112,115,117,111,113,114,113,111,111,114,111,112,110,117,115,113,116,116,112,107,117,113,120,111,116,114,113,115,109,112,111,114,115,113,114,112,112,116,115,113,113
114,117,117,110,114,116,116,116,114,112,115,115,113,117,114,114,112,117,115,119,116,115,114,115,117,113,114,115,117,119,121,115,108,112,110,112,114,115,110,114,113,118,111,112,110,113,117,115,115,113,112,117,121,117,112,111,117,116,113,116
117,121,113,112,115,115,113,115,113,111,117,116,117,114,115,117,117,121,111,115,115,115,115,113,119,117,116,120,113,112,115,113,116,116,113,114,115,117,119,115,114,119,118,114,112,119,117,114,115,115,115,119,117,114,116,114,113,113,112,118
115,115,112,111,114,116,114,113,117,113,114,112,114,113,117,117,115,117,107,114,111,112,115,111,115,118,113,116,118,114,115,112,116,114,115,115,116,116,117,112,114,114,113,115,114,115,114,112,116,118,116,115,115,118,117,111,115,115,115,114
112,111,118,111,113,114,114,115,117,111,113,113,114,114,116,113,112,120,116,117,113,114,121,116,113,117,115,114,114,114,115,114,116,114,115,111,118,115,114,114,115,116,113,114,114,114,114,112,116,114,110,111,113,112,116,114,124,115,112,114
114,115,118,116,119,116,114,115,117,112,117,113,115,117,113,110,112,112,113,115,115,117,114,111,110,114,115,116,112,113,115,115,117,115,117,108,117,114,115,115,108,110,114,117,115,114,112,114,117,116,112,116,118,116,116,108,114,114,113,115
113,111,111,113,117,114,111,116,121,116,115,114,113,117,111,115,117,114,117,113,112,113,112,118,116,110,111,114,114,115,114,113,113,112,114,111,116,110,115,117,115,117,110,118,117,116,112,111,113,113,116,115,109,113,115,115,114,117,115,113
119,114,115,112,116,117,110,112,116,116,114,118,113,116,114,115,114,117,114,114,120,115,111,116,116,108,114,112,117,118,118,115,114,117,116,112,116,112,114,114,112,119,110,115,119,120,116,115,118,113,116,114,118,120,121,118,114,117,114,110
112,116,120,114,114,115,114,114,112,112,114,117,115,117,119,113,111,113,112,113,113,118,115,111,117,115,116,111,115,119,114,113,112,113,115,114,119,116,116,117,116,121,118,120,116,115,114,114,112,111,113,114,116,109,117,118,116,117,115,116
116,114,116,112,118,115,116,118,115,114,115,115,114,108,113,113,111,112,116,116,113,114,111,112,115,115,117,116,114,116,112,114,116,112,113,111,105,111,117,111,112,113,113,116,114,114,114,118,110,115,115,114,117,111,112,112,115,116,115,115
111,116,114,112,114,110,114,114,113,109,110,110,115,112,115,116,119,116,116,116,114,111,111,114,116,116,121,114,112,114,111,113,115,113,110,119,118,115,117,108,118,113,113,115,112,115,115,114,107,116,116,115,115,113,117,114,117,118,117,112
115,116,112,116,119,115,116,114,118,117,118,117,112,112,116,111,115,112,113,114,111,113,118,115,114,110,114,112,115,113,113,113,111,116,115,115,114,111,116,112,119,112,112,114,114,115,112,113,115,120,112,114,116,115,115,113,116,114,116,111
113,113,113,113,117,116,116,114,112,111,115,119,118,111,113,109,115,112,114,114,116,114,116,114,114,112,115,110,115,115,119,114,113,113,114,115,115,114,118,116,119,112,113,111,111,113,114,118,114,118,111,116,117,118,117,113,115,115,113,112
115,114,115,113,116,111,113,115,117,113,113,113,113,112,112,110,114,115,120,117,119,115,117,112,112,116,120,115,113,113,119,115,114,113,112,114,119,119,116,113,120,114,116,110,112,116,113,116,112,115,115,111,108,112,119,115,113,115,115,115
116,116,119,115,117,115,116,113,113,114,116,116,113,115,115,116,113,113,113,111,114,109,116,113,111,114,116,120,115,112,118,115,115,114,117,114,112,118,114,111,118,115,121,115,116,117,113,117,115,116,117,114,114,118,115,112,110,116,115,115
116,117,117,112,116,115,114,116,113,112,114,118,116,116,108,115,111,111,113,112,117,117,117,115,117,114,115,112,113,117,118,114,115,114,112,108,111,119,118,118,117,108,116,116,114,117,111,113,114,113,114,114,113,116,112,118,119,118,112,112
112,113,122,112,113,112,113,122,118,116,112,119,116,117,111,113,117,117,117,113,114,113,117,113,116,115,117,117,112,115,115,116,117,116,110,112,114,114,113,112,114,111,114,119,114,118,114,116,112,115,114,114,114,118,116,112,115,114,113,114
116,112,118,114,116,116,114,114,113,113,110,119,116,115,116,111,119,114,111,109,112,108,113,113,117,119,111,113,113,118,114,115,114,113,112,119,116,116,111,113,110,115,113,114,113,118,114,114,108,114,115,116,115,112,113,113,118,118,111,113
117,112,114,113,115,115,112,113,115,116,116,117,118,113,121,119,116,113,116,115,113,113,116,116,114,117,115,116,113,115,113,115,117,115,111,110,116,119,114,119,111,111,114,115,111,110,113,117,114,118,115,114,114,111,115,116,116,119,112,110
112,114,117,117,112,113,111,116,116,116,114,113,123,116,112,115,116,115,113,116,115,115,114,111,109,112,112,115,114,112,112,112,117,116,115,114,117,115,116,116,116,114,114,115,116,113,113,115,116,116,114,117,116,113,113,114,112,117,113,112
110,119,114,115,113,114,112,115,114,114,112,110,116,116,113,114,119,116,113,120,117,115,117,114,114,116,115,118,119,117,117,116,113,114,111,110,115,113,115,112,117,116,112,111,116,114,112,117,117,116,111,112,117,116,118,119,115,114,113,115
113,119,112,115,117,113,115,117,112,113,114,112,121,118,116,111,115,111,107,114,114,115,116,115,112,117,113,111,112,111,110,112,113,114,118,117,117,111,113,111,111,114,120,114,114,113,111,113,116,119,116,114,114,110,115,117,115,114,113,115
112,113,115,110,114,114,114,115,112,113,116,114,114,114,115,113,117,114,110,114,114,115,114,116,114,113,109,116,120,118,118,113,118,109,115,115,117,119,118,113,117,113,113,113,116,114,114,114,115,117,112,116,115,114,119,116,113,113,114,119
119,111,114,110,112,116,118,119,114,112,110,117,116,114,112,109,114,112,115,116,116,114,114,107,112,117,113,116,114,113,114,108,117,114,115,116,111,114,113,109,116,118,118,117,118,118,113,114,111,115,115,114,113,110,114,112,116,115,112,113
