49,60,71
118,111,110,113,113,114,113,112,113,114,112,112,113,118,115,114,116,119,118,113,112,115,112,112,116,114,114,111,114,113,114,117,117,111,110,112,115,111,111,114,115,112,116,115,114,115,114,116,115,112,116,113,115,114,109,115,113,113,113,117
118,115,112,111,108,112,114,115,112,117,116,110,111,113,112,113,112,110,112,112,111,110,113,110,109,109,114,117,114,114,114,119,114,110,115,114,115,114,115,112,114,112,113,112,112,115,112,109,108,116,114,115,116,114,115,120,115,112,114,115
116,115,110,113,118,112,114,117,110,114,116,115,115,111,109,110,110,107,110,114,114,114,117,116,114,117,111,113,113,110,112,120,121,114,113,112,112,117,118,114,115,114,112,114,115,114,113,114,115,113,109,112,113,114,115,112,114,114,116,112
115,116,117,118,108,112,116,114,113,110,116,110,112,113,114,113,113,109,113,116,111,113,111,113,117,115,113,110,113,116,112,112,118,123,115,113,116,114,113,111,116,117,110,110,113,113,112,113,115,114,114,114,112,110,110,109,112,113,113,114
113,111,114,111,115,117,110,108,112,116,116,112,109,114,115,111,115,113,114,110,109,116,113,112,112,111,110,109,113,113,114,115,116,109,111,113,112,112,115,115,115,114,115,113,115,113,114,115,113,114,118,113,109,111,112,112,113,115,115,113
114,114,113,116,113,111,115,113,115,114,111,121,110,111,113,115,115,121,114,112,116,114,113,117,107,111,116,119,112,111,118,114,109,114,117,113,112,115,112,113,118,110,112,115,113,110,115,115,112,116,113,110,113,113,114,115,112,113,108,110
112,116,112,116,112,110,115,113,112,114,118,116,108,114,114,114,114,107,111,116,112,114,112,113,115,115,111,113,110,116,117,109,109,115,114,115,114,114,111,117,108,111,114,113,116,112,115,116,109,113,111,112,118,107,115,116,113,116,113,112
113,115,117,111,110,118,117,114,111,115,114,116,117,114,111,116,112,116,116,116,115,113,113,111,115,115,110,112,112,112,110,111,117,111,110,116,115,118,107,117,111,110,119,115,114,115,114,114,117,110,111,114,113,112,107,116,114,116,116,111
114,110,110,112,113,116,116,113,116,114,112,111,110,110,112,118,114,113,115,113,111,112,116,115,114,112,113,117,113,113,112,114,115,116,106,116,119,115,112,117,114,120,116,112,110,119,114,114,112,112,113,116,113,114,109,113,114,108,113,112
113,112,113,114,112,113,112,109,114,115,114,120,115,112,112,113,111,110,113,109,114,114,112,116,117,115,116,117,112,116,116,114,115,113,114,114,114,109,110,113,115,112,112,115,114,118,109,114,117,116,111,112,114,114,114,110,112,114,112,113
111,115,111,108,113,114,116,118,114,110,113,114,119,113,115,115,113,111,118,113,110,109,109,113,113,111,111,112,113,114,115,116,115,113,118,113,113,116,115,116,115,113,109,112,111,110,114,113,109,111,114,113,113,114,115,110,111,117,112,115
116,114,108,116,114,117,114,112,109,111,115,110,114,112,111,111,113,114,108,114,112,115,115,114,113,114,114,112,115,113,112,112,116,113,112,110,109,115,114,114,114,111,112,111,111,112,118,117,113,113,116,115,113,113,116,116,107,111,115,113
115,118,115,115,110,116,115,109,113,122,117,111,107,111,108,113,111,114,117,118,116,118,115,110,112,111,112,114,112,110,113,117,116,113,111,114,109,112,113,116,111,115,115,113,114,113,112,111,112,115,117,117,112,114,110,113,116,114,114,114
113,113,118,116,111,113,112,111,114,111,118,115,113,113,118,111,113,116,108,114,116,114,113,117,118,109,114,112,113,109,114,110,109,110,115,116,112,109,111,114,114,113,112,112,111,113,108,114,115,111,114,117,113,115,115,113,109,114,115,113
114,119,114,108,116,112,111,115,116,114,106,114,113,116,116,112,115,114,111,115,113,114,111,116,113,116,112,113,113,115,107,113,116,121,105,113,112,113,114,109,116,114,114,112,120,115,111,113,109,113,115,113,118,117,111,111,113,108,116,115
109,111,117,121,115,115,115,112,113,113,112,118,114,112,113,113,116,117,109,117,114,113,112,118,114,114,115,112,116,115,114,117,114,113,118,112,114,114,111,112,112,110,114,112,116,115,114,117,112,112,117,113,118,116,115,111,107,111,117,119
113,111,111,108,109,116,117,112,114,117,115,116,113,113,114,111,115,113,111,113,114,116,116,114,113,110,117,115,112,112,115,112,114,109,114,115,114,113,109,116,111,114,113,112,109,115,117,112,110,110,113,115,114,119,110,115,113,110,116,116
117,116,117,117,115,113,113,113,111,110,113,116,117,115,114,113,112,112,109,112,114,113,113,113,116,110,109,114,109,113,109,111,110,111,118,115,111,114,108,110,109,110,116,115,112,113,114,110,116,115,111,110,108,116,111,114,114,118,115,113
109,111,112,111,115,117,113,112,115,119,116,115,119,114,114,112,114,113,114,116,116,113,106,112,116,116,111,116,114,116,117,115,114,112,113,111,110,113,114,114,115,114,116,111,113,112,112,114,116,117,110,113,113,118,118,113,114,116,116,115
116,112,114,115,114,115,116,114,113,110,111,114,116,113,114,116,111,116,113,114,116,113,114,113,115,115,108,112,114,115,114,109,111,114,114,112,114,114,116,113,117,113,112,114,113,115,113,112,113,113,109,111,116,114,113,112,115,115,113,113
113,115,115,113,114,108,114,115,120,114,114,114,116,113,115,111,114,104,116,116,111,111,117,115,112,116,117,116,113,111,117,114,117,116,113,113,119,113,113,112,114,114,113,120,113,115,115,116,115,114,113,111,111,111,109,114,113,112,111,114
114,118,110,109,118,113,115,114,110,114,111,110,117,115,118,115,115,114,117,111,113,116,109,114,112,108,117,116,112,113,115,114,112,109,116,115,117,112,109,114,109,113,111,113,112,114,109,113,109,112,113,114,114,113,113,110,114,114,112,114
116,111,114,112,115,114,112,114,112,118,115,113,118,114,114,113,111,112,108,109,113,115,113,112,112,114,110,113,109,119,115,122,114,113,115,114,113,116,116,112,115,116,115,110,114,115,119,110,120,117,113,115,118,110,117,114,116,113,113,114
114,112,116,115,114,115,110,112,112,113,117,113,113,113,112,111,112,111,111,111,118,118,113,111,111,114,110,114,112,116,116,117,116,112,113,111,110,116,116,120,120,116,113,112,115,111,113,116,112,113,110,116,111,109,115,113,113,111,115,115
113,109,111,115,114,114,114,110,111,111,116,114,114,113,108,114,117,111,114,113,110,115,116,113,112,112,112,115,113,111,114,113,114,113,114,117,117,116,109,107,117,115,112,113,113,108,109,113,110,115,115,108,113,108,113,111,110,109,110,112
112,114,110,113,112,113,115,113,114,109,111,116,117,115,113,113,112,114,111,113,113,114,115,117,114,114,115,111,111,115,117,112,112,115,111,114,117,113,115,113,114,118,110,112,114,111,115,115,115,111,116,111,116,116,115,120,116,110,111,112
116,115,116,115,112,115,111,112,117,116,114,110,113,117,116,115,114,113,116,113,114,117,114,110,110,114,114,112,116,115,116,113,112,117,114,108,114,117,111,113,114,113,112,111,112,111,111,115,116,111,112,113,112,114,112,108,115,113,112,113
113,115,114,107,112,114,109,110,107,118,111,112,114,108,110,109,116,112,112,112,108,114,113,116,112,115,114,114,113,115,115,114,108,111,114,109,111,112,111,116,116,115,113,115,115,112,114,110,115,115,114,117,116,114,111,115,112,113,115,113
114,113,116,117,113,112,115,114,112,113,111,114,118,115,119,115,118,116,115,117,111,112,111,113,117,114,114,114,108,112,115,114,115,113,113,112,114,115,116,118,117,112,116,111,115,111,113,111,110,117,113,116,112,116,112,110,115,112,110,114
116,113,113,114,113,113,115,117,115,116,116,115,120,112,113,113,113,113,108,112,112,114,114,115,113,119,113,112,114,110,117,113,112,114,114,114,116,115,114,115,112,117,116,113,114,115,112,114,115,113,111,114,112,111,115,117,113,119,112,112
109,117,118,111,115,114,110,116,115,110,110,117,116,109,112,117,112,120,111,114,113,115,106,111,115,114,114,113,117,116,113,118,113,113,115,114,110,108,113,114,113,109,114,114,109,114,113,112,115,113,119,110,115,113,115,111,116,118,114,113
110,111,117,114,115,118,119,114,112,111,114,114,113,116,112,115,110,113,116,116,115,114,115,116,117,112,116,119,115,115,113,117,111,113,113,111,114,114,113,112,112,112,115,116,117,110,111,115,112,113,116,114,116,113,112,115,112,111,110,113
112,113,114,113,113,117,116,110,117,114,110,111,112,113,113,115,112,114,115,111,113,113,113,114,114,117,120,119,116,116,117,115,112,115,115,112,114,116,118,116,116,120,114,117,114,110,114,115,115,112,109,114,115,116,114,115,113,113,113,113
113,115,114,113,111,113,116,115,110,109,114,114,111,116,114,111,113,110,115,114,113,114,110,113,114,119,121,117,119,118,115,115,119,114,114,118,116,113,114,114,112,116,113,109,113,117,116,110,113,116,111,110,114,114,111,110,108,113,115,112
114,117,115,111,109,112,114,110,115,110,113,114,115,113,114,119,111,109,113,115,114,115,115,121,122,119,122,122,123,120,118,118,114,114,118,117,115,114,108,114,115,118,116,111,114,111,111,115,116,119,116,112,111,109,115,114,110,116,114,110
116,112,116,116,111,116,110,116,113,117,110,111,111,109,115,118,116,113,113,114,117,110,117,117,117,120,128,128,125,118,118,117,112,115,113,112,114,117,118,116,113,113,114,112,114,115,113,114,117,116,111,110,115,116,114,115,112,117,113,112
116,119,116,115,117,111,114,115,115,115,113,114,109,115,111,113,113,115,109,114,119,114,121,125,122,131,133,138,132,126,124,120,116,114,118,112,111,110,114,116,115,113,111,114,112,114,117,110,113,114,115,109,109,117,119,117,112,110,111,114
116,116,110,114,116,108,111,110,111,116,118,114,113,112,109,108,115,112,114,113,112,118,120,123,131,137,140,144,143,137,126,123,122,115,120,119,116,119,116,113,117,114,108,117,113,110,116,114,112,109,115,111,111,110,118,110,109,109,114,118
110,113,111,106,112,115,116,114,114,116,116,111,116,117,114,116,115,107,112,112,116,117,116,121,130,141,147,150,158,147,141,126,120,118,118,116,115,115,111,112,114,117,114,114,113,115,119,112,116,111,112,114,115,114,107,110,117,115,115,115
114,115,117,113,114,111,115,121,119,111,110,111,115,121,117,113,115,116,114,113,116,120,123,124,142,157,166,172,178,175,154,132,122,120,120,115,115,117,117,110,111,113,115,112,112,118,114,110,113,113,114,118,113,114,114,118,118,114,115,112
110,112,116,119,114,116,111,108,115,115,117,114,113,113,112,114,112,112,117,116,118,123,121,131,151,170,183,194,192,184,169,144,127,123,121,118,111,115,117,112,114,112,114,112,114,116,114,115,112,114,113,113,115,114,111,114,117,114,114,113
115,114,113,112,111,112,118,118,111,112,116,117,114,114,114,115,114,113,115,120,119,122,123,129,164,183,181,189,186,174,173,160,135,125,119,116,113,110,114,116,114,113,112,113,114,111,115,113,115,113,115,114,114,110,114,117,111,116,113,110
112,110,115,107,115,111,116,116,117,114,110,116,113,113,113,114,115,112,114,115,117,120,125,129,151,176,174,176,175,169,174,168,143,122,120,121,115,115,115,111,116,117,111,112,114,112,115,118,113,112,119,117,112,112,110,112,113,115,114,112
117,111,109,115,119,115,114,115,117,113,114,113,114,113,115,114,114,114,115,115,116,120,128,138,154,163,172,174,177,177,177,164,146,126,124,121,117,117,113,112,112,117,113,113,114,114,112,110,115,112,114,113,118,117,114,113,116,113,112,113
109,118,114,114,113,114,113,111,122,113,116,113,115,115,113,118,106,119,118,118,115,118,122,138,161,173,173,167,173,174,166,162,139,126,122,111,116,114,114,114,111,113,117,113,114,114,113,113,112,116,113,112,116,112,119,114,115,113,115,113
115,115,112,109,112,114,115,116,113,111,116,117,113,112,113,112,116,117,115,114,116,124,126,134,164,167,175,176,172,171,180,157,145,129,118,117,119,113,117,117,116,112,116,116,115,118,109,114,116,115,111,116,117,112,116,108,115,114,112,112
114,114,114,112,114,114,112,109,112,114,116,118,113,112,116,116,117,114,117,118,116,121,128,136,150,167,174,175,176,170,170,168,156,130,125,122,115,120,118,112,115,112,118,116,109,117,118,114,110,116,114,118,112,118,113,113,112,110,110,113
110,116,114,110,116,120,114,115,114,111,112,114,113,114,113,113,112,113,116,117,118,118,128,136,147,169,169,173,182,178,178,170,152,128,122,121,118,111,113,115,112,115,118,116,116,117,112,117,109,115,116,114,114,108,110,114,114,113,118,110
114,111,114,115,115,113,114,114,123,116,114,111,112,112,117,115,118,117,115,112,117,119,123,136,151,165,176,176,171,176,170,171,161,129,119,120,114,117,116,116,117,115,114,113,115,114,112,113,113,110,111,111,117,116,116,114,109,113,113,117
111,115,114,116,117,116,114,116,109,106,114,113,114,114,116,113,112,117,117,119,119,118,130,138,153,160,175,173,173,182,176,171,157,130,124,121,118,119,114,115,117,116,117,115,112,118,115,110,115,115,110,114,115,107,109,114,111,112,112,110
111,110,116,114,117,113,113,117,111,116,114,115,109,115,111,117,112,115,117,122,120,119,119,129,154,168,170,167,182,177,181,177,155,138,126,119,114,115,118,117,114,114,115,114,115,116,114,116,115,117,114,110,113,114,113,114,112,109,111,115
116,113,111,111,114,113,111,112,117,115,114,113,110,115,111,117,121,116,115,112,117,122,129,128,147,166,170,169,173,181,181,181,158,137,126,118,117,111,119,110,115,115,115,114,114,111,113,113,117,112,114,113,109,108,111,114,115,114,113,114
116,112,114,117,115,114,117,112,112,109,112,111,116,110,116,113,115,114,115,120,116,121,122,137,139,165,169,165,168,183,175,181,163,137,132,122,114,117,119,118,113,118,115,113,114,109,113,108,113,115,111,114,111,115,116,114,114,114,117,112
116,117,116,114,118,115,115,116,113,116,114,107,115,115,113,111,118,115,116,119,119,119,121,134,145,158,167,167,177,176,185,181,163,145,126,122,117,119,111,117,114,117,120,113,111,114,117,117,114,114,110,114,113,110,110,115,105,108,115,113
111,110,111,109,112,112,109,111,108,112,117,112,117,118,114,120,116,116,117,116,119,116,123,135,147,155,172,176,178,188,183,177,162,141,127,121,118,116,116,116,116,114,113,110,111,118,117,111,114,113,115,108,112,117,114,115,116,112,115,113
112,110,114,112,107,115,116,111,113,113,112,116,115,113,110,109,118,119,114,117,120,118,125,130,140,164,169,173,182,185,176,173,164,136,130,119,119,114,113,117,116,109,111,114,115,111,114,111,113,112,114,114,111,112,112,115,112,116,114,109
111,111,115,113,116,115,109,107,114,115,111,111,116,110,112,116,117,116,113,115,116,121,121,128,138,154,169,171,173,172,176,175,164,140,124,119,118,119,111,111,117,113,113,110,115,119,115,114,114,110,113,116,114,116,116,110,110,117,115,117
112,112,114,112,114,114,115,123,115,113,113,113,115,112,111,112,115,120,118,117,121,120,122,123,137,160,175,174,167,181,172,167,161,140,127,121,118,117,119,117,113,115,112,114,111,110,115,113,115,115,114,111,111,116,108,109,116,113,112,115
111,110,115,117,108,116,111,111,113,115,112,114,114,115,115,114,114,115,120,113,117,116,121,129,150,168,177,176,169,182,177,174,160,139,126,123,121,113,115,114,113,116,112,112,112,114,116,113,110,118,113,114,116,116,115,116,113,110,115,113
119,108,114,115,114,117,109,115,113,118,115,116,117,116,118,112,117,117,116,114,121,121,124,127,146,167,180,172,178,173,174,169,162,138,120,120,118,116,118,114,113,116,113,112,117,118,117,117,113,114,113,113,110,107,112,109,112,113,114,110
113,117,118,116,113,115,111,119,118,115,115,115,116,119,113,109,114,116,113,117,117,120,124,133,145,165,179,176,170,171,170,172,163,144,130,119,123,116,113,114,118,113,115,116,114,113,117,116,113,109,116,115,114,111,111,114,114,108,114,119
114,119,116,113,112,113,115,114,113,113,112,111,114,111,115,119,113,117,121,116,121,123,122,128,148,170,182,176,168,176,167,168,155,141,125,122,120,116,111,118,114,115,113,111,117,112,115,113,110,115,116,113,117,117,111,120,116,111,110,114
108,110,111,111,117,111,113,112,112,117,111,110,116,116,114,112,115,118,119,117,121,119,122,131,148,174,182,166,165,171,171,169,159,134,123,120,115,114,114,115,116,117,116,114,110,114,115,118,114,115,113,114,116,114,114,113,111,109,115,111
110,112,117,116,115,112,114,113,111,114,112,112,117,115,113,115,113,112,116,117,117,118,123,132,147,164,181,176,160,167,173,162,154,138,125,123,118,114,112,110,115,111,115,119,113,115,115,111,112,113,113,113,112,115,112,109,109,110,112,108
116,108,114,115,114,119,116,113,111,112,114,115,117,116,114,112,114,112,119,119,121,121,123,128,143,165,182,175,166,171,171,166,157,140,120,118,120,119,117,112,113,115,110,115,116,114,114,113,114,116,112,109,113,115,118,112,113,116,112,117
115,112,109,111,113,114,109,113,115,115,114,110,116,113,116,114,116,115,120,120,116,121,127,125,145,172,175,170,172,166,168,165,150,142,124,117,119,118,114,114,115,120,115,111,116,119,115,116,117,113,116,116,112,113,114,112,111,116,117,116
112,114,118,115,115,112,116,122,114,114,111,112,109,110,111,119,115,111,117,119,119,122,130,136,150,169,174,172,168,162,169,161,148,139,125,117,113,113,116,116,116,113,115,116,111,113,113,112,116,116,115,119,113,113,110,113,116,114,110,113
115,119,119,117,120,118,115,110,114,117,116,116,115,117,115,115,113,116,118,124,121,123,117,132,141,166,170,165,171,166,169,169,154,130,126,120,116,119,118,116,115,113,115,113,109,119,115,108,112,114,110,114,113,110,113,115,113,118,110,110
113,116,117,118,114,113,119,112,115,116,115,114,117,113,111,113,117,115,115,114,124,121,127,131,139,160,162,172,166,161,163,162,149,125,125,117,117,112,112,112,112,114,118,113,116,114,116,115,116,113,112,114,111,114,115,114,111,114,116,115
112,112,115,117,112,107,112,115,114,109,111,112,111,114,112,110,118,115,114,112,115,120,125,131,143,160,172,168,173,180,167,163,152,132,123,118,115,113,114,114,116,116,111,112,118,115,111,116,118,112,113,114,114,116,116,117,113,112,113,113
118,116,109,112,115,113,109,117,115,110,113,115,111,114,118,112,115,120,115,120,116,118,129,133,143,163,176,171,169,161,161,165,143,129,123,116,118,118,113,115,116,118,118,114,113,107,117,115,111,110,112,112,109,113,111,116,112,108,113,112
113,118,111,110,115,111,113,113,116,116,113,113,115,115,112,115,113,117,113,112,118,118,122,133,145,165,170,169,168,168,171,159,136,126,122,121,119,114,120,116,113,114,115,109,112,115,114,114,113,113,112,116,114,111,115,115,110,114,113,115
114,117,116,115,116,116,117,115,112,112,112,117,114,116,113,111,116,119,118,114,119,122,125,134,153,168,167,171,167,163,170,168,151,133,123,116,118,114,116,118,115,112,114,114,110,115,117,113,117,119,116,112,114,118,116,114,113,113,112,117
114,112,114,116,108,112,111,111,112,117,114,114,116,112,115,114,115,114,115,116,121,117,126,137,158,169,172,170,169,170,171,160,147,131,120,122,118,116,113,113,114,114,112,116,117,111,113,114,116,117,111,110,115,117,112,110,114,117,115,111
113,113,113,114,110,114,111,115,112,116,119,108,117,114,112,120,115,115,113,114,122,124,131,136,145,169,170,165,167,170,173,168,151,130,121,120,118,114,115,119,112,119,115,116,115,112,111,115,114,116,116,110,114,113,112,111,115,117,116,119
115,115,114,116,115,113,112,118,113,113,116,118,115,115,113,119,118,118,115,118,108,122,120,130,148,168,172,170,164,175,171,162,145,128,122,118,115,110,116,114,114,118,113,111,111,113,112,113,115,115,111,117,116,111,114,113,116,110,110,115
111,115,114,110,112,107,112,117,119,117,112,118,113,112,117,109,114,120,116,118,117,125,128,133,155,176,164,162,176,171,174,164,139,130,123,116,116,118,113,114,114,112,111,112,117,109,111,115,116,116,114,114,114,118,118,113,110,112,116,111
114,113,115,110,113,117,113,110,111,114,113,113,113,116,117,115,115,119,117,115,118,116,128,138,151,174,172,175,176,168,174,165,137,126,117,118,114,117,115,117,114,112,113,113,116,110,116,115,111,115,120,110,117,114,114,117,111,120,111,115
112,114,114,112,110,114,116,114,115,112,111,115,113,112,118,117,111,112,118,115,119,124,119,130,155,175,184,179,173,173,165,145,131,120,118,114,119,116,115,115,110,114,111,114,114,111,111,112,110,116,112,115,110,113,113,114,114,110,115,111
118,114,112,112,113,113,116,114,116,117,116,114,116,110,110,114,113,114,113,114,118,120,125,132,151,170,179,179,172,170,163,142,131,120,118,118,113,114,114,118,111,108,113,113,112,114,114,112,111,113,117,111,113,116,110,112,114,115,116,119
114,111,119,116,113,117,114,114,118,116,117,115,111,110,110,117,115,114,114,119,121,121,121,128,143,163,178,170,167,169,163,143,128,119,114,119,111,113,113,116,116,112,115,114,116,115,109,112,115,115,118,116,112,111,113,112,114,115,112,115
115,115,115,118,115,112,117,112,113,113,115,115,113,116,114,116,114,112,110,115,115,118,117,126,138,156,175,183,177,172,153,135,122,120,122,116,118,116,118,113,111,113,116,114,120,118,110,110,112,112,116,110,109,109,114,110,108,111,117,116
116,113,111,118,116,114,117,108,110,117,113,110,113,113,118,115,115,120,117,121,117,116,126,128,136,154,167,176,188,166,151,130,122,119,119,114,112,116,116,112,111,114,117,114,115,117,113,110,115,111,111,114,116,114,108,108,110,114,110,111
113,113,113,111,110,113,115,113,114,111,116,117,117,114,116,118,117,119,114,118,118,113,125,129,133,141,152,170,164,147,144,124,120,118,116,113,110,114,116,116,112,117,115,112,112,116,112,116,114,109,116,112,117,112,110,110,116,114,113,112
115,115,115,116,119,118,112,113,114,110,112,115,112,111,113,115,112,111,111,112,117,120,119,125,121,132,138,139,140,137,122,121,121,115,112,117,117,114,114,116,117,116,111,115,110,113,109,117,115,108,116,110,108,111,119,119,116,109,114,110
112,112,113,116,111,114,115,114,116,114,113,113,113,117,112,113,114,115,115,113,111,116,118,120,121,124,130,132,125,123,120,119,118,112,114,114,107,115,113,115,115,115,119,113,112,111,108,111,113,110,112,116,112,112,111,117,117,116,112,110
111,117,114,119,115,114,120,115,117,117,113,113,115,117,112,115,118,117,115,116,117,117,125,119,119,122,120,126,125,118,116,113,114,119,114,113,114,116,114,114,112,111,112,113,111,117,117,114,114,111,109,108,114,117,111,112,113,116,113,113
111,121,114,112,116,115,108,110,113,112,111,112,114,115,115,113,113,114,115,118,116,122,115,116,118,121,120,119,120,119,114,112,113,117,117,115,118,114,112,109,111,117,115,119,116,111,113,115,117,115,112,113,113,114,110,110,115,113,114,114
116,113,112,112,114,113,117,113,114,115,114,118,117,115,111,117,118,110,113,112,113,122,114,118,119,114,116,120,115,116,115,115,115,115,114,114,110,114,117,115,114,113,113,113,112,112,111,111,114,114,112,113,111,110,113,113,115,115,118,112
111,110,112,116,115,115,114,116,118,117,111,115,116,109,115,117,118,116,114,121,116,116,116,113,115,118,117,124,116,118,113,115,114,110,110,113,116,115,113,117,116,113,113,113,112,118,116,114,111,111,111,119,111,115,119,111,112,112,114,114
113,114,112,118,116,113,110,116,113,113,115,112,116,115,119,112,110,114,111,119,116,120,112,114,116,118,116,111,118,119,115,117,112,118,121,116,116,116,115,114,113,114,120,113,110,114,116,115,113,109,112,111,118,110,106,113,113,104,112,112
114,113,114,115,111,115,116,114,113,113,117,113,108,110,117,114,113,115,116,115,117,114,114,120,116,113,115,111,112,112,111,115,114,113,115,115,114,109,113,112,115,112,122,119,116,115,114,109,114,112,111,116,111,114,112,113,116,109,112,110
113,110,112,119,110,109,116,115,112,112,113,111,111,118,112,114,116,118,111,112,115,117,118,120,114,115,116,111,117,118,111,114,120,114,113,115,111,115,113,112,112,116,113,111,115,117,109,112,111,115,116,114,116,118,113,111,112,111,106,114
117,114,111,111,113,113,112,116,116,116,113,113,115,113,111,112,116,120,115,114,115,116,114,114,114,114,112,116,110,112,113,114,116,112,113,109,114,112,114,118,113,113,115,115,111,114,111,111,113,114,110,111,112,116,112,113,115,116,112,110
114,113,114,111,112,117,114,115,112,108,114,120,115,113,113,111,117,117,115,116,112,112,113,112,114,114,112,114,116,112,112,108,111,113,114,114,115,115,113,116,115,116,116,110,110,116,112,109,114,110,112,117,116,112,115,113,112,116,116,110
112,113,115,108,114,117,113,112,111,114,114,116,114,113,112,111,114,113,116,113,117,112,115,113,116,113,111,114,113,107,112,112,108,118,115,113,113,116,114,112,111,110,113,118,113,111,111,112,114,113,112,113,116,113,113,113,115,111,112,108
113,114,113,117,110,114,118,113,112,113,112,114,117,112,115,112,115,112,109,117,111,112,119,112,111,112,114,110,109,110,117,115,111,115,110,108,112,113,116,114,114,115,116,109,113,110,112,115,115,113,112,115,116,114,112,112,113,108,107,108
113,116,114,111,111,113,112,109,115,111,113,111,107,110,113,112,114,113,111,113,114,113,114,115,116,114,109,111,111,116,116,109,114,109,112,116,116,110,113,113,113,114,117,115,117,113,112,115,112,115,111,115,113,113,111,113,117,113,111,110
110,114,110,114,117,109,112,116,115,116,115,114,114,113,113,114,116,117,114,112,117,112,114,110,118,114,115,116,113,112,112,115,113,113,111,112,116,111,108,114,113,112,116,114,116,116,112,118,115,115,115,107,109,113,113,109,111,113,120,116
111,116,111,106,115,112,114,118,112,110,114,115,112,114,112,116,117,113,117,111,116,114,117,114,112,111,116,109,110,117,110,113,113,111,115,113,115,110,111,114,116,113,110,120,113,115,115,117,116,117,109,114,111,110,117,112,109,113,114,113
113,111,114,116,111,110,115,114,114,111,108,114,119,115,112,114,114,112,114,113,113,113,114,116,118,117,111,112,114,115,114,110,114,114,112,114,115,114,115,114,109,117,113,116,114,113,116,113,108,110,112,111,111,118,115,110,113,110,118,107
110,108,113,115,113,119,113,111,115,109,109,113,111,115,113,110,115,116,117,116,114,110,113,114,110,114,110,109,114,114,112,110,114,113,109,117,114,110,109,115,112,112,115,116,114,117,113,114,113,113,112,113,114,117,113,114,112,107,109,119
111,114,112,112,107,112,112,113,114,117,114,114,118,114,114,112,114,114,115,115,113,114,113,116,110,112,114,116,117,112,110,115,113,113,113,117,119,113,110,113,113,114,116,114,114,110,109,116,115,113,112,113,117,110,115,116,114,116,115,116
112,116,117,114,112,113,110,111,112,117,115,115,116,111,112,113,114,115,108,115,115,113,114,114,115,117,116,110,108,114,115,114,111,108,115,115,116,113,110,114,115,106,113,114,109,114,114,113,113,114,117,113,107,109,114,112,113,116,114,113
116,113,112,114,113,109,112,115,111,112,114,113,112,115,115,118,115,116,116,109,111,112,116,112,115,112,109,114,107,109,115,112,117,107,110,115,109,111,111,115,112,115,112,115,115,115,117,118,115,114,116,114,112,115,113,111,114,116,116,118
113,109,112,112,112,112,113,115,112,116,115,113,115,109,114,117,114,114,117,114,111,111,113,114,115,115,113,121,108,117,116,113,113,119,117,113,113,112,113,113,115,114,114,113,113,109,113,114,112,111,112,112,117,118,115,116,118,116,109,111
111,111,111,113,113,114,116,114,114,112,115,112,113,111,111,114,107,114,113,115,115,114,112,114,113,112,110,111,119,114,112,112,112,111,113,118,116,112,114,118,113,111,111,115,117,110,115,113,114,112,109,108,114,112,110,113,111,108,113,110
115,115,116,110,114,114,115,115,113,110,112,111,111,111,112,112,106,112,116,112,109,112,114,112,110,110,113,119,113,111,115,113,113,113,111,111,111,110,114,115,112,110,112,113,116,112,115,115,113,117,112,116,113,110,111,112,116,120,111,110
114,116,114,115,115,113,111,112,113,117,114,112,113,113,114,112,114,110,107,113,114,116,113,112,108,112,113,114,108,113,113,109,114,114,110,114,112,113,118,115,111,112,116,115,110,114,112,114,113,113,114,114,111,110,112,109,109,112,111,114
110,115,114,112,113,114,114,109,111,118,111,112,116,109,113,116,113,113,110,112,116,114,111,112,110,110,108,112,116,114,114,112,112,115,116,118,113,114,116,117,115,112,112,111,109,115,114,114,106,109,116,110,112,110,112,112,111,115,110,112
112,113,114,110,112,112,112,111,116,113,114,117,112,109,112,117,112,108,114,114,117,113,110,113,116,115,112,112,112,113,113,113,113,113,110,112,117,113,113,117,118,117,114,113,115,115,115,113,113,113,112,114,112,113,116,111,112,116,114,113
115,111,110,114,109,113,113,114,117,113,117,113,113,116,119,111,113,118,115,115,119,114,112,114,117,108,112,112,112,111,111,115,113,107,113,113,110,113,113,113,114,113,110,112,115,114,115,111,108,108,108,111,112,112,112,113,111,106,111,115
118,117,116,115,113,111,114,113,111,108,118,114,119,116,115,111,116,114,114,111,114,118,115,113,109,112,119,110,112,114,115,114,114,116,110,114,113,111,107,110,114,112,116,114,114,116,117,109,114,109,115,111,116,114,112,115,117,110,109,114
112,111,115,114,113,109,113,112,110,109,113,109,109,111,106,113,110,112,115,113,115,115,113,110,113,116,113,114,114,112,112,112,112,114,109,113,114,113,112,113,117,114,108,112,111,118,116,113,117,113,111,109,113,111,114,109,112,112,111,118
110,109,108,113,109,112,113,113,115,114,110,114,112,115,110,114,113,114,111,112,114,112,114,116,116,109,113,113,114,112,109,118,116,113,115,114,111,111,114,115,112,108,114,109,113,118,114,111,111,108,116,116,113,113,113,115,114,113,113,110
115,115,112,111,112,113,114,110,109,114,113,114,116,117,114,115,115,111,111,112,113,111,111,115,116,114,113,113,114,115,112,117,112,113,110,106,113,112,109,112,113,112,115,111,113,111,113,116,116,109,114,111,117,117,116,115,112,114,116,114
112,113,116,112,111,113,113,116,110,116,120,115,117,112,112,113,112,111,115,116,116,116,112,112,113,116,116,113,118,115,112,113,112,112,113,112,111,113,114,112,116,114,115,114,114,113,114,109,109,116,112,108,109,110,113,112,114,108,109,114
108,116,116,114,113,113,113,115,114,113,112,109,113,113,113,115,114,112,114,113,114,114,115,109,108,110,112,116,115,110,111,114,117,119,116,117,115,110,115,115,114,116,115,109,112,113,113,113,113,110,112,114,111,114,117,112,114,111,109,111
113,113,113,109,113,119,113,109,112,112,109,113,111,110,114,113,116,109,109,114,112,114,114,114,110,109,112,114,111,113,112,112,114,111,110,112,116,111,113,116,113,109,110,114,113,109,109,112,115,110,110,117,116,113,112,113,111,111,115,113
118,111,112,114,111,111,116,111,117,121,115,120,115,111,114,113,113,108,107,114,115,111,113,119,116,115,112,108,114,112,116,116,112,114,114,110,111,115,114,110,112,118,115,114,110,113,113,115,115,112,116,113,111,112,113,112,112,110,112,114
