36,53,70
107,111,108,111,111,111,105,110,110,107,112,115,112,106,107,109,109,102,108,117,114,106,110,110,104,105,111,107,106,111,106,114,110,108,114,112,109,110,110,104,107,106,113,108,108,111,108,110,113,113,108,110,107,109,108,104,112,111,107,109
109,109,108,103,115,108,109,112,106,106,113,105,107,109,114,106,110,112,112,106,110,109,103,113,108,108,110,110,110,109,112,106,110,107,104,108,111,109,110,110,109,109,110,106,109,102,114,111,106,108,111,114,110,109,107,114,106,109,110,112
113,112,110,108,112,110,108,102,109,112,111,110,120,110,109,104,107,117,109,109,107,106,111,105,111,110,110,108,105,108,107,107,109,115,111,103,107,104,110,109,109,104,108,114,109,106,108,110,108,103,108,106,110,110,114,104,109,111,110,110
116,108,110,111,106,110,114,112,111,110,103,105,106,108,111,110,108,105,104,107,109,110,109,112,107,106,108,108,109,109,106,109,105,112,111,107,109,110,111,109,107,113,112,113,108,112,112,102,109,111,111,109,112,111,105,108,108,106,106,110
107,112,108,108,109,108,109,109,114,109,110,109,112,107,108,110,106,109,114,108,107,106,106,110,111,116,110,104,107,108,112,112,109,112,109,113,107,111,103,108,109,105,102,107,110,105,105,110,113,109,113,108,108,112,112,106,107,109,108,103
108,111,110,110,110,115,110,110,110,111,108,109,103,110,108,110,108,107,104,112,108,109,111,108,110,112,114,108,109,108,110,105,109,107,105,111,106,107,110,109,107,109,108,109,109,112,108,109,108,108,103,107,109,105,110,109,107,105,113,111
107,110,106,111,104,108,108,110,109,111,112,107,108,115,108,108,111,111,104,108,108,108,110,111,115,109,107,112,115,103,110,110,108,110,108,99,113,110,110,112,107,109,108,113,112,113,107,106,112,105,109,109,112,111,108,112,112,111,109,104
107,111,110,113,109,110,107,109,110,112,111,109,105,111,108,110,107,111,108,108,107,109,109,109,108,112,110,112,111,107,109,109,108,114,108,110,108,113,107,111,109,110,114,112,110,108,109,106,110,107,108,110,111,105,109,112,107,104,110,111
115,109,108,106,108,107,113,107,106,104,108,108,108,111,109,107,110,109,110,110,108,110,109,105,107,109,111,108,110,107,112,108,108,103,113,110,113,111,110,107,108,109,111,109,109,103,112,108,106,115,109,108,109,108,110,108,110,109,107,107
106,107,110,109,103,113,113,110,101,111,110,112,109,105,111,105,113,106,109,110,106,112,109,114,114,112,114,106,106,110,108,107,108,111,110,110,110,108,112,109,109,106,112,108,113,107,108,111,103,109,114,107,114,102,111,102,114,108,111,111
107,110,109,107,109,109,115,107,113,109,110,111,107,109,106,110,105,106,111,107,111,106,108,104,109,110,110,108,114,103,108,106,111,105,107,107,111,110,109,111,108,105,108,110,111,107,107,113,109,110,107,112,110,107,110,106,116,109,104,104
110,103,107,108,108,110,105,104,109,111,105,107,109,112,110,113,108,109,107,107,107,113,112,108,117,110,111,111,106,113,104,109,107,111,110,114,114,109,108,104,110,108,111,110,108,112,109,112,111,105,111,108,111,111,106,110,107,111,108,109
109,108,110,110,108,115,113,112,107,108,108,111,107,108,108,110,108,108,109,107,110,112,109,112,107,109,111,115,113,112,118,107,111,112,108,107,112,106,110,110,108,108,101,110,108,104,114,106,110,112,108,109,109,108,108,107,106,104,109,112
109,107,106,109,107,108,109,105,113,104,113,108,108,105,111,108,111,108,113,107,112,106,104,111,111,109,106,109,111,109,113,104,108,110,113,107,109,111,110,107,109,110,118,107,109,109,110,108,106,108,105,103,107,110,109,114,110,112,108,108
107,108,109,114,110,109,105,112,111,111,111,106,106,109,113,108,109,106,99,108,106,112,111,107,111,114,110,105,109,109,114,107,108,109,113,110,108,106,111,111,116,110,105,113,108,108,110,113,107,113,110,108,109,113,112,107,114,109,111,108
106,108,111,104,107,108,114,106,110,110,105,110,105,108,110,107,109,109,111,115,109,109,113,108,108,113,112,110,112,109,105,113,108,107,114,109,108,114,108,108,107,110,106,108,108,111,107,109,108,99,102,108,114,105,111,110,115,108,105,107
111,110,112,114,115,110,107,104,103,109,113,108,110,111,107,109,107,107,111,108,116,112,109,114,111,109,106,113,112,107,106,106,113,112,111,112,114,108,110,110,106,111,108,108,108,111,111,101,111,109,113,110,105,112,109,103,106,104,112,113
112,111,110,108,107,106,110,109,109,110,102,107,113,108,105,111,114,110,106,109,111,112,110,112,116,112,109,103,106,110,114,111,110,105,108,106,112,104,109,112,107,108,108,107,110,103,109,110,105,107,112,118,111,108,112,109,112,115,110,104
104,106,107,108,109,105,109,112,109,115,109,106,109,107,111,107,111,111,107,110,110,109,111,110,111,107,117,116,114,108,111,112,109,107,112,111,105,110,108,109,113,111,111,109,108,108,113,108,110,109,104,106,111,107,108,113,107,108,110,111
112,106,116,112,109,114,106,112,110,107,107,113,109,113,110,105,110,105,110,111,107,108,109,114,113,117,110,107,116,115,113,113,113,111,110,114,117,116,111,113,108,110,111,110,108,106,105,109,110,109,111,106,109,108,108,108,107,104,112,106
111,106,112,105,108,109,109,108,109,108,113,111,109,103,112,112,109,108,114,106,114,113,114,110,111,109,113,110,116,113,114,110,110,114,114,105,107,106,106,106,110,110,108,112,108,107,113,113,107,110,110,111,111,112,110,106,107,110,108,108
114,108,107,109,111,110,112,107,116,113,111,108,111,112,108,111,112,113,111,112,112,108,112,114,113,112,111,112,117,115,111,115,112,113,112,110,116,108,109,111,116,110,114,104,108,109,109,105,104,107,109,109,110,107,108,112,110,105,107,113
107,110,106,107,111,110,109,110,110,106,110,109,109,107,110,110,113,113,109,113,111,110,112,118,118,111,119,115,116,114,112,117,116,117,111,113,106,110,113,106,114,104,107,108,107,108,109,115,110,104,113,106,112,108,106,106,105,116,110,106
112,109,110,107,110,112,111,105,109,106,109,110,110,108,103,110,106,103,110,107,112,112,110,114,118,111,117,119,118,114,115,121,119,110,117,115,114,112,112,108,111,114,108,109,109,108,110,107,112,110,104,106,103,109,107,110,109,110,106,110
104,114,111,107,111,107,111,115,110,113,114,107,113,113,106,105,114,108,108,112,103,119,116,114,116,122,112,115,117,116,119,114,112,120,123,111,113,112,111,108,111,108,109,109,111,108,108,108,101,114,110,108,106,106,108,112,106,100,107,110
115,109,104,106,108,111,107,106,112,110,108,111,107,108,111,106,112,107,109,109,116,115,116,112,116,115,116,112,119,115,116,117,117,113,114,115,115,112,113,116,112,112,108,108,105,112,110,108,108,109,109,108,112,110,110,112,111,113,113,106
109,108,108,109,105,107,109,115,106,105,108,107,114,104,114,110,105,109,107,115,114,116,114,116,114,116,119,116,112,115,123,116,115,117,115,112,112,113,112,108,109,111,107,108,109,110,112,109,106,106,108,112,112,108,109,103,103,114,112,112
106,108,108,108,115,114,111,103,109,113,110,106,111,108,108,105,112,108,114,103,117,113,117,115,115,117,108,120,115,122,117,120,112,122,121,112,115,115,111,112,107,109,114,110,106,109,106,108,112,113,113,109,107,109,113,106,112,110,111,109
113,114,108,110,113,107,108,109,112,106,107,105,110,114,109,109,112,109,113,114,111,113,109,113,119,115,115,114,113,116,113,114,116,111,120,118,115,110,109,111,112,110,109,109,111,112,109,109,110,107,111,110,110,106,109,108,111,108,107,106
107,109,112,109,108,114,110,113,110,109,117,106,108,108,111,114,117,111,114,111,112,115,119,117,112,122,118,122,122,117,115,117,113,119,118,112,111,111,110,107,114,107,111,110,108,109,111,113,110,110,109,110,109,109,108,108,108,107,108,112
112,111,109,111,110,111,103,115,105,112,110,112,107,111,112,103,108,113,112,114,115,115,112,116,109,120,118,120,117,120,118,114,116,120,118,112,116,110,112,110,105,106,108,113,108,109,111,106,110,111,109,110,103,109,110,109,113,109,111,110
111,109,112,111,111,109,109,109,112,104,109,110,111,112,110,111,110,114,111,109,112,113,120,113,116,122,114,116,114,117,119,113,120,116,116,116,116,114,108,112,110,111,110,110,111,110,110,108,112,108,111,107,104,106,108,105,107,112,105,115
113,110,113,108,114,106,108,110,109,108,109,111,112,105,109,114,113,107,116,118,117,111,116,118,122,121,117,123,117,126,118,119,118,116,118,116,112,111,113,112,113,110,109,107,110,114,108,114,110,113,108,106,111,107,107,111,117,105,109,109
108,114,112,108,109,114,110,104,103,113,106,106,108,106,109,113,116,110,112,110,113,118,110,114,117,118,115,116,117,115,120,113,109,120,111,120,107,115,117,109,114,110,112,115,108,110,112,107,111,111,110,106,105,109,111,112,105,110,113,117
111,104,107,110,110,109,110,105,111,110,110,111,108,107,113,110,116,111,108,116,117,116,119,122,116,120,119,123,116,118,120,117,115,118,114,110,116,112,110,112,105,109,111,108,111,108,107,105,110,110,108,109,111,107,108,108,110,112,107,110
107,107,110,107,108,109,111,108,109,109,110,108,111,109,110,105,115,113,114,115,113,117,116,114,116,117,116,118,112,114,114,119,117,110,113,110,117,114,113,107,113,106,108,111,114,110,105,109,110,113,109,115,107,112,111,112,111,107,112,109
109,109,109,113,111,111,112,108,111,105,111,111,113,105,111,112,103,112,112,113,113,110,114,112,118,114,120,115,117,116,115,115,115,114,114,113,109,111,111,114,112,111,111,112,114,116,111,110,108,109,118,107,111,111,111,107,104,106,107,113
109,112,106,108,109,108,107,111,110,106,108,109,108,115,109,111,108,106,113,110,116,117,109,118,114,120,124,119,118,114,122,121,124,111,112,115,113,113,111,102,113,113,108,109,112,109,107,111,108,112,108,110,107,107,106,110,109,110,108,110
106,109,109,110,109,110,110,114,108,109,106,109,110,108,108,107,114,108,104,114,114,112,118,113,120,113,116,118,121,111,114,117,112,112,112,120,112,108,118,115,109,110,107,113,107,114,109,115,106,110,105,107,110,107,110,104,110,105,106,106
110,111,112,110,107,109,110,112,112,114,113,116,112,111,109,112,111,112,112,107,117,114,120,121,115,120,119,118,122,117,120,115,114,111,116,119,116,117,111,108,109,111,111,106,109,106,110,106,113,102,109,104,110,109,110,110,111,110,112,106
108,113,111,110,109,107,108,107,109,107,109,106,108,110,111,109,112,108,107,112,115,115,119,117,116,116,114,116,119,122,114,114,117,112,120,110,115,106,110,114,118,111,108,115,112,106,112,109,105,107,108,110,108,104,108,105,106,110,106,103
108,106,113,108,111,114,114,106,108,112,110,113,106,113,107,108,113,112,113,115,118,115,119,117,116,112,118,114,115,119,118,117,117,116,119,115,119,117,109,115,108,110,107,103,109,107,108,111,111,109,109,106,111,112,112,110,107,109,114,104
106,102,107,108,110,109,109,110,110,109,109,109,111,110,107,109,106,103,108,120,119,115,110,114,120,113,117,114,122,117,117,118,118,117,115,118,116,118,115,108,108,110,110,110,103,111,114,107,108,112,104,112,111,107,111,109,114,104,108,114
109,110,107,107,109,111,110,107,108,114,108,110,114,106,111,111,106,113,112,112,111,114,115,116,117,116,117,118,118,119,123,118,121,114,119,117,113,111,111,110,113,111,110,109,114,107,110,109,108,106,111,107,113,109,111,107,104,105,108,108
110,112,106,108,116,110,108,112,105,108,104,111,108,110,106,110,110,110,104,111,113,116,112,113,118,115,119,115,121,119,124,116,113,119,117,119,115,111,109,107,111,110,112,110,113,109,109,105,109,107,112,110,110,111,106,115,106,111,110,103
111,111,108,113,107,110,112,107,107,111,108,110,109,108,109,110,109,105,115,113,116,110,115,116,116,116,119,115,113,120,120,119,119,119,122,119,113,117,115,110,111,105,108,110,111,107,105,109,110,110,106,106,103,107,108,106,114,111,111,107
109,115,107,110,109,108,108,106,108,114,114,110,109,109,105,112,104,110,114,116,110,118,116,113,116,118,115,118,124,121,122,123,116,122,116,113,117,115,111,116,113,109,110,112,108,104,112,106,112,114,109,109,115,109,112,107,107,102,109,106
113,109,111,108,114,112,107,104,113,108,107,112,110,111,112,107,111,114,114,114,114,113,114,117,117,114,112,120,118,120,114,126,123,116,112,127,116,114,120,115,105,110,109,113,107,113,108,109,111,109,106,107,113,111,108,108,109,109,105,109
115,106,108,107,106,110,108,108,110,108,113,112,114,114,108,109,107,109,106,115,116,112,116,109,112,117,118,116,124,124,126,124,120,123,118,118,118,109,115,115,118,112,102,109,110,108,109,111,105,108,111,111,109,113,106,110,113,112,107,107
112,111,110,108,113,111,113,105,103,114,108,109,107,108,113,108,114,107,110,114,116,112,111,115,112,114,113,116,125,118,125,119,123,120,125,124,117,118,110,115,114,112,113,109,111,112,112,110,108,107,102,109,110,102,108,111,110,106,110,113
109,111,109,115,109,105,109,106,108,110,112,112,113,109,108,110,107,108,114,114,116,114,110,115,120,119,119,117,121,117,122,121,128,121,117,116,116,113,112,105,111,110,112,104,106,111,110,108,109,113,108,111,108,113,112,112,107,111,112,110
106,104,112,111,108,112,105,112,110,109,107,112,110,108,107,111,110,114,111,112,114,119,114,119,114,117,119,122,121,120,119,118,120,121,122,114,118,112,113,114,106,113,110,114,108,111,113,110,105,108,112,103,111,108,104,105,109,109,110,113
110,113,114,104,111,109,114,111,108,112,111,111,110,112,107,104,114,108,107,116,111,109,118,114,119,119,122,117,115,125,119,120,118,120,119,120,118,113,118,115,105,111,114,107,110,106,111,103,111,109,103,113,107,117,108,108,109,108,111,108
113,107,103,113,110,103,115,106,109,107,107,110,108,110,108,111,109,110,112,114,112,119,118,115,116,119,118,121,120,116,118,118,107,123,116,117,111,111,111,110,112,110,106,105,110,107,110,112,112,103,117,111,101,109,111,118,115,108,113,114
110,114,108,108,109,111,107,108,108,108,108,108,111,115,112,112,110,116,116,116,115,116,118,118,115,115,111,117,111,117,117,117,123,117,118,114,112,119,113,110,112,112,115,107,111,105,111,110,105,108,105,108,107,110,115,107,110,108,111,108
108,109,114,111,111,110,107,111,109,113,111,107,112,105,112,110,107,114,109,114,114,116,117,120,122,121,112,120,117,115,117,117,115,115,119,115,111,114,109,106,108,107,107,107,108,107,115,108,107,107,107,107,104,106,104,110,112,115,104,103
104,110,113,116,108,110,109,105,110,109,114,104,107,110,109,109,117,106,113,112,113,119,111,120,112,115,119,115,112,116,116,116,118,113,118,113,110,112,109,106,110,111,109,109,116,113,111,110,108,110,107,112,109,109,109,109,104,102,107,108
108,108,110,109,109,106,109,108,110,104,114,114,105,113,111,113,111,116,117,115,119,116,114,118,116,114,116,121,119,119,115,114,118,116,118,117,117,110,108,111,111,109,116,110,107,117,111,111,112,112,105,106,107,104,113,105,114,108,109,115
104,109,110,110,105,106,109,109,105,114,110,113,108,110,109,105,109,113,114,116,118,113,120,121,113,117,118,117,116,116,121,111,119,116,113,115,117,109,111,113,108,112,110,103,111,111,110,111,108,109,113,110,111,108,110,109,108,110,105,103
110,112,110,110,108,111,110,115,109,108,107,108,107,110,109,111,117,107,111,111,118,119,111,113,120,108,119,117,118,121,117,115,117,117,111,113,110,112,113,108,113,108,105,112,110,101,106,106,106,110,110,110,108,108,112,106,106,112,112,110
107,110,114,106,109,109,111,108,114,109,110,107,111,109,113,113,111,115,109,119,116,114,121,117,118,121,115,118,113,118,119,121,111,118,119,115,110,116,114,113,109,109,109,109,106,113,109,108,114,105,107,106,111,108,111,112,108,106,106,112
118,107,110,106,112,108,109,109,110,114,113,113,111,112,110,113,110,113,112,112,118,110,113,113,117,108,116,117,120,117,118,116,117,115,114,115,113,109,112,111,110,113,111,109,112,106,111,111,110,111,113,113,108,112,106,114,107,108,107,106
108,109,111,108,107,105,112,113,114,106,104,110,108,111,111,110,113,111,112,111,119,118,116,120,117,119,114,115,117,118,116,115,113,115,111,110,116,110,108,115,116,106,112,109,108,111,111,108,108,106,108,110,110,108,103,111,110,105,114,113
106,112,106,113,108,112,111,111,105,111,109,114,118,107,109,110,111,108,112,108,118,116,114,115,111,123,117,111,114,114,115,117,112,114,118,118,111,115,112,107,110,110,105,111,112,107,108,110,108,110,108,111,111,108,105,106,108,108,107,108
112,109,110,111,110,114,108,105,112,107,112,109,107,110,111,114,116,110,112,112,114,116,117,118,112,115,112,119,120,113,115,115,120,119,119,119,107,110,111,113,115,111,115,111,104,108,110,107,107,111,108,109,107,107,109,108,113,107,106,106
107,102,107,113,111,110,111,109,111,113,113,109,115,110,108,111,110,113,108,111,106,113,114,114,119,115,123,115,116,120,123,125,122,118,116,114,113,111,113,106,107,110,110,108,110,109,110,105,111,106,109,107,110,112,106,111,105,109,108,105
109,105,106,113,105,109,107,107,108,111,109,109,111,105,105,106,104,112,114,108,115,116,112,115,117,114,116,118,121,122,118,118,119,121,123,114,111,109,115,113,112,108,113,107,108,110,109,107,109,109,107,109,107,106,106,105,107,110,108,109
104,110,107,105,113,114,107,113,110,114,113,112,110,113,111,110,110,116,113,117,114,116,117,110,118,114,119,119,114,114,121,123,116,121,125,113,119,113,104,112,109,107,107,110,113,109,110,108,110,101,112,113,106,110,111,111,112,110,114,108
113,111,111,115,107,108,108,109,113,111,113,108,110,108,111,109,111,105,110,108,110,115,115,112,112,118,117,116,119,117,123,124,123,121,117,118,116,113,110,113,116,110,112,110,112,108,105,107,110,110,107,108,114,103,108,109,109,109,107,115
107,110,116,110,114,107,105,109,108,107,107,108,118,107,111,110,112,111,111,115,115,112,116,113,117,115,116,118,117,119,113,122,124,123,118,113,113,114,110,111,111,110,109,111,107,110,114,108,107,111,107,109,107,107,111,104,109,111,110,111
111,106,108,111,108,111,111,110,111,103,108,109,107,115,108,113,112,113,112,114,114,111,114,112,118,118,126,126,122,121,129,119,121,121,121,116,112,114,112,116,114,113,110,111,112,110,106,107,113,109,112,109,111,110,109,111,109,106,106,112
112,105,108,113,109,106,111,109,114,110,109,108,112,106,110,112,107,109,112,113,114,117,117,121,117,121,110,117,124,120,120,121,120,119,116,112,112,109,111,109,108,111,105,105,112,113,113,113,109,108,112,108,109,107,110,107,109,110,114,108
107,110,113,111,113,107,114,113,106,108,109,107,114,113,110,107,113,108,112,114,120,112,117,115,124,115,121,118,119,118,121,113,119,118,120,114,117,117,114,112,112,110,113,112,110,109,110,108,109,109,109,111,109,107,110,109,113,110,104,107
110,113,103,110,113,111,110,112,109,109,101,108,113,110,107,108,111,110,106,109,117,118,116,114,113,118,124,118,116,120,119,119,116,117,116,114,116,108,111,105,110,114,111,107,107,111,103,106,109,108,101,111,108,107,109,107,104,109,111,110
112,107,108,112,110,111,106,106,110,117,110,105,109,111,112,111,110,113,116,110,112,110,119,119,120,120,111,110,119,114,112,121,116,115,114,115,117,111,109,115,114,110,111,107,111,110,116,111,105,105,113,103,106,111,111,110,108,108,115,115
111,111,109,103,106,112,108,116,113,107,108,109,109,113,110,110,111,114,111,108,109,117,114,114,113,118,121,118,117,119,116,116,118,114,109,112,112,107,109,107,107,110,110,110,111,109,107,108,112,109,106,113,107,110,103,112,108,107,110,107
105,108,105,109,109,107,114,109,110,107,108,109,112,107,113,107,110,111,116,115,116,116,120,118,118,113,118,120,116,117,118,114,116,118,114,108,111,112,109,112,111,108,109,109,105,103,109,113,109,103,107,106,111,111,112,110,114,113,103,102
108,114,105,109,112,103,104,108,106,108,109,111,110,107,107,111,112,112,115,107,116,110,108,113,116,114,113,117,114,115,117,109,114,115,108,110,112,114,113,103,108,109,108,109,108,110,110,107,110,104,109,107,111,103,111,111,110,109,110,110
109,110,108,107,115,109,110,105,113,107,108,107,107,108,114,108,116,106,105,112,116,110,116,114,114,112,117,108,113,114,114,115,111,110,112,112,108,108,109,110,113,110,108,109,115,106,108,107,110,109,106,103,107,110,111,107,112,111,108,115
111,112,116,109,109,110,109,111,108,111,109,110,116,112,109,110,107,107,114,108,113,116,111,109,109,114,111,112,116,109,109,113,110,112,113,113,108,109,105,109,109,108,109,108,107,106,109,111,102,114,112,109,115,113,106,108,105,105,109,110
105,112,106,108,104,106,108,112,107,107,114,109,109,110,112,113,108,102,110,110,116,108,114,106,113,111,109,117,109,111,109,113,112,111,109,111,112,110,114,111,109,100,113,109,109,112,107,108,107,105,105,109,109,107,112,109,109,112,109,107
111,107,108,109,109,109,108,106,108,109,108,111,105,110,109,104,107,114,112,109,107,110,108,108,113,107,107,112,107,108,109,106,112,111,110,106,106,109,109,104,109,109,109,111,107,108,113,107,105,105,101,109,107,111,109,113,110,110,112,111
108,111,112,110,108,114,111,111,109,112,110,108,109,109,109,110,106,103,110,108,112,110,110,112,105,110,109,106,107,110,109,109,110,105,107,107,116,114,108,112,112,110,107,108,110,108,108,110,114,110,111,110,107,111,104,113,108,111,108,107
111,112,112,107,111,111,109,108,115,110,109,114,111,107,109,107,108,106,110,111,108,110,111,107,105,110,108,107,115,113,115,110,114,113,112,108,111,112,111,107,106,112,108,109,109,112,104,108,111,110,108,107,116,104,108,108,114,107,112,107
106,109,104,114,110,108,112,105,104,113,112,110,109,108,113,114,112,111,109,103,108,111,111,113,111,105,115,109,106,109,107,110,111,103,114,111,111,109,107,111,109,106,106,106,108,111,107,112,107,107,111,110,111,103,108,111,106,108,112,112
108,113,114,106,108,106,108,114,113,107,109,108,107,107,105,108,111,110,107,108,107,109,111,107,110,110,105,110,108,113,110,107,107,115,113,111,114,113,106,115,107,109,108,108,111,107,110,107,108,112,104,108,113,108,107,111,110,113,112,108
112,109,105,109,111,111,111,105,106,110,112,111,105,112,109,105,108,111,113,113,108,108,110,107,109,107,112,112,115,106,108,109,111,110,109,107,108,109,111,105,113,110,114,114,107,109,114,108,110,108,108,104,102,113,111,108,105,102,110,107
105,111,107,115,102,110,111,110,108,110,110,107,106,107,112,105,106,108,114,111,107,110,108,108,113,109,108,112,111,116,114,113,109,106,109,111,108,108,109,113,109,109,108,108,113,110,109,109,103,107,111,109,110,111,115,106,111,111,108,103
110,106,112,108,111,108,111,109,107,111,109,109,114,113,111,113,113,107,104,110,110,109,115,108,108,111,107,108,106,109,105,106,105,111,107,112,113,108,107,110,110,103,112,113,114,107,106,107,108,111,107,106,106,111,110,106,110,107,105,114
110,109,109,106,110,104,105,111,110,107,113,112,108,104,110,106,105,113,114,107,106,109,110,115,109,108,111,109,110,109,107,104,111,112,113,113,111,109,113,113,106,111,112,107,106,115,104,113,114,111,108,106,112,110,113,113,108,109,110,108
109,106,105,106,108,110,104,109,113,112,113,110,112,112,105,110,112,107,107,112,107,111,107,107,109,108,104,112,113,110,111,109,107,106,110,106,112,108,107,111,110,109,110,104,111,113,113,110,109,112,114,105,105,110,106,106,108,109,108,106
110,111,107,107,118,108,113,110,106,111,108,113,109,111,106,108,110,107,106,107,112,111,109,110,111,106,112,106,109,108,106,109,113,108,111,106,106,115,109,107,109,106,110,106,111,102,112,106,106,107,103,110,111,102,108,112,113,106,108,107
112,108,112,111,113,107,116,114,109,111,111,105,107,112,107,106,109,110,109,106,109,111,108,110,106,106,108,108,111,108,110,106,110,107,106,108,106,107,109,108,108,109,112,106,106,108,116,104,108,110,109,113,110,113,109,107,112,108,109,111
118,108,115,110,110,114,108,112,107,105,110,109,113,106,112,107,104,112,112,110,110,110,111,106,104,112,108,115,107,103,109,113,110,110,109,110,106,106,112,105,109,108,110,106,115,110,110,111,111,109,103,111,108,110,111,110,111,110,110,107
105,108,108,108,112,109,108,111,110,109,106,110,106,109,106,107,111,105,110,104,109,114,109,115,112,109,107,110,110,113,111,108,108,105,107,111,109,108,114,110,112,112,104,111,102,109,109,109,108,115,106,107,107,107,107,110,108,109,116,110
113,108,112,107,113,109,108,109,113,111,113,111,107,105,110,112,110,110,107,108,111,111,107,112,109,107,110,110,112,110,108,113,111,114,109,108,109,110,110,112,105,113,109,109,109,105,109,107,110,103,102,109,108,104,109,113,108,107,107,107
107,113,108,113,110,109,110,109,109,109,104,106,110,108,111,110,107,110,110,106,110,112,111,111,108,108,110,107,103,108,113,108,107,108,110,108,112,111,108,112,110,107,111,107,109,108,110,111,107,112,113,110,113,113,106,107,109,105,110,114
107,107,114,106,111,110,107,105,110,114,110,107,109,109,118,105,108,112,109,110,109,104,113,106,107,105,110,111,110,108,114,108,108,107,112,107,107,111,112,107,109,105,111,108,112,109,112,109,110,111,107,105,106,104,113,107,111,106,107,109
107,106,106,114,110,110,107,108,109,109,114,109,108,107,104,114,106,108,111,111,113,109,109,107,108,117,108,109,112,110,104,107,109,113,110,111,109,106,103,108,114,110,113,106,112,107,108,108,108,105,108,111,107,105,109,108,110,109,112,107
110,110,113,112,110,108,107,110,112,117,106,109,109,113,107,104,113,111,108,110,108,106,113,109,108,111,111,109,108,114,109,110,107,108,114,108,111,109,111,107,107,114,108,110,105,105,107,108,111,106,109,109,109,115,110,114,110,105,109,109
