33,44,55
112,113,109,106,109,110,112,110,112,109,114,113,109,108,111,109,110,111,114,112,114,107,111,113,105,105,104,108,111,111,107,110,107,110,109,111,107,107,105,108,112,112,112,110,108,112,110,108,113,113,108,107,108,108,105,107,108,108,110,110
109,108,109,112,114,108,110,108,116,108,112,112,114,112,113,105,108,107,103,104,107,106,114,109,103,108,111,106,106,108,104,109,106,107,105,109,106,108,111,110,112,108,110,110,107,111,110,108,106,109,112,112,113,112,108,108,105,107,105,106
114,110,109,111,110,108,109,107,108,104,109,108,106,110,109,108,113,110,108,107,114,110,105,104,107,110,110,105,107,108,107,108,109,110,110,110,114,106,105,107,110,112,109,109,106,108,112,109,110,109,109,109,105,105,106,113,109,107,111,109
111,111,111,109,109,112,107,110,113,105,111,111,110,113,110,109,113,109,110,109,106,108,109,111,109,108,111,109,109,112,112,111,103,105,106,109,110,104,112,110,110,110,106,107,106,109,106,103,108,109,107,110,115,114,109,108,107,107,110,111
109,108,114,110,114,112,109,109,110,109,113,107,112,110,109,107,113,110,106,115,110,109,109,109,112,109,109,103,111,112,112,112,108,115,108,111,111,111,109,106,106,105,106,105,105,106,104,107,112,113,107,112,113,109,109,108,107,110,109,110
108,107,112,106,113,109,109,108,110,110,111,106,112,111,108,105,110,109,108,111,111,110,106,107,112,109,107,108,110,106,110,109,105,105,105,108,109,111,109,112,108,108,107,107,110,113,111,108,110,106,105,106,111,106,109,106,107,110,108,110
106,115,111,105,112,110,111,110,111,110,110,116,112,111,108,110,110,107,110,109,111,105,105,108,109,111,107,109,107,107,112,114,109,109,109,115,111,110,110,111,106,110,107,109,111,106,108,105,111,106,109,112,112,108,110,113,109,111,109,110
108,107,108,108,109,107,110,107,111,110,107,114,107,111,106,108,113,109,111,107,110,102,109,113,109,107,107,109,108,111,110,112,109,110,110,109,109,105,109,108,106,113,109,104,109,108,111,108,110,105,108,108,107,108,105,108,105,110,109,107
109,109,112,112,110,111,113,110,111,113,110,117,109,112,112,108,110,112,113,106,109,106,111,112,110,108,111,110,109,108,106,110,106,109,110,110,112,111,114,109,110,111,112,109,110,111,112,105,109,110,111,110,109,113,109,106,104,110,108,112
106,110,105,111,108,106,108,110,105,111,107,110,107,110,110,107,109,110,107,108,110,109,110,110,110,111,115,112,110,112,112,112,109,107,110,110,109,108,106,108,112,109,103,104,107,109,111,108,111,109,109,109,105,110,109,108,110,115,111,107
106,110,111,116,115,106,111,113,111,109,110,110,111,107,106,109,112,111,105,107,113,112,108,109,105,111,109,111,109,108,107,108,109,109,115,112,105,110,108,106,108,107,109,111,114,111,105,109,105,108,114,110,108,112,109,105,104,110,108,108
112,112,108,107,111,107,111,108,109,104,110,108,113,110,108,109,112,108,105,106,104,108,101,112,108,112,107,109,112,111,106,107,108,108,108,110,106,111,108,111,111,109,106,102,107,108,105,113,112,116,111,105,108,111,108,109,109,109,111,110
109,112,111,110,112,110,112,112,107,104,110,105,108,111,109,109,111,114,116,114,109,111,105,113,108,108,109,108,112,109,109,110,113,112,104,106,110,107,107,110,106,107,109,110,111,111,106,108,110,110,108,109,112,109,106,103,108,108,109,108
111,112,110,108,109,108,108,109,108,107,110,110,109,110,109,108,104,103,111,107,108,110,108,111,110,110,108,109,113,108,111,110,110,111,107,111,109,107,109,110,113,110,106,106,111,111,108,106,109,109,111,111,113,105,110,111,111,112,109,112
111,106,108,115,113,107,107,109,109,112,109,109,109,110,110,110,109,114,112,111,109,113,111,108,110,110,108,108,111,105,109,112,108,112,108,111,107,113,112,113,111,109,111,107,108,109,109,107,105,108,113,107,110,107,110,113,111,108,105,111
112,109,107,110,109,109,110,109,104,109,105,111,114,111,110,109,105,110,110,112,113,114,109,111,109,105,104,107,109,111,111,112,109,110,107,106,109,110,105,105,104,105,107,108,111,109,104,109,109,112,109,109,114,110,107,109,108,106,104,105
109,109,109,109,112,110,108,107,105,110,110,112,106,112,112,107,105,110,106,108,111,109,106,110,106,112,109,109,108,108,106,110,110,112,111,109,113,107,110,112,112,114,111,111,111,110,107,111,109,111,111,110,108,109,111,108,109,113,107,108
108,112,111,108,112,110,109,110,108,107,106,111,112,114,108,108,115,116,111,109,106,109,110,112,108,112,107,108,110,107,110,112,109,109,110,112,113,106,107,109,106,112,109,106,103,112,110,107,105,106,107,111,110,108,111,108,110,109,106,113
113,113,112,110,111,112,106,107,111,111,110,109,109,111,113,108,108,110,109,108,108,110,108,111,110,109,111,115,115,109,112,114,109,107,107,108,110,110,108,108,110,113,114,108,108,110,107,110,111,110,107,113,109,105,109,107,108,109,110,112
109,108,108,107,106,111,108,111,110,111,113,112,110,108,110,105,114,114,110,108,110,109,114,113,108,106,109,110,112,104,106,113,114,111,112,107,108,105,106,111,110,109,110,106,109,110,113,115,109,107,107,110,110,107,111,114,110,113,114,109
108,108,108,106,110,115,105,106,111,109,104,106,109,109,107,109,114,104,113,112,110,108,113,112,112,112,113,108,111,111,108,110,109,110,114,110,110,110,112,113,107,108,108,109,113,110,110,106,108,108,110,105,107,111,109,109,106,107,109,110
110,106,113,112,109,106,109,111,110,107,108,114,110,110,107,109,112,107,113,113,112,113,109,110,109,107,108,107,109,112,108,111,110,114,111,112,107,113,112,110,111,109,109,113,111,112,107,103,110,110,110,108,112,109,107,110,107,110,109,107
111,112,112,111,111,106,112,111,106,106,110,113,109,109,109,112,111,110,110,112,111,114,109,112,111,108,111,117,112,113,109,111,110,113,109,117,107,113,114,111,110,108,111,113,109,112,110,111,111,109,110,110,110,104,113,110,106,105,112,111
109,108,103,110,112,108,115,109,106,106,107,111,108,109,115,110,106,109,110,111,109,108,110,110,110,110,113,114,107,116,111,116,116,111,111,114,108,113,108,111,111,108,112,109,111,113,108,111,112,110,110,112,112,111,113,108,111,111,108,111
110,107,109,109,109,109,115,108,109,110,108,111,111,111,112,109,111,112,110,109,111,106,112,112,114,110,114,116,115,116,117,116,112,113,118,116,114,116,108,111,109,109,109,109,109,111,109,112,108,110,109,111,111,113,107,106,107,108,110,109
111,111,111,107,108,110,107,109,112,113,112,110,112,108,111,115,112,109,112,113,115,109,112,113,114,109,111,114,113,113,115,113,118,120,119,116,112,113,113,118,112,114,111,111,113,112,108,112,108,110,109,110,108,112,108,108,109,110,115,112
109,113,112,112,108,106,107,111,112,111,113,110,111,107,109,112,107,108,106,110,111,112,110,112,111,111,111,117,115,113,118,115,115,117,120,113,114,119,115,114,114,109,113,112,110,110,112,111,104,106,106,108,109,109,111,112,109,110,113,113
110,114,111,109,107,109,112,111,112,104,109,109,106,107,112,110,110,117,114,118,110,110,107,115,111,115,113,112,112,115,121,119,118,121,122,111,118,119,116,115,113,111,117,113,108,112,112,112,107,108,111,115,109,112,106,107,105,110,112,112
110,105,110,112,111,110,110,110,111,108,113,113,110,110,111,109,108,106,109,111,112,115,111,117,112,114,113,117,122,122,120,120,122,119,119,114,121,116,116,117,109,112,112,110,107,107,110,112,110,106,109,113,106,109,108,109,109,113,109,109
114,108,112,109,107,108,109,111,106,108,114,110,113,109,106,111,108,110,110,109,109,109,112,115,112,117,118,118,124,120,122,122,119,119,118,117,113,116,121,120,111,115,114,111,109,110,111,109,110,109,111,110,105,110,110,106,111,107,112,113
105,109,113,112,110,108,109,115,108,112,110,104,115,110,109,109,104,110,111,114,110,111,112,110,114,118,118,119,120,121,121,121,120,122,122,121,115,115,117,116,115,112,112,110,111,113,109,110,107,111,113,111,110,111,113,107,113,105,110,113
108,106,108,109,111,110,108,110,105,112,112,108,114,111,111,111,108,110,107,112,113,112,116,116,117,119,118,118,117,119,119,121,122,121,123,121,120,114,119,114,114,112,113,114,111,111,111,110,107,109,108,113,113,108,107,106,110,111,107,110
107,106,109,110,109,107,115,111,112,110,105,107,113,111,106,106,108,108,107,110,109,111,112,118,122,123,118,122,119,118,118,118,115,117,118,123,122,111,117,115,117,115,115,114,115,109,103,106,116,114,111,112,111,109,109,114,112,111,105,108
108,108,110,109,111,110,110,105,108,110,115,111,106,108,108,111,112,108,112,115,116,114,111,119,124,121,118,120,121,118,116,121,120,123,124,123,121,113,124,119,116,115,117,111,113,111,118,111,108,111,108,106,111,109,105,111,111,109,108,111
107,107,108,110,108,109,109,112,110,111,112,109,108,108,111,113,107,108,111,113,114,112,116,121,123,124,117,118,122,121,120,117,121,116,115,113,122,118,120,116,116,112,113,110,109,107,112,106,109,112,111,110,111,113,113,113,107,106,108,108
107,108,108,109,108,113,107,111,106,109,109,108,113,114,113,115,105,112,111,112,111,114,115,111,121,125,118,122,121,119,120,114,123,120,120,119,121,118,122,123,116,112,114,113,111,112,110,107,108,107,112,108,113,109,111,110,112,110,109,112
108,108,108,107,105,115,110,110,106,108,106,111,114,111,108,105,106,111,111,112,109,114,116,120,124,120,119,117,115,118,118,120,126,118,121,118,121,119,118,119,116,115,116,111,109,109,111,113,110,111,115,106,107,105,112,108,111,108,110,108
108,107,107,108,106,110,107,119,113,110,108,113,114,113,113,109,110,110,109,112,118,117,112,118,117,117,125,122,125,123,125,121,120,123,124,120,117,119,116,116,119,117,118,116,111,105,110,108,107,108,110,113,110,106,114,110,110,108,112,111
107,108,108,108,108,113,106,109,106,111,112,112,113,110,106,109,111,111,113,110,111,115,115,122,124,119,127,121,120,120,124,124,123,125,120,122,118,122,116,117,119,115,113,112,109,112,115,110,112,109,111,114,108,108,110,108,112,107,112,111
108,108,108,108,106,110,114,111,111,112,106,104,108,108,104,112,114,115,112,111,112,114,112,119,119,115,116,118,118,123,124,124,127,125,120,121,120,122,120,121,120,115,113,114,111,115,115,108,111,109,112,111,104,109,111,106,110,107,108,108
108,108,107,107,108,108,108,107,108,108,105,111,108,107,109,113,111,114,110,111,110,116,117,120,115,115,119,121,119,123,118,119,116,115,120,121,120,122,123,119,122,116,114,114,108,109,115,114,119,109,113,108,109,109,110,112,112,112,113,108
107,107,108,108,108,108,109,109,109,107,109,114,111,112,108,112,115,113,110,110,109,117,113,119,115,117,117,117,123,124,118,119,121,120,122,116,116,118,121,118,119,116,117,111,111,110,110,109,113,112,108,109,108,109,117,109,107,112,111,109
108,108,108,108,108,108,108,105,111,110,110,111,110,112,109,110,110,109,107,114,114,115,113,117,115,120,123,118,120,119,120,122,124,118,122,115,118,120,118,118,114,118,114,111,112,110,109,111,111,117,113,114,108,108,112,103,110,111,105,105
108,108,108,108,108,108,108,108,112,107,109,108,112,113,111,108,112,114,110,116,119,114,114,116,113,120,123,118,120,121,118,117,121,121,122,117,122,122,115,119,116,116,115,117,109,111,113,111,114,112,111,109,112,113,112,112,114,113,110,113
108,108,108,108,108,108,108,108,109,114,114,110,110,107,111,112,112,104,109,109,117,117,116,115,116,118,117,115,117,122,124,129,119,117,121,118,118,119,119,118,116,116,114,109,109,113,111,108,114,107,110,109,114,108,106,106,107,113,111,110
108,108,108,108,108,108,108,108,108,107,106,109,110,107,112,111,114,111,116,110,110,111,113,117,118,117,118,117,116,118,117,125,120,124,123,121,120,113,125,120,111,113,113,107,113,110,110,114,112,111,108,109,111,108,111,109,112,113,107,109
108,108,108,108,108,108,108,108,108,108,112,109,114,110,114,109,109,112,110,113,114,117,118,116,117,120,124,122,121,120,120,124,119,120,113,114,120,118,122,120,119,115,118,112,114,106,109,116,112,112,107,107,103,106,108,110,110,110,108,112
108,108,108,108,108,108,108,108,108,108,108,108,112,113,111,110,112,112,111,110,107,112,114,112,118,125,122,117,117,119,122,126,117,117,122,120,119,123,116,119,123,114,113,111,113,111,113,111,112,110,108,111,111,112,111,110,109,110,110,110
108,108,108,108,108,108,108,108,108,108,108,110,112,114,112,113,112,108,112,111,114,114,116,116,120,120,118,119,123,121,118,119,119,118,122,123,119,124,121,125,118,114,111,113,113,112,112,108,105,110,110,107,108,109,111,110,105,108,108,106
108,108,108,108,108,108,108,108,108,108,108,107,111,108,108,111,115,112,112,110,113,117,115,114,117,120,120,118,118,117,118,114,119,121,120,123,124,123,117,121,121,121,111,112,116,110,113,113,109,109,111,109,110,109,109,110,109,111,113,110
108,108,108,108,108,108,108,108,108,108,108,108,110,111,111,112,110,107,112,115,113,116,117,116,116,118,118,115,118,119,122,118,119,118,120,124,123,122,121,120,122,120,116,113,111,110,109,110,110,108,112,113,109,106,105,110,109,110,111,110
108,108,108,108,108,108,108,108,108,108,108,108,107,109,111,109,112,111,114,114,109,111,116,116,120,121,122,120,123,123,122,120,121,114,118,122,122,125,123,122,117,114,117,117,113,114,105,107,110,107,108,106,106,109,109,113,108,113,112,109
108,108,108,108,108,108,108,108,108,108,108,108,108,109,113,108,112,109,110,108,116,117,116,118,119,118,123,119,121,121,119,119,118,120,122,120,119,125,119,121,113,117,113,113,114,110,105,111,112,108,112,108,108,109,110,112,104,103,107,111
108,108,108,108,108,108,108,108,108,108,108,108,108,108,110,104,111,112,110,108,117,117,116,123,123,120,119,121,122,117,118,120,116,120,117,116,118,118,120,125,119,118,117,115,115,117,116,112,110,111,111,112,109,111,108,113,113,108,107,109
108,108,108,108,108,108,108,108,108,108,108,108,108,107,114,111,112,112,108,112,111,111,120,119,121,124,117,122,125,119,120,123,119,124,125,121,122,119,123,120,121,117,115,113,111,111,109,112,106,111,111,113,111,115,106,108,111,112,107,107
108,108,108,108,108,108,108,108,108,108,108,108,108,108,108,108,113,114,109,112,112,113,120,116,121,118,120,123,120,117,117,122,117,117,114,116,120,115,120,117,117,117,114,111,113,112,115,113,111,113,108,111,106,111,109,107,105,105,107,108
108,108,108,108,108,108,108,108,108,108,108,108,108,108,108,109,109,111,111,117,117,117,119,121,123,116,121,119,119,121,119,117,120,123,120,117,115,115,122,121,122,118,116,112,110,109,111,108,106,112,110,112,108,106,106,107,112,112,111,106
108,108,108,108,108,108,108,108,108,108,108,108,108,108,108,108,108,111,108,113,110,109,115,114,119,120,124,125,123,119,123,127,124,122,120,118,119,118,124,117,118,115,114,112,111,114,109,109,110,113,111,107,108,111,109,111,112,111,111,105
108,108,108,108,108,108,108,108,108,108,108,108,108,108,108,108,111,117,109,111,113,113,115,114,121,122,120,124,123,120,121,121,121,120,123,117,118,118,120,116,118,118,116,117,112,110,109,114,109,114,112,108,111,112,110,110,109,110,109,111
108,108,108,108,108,108,108,108,108,108,108,108,108,108,108,108,107,111,110,112,110,109,115,111,120,118,120,123,120,122,122,121,124,119,122,122,122,123,121,122,122,120,115,113,111,113,108,112,111,111,110,110,109,107,110,111,110,113,107,112
108,108,108,108,108,108,108,108,108,108,108,108,108,108,108,108,108,107,109,112,115,115,116,116,119,115,120,124,122,122,120,119,120,119,125,119,117,118,115,121,117,110,112,113,110,114,112,109,109,109,110,110,110,108,108,107,108,112,108,110
108,108,108,108,108,108,108,108,108,108,108,108,108,108,108,108,108,107,115,109,107,112,110,114,115,118,119,117,120,121,117,123,123,117,120,120,120,124,117,120,120,111,116,111,112,108,107,111,114,109,112,108,110,108,108,110,109,109,108,109
108,108,108,108,108,108,108,108,108,108,108,108,108,108,108,108,108,107,108,107,112,113,112,116,114,118,117,118,125,125,123,122,117,118,116,120,122,116,111,118,117,110,114,107,113,110,111,111,107,105,115,111,109,106,113,111,109,112,111,112
108,108,108,108,108,108,108,108,108,108,108,108,108,108,108,108,108,108,108,109,114,115,112,117,116,112,111,121,117,120,110,119,125,123,118,120,119,116,120,120,115,112,115,113,112,106,111,109,112,113,110,110,111,107,107,108,109,110,109,111
108,108,108,108,108,108,108,108,108,108,108,108,108,108,108,108,108,108,108,108,107,110,112,114,114,114,116,122,114,121,117,119,120,118,121,117,117,120,118,112,109,114,113,111,109,108,111,108,112,110,108,109,110,111,109,110,108,109,110,112
108,108,108,108,108,108,108,108,108,108,108,108,108,108,108,108,108,108,108,108,108,112,115,115,111,114,118,114,112,116,116,115,120,119,118,115,115,112,116,116,112,113,108,105,108,114,114,109,110,108,106,107,107,110,110,111,108,108,110,108
108,108,108,108,108,108,108,108,108,108,108,108,108,108,108,108,108,108,108,108,108,113,112,108,112,115,116,115,112,115,112,111,118,118,116,118,119,116,115,114,110,107,111,108,111,113,111,112,111,108,107,112,111,111,105,109,109,109,107,105
108,108,108,108,108,108,108,108,108,108,108,108,108,108,108,108,108,108,108,108,108,109,109,112,114,112,111,112,113,112,108,113,116,112,117,115,114,111,108,108,111,114,112,113,111,111,108,109,112,111,110,113,109,109,105,108,106,109,110,110
108,108,108,108,108,108,108,108,108,108,108,108,108,108,108,108,108,108,108,108,108,108,109,112,111,110,112,107,113,114,114,115,114,113,121,113,108,111,114,110,113,115,106,109,108,113,112,111,113,114,111,113,109,110,112,109,111,113,110,110
108,108,108,108,108,108,108,108,108,108,108,108,108,108,108,108,108,108,108,108,108,108,108,110,110,109,112,111,113,113,111,109,108,111,116,115,117,110,105,109,113,111,110,107,114,110,106,108,109,111,109,111,104,106,103,105,106,107,107,105
108,108,108,108,108,108,108,108,108,108,108,108,108,108,108,108,108,108,108,108,108,108,108,111,114,111,113,112,110,109,107,112,112,109,110,111,110,108,110,111,109,108,114,105,109,108,112,111,106,105,112,111,109,111,113,110,109,110,112,110
108,108,108,108,108,108,108,108,108,108,108,108,108,108,108,108,108,108,108,108,108,108,108,108,110,111,111,109,111,112,113,112,113,112,114,111,115,113,112,109,112,110,108,109,114,112,111,111,109,107,112,112,113,106,109,106,106,109,104,111
108,108,108,108,108,108,108,108,108,108,108,108,108,108,108,108,108,108,108,108,108,108,108,108,109,113,108,112,113,110,113,105,109,111,115,106,109,109,105,109,112,112,111,111,106,107,108,110,109,113,109,105,111,108,110,116,111,111,105,108
108,108,108,108,108,108,108,108,108,108,108,108,108,108,108,108,108,108,108,108,108,108,108,108,107,108,109,112,108,107,111,107,113,109,109,112,112,110,104,112,108,108,108,110,109,109,107,107,107,108,112,114,108,107,105,108,109,111,114,108
108,108,108,108,108,108,108,108,108,108,108,108,108,108,108,108,108,108,108,108,108,108,108,107,107,108,111,115,109,112,112,113,111,106,107,106,110,109,109,107,106,111,108,113,113,110,108,111,109,111,112,108,105,108,104,109,110,111,114,112
108,108,108,108,108,108,108,108,108,108,108,108,108,108,108,108,108,108,108,108,108,107,107,108,108,108,108,111,106,109,105,111,112,109,112,111,112,106,109,112,110,105,105,112,107,107,106,109,105,109,109,109,111,112,108,109,105,110,107,106
108,108,108,108,108,108,108,108,108,108,108,108,108,108,108,108,108,108,108,107,107,107,108,108,108,107,107,110,107,110,111,108,107,108,112,111,111,107,110,109,109,107,106,109,106,111,110,108,106,108,105,108,113,111,115,110,109,115,108,109
108,108,108,108,108,108,108,108,108,108,108,108,108,108,108,108,108,108,107,107,108,108,108,108,107,107,108,108,111,111,110,109,110,109,106,109,108,106,110,109,109,111,112,109,107,110,107,108,109,111,112,108,113,106,105,105,111,112,105,113
108,108,108,108,108,108,108,108,108,108,108,108,108,108,108,108,107,107,108,108,108,108,107,107,108,108,108,108,113,110,110,109,113,114,111,109,111,111,111,110,109,112,108,107,110,108,110,111,112,107,109,106,107,108,108,110,108,112,110,111
108,108,108,108,108,108,108,108,108,108,108,108,108,108,107,107,108,108,108,108,107,107,108,108,108,108,108,106,107,110,109,107,108,111,113,111,113,110,111,110,108,111,108,109,108,109,112,109,111,110,111,111,109,109,108,111,109,111,110,112
108,108,108,108,108,108,108,108,108,108,108,108,107,107,107,108,108,108,107,107,107,108,108,108,108,107,107,107,107,112,110,109,107,115,116,112,113,110,114,112,108,108,108,107,107,113,109,106,110,110,108,105,109,111,110,112,106,110,109,111
108,108,108,108,108,108,108,108,108,108,108,107,107,108,108,108,108,107,107,108,108,108,108,107,107,107,107,108,107,107,108,103,104,106,108,109,112,104,110,107,108,108,112,109,109,110,107,107,109,112,111,115,110,110,109,111,107,105,107,110
108,108,108,108,108,108,108,108,108,107,107,108,108,108,108,107,107,108,108,108,108,107,107,107,107,108,108,107,107,107,110,110,109,111,109,114,111,104,109,110,110,107,110,110,113,111,106,117,113,111,108,110,106,108,112,110,110,110,112,110
108,108,108,108,108,108,108,107,107,107,108,108,108,107,107,107,108,108,108,107,107,107,107,108,108,107,107,107,108,108,108,112,107,109,107,109,108,111,111,109,109,109,106,108,110,108,105,112,107,107,110,111,111,109,110,106,106,113,112,113
108,108,108,108,108,107,107,107,108,108,108,107,107,107,108,108,108,108,107,107,107,108,108,108,107,107,108,108,108,108,106,108,110,113,111,107,108,111,105,113,107,110,107,108,108,109,112,111,109,106,110,112,113,112,110,105,105,110,111,111
108,108,108,108,107,107,108,108,108,108,107,107,108,108,108,108,107,107,107,107,108,108,107,107,108,108,108,108,107,107,107,107,107,109,109,109,111,115,109,113,112,114,111,111,109,110,113,109,111,108,108,106,110,111,108,111,115,111,106,106
108,108,107,107,108,108,108,108,107,107,108,108,108,108,107,107,107,107,108,108,107,107,108,108,108,108,107,107,107,107,108,108,107,106,111,111,106,109,112,108,113,108,109,109,108,108,111,109,112,105,112,107,108,109,108,108,105,112,112,113
107,107,107,108,108,108,107,107,107,108,108,108,107,107,107,107,108,108,107,107,107,108,108,108,107,107,107,107,108,108,107,107,108,108,112,111,108,113,115,108,112,110,113,109,112,113,111,106,107,106,111,103,107,112,111,111,108,110,108,108
107,108,108,108,107,107,107,108,108,108,108,107,107,107,108,108,108,107,107,108,108,108,108,107,107,107,108,108,108,107,107,108,108,108,114,111,109,110,111,110,109,111,110,109,111,108,110,110,107,109,114,111,109,110,107,112,109,111,108,110
108,108,108,107,107,108,108,108,108,107,107,107,107,108,108,107,107,108,108,108,108,107,107,107,107,108,108,107,107,108,108,108,108,106,109,111,113,111,107,110,108,111,109,110,109,108,108,108,107,107,109,109,107,112,111,107,107,106,103,108
108,107,107,108,108,108,108,107,107,107,107,108,108,107,107,108,108,108,108,107,107,107,107,108,108,107,107,108,108,108,108,107,107,107,107,110,108,107,107,109,105,111,110,109,106,111,111,111,110,112,107,110,111,108,111,110,114,107,111,112
107,107,108,108,108,107,107,107,107,108,108,107,107,107,108,108,108,107,107,107,107,108,108,107,107,107,108,108,108,107,107,107,107,107,107,107,104,109,109,107,110,111,108,108,112,109,106,109,110,114,110,106,108,108,111,104,109,107,111,110
108,108,108,108,107,107,107,107,108,108,107,107,108,108,108,108,107,107,107,107,108,108,107,107,108,108,108,108,107,107,107,107,107,107,107,107,110,110,106,109,111,110,116,111,109,108,111,110,110,111,110,107,110,112,110,105,110,109,108,108
108,108,107,107,107,107,108,108,107,107,108,108,108,108,107,107,107,107,108,108,107,107,108,108,108,108,107,107,107,107,107,107,107,107,107,107,107,108,110,113,109,109,115,111,113,110,111,110,109,107,106,109,107,108,106,108,111,110,108,106
107,107,107,107,108,108,107,107,107,108,108,108,107,107,107,107,108,108,107,107,107,108,108,108,107,107,107,107,107,107,107,107,107,107,107,107,107,110,110,109,107,113,109,102,109,111,111,111,107,109,111,113,110,112,110,113,111,109,109,110
107,107,108,108,108,107,107,108,108,108,108,107,107,107,108,108,108,107,107,108,108,108,107,107,107,107,107,107,107,107,107,107,107,107,108,108,108,107,107,111,108,110,111,117,112,114,111,111,109,107,105,106,111,112,108,108,110,111,109,108
107,108,108,107,107,108,108,108,108,107,107,107,107,108,108,107,107,108,108,108,108,107,107,107,107,107,107,107,107,107,107,107,107,108,108,107,107,107,106,105,108,108,109,109,105,109,109,108,110,109,111,111,108,108,107,106,107,101,106,114
108,107,107,108,108,108,108,107,107,107,107,108,108,107,107,108,108,108,108,107,107,107,107,107,107,107,107,107,107,107,107,108,108,107,107,107,107,107,107,111,114,109,111,111,108,112,107,107,116,110,108,110,112,111,107,110,110,109,113,110
107,107,108,108,108,107,107,107,107,108,108,107,107,107,108,108,108,107,107,107,107,107,107,107,107,107,107,107,107,108,108,108,107,107,107,107,107,108,107,110,113,108,110,111,107,109,104,111,114,111,110,110,108,109,107,115,111,110,112,107
108,108,108,108,107,107,107,108,108,108,107,107,108,108,108,108,107,107,107,107,107,107,107,107,107,107,107,108,108,108,107,107,107,107,107,107,108,108,108,108,110,110,113,112,109,111,112,114,110,105,106,112,115,113,107,108,109,109,107,109
