43,50,57
109,107,106,105,108,108,105,108,108,109,111,110,110,109,104,115,109,109,112,113,110,112,107,108,115,106,106,112,110,107,111,108,107,110,110,108,110,106,108,112,110,107,110,108,107,104,108,106,110,108,107,107,109,109,111,108,107,106,109,107
103,106,108,107,111,111,108,110,108,108,108,108,105,106,107,110,110,110,105,113,110,112,109,108,107,107,109,109,109,111,109,109,108,108,110,109,108,105,109,112,102,108,112,108,107,109,113,114,112,106,104,113,108,110,112,107,109,107,109,109
107,108,107,111,110,112,109,106,107,109,109,111,109,109,104,106,108,112,105,110,108,104,107,111,104,112,107,109,109,111,108,109,109,108,110,107,107,109,108,112,111,108,111,110,108,105,110,105,106,104,107,114,110,105,110,106,114,108,111,108
110,114,107,111,105,110,110,104,107,112,103,107,107,103,110,111,105,109,107,106,108,106,108,110,109,110,107,109,109,109,108,106,109,108,107,109,110,109,108,109,108,106,108,108,105,107,111,106,108,110,111,104,110,105,107,103,107,107,105,106
108,107,109,109,104,106,105,106,109,111,104,107,107,104,114,112,105,111,114,108,108,106,106,109,113,104,108,106,105,107,108,108,107,109,108,106,108,112,112,112,111,110,107,109,109,109,109,112,108,110,109,106,110,105,107,107,108,107,109,111
107,109,110,109,107,109,109,110,108,108,106,109,109,105,106,106,110,110,108,105,108,110,107,110,109,105,106,107,112,111,111,108,104,110,112,109,106,110,106,107,112,110,108,109,108,109,110,112,105,109,106,110,107,106,108,106,112,108,111,108
105,112,104,110,106,106,107,108,109,107,111,107,111,109,113,110,109,110,108,109,110,112,105,108,111,111,112,110,113,108,107,107,107,111,108,110,108,109,106,110,109,108,104,111,110,108,107,111,109,110,107,109,109,107,108,105,112,112,107,107
109,111,105,104,108,110,106,106,110,105,106,106,106,109,106,107,107,113,108,106,104,108,112,106,106,105,108,101,104,105,107,112,109,110,111,110,103,108,110,110,103,111,106,109,108,109,110,109,110,112,109,100,109,110,109,109,107,111,107,106
109,109,117,108,111,107,106,107,109,112,105,110,106,110,104,107,107,112,109,106,110,108,108,109,107,109,107,109,109,111,111,108,102,112,107,111,113,110,112,112,105,111,105,107,108,112,110,106,110,109,107,101,115,112,106,105,105,112,109,106
111,107,108,105,110,108,114,111,103,105,106,109,111,109,108,110,107,112,110,109,110,110,106,110,104,110,107,107,110,111,110,109,110,113,107,108,107,109,107,107,109,109,108,107,111,110,105,109,106,112,114,110,110,106,108,105,106,107,104,110
106,104,113,109,105,108,110,108,109,111,109,111,110,108,107,106,107,108,111,112,103,110,110,106,105,109,109,108,105,106,109,108,112,110,111,105,108,113,108,103,110,108,109,106,107,109,109,109,109,112,107,107,106,106,107,107,112,113,108,114
108,109,112,109,104,109,111,105,110,108,104,108,108,110,112,107,109,108,109,109,106,109,108,104,107,105,105,107,105,105,110,111,110,106,113,104,105,110,109,107,109,108,113,108,105,109,111,110,107,109,109,110,112,108,109,110,109,106,103,109
113,110,106,105,112,110,106,106,110,105,110,108,107,103,111,111,111,112,112,109,107,112,110,110,111,107,109,110,109,109,106,109,108,108,108,106,108,112,105,107,108,108,108,108,108,107,106,108,108,112,110,108,108,108,107,107,107,108,115,107
109,108,108,105,112,106,110,111,110,109,111,104,111,109,110,109,106,108,112,111,109,108,110,109,101,107,106,107,109,111,105,110,107,110,105,108,107,107,104,110,113,107,105,110,110,105,107,110,110,107,106,111,110,110,106,106,106,107,108,104
109,113,110,108,110,109,113,106,108,111,108,108,108,109,109,109,108,110,111,109,107,106,107,109,109,113,110,111,111,104,112,111,109,109,109,115,105,109,110,107,112,109,109,107,106,107,113,110,106,110,110,113,105,106,112,108,106,111,111,104
107,114,107,105,109,105,108,107,110,110,106,112,111,109,113,110,110,106,108,108,105,106,111,108,110,107,112,111,109,108,110,103,109,111,111,109,103,108,109,106,111,107,108,109,112,110,109,105,107,110,106,109,108,113,109,108,111,112,108,107
106,107,107,107,111,108,106,110,110,108,108,109,109,108,109,108,107,104,113,112,109,110,111,108,111,112,112,108,107,111,108,105,108,111,111,108,106,112,111,108,110,111,114,106,104,109,108,107,109,109,111,111,107,108,107,107,109,108,106,105
111,109,111,108,109,110,108,108,110,110,108,111,109,108,110,109,109,110,109,106,108,111,111,108,109,107,109,110,110,109,109,114,108,109,109,108,109,107,108,107,110,108,111,108,110,111,107,110,106,110,113,111,108,112,114,107,105,106,108,108
112,108,109,107,114,108,111,110,110,107,104,107,109,109,109,108,106,110,112,111,112,109,105,107,116,116,111,110,108,108,110,113,111,109,103,106,109,108,111,112,111,109,108,106,107,108,105,111,111,107,107,109,107,106,108,106,106,107,109,105
112,104,112,109,110,109,110,112,106,107,108,107,109,111,109,108,110,114,108,105,115,110,112,112,117,115,112,118,115,112,111,111,117,110,104,113,113,106,109,113,109,105,108,114,112,112,106,107,108,106,106,110,113,107,110,112,108,109,109,111
114,108,110,110,106,109,110,108,107,108,111,109,107,111,109,104,108,114,109,109,114,111,112,111,114,115,112,113,115,113,110,113,110,110,108,114,110,105,109,112,110,110,109,108,108,106,108,110,109,110,110,107,110,109,106,109,106,105,109,110
108,103,106,113,106,106,111,108,113,110,106,109,105,105,111,110,111,114,111,112,109,115,118,118,116,114,117,119,115,112,111,116,112,110,107,114,108,107,108,111,111,109,110,109,113,109,106,110,106,103,111,109,107,106,105,109,109,113,108,102
105,104,109,109,107,107,109,106,105,107,106,110,109,106,111,111,109,112,110,116,114,116,112,118,119,123,120,119,121,120,117,113,112,115,109,113,108,109,110,111,108,107,107,105,109,109,106,109,108,110,112,107,108,105,107,111,112,109,101,107
107,108,110,112,110,108,108,107,110,107,110,109,111,107,107,108,109,112,107,113,112,116,116,121,121,124,122,122,120,119,118,117,112,113,109,109,111,109,107,111,114,106,108,108,108,109,107,108,108,110,108,107,109,109,106,103,110,105,104,106
110,110,106,108,104,108,107,103,109,107,108,110,111,108,116,113,113,116,111,115,113,119,124,126,128,124,125,122,123,120,123,123,112,115,112,110,110,108,109,111,109,103,112,108,106,107,109,111,110,111,103,104,109,106,104,104,111,106,110,108
106,105,107,110,104,110,110,107,114,112,109,109,109,110,110,108,111,109,108,111,117,117,122,121,126,122,126,121,123,120,124,123,121,117,111,108,110,112,108,111,109,108,108,106,107,108,106,111,104,102,108,109,111,114,107,106,109,106,108,109
113,109,105,112,110,108,113,109,109,110,108,109,108,113,109,106,109,112,119,114,121,121,126,124,124,121,124,130,128,123,126,129,128,117,114,112,112,111,109,113,105,108,113,111,111,111,108,113,112,107,107,114,110,108,108,112,109,109,108,112
105,107,108,112,114,108,111,108,106,108,111,115,109,106,111,112,112,113,115,114,121,125,128,125,125,124,126,133,125,125,128,128,118,118,115,112,114,110,111,114,110,111,108,103,107,109,109,108,108,108,108,111,111,109,108,114,112,108,109,110
104,106,103,111,112,110,108,106,109,110,110,110,107,104,114,112,113,116,114,116,119,127,123,125,128,123,123,127,129,126,126,125,123,121,118,116,116,108,110,112,108,109,108,110,109,109,110,107,112,106,109,108,109,108,107,109,108,103,107,107
106,111,112,114,100,111,109,103,108,112,111,114,109,101,112,109,109,112,115,124,122,125,124,125,132,127,125,123,126,125,126,120,117,121,123,112,111,109,110,111,107,106,109,111,107,111,106,106,111,106,104,106,112,110,110,109,111,108,109,109
106,107,107,110,107,109,108,108,107,108,112,115,109,110,111,109,107,113,116,119,125,129,132,124,122,120,127,122,125,122,122,129,120,123,119,112,111,111,108,108,110,110,112,110,105,109,105,108,111,110,108,106,108,110,111,109,109,107,110,106
109,113,107,108,110,109,109,113,110,106,112,116,107,109,109,109,111,113,116,120,127,122,122,125,124,122,122,121,126,122,124,128,117,130,118,115,116,111,109,109,110,109,114,109,106,108,108,107,107,108,105,110,112,109,111,108,112,111,106,108
111,108,108,113,112,113,106,108,109,107,104,109,113,116,112,107,112,120,119,118,123,123,123,125,124,123,123,122,122,126,123,131,126,126,121,115,111,110,113,110,107,109,112,110,112,107,108,113,105,109,111,109,107,110,106,105,106,110,103,105
108,101,108,111,108,107,108,110,109,108,109,108,108,113,109,112,112,112,115,118,124,123,124,121,116,119,120,124,120,123,121,126,128,123,118,111,109,116,115,111,107,111,108,107,110,109,108,111,105,109,111,112,109,114,108,108,114,112,110,109
109,109,109,110,109,107,110,105,107,107,112,113,112,110,110,115,116,118,115,111,120,127,123,121,120,124,123,123,116,118,123,123,129,123,117,117,112,114,110,108,106,109,104,111,112,109,105,110,110,109,111,111,105,104,111,103,111,109,110,108
112,109,106,107,112,105,106,113,110,106,110,112,109,109,111,110,109,112,114,122,122,125,121,125,126,121,116,120,119,117,124,121,126,120,116,112,114,111,106,107,109,115,105,106,104,107,106,110,109,108,108,111,109,107,112,109,108,109,109,106
115,108,108,108,109,112,110,110,109,107,113,112,105,110,111,109,114,115,120,126,124,124,123,122,119,124,116,120,114,114,115,117,127,124,120,114,115,110,107,109,112,113,112,109,108,107,102,109,110,110,107,107,108,106,106,107,109,107,106,109
108,105,105,108,103,108,109,104,108,106,112,109,104,108,110,113,115,113,118,120,127,125,122,124,117,122,119,125,116,118,118,118,119,121,116,114,112,114,109,111,110,108,113,103,105,107,109,108,105,107,107,108,112,108,105,107,111,108,107,108
114,109,110,111,111,113,112,107,109,110,109,114,110,110,109,113,111,112,119,120,123,127,122,128,117,120,122,119,115,110,118,122,121,121,117,111,112,114,108,110,108,108,112,108,105,109,106,106,110,107,109,107,105,108,110,106,106,108,110,107
108,107,104,104,108,110,107,105,109,114,110,110,111,112,109,115,110,115,121,124,125,128,124,128,123,116,124,122,121,120,121,117,115,118,117,112,109,111,113,109,110,110,107,109,108,110,108,111,110,109,109,108,107,110,108,107,109,111,108,108
110,111,109,106,110,107,107,108,111,111,110,108,108,108,111,110,115,124,126,129,130,127,125,126,125,113,120,123,123,119,123,120,119,119,114,111,110,111,110,107,113,109,105,107,115,107,104,104,108,114,108,105,109,108,109,109,106,108,112,111
110,107,107,109,112,106,107,109,111,110,111,110,111,112,113,115,122,118,118,129,126,123,124,124,126,118,120,122,121,117,119,123,120,117,113,113,113,108,108,109,113,111,111,106,111,105,109,106,107,107,108,108,108,106,108,105,105,109,111,108
108,110,108,108,109,109,111,111,109,110,112,116,110,107,106,113,117,116,121,126,124,124,125,126,117,119,120,122,125,119,116,126,120,123,113,112,110,106,107,108,107,107,107,112,113,111,110,109,110,108,109,111,110,109,113,107,105,105,113,108
111,111,106,108,110,109,110,111,109,112,107,108,111,104,111,114,116,124,123,122,129,130,127,123,118,123,117,120,121,122,124,122,115,118,114,112,110,117,115,111,110,109,108,110,108,108,107,106,107,111,109,107,109,103,110,103,107,107,108,106
107,104,108,107,109,108,110,109,114,113,107,108,114,111,113,113,115,116,122,119,123,122,120,119,120,124,122,123,123,124,120,127,120,120,118,117,113,109,106,111,113,108,110,106,109,108,110,108,104,109,110,106,105,106,109,108,111,106,108,108
107,105,114,110,109,109,109,108,109,104,107,115,107,112,110,111,114,118,123,124,124,121,122,119,122,125,121,121,123,125,119,124,119,121,112,115,110,106,108,111,111,108,106,101,108,107,112,110,108,111,112,106,108,116,109,108,113,103,105,111
108,110,111,106,107,109,109,114,104,109,109,116,114,113,109,112,113,116,123,127,125,119,122,117,121,122,122,125,121,121,119,122,119,118,112,111,108,110,111,108,110,107,108,108,108,107,116,110,109,107,110,108,108,109,104,110,111,109,111,114
107,111,111,104,112,111,108,112,109,109,107,107,113,111,108,116,119,123,129,125,125,118,124,120,116,118,124,122,119,124,129,124,120,118,117,108,111,115,111,107,110,110,111,111,114,107,108,108,108,107,112,112,106,111,105,106,106,108,109,110
112,109,109,108,112,106,110,110,110,106,109,109,112,114,109,118,113,117,120,125,125,119,121,120,118,124,123,121,123,126,125,125,123,120,121,116,113,108,108,108,109,110,108,103,109,106,108,109,109,110,110,113,111,110,106,110,111,109,108,106
109,108,112,109,109,107,111,113,109,103,107,106,108,110,111,118,113,117,119,122,125,119,121,125,121,120,122,124,124,126,128,135,126,122,115,114,110,108,115,107,112,109,108,108,108,107,106,110,112,112,108,108,107,107,106,111,111,106,109,106
107,107,111,109,110,110,107,114,112,109,107,109,111,113,110,115,113,126,123,124,124,123,123,121,125,124,123,128,124,130,132,129,127,126,114,113,108,109,114,108,111,109,106,108,105,110,108,105,110,109,109,111,109,108,109,113,109,106,112,109
108,112,111,113,113,109,107,113,109,110,109,114,105,114,113,116,117,121,124,127,122,126,125,121,121,120,119,126,126,134,136,131,126,124,113,117,109,111,110,110,108,104,107,112,108,108,107,107,113,106,110,109,110,104,104,109,104,106,109,109
111,114,108,107,108,109,110,112,109,110,111,108,109,116,112,110,121,124,121,120,124,125,121,120,117,124,134,123,128,126,131,137,124,120,116,122,108,112,109,110,104,105,108,108,105,111,112,108,108,109,112,105,110,112,110,110,112,109,111,109
106,108,111,113,109,111,111,112,110,106,112,110,113,111,115,112,118,118,123,122,124,118,124,128,125,125,128,124,131,129,129,134,126,119,119,114,107,112,107,114,104,107,110,109,113,111,106,108,108,108,110,108,112,111,109,108,112,107,111,107
109,107,110,115,108,111,111,111,109,109,114,111,111,109,113,113,115,114,127,121,122,127,124,121,124,134,130,126,122,128,132,129,124,120,116,115,114,113,106,110,107,110,110,109,111,109,112,110,108,113,109,105,109,104,107,106,110,109,106,105
108,107,108,110,108,112,109,110,114,112,111,113,111,108,111,114,117,118,124,127,125,128,125,129,125,129,127,129,130,126,125,124,124,119,118,117,108,113,109,109,110,109,111,112,110,109,110,109,105,110,108,109,108,107,111,110,108,108,106,110
106,106,106,109,110,103,105,110,115,112,109,110,111,111,116,116,116,120,122,130,122,123,125,124,124,122,128,125,127,129,121,128,128,116,114,113,109,110,109,104,107,106,114,114,111,106,106,110,106,109,109,105,108,109,109,110,110,111,109,108
107,109,107,110,112,108,111,115,112,116,110,110,107,112,115,114,120,121,127,128,127,127,128,125,125,122,131,126,127,132,132,133,125,117,118,112,114,107,114,110,107,104,112,107,109,112,114,109,106,106,106,107,110,108,106,108,108,107,108,106
106,111,106,110,108,108,110,106,104,108,105,113,110,112,114,109,115,121,127,126,127,129,126,124,130,128,126,126,130,130,126,125,126,118,115,109,113,112,112,109,109,106,113,108,104,106,109,106,109,108,108,108,108,108,108,112,109,110,112,112
112,109,107,106,106,108,111,104,110,112,109,113,110,109,114,111,117,122,123,126,126,127,125,123,123,125,128,128,126,130,127,126,126,115,115,107,107,112,111,111,110,114,110,109,108,113,114,111,109,110,113,109,109,110,110,111,109,114,109,106
104,108,111,108,109,110,110,106,112,112,109,113,111,111,115,116,117,118,123,126,121,125,125,125,125,123,124,123,125,134,129,124,127,122,118,113,117,112,113,111,107,110,107,109,110,106,108,106,110,108,107,107,106,105,104,105,107,109,106,107
104,110,111,107,108,108,108,108,112,109,109,111,112,111,112,111,117,117,123,129,131,129,125,123,121,124,127,130,126,127,128,122,124,117,109,110,111,109,108,106,114,108,103,113,111,106,111,109,109,110,110,108,106,106,108,103,111,109,112,108
102,109,110,112,109,111,108,109,112,106,111,108,109,110,112,115,118,119,127,124,130,127,128,125,118,123,123,129,122,124,133,133,125,124,113,115,112,109,111,104,112,110,109,112,109,112,113,108,109,110,110,106,110,108,106,105,110,105,110,103
107,111,108,113,114,111,108,108,109,111,112,107,109,115,112,113,116,123,130,120,124,129,128,123,121,124,126,125,125,125,125,130,127,118,113,109,111,108,111,109,109,111,109,112,112,108,105,108,109,104,110,109,110,107,108,105,109,110,104,106
106,111,110,107,110,107,107,114,111,111,114,112,109,110,111,112,122,124,125,124,125,131,124,125,126,125,126,120,122,129,130,128,128,121,116,111,112,110,110,111,111,108,109,113,109,106,111,108,109,101,109,104,109,109,105,107,105,112,106,110
111,111,106,108,107,109,110,110,108,105,114,108,110,112,115,116,115,117,123,130,128,126,122,125,129,126,119,125,129,123,129,127,119,117,116,112,110,110,110,107,110,106,108,108,106,107,110,109,110,108,112,110,111,109,107,111,104,112,110,112
109,109,113,110,103,113,112,109,108,109,113,112,110,111,117,113,113,119,127,127,126,123,125,127,128,123,122,121,124,121,125,124,126,125,121,113,107,106,111,105,109,105,110,112,110,109,110,110,103,111,108,108,107,110,110,113,105,105,109,108
111,107,111,106,106,107,107,113,111,111,112,111,112,110,110,111,114,116,122,126,125,130,126,126,125,123,127,120,125,123,125,128,122,123,119,111,112,113,109,110,114,110,108,111,108,107,110,111,108,111,111,106,113,111,109,109,109,107,108,109
108,108,110,109,114,109,108,111,107,109,113,111,110,113,111,116,119,116,123,126,125,130,126,119,124,121,120,124,127,127,124,134,122,119,116,109,113,109,108,111,105,107,104,108,105,107,108,108,107,106,112,110,110,109,106,107,110,114,109,112
113,110,108,110,112,112,106,108,109,118,114,112,105,110,113,112,116,119,122,121,129,130,130,119,123,122,119,119,120,125,123,124,118,114,113,112,113,105,106,111,108,112,104,108,108,111,107,110,113,109,109,112,110,110,108,110,109,111,102,105
109,111,111,108,107,111,109,107,107,110,108,110,112,110,111,113,115,116,118,126,131,127,126,119,120,120,122,126,122,124,124,124,121,122,116,113,110,109,109,109,105,112,106,112,111,110,105,102,109,106,110,111,105,108,107,111,107,105,109,111
110,111,108,104,110,109,110,109,117,106,108,114,112,110,113,113,112,121,121,125,125,125,123,123,126,122,114,125,121,121,123,125,124,117,114,113,106,113,112,113,107,110,113,111,108,107,110,105,114,108,111,114,105,106,111,110,109,106,107,109
106,103,111,108,112,111,111,111,113,106,111,115,110,114,114,116,113,115,118,125,124,126,129,125,121,122,116,122,121,120,125,122,125,118,109,112,109,111,108,108,108,106,106,109,110,110,110,111,112,108,110,109,107,109,118,108,105,106,108,108
107,104,113,109,109,111,112,108,109,109,108,108,111,114,109,115,110,113,119,123,126,124,128,128,121,123,128,123,116,120,126,119,122,122,107,110,110,110,112,111,105,105,110,112,105,102,108,107,101,110,112,107,110,106,107,105,112,107,110,111
112,109,117,105,108,110,111,110,112,110,110,112,112,111,110,112,111,114,118,122,125,126,130,125,118,121,123,121,121,119,120,122,121,117,111,111,112,114,110,109,113,110,112,108,110,108,110,110,110,111,108,104,109,105,109,112,112,106,109,107
106,111,110,104,112,107,110,109,105,110,108,112,108,114,116,114,110,118,115,121,123,121,125,124,126,123,124,122,125,121,122,124,115,117,117,108,106,114,109,108,109,106,113,110,108,109,109,111,110,108,107,111,108,104,112,108,110,109,107,109
113,113,106,110,109,106,111,108,106,113,103,113,105,112,110,111,108,113,111,122,125,123,126,122,124,123,124,119,122,122,121,121,115,119,114,106,109,112,109,115,113,107,113,112,106,109,111,108,106,109,107,107,104,107,111,109,108,108,108,109
114,112,102,113,111,108,112,106,114,114,107,110,109,117,110,112,108,113,113,119,120,121,124,121,122,118,122,122,120,115,118,125,120,119,112,108,115,110,109,108,109,108,108,108,111,109,108,110,111,111,113,105,109,112,108,114,110,107,106,108
109,111,107,111,112,110,111,107,112,111,112,114,110,110,108,110,108,113,112,114,114,121,123,120,117,118,124,118,119,118,118,118,115,114,111,110,115,109,110,110,106,107,108,107,115,110,103,106,109,109,109,107,110,112,107,108,108,105,109,109
113,112,111,109,114,109,110,109,109,113,109,109,105,109,110,109,111,112,111,111,116,119,120,122,116,115,120,116,121,119,116,111,113,114,113,110,106,109,106,109,111,110,112,107,110,110,108,109,111,111,107,111,108,110,108,106,109,110,111,109
110,110,108,104,106,109,113,108,109,112,112,109,107,112,112,107,114,112,114,111,117,116,115,120,118,120,122,117,122,117,115,114,110,111,116,108,108,111,108,110,114,111,110,110,110,109,108,107,106,110,109,110,106,107,109,105,108,111,112,108
110,106,108,109,106,106,112,108,108,109,108,108,107,108,111,108,111,110,115,111,114,113,113,117,120,116,111,117,117,114,115,116,110,111,112,108,111,108,111,110,112,109,111,110,109,108,107,112,109,112,108,110,109,107,106,107,109,110,113,104
110,107,109,112,108,109,111,106,110,111,111,113,107,109,115,108,110,109,110,110,109,112,115,111,115,116,114,115,116,113,115,112,111,113,108,110,110,106,106,108,109,106,110,111,109,108,108,111,111,107,110,112,111,108,108,109,112,105,105,109
110,108,109,111,108,109,110,112,115,111,108,113,111,110,108,108,113,116,110,110,112,111,111,112,115,114,112,112,116,115,114,112,108,110,109,111,111,115,110,110,115,108,108,109,110,108,109,108,112,107,111,103,111,109,108,104,106,114,113,111
112,112,110,112,112,109,108,111,112,109,111,106,105,108,106,116,110,111,110,110,110,112,114,111,103,113,111,113,114,109,104,111,111,110,110,108,107,109,107,109,110,109,115,108,112,109,112,107,111,107,110,109,109,108,110,110,112,114,110,106
112,113,108,106,110,109,108,107,114,108,111,109,108,109,108,112,110,108,110,110,110,113,109,112,110,112,104,110,110,111,112,113,109,109,113,110,109,110,111,115,112,108,110,107,109,109,107,105,112,108,108,116,108,112,110,108,112,107,110,107
109,107,105,109,109,109,110,108,110,109,109,109,109,106,107,108,113,114,109,110,109,111,109,109,108,108,107,113,112,110,107,110,111,110,114,110,109,111,113,111,111,110,110,109,108,110,114,105,108,109,110,111,103,104,107,104,109,107,107,107
108,108,108,110,110,112,109,110,109,108,109,108,107,108,114,111,109,111,106,115,110,113,112,108,108,107,111,113,108,107,109,109,110,109,110,107,107,109,110,112,112,113,109,108,105,105,113,102,110,107,111,108,107,106,110,114,109,103,106,109
108,108,108,108,103,107,107,105,109,109,110,108,110,110,112,110,108,110,108,107,103,113,108,109,110,109,111,107,107,110,107,110,111,110,106,110,107,108,112,106,104,101,106,111,108,108,111,109,114,111,111,109,108,109,109,111,108,105,109,108
108,108,108,108,108,108,112,109,111,112,111,107,107,106,107,111,108,105,109,111,110,110,106,109,113,111,107,111,109,109,106,114,111,107,106,109,110,106,114,110,109,106,112,110,107,105,111,108,107,106,108,111,108,106,108,105,109,106,109,107
108,108,108,108,108,108,108,109,108,113,109,110,109,107,109,112,110,107,110,110,110,111,113,110,108,105,107,109,107,110,108,107,105,107,110,109,110,107,108,108,110,108,110,107,112,110,110,108,108,110,115,106,111,111,108,104,109,109,111,108
108,108,108,108,108,108,108,108,108,110,108,110,109,108,112,104,106,110,112,110,108,107,108,108,108,107,112,110,107,109,111,110,107,106,107,109,108,110,109,107,108,108,111,110,109,109,110,105,113,111,110,107,113,108,106,108,109,110,112,109
108,108,108,108,108,108,108,108,108,108,108,108,113,113,110,111,110,112,112,109,110,111,106,108,106,110,110,106,109,108,110,109,111,111,109,108,108,109,107,108,106,107,109,110,107,113,112,105,113,107,106,106,109,108,105,105,109,110,111,108
108,108,108,108,108,108,108,108,108,108,108,108,108,109,105,111,106,104,108,106,108,111,107,108,111,112,108,107,113,111,109,107,110,110,110,110,110,111,109,108,105,109,108,114,114,105,109,109,111,108,108,109,109,107,107,105,112,110,110,106
108,108,108,108,108,108,108,108,108,108,108,108,108,108,107,109,107,105,109,110,111,106,108,111,112,111,114,113,112,110,113,110,111,107,107,112,110,110,107,109,109,115,112,110,110,104,111,112,114,105,107,110,111,109,111,109,110,103,111,105
108,108,108,108,108,108,108,108,108,108,108,108,108,107,108,108,107,109,112,112,112,107,108,110,104,108,113,109,106,110,111,107,107,108,110,108,111,110,107,109,108,113,111,105,106,108,113,113,113,108,109,108,108,109,110,112,107,103,111,108
108,108,108,108,108,108,108,108,108,108,108,108,107,107,108,108,107,107,107,109,106,109,111,112,107,109,108,110,111,111,110,109,110,113,115,107,111,113,109,108,108,107,109,111,113,112,109,109,109,109,105,108,106,112,109,110,105,108,114,111
108,108,108,108,108,108,108,108,108,108,108,108,107,108,108,107,108,108,107,107,107,110,114,112,108,105,112,114,110,114,106,110,109,108,109,106,106,109,109,109,112,110,111,113,112,110,110,110,110,112,109,110,104,107,111,110,109,111,109,108
108,108,108,108,108,108,108,108,108,108,108,107,107,108,108,107,108,107,107,107,107,106,107,107,108,102,108,106,107,110,106,109,108,110,110,107,107,107,108,112,112,111,109,108,112,110,108,109,115,109,106,109,116,109,107,108,108,108,114,109
108,108,108,108,108,108,108,108,108,108,108,107,108,108,107,108,108,107,107,107,107,107,107,107,107,106,109,111,110,104,109,115,110,111,109,108,106,104,107,111,112,111,109,106,108,110,112,109,109,106,107,109,114,111,109,110,113,109,111,106
