109,110,112,110,110,115,112,103,106,111,112,108,112,111,107,107,110,111,111,110,110,110,109,107,110,109,108,109,107,109,109,110,110,107,109,113,111,110,112,108,111,110,106,109,110,110,112,109,108,110,111,110,109,111,109,110,112,110,110,107
109,111,109,105,111,114,108,107,112,113,112,112,113,112,110,109,112,112,111,112,112,111,110,109,106,107,112,113,108,112,110,108,108,108,110,114,109,109,113,110,109,110,108,108,109,109,110,108,108,108,109,110,112,112,108,111,114,111,110,108
110,110,110,109,112,112,108,111,115,112,108,110,110,110,112,109,112,113,110,111,112,112,109,110,110,109,111,110,107,110,111,109,106,107,111,112,107,108,110,109,107,109,111,109,111,111,110,108,108,108,110,111,110,112,110,109,114,113,109,109
111,111,110,111,112,108,109,111,109,109,110,107,106,109,109,109,110,112,109,108,110,112,110,110,111,109,107,110,108,109,112,108,108,112,112,112,110,109,110,111,109,107,111,110,110,111,109,107,110,112,110,109,107,108,108,107,112,113,107,108
106,111,113,111,108,108,111,112,108,112,114,109,111,112,108,109,110,108,108,109,110,111,112,111,109,112,111,110,110,110,109,108,112,113,108,108,108,107,112,112,109,107,110,112,109,109,109,110,111,112,110,109,108,107,110,110,108,110,112,108
107,109,106,108,110,107,109,110,107,108,110,111,112,111,109,110,109,107,110,111,110,110,110,109,110,112,109,108,110,107,105,107,109,109,110,110,108,107,110,111,109,106,110,113,109,109,112,111,109,110,111,110,109,109,110,112,107,108,113,112
109,111,112,114,110,108,113,113,107,107,111,110,109,110,109,109,108,108,111,108,108,113,113,110,110,112,109,107,109,109,106,111,110,106,112,111,107,108,109,110,109,108,111,110,107,110,111,108,109,110,111,109,107,106,108,111,108,109,113,111
112,111,108,108,109,110,110,108,111,113,110,108,107,109,111,110,108,108,110,110,109,112,112,108,109,110,110,110,108,108,110,110,110,111,111,109,112,112,106,109,113,110,109,108,107,111,110,108,110,111,110,109,108,108,108,109,110,110,108,108
112,114,111,111,109,108,112,110,112,114,109,108,106,107,111,110,109,109,110,113,112,109,107,107,109,109,109,110,108,109,109,109,111,114,110,109,114,111,108,111,111,109,111,112,109,108,109,109,110,111,111,111,110,109,108,108,111,108,105,109
110,108,109,109,109,111,112,111,111,111,108,108,110,111,110,107,109,108,108,111,110,108,109,108,108,113,112,108,111,111,104,105,108,109,111,109,109,110,112,111,109,109,112,112,109,108,107,109,112,110,108,108,110,111,108,109,111,108,106,111
110,108,109,110,109,108,108,109,111,108,107,109,107,110,111,108,108,109,110,110,108,111,111,109,107,107,108,109,110,111,107,108,112,111,114,109,106,109,114,117,111,108,108,108,108,110,109,110,114,111,110,108,107,106,105,111,114,111,112,109
111,109,107,111,112,110,113,113,109,106,109,110,105,109,113,108,108,111,109,107,109,112,110,109,111,108,110,111,108,110,109,105,110,110,113,111,109,109,110,113,109,108,108,109,110,109,109,108,111,112,114,111,105,106,110,112,111,109,109,109
110,108,108,108,108,109,109,114,112,106,106,110,112,111,112,108,110,111,107,107,110,111,109,108,111,112,112,112,111,109,110,108,108,111,111,111,110,111,111,110,110,112,110,109,111,109,108,107,107,111,113,111,110,109,110,110,109,108,108,109
110,109,109,113,108,105,109,114,114,108,106,110,111,111,110,109,111,111,108,106,110,114,110,109,108,108,110,108,108,105,109,110,105,108,109,109,112,110,109,112,111,111,110,107,108,108,108,107,110,112,110,110,110,110,110,109,110,109,110,108
109,112,109,112,111,109,108,109,109,110,110,108,107,113,109,110,111,108,111,107,109,111,107,109,112,111,110,111,110,106,107,113,110,106,109,111,113,107,107,111,109,109,109,110,110,108,109,107,112,111,107,106,107,111,112,110,110,109,110,108
108,109,109,113,111,111,106,111,108,108,110,107,108,112,110,112,107,106,113,111,108,109,109,107,110,111,108,109,108,109,108,107,111,109,110,114,113,110,110,110,107,110,108,111,111,107,110,110,109,108,109,110,108,110,110,110,108,107,108,109
107,108,105,111,112,110,110,114,112,108,108,109,111,110,108,111,107,107,110,111,109,110,113,109,110,111,109,111,112,107,108,109,109,109,105,112,113,109,112,110,109,110,110,111,109,106,111,112,109,109,112,113,111,107,108,112,109,112,105,109
110,109,112,110,110,106,108,108,109,108,109,109,111,111,110,109,109,109,109,109,108,107,112,107,111,110,108,111,112,108,109,113,110,109,111,113,107,107,111,111,111,110,110,112,110,111,113,109,108,107,107,111,113,107,107,113,112,113,104,111
110,108,112,108,106,107,111,108,108,110,108,109,110,109,111,109,110,109,109,109,109,107,105,112,113,109,109,110,110,108,107,108,111,112,113,110,105,110,110,110,110,109,110,111,109,112,113,106,107,109,109,113,113,111,108,112,113,110,111,109
112,113,108,111,106,108,111,110,110,111,108,111,109,107,110,111,109,108,108,109,109,111,107,109,109,108,109,110,111,109,110,110,108,112,110,110,106,109,111,112,108,111,110,108,107,111,109,108,109,111,112,110,107,110,109,109,112,111,111,109
111,113,106,109,111,111,109,105,108,107,108,110,110,110,112,111,109,112,111,110,108,110,113,107,111,112,111,110,111,107,106,109,107,109,113,110,107,108,109,111,108,112,108,108,111,111,107,108,108,107,108,107,108,110,109,106,109,108,107,111
109,109,107,105,108,110,111,106,110,109,109,109,111,110,108,110,108,115,114,109,108,106,111,110,109,111,110,109,111,109,110,110,109,109,111,107,110,112,109,112,110,110,108,109,111,109,105,106,109,111,108,107,111,110,107,109,110,110,108,113
107,113,113,110,107,110,111,110,112,112,110,111,112,108,106,111,108,108,112,109,109,108,110,111,109,115,105,109,111,109,109,109,110,108,110,108,109,112,109,107,110,107,110,109,107,110,107,107,112,112,108,105,112,111,104,110,111,110,109,110
107,113,109,108,108,113,110,111,112,111,109,111,110,109,109,112,109,106,107,108,109,108,109,110,107,112,106,109,110,109,109,111,110,114,111,106,108,108,108,109,109,108,110,110,106,111,111,109,111,109,114,110,109,113,109,109,111,109,110,107
106,106,105,106,110,113,110,110,110,109,109,112,107,111,111,110,110,108,108,109,108,109,113,110,112,111,110,108,111,110,111,110,107,115,109,105,111,109,107,109,111,110,108,111,108,108,109,111,114,111,112,112,109,107,108,108,109,107,111,112
107,110,110,109,111,111,109,105,108,110,109,110,108,112,111,109,110,109,111,111,109,111,109,107,111,109,110,109,110,109,108,111,106,113,109,107,110,109,110,107,109,110,110,114,108,109,111,111,114,108,109,109,107,109,108,110,109,111,112,109
106,109,114,112,109,109,106,106,110,110,108,110,109,110,110,111,111,110,111,111,110,113,112,111,108,110,108,106,111,109,107,108,104,110,111,110,110,110,112,108,109,111,110,111,108,112,110,108,110,108,113,109,106,111,105,111,110,111,108,105
111,109,112,111,109,110,109,110,111,111,109,112,111,109,111,113,111,108,111,111,106,109,111,111,113,111,111,110,109,108,111,112,109,110,111,113,114,111,109,109,113,114,110,110,111,111,107,109,109,109,109,106,108,111,107,114,110,108,108,107
114,111,103,107,113,109,110,113,110,112,112,108,108,111,111,111,110,109,109,108,105,108,109,107,115,112,109,109,108,108,109,109,110,112,112,109,108,109,109,108,108,111,111,111,111,109,110,110,107,108,108,107,110,113,113,112,110,108,108,109
110,107,106,110,112,107,109,113,110,108,109,105,106,111,109,110,112,110,108,106,108,110,110,107,114,112,109,109,109,112,111,112,110,110,109,107,108,108,111,111,106,108,111,114,111,111,109,110,108,108,110,110,108,111,112,111,111,111,109,109
108,109,112,110,109,111,112,115,111,106,109,109,107,108,108,111,113,109,111,109,110,113,111,110,110,110,112,110,107,112,111,108,107,110,114,113,108,110,112,112,110,108,109,112,110,111,109,112,111,110,108,108,109,110,111,115,112,110,109,112
110,110,106,106,107,112,114,111,110,109,109,110,111,109,105,109,111,108,110,111,110,111,111,112,109,107,111,110,107,111,112,108,108,110,114,113,111,114,110,108,110,111,107,107,108,111,110,108,111,111,108,109,112,111,107,109,111,112,111,110
109,112,110,110,110,111,110,108,109,111,110,109,111,109,106,108,109,110,110,107,110,110,110,113,111,107,108,110,109,113,116,114,114,112,107,108,110,111,111,112,112,111,108,110,109,110,109,107,109,109,109,110,109,108,106,108,110,111,108,109
109,112,112,110,108,106,106,110,108,107,111,110,109,109,108,109,111,114,110,106,110,110,107,111,113,111,110,111,111,112,115,114,111,108,107,110,109,108,113,113,111,108,110,113,108,108,112,109,109,112,112,110,106,108,111,108,110,112,110,109
108,111,111,109,110,109,106,111,114,108,107,110,109,108,110,111,112,111,107,108,110,110,112,111,110,110,110,113,116,114,114,114,111,109,108,109,111,111,112,111,112,111,109,110,107,108,112,111,113,114,110,111,113,112,109,107,110,114,113,111
107,109,111,107,107,107,107,110,113,107,106,113,109,106,110,113,111,110,110,110,110,109,111,110,110,110,110,113,113,113,114,112,112,111,110,110,110,110,110,110,112,112,108,108,109,109,109,111,112,109,107,111,114,111,110,111,111,112,110,107
108,110,111,108,108,109,109,109,111,110,110,114,110,106,110,113,111,110,110,108,110,111,107,113,115,111,112,114,109,112,115,111,111,110,111,115,112,111,113,111,110,111,109,111,114,111,108,109,108,108,110,107,106,110,109,109,112,109,108,108
109,108,110,112,113,111,109,110,111,110,109,112,109,109,112,110,110,110,108,108,110,112,109,112,113,110,112,112,109,111,114,111,110,114,114,112,111,111,111,109,109,111,110,113,113,109,109,111,112,109,110,109,108,111,109,106,109,109,112,111
110,110,110,108,108,110,111,112,109,106,108,111,109,110,112,108,110,110,109,112,112,109,110,113,111,109,110,114,115,111,111,113,113,114,113,109,109,112,110,108,111,111,109,109,108,108,110,111,110,109,110,111,109,110,113,109,107,111,110,111
109,108,109,110,107,110,113,113,109,107,110,110,108,107,110,110,111,111,110,112,110,109,111,115,114,112,112,115,116,115,118,116,111,113,113,111,111,111,111,110,110,109,108,109,110,111,109,109,109,109,112,112,110,109,112,110,105,108,111,109
110,109,110,108,106,110,112,111,109,110,108,108,110,108,109,111,112,112,112,110,108,109,110,109,112,113,113,114,112,113,115,114,113,116,116,114,111,109,111,113,111,108,109,112,110,109,110,112,110,109,114,113,110,110,114,116,109,106,106,105
111,108,108,104,108,109,110,110,108,111,110,110,109,110,107,109,111,109,111,109,110,109,109,112,112,112,111,115,114,115,117,118,114,110,112,112,111,111,111,111,112,111,108,108,108,110,111,111,109,108,109,109,109,109,108,109,111,111,109,106
111,109,110,110,114,111,110,109,110,111,111,109,108,110,109,108,111,110,110,111,109,107,109,115,115,114,113,112,115,118,116,116,114,113,113,110,109,110,112,111,111,112,109,108,111,111,111,111,109,106,105,109,112,112,110,109,110,111,111,107
115,111,107,111,112,111,110,107,109,113,113,108,108,111,114,110,110,112,110,113,110,109,111,113,113,109,113,113,117,121,117,117,115,114,114,113,113,112,115,112,111,112,111,112,113,109,110,111,109,106,110,113,110,112,110,108,109,112,109,108
111,110,108,109,110,113,112,109,108,109,113,110,108,108,113,110,109,112,108,110,112,111,108,108,111,111,115,116,114,116,115,118,116,114,116,115,112,113,114,111,110,111,109,113,109,109,109,111,109,108,111,114,112,111,111,107,108,115,111,112
112,110,110,110,110,110,109,107,107,105,108,114,113,110,112,111,112,112,107,111,113,110,106,110,110,112,111,112,117,113,113,116,117,114,114,113,111,110,112,113,110,110,110,113,111,110,110,111,111,105,106,111,109,112,114,108,105,109,110,113
114,110,109,110,107,111,111,107,108,108,107,114,114,111,113,109,111,113,111,111,113,109,107,113,111,113,113,113,119,119,114,113,114,113,114,113,113,113,114,112,109,113,111,113,114,113,111,109,109,107,106,109,108,111,110,109,109,106,108,110
110,108,106,111,110,112,114,111,109,109,108,108,109,109,111,108,110,111,110,107,111,113,107,111,114,114,115,112,114,115,120,120,116,112,114,112,113,116,114,110,111,114,110,112,112,109,109,106,109,112,108,110,108,106,109,108,108,107,109,114
108,113,112,110,108,107,111,109,106,109,109,108,111,109,110,109,108,111,110,108,108,116,115,106,111,115,115,113,114,120,124,125,124,119,115,110,111,114,112,111,111,113,112,112,110,105,108,108,110,111,109,111,111,111,111,109,108,105,108,111
110,112,110,109,109,108,108,111,112,112,108,109,111,108,107,109,107,115,114,110,110,110,114,109,109,114,116,118,126,127,124,131,140,134,122,118,113,112,113,112,111,112,114,109,109,107,111,111,110,109,114,111,111,114,110,111,110,107,109,110
113,110,107,108,108,111,109,113,114,112,106,106,109,108,107,108,110,113,113,112,112,109,110,117,112,109,115,122,135,137,132,137,148,141,125,115,114,114,115,114,111,112,114,107,111,109,112,114,111,110,112,111,108,110,107,114,111,109,110,106
113,112,107,109,109,112,109,106,107,112,108,108,108,112,110,108,111,109,111,112,111,110,110,113,113,109,116,121,130,138,130,129,142,131,113,111,116,113,114,114,112,112,112,110,111,108,112,113,110,112,108,112,113,110,106,108,109,108,110,109
107,109,112,110,108,109,111,109,107,110,110,110,109,112,111,110,109,112,112,111,110,113,113,113,114,112,112,117,117,126,121,119,126,123,118,116,114,111,110,110,113,109,109,110,108,107,112,110,111,113,109,108,111,111,108,106,109,107,109,110
106,108,113,110,111,112,113,111,105,108,112,111,109,109,114,111,107,114,112,112,113,114,116,112,109,116,115,113,112,122,122,119,119,122,119,115,113,113,109,106,113,111,110,108,112,109,113,110,108,113,111,109,110,110,111,110,109,110,110,108
111,111,112,112,113,110,108,110,109,107,109,111,108,108,112,112,108,112,110,112,114,111,112,108,109,115,118,114,116,119,117,121,119,118,111,115,116,114,109,108,110,111,110,111,112,107,110,109,107,111,110,112,114,112,109,109,112,106,107,109
107,110,110,112,111,106,110,116,115,108,108,110,108,108,107,113,110,110,107,109,114,112,109,108,112,110,115,116,116,114,115,117,115,115,114,117,114,112,109,111,108,106,112,114,109,106,108,106,109,109,107,109,112,108,108,109,112,108,107,109
110,112,109,112,108,106,111,113,111,109,109,109,110,110,109,111,110,111,107,110,113,117,110,109,115,114,115,113,113,117,115,117,114,116,119,116,112,110,111,112,109,109,112,110,110,110,109,107,109,108,107,107,108,108,109,107,110,112,107,109
110,110,109,114,113,108,111,110,107,109,108,109,111,114,113,108,107,109,110,113,110,112,112,109,113,113,111,111,113,115,113,116,115,117,117,111,111,112,112,111,108,111,111,108,110,110,109,109,110,108,112,110,110,112,110,111,110,108,108,110
109,108,106,107,112,111,111,110,107,110,110,109,111,112,109,109,108,110,111,111,110,109,111,112,111,112,113,111,112,112,114,116,118,116,112,111,115,113,111,112,109,111,113,111,111,110,109,112,110,106,109,109,110,111,113,112,108,109,110,112
109,108,108,107,109,112,111,112,111,111,110,109,110,109,106,110,110,109,112,110,108,110,112,114,113,111,113,114,111,111,115,116,117,114,113,114,113,112,112,113,112,110,110,112,112,110,112,112,109,108,111,110,108,108,112,113,111,109,110,110
108,110,108,109,111,112,109,108,112,109,110,112,109,108,106,109,111,108,109,112,112,111,110,113,113,112,112,114,116,118,115,112,113,113,112,110,111,110,112,111,110,109,108,112,110,106,111,110,109,111,111,110,110,109,108,111,111,108,112,113
110,112,110,110,110,111,110,110,115,112,110,110,108,110,108,110,112,108,110,114,114,111,109,112,116,112,109,110,114,114,113,114,113,113,110,110,111,111,111,109,110,112,110,111,110,107,108,111,111,110,107,107,110,111,107,107,114,112,107,108
107,109,112,113,113,112,109,108,111,110,110,109,109,111,109,110,111,110,112,110,108,112,110,110,114,110,107,113,118,116,113,115,111,111,114,114,112,111,110,110,111,110,109,110,110,108,109,112,112,108,108,109,107,113,113,108,112,111,108,110
110,109,108,110,111,109,108,108,109,111,109,109,112,109,107,111,112,110,112,111,108,111,111,111,110,109,110,113,116,112,111,115,112,110,111,111,109,111,111,112,111,107,109,110,108,110,111,110,109,107,108,110,109,112,111,105,109,110,107,109
109,109,107,109,110,110,112,111,111,111,107,108,111,109,108,112,112,108,110,112,108,109,112,111,110,109,109,108,109,113,115,114,113,113,110,109,109,111,111,108,110,109,110,110,107,110,111,109,108,108,110,113,111,109,108,111,111,107,107,109
109,109,109,112,112,109,112,114,110,111,110,109,112,109,108,110,110,109,109,111,111,111,112,110,108,109,111,113,114,115,116,115,115,113,110,109,110,110,108,105,109,112,112,112,107,107,112,112,107,110,116,114,109,107,106,108,111,107,107,109
110,112,109,109,113,112,110,109,109,111,109,109,113,110,109,111,111,111,108,109,111,111,110,113,112,110,110,112,115,117,117,115,111,112,112,109,109,111,111,108,108,111,111,110,109,108,110,110,108,111,113,110,107,110,111,107,109,109,107,109
109,109,106,109,116,113,108,108,107,108,108,109,109,110,111,110,110,110,108,109,110,109,108,111,112,111,110,109,114,113,109,109,112,113,109,108,111,110,109,111,109,108,108,110,112,109,108,109,110,109,109,110,111,112,110,109,111,110,108,111
110,108,107,108,112,112,109,108,108,109,110,111,107,107,109,110,109,110,109,110,112,110,110,109,108,111,111,113,112,108,111,111,114,116,111,112,113,108,106,108,110,110,110,110,111,111,110,110,109,108,108,111,111,109,113,113,110,111,111,109
112,111,110,109,109,114,113,108,111,109,108,114,108,107,107,111,111,108,107,108,112,111,111,110,111,112,113,114,111,110,112,111,111,112,112,112,114,112,108,107,110,113,113,109,108,111,110,106,107,112,111,110,111,109,113,111,107,110,110,109
112,109,111,108,110,111,111,109,110,111,109,112,107,110,106,109,110,106,107,108,109,110,112,109,111,108,108,112,110,109,111,112,111,110,108,109,116,113,108,109,110,110,112,111,108,110,110,108,107,112,112,107,108,107,108,109,108,111,110,110
109,105,109,109,112,112,112,111,108,108,110,110,110,112,109,108,110,109,110,111,110,107,109,110,109,108,112,111,110,111,112,109,109,108,109,112,113,110,109,111,111,111,110,110,109,109,110,112,110,109,112,110,107,106,105,109,111,111,111,112
108,107,114,112,109,109,113,109,108,109,111,111,110,111,111,108,111,113,110,111,109,109,110,111,107,110,110,109,110,110,111,107,109,111,112,111,107,111,111,110,111,111,110,108,107,109,109,109,110,112,109,109,108,106,108,111,111,111,109,108
109,110,111,113,108,108,109,109,111,114,109,107,108,109,112,110,109,110,108,110,108,109,109,111,110,111,109,111,110,112,110,110,111,110,110,108,107,113,111,111,110,110,111,108,107,108,111,109,108,115,110,107,107,108,111,112,110,110,111,108
112,110,107,113,110,107,107,111,115,110,107,107,110,108,113,112,106,110,108,111,110,106,109,111,110,112,111,114,110,113,112,109,113,109,108,109,113,111,110,110,106,112,109,107,108,109,112,112,111,113,110,108,106,109,111,107,107,110,109,107
109,109,109,111,111,111,110,107,110,108,110,111,111,110,111,109,110,113,109,111,110,108,111,109,110,110,111,111,111,111,111,110,112,106,113,105,115,114,110,108,105,109,108,108,108,110,110,108,110,111,109,109,115,112,108,108,108,109,109,112
111,111,111,111,111,109,110,106,108,111,109,109,110,108,107,107,113,112,107,109,109,109,109,110,112,108,109,109,112,111,108,109,109,108,113,108,115,113,109,113,107,109,110,112,109,110,111,108,107,113,112,108,108,108,109,110,108,108,112,113
112,107,110,111,108,107,114,107,110,111,107,107,108,106,109,108,112,112,107,110,109,107,110,108,109,107,109,110,104,111,110,111,109,112,108,110,113,111,108,114,107,111,111,110,110,111,109,110,110,109,109,110,108,111,110,112,109,108,110,112
108,108,104,108,108,109,113,105,109,113,110,107,110,108,112,111,111,111,108,108,110,109,112,111,114,109,112,112,106,109,110,108,109,112,110,108,111,107,108,111,109,111,111,106,110,110,111,110,109,107,109,109,105,106,108,111,110,110,108,109
109,113,103,109,110,107,113,110,108,109,110,109,114,110,111,111,108,111,110,109,107,109,111,109,114,110,110,110,112,106,107,112,111,107,110,110,109,107,111,111,111,108,110,109,111,107,110,110,106,113,110,107,109,108,111,115,111,110,113,110
112,109,106,112,112,108,111,110,108,106,109,111,114,110,107,109,103,111,112,110,107,108,110,110,113,113,107,111,115,107,109,113,108,108,114,114,107,109,111,111,111,104,111,114,111,110,109,111,111,112,111,110,113,111,107,113,111,106,109,111
109,112,109,109,108,107,107,110,109,107,111,109,113,109,105,109,108,112,113,107,111,109,108,111,111,113,108,110,113,112,109,109,111,111,113,113,107,109,109,109,113,106,109,114,110,114,111,109,112,110,108,106,111,114,111,110,111,112,112,111
106,108,108,107,106,106,106,112,112,107,109,108,111,109,106,109,112,110,111,111,114,109,104,107,108,112,108,110,109,107,106,109,108,110,112,110,111,109,109,110,111,110,108,109,109,114,112,109,108,109,110,107,112,113,110,109,108,111,112,109
110,109,112,112,108,107,110,112,109,106,109,110,109,110,111,108,109,111,110,110,111,110,108,104,110,114,110,111,108,107,110,110,107,109,110,109,112,109,112,112,108,111,109,108,107,113,112,109,107,109,112,110,111,110,107,107,109,112,111,111
110,109,107,111,110,109,113,109,106,109,111,112,107,109,113,108,107,113,112,109,111,109,108,108,111,111,106,110,111,109,109,109,107,107,110,108,108,108,108,108,110,110,108,111,109,111,110,108,111,110,108,111,111,109,110,110,110,109,110,114
110,110,107,109,110,107,109,106,109,111,109,111,111,109,109,109,109,111,110,107,109,110,110,111,109,111,111,110,108,111,111,110,109,107,108,108,108,109,108,106,112,110,108,112,110,110,109,110,114,111,108,112,112,109,110,111,110,108,109,110
107,108,111,110,107,106,108,109,108,108,109,111,113,110,107,109,110,109,111,108,107,111,111,109,105,108,112,109,106,106,111,111,109,108,110,109,108,111,110,109,112,109,110,110,107,108,108,109,111,110,110,111,110,107,106,107,109,110,111,112
109,111,111,109,108,106,110,112,110,108,109,112,111,111,109,108,111,111,112,109,105,110,114,109,106,109,109,108,110,106,109,110,107,109,110,108,109,112,108,109,112,109,110,109,107,109,107,109,112,112,109,111,111,109,109,111,111,110,106,108
109,108,108,111,112,109,108,109,110,110,108,110,110,109,109,110,114,110,107,110,110,111,114,112,108,110,109,107,109,107,109,110,106,109,111,111,109,109,110,109,112,111,110,109,108,111,112,110,114,113,109,112,114,111,110,106,108,111,108,110
111,108,110,113,112,110,106,104,109,112,109,107,109,108,106,110,114,108,107,113,110,106,110,112,110,110,111,111,110,108,108,111,112,112,111,109,109,110,113,110,110,111,108,109,108,108,111,110,109,108,108,110,111,108,106,109,109,108,107,110
109,110,112,113,109,107,109,111,112,111,108,106,110,110,107,110,112,110,110,110,108,107,110,112,110,109,109,110,113,111,108,110,112,111,109,107,106,105,109,110,109,109,107,108,110,110,107,107,108,110,110,110,110,108,106,113,111,108,112,110
110,109,108,111,108,106,110,113,112,110,108,107,109,109,111,110,107,110,111,109,108,108,109,110,111,110,106,106,111,109,107,112,110,107,111,110,109,107,108,110,105,106,110,109,110,112,107,105,110,110,106,107,109,108,109,112,111,107,108,108
110,110,110,112,110,108,110,110,111,112,110,108,108,109,110,109,107,109,110,109,110,108,108,112,109,108,109,110,111,107,106,114,112,105,108,109,109,108,109,111,107,108,111,109,108,107,106,108,111,111,107,106,108,110,108,110,112,109,107,110
109,109,108,111,112,110,110,109,109,111,109,108,111,110,108,109,110,110,110,109,110,112,114,112,107,108,109,108,109,110,109,111,110,109,109,107,106,108,110,111,108,110,111,108,110,109,109,111,110,110,107,105,110,110,108,109,113,112,107,107
109,108,108,110,111,109,108,108,107,107,107,109,112,109,108,112,112,109,110,111,111,113,112,106,106,109,106,107,108,109,109,107,110,111,110,111,109,108,110,109,105,109,113,110,109,109,110,110,107,110,110,108,109,109,112,111,109,112,109,108
110,110,110,110,110,108,107,107,108,108,108,111,111,109,108,111,111,108,107,110,110,109,108,106,108,112,109,108,110,109,107,109,109,108,109,111,107,107,110,109,106,108,111,110,108,107,110,109,107,109,110,108,109,108,110,110,110,113,110,112
109,107,108,110,112,111,110,110,110,111,111,109,110,111,107,107,111,111,107,107,109,109,106,106,107,112,111,106,108,109,110,109,108,109,109,109,107,105,110,110,106,109,111,110,109,107,109,109,109,110,108,108,111,111,111,110,109,108,106,110
108,111,107,108,112,107,107,110,110,108,109,107,109,110,109,109,110,111,110,107,112,112,106,106,108,111,113,107,108,109,108,112,110,106,107,108,109,108,111,113,107,108,113,110,109,109,106,106,110,109,109,109,112,111,109,109,108,107,107,110
106,109,109,108,109,107,106,110,111,108,110,110,108,108,110,111,109,108,109,107,109,112,110,108,110,108,107,108,115,113,109,107,107,107,106,107,110,110,108,109,110,107,110,109,106,111,109,106,108,106,106,108,110,110,110,110,109,107,108,109
109,108,110,109,111,113,109,110,111,110,112,110,110,105,108,110,110,109,109,109,108,112,112,108,108,111,109,108,109,111,111,107,111,106,109,112,110,110,108,106,110,109,110,112,106,109,111,110,108,111,112,108,108,111,110,109,108,110,109,108
