109,109,106,105,106,107,111,108,105,108,108,108,109,111,109,108,109,107,109,110,107,104,106,108,110,108,109,110,108,109,106,106,107,110,111,109,107,108,112,115,105,106,109,107,107,108,106,106,108,108,110,110,108,109,112,111,107,108,107,108
104,108,108,110,109,107,110,111,107,106,109,110,109,109,110,109,107,107,109,110,110,108,109,110,111,109,109,111,109,109,110,108,107,108,107,107,109,107,106,109,106,107,108,108,108,108,106,107,110,112,111,109,107,106,109,109,107,108,110,108
111,110,107,107,106,109,112,111,109,109,108,107,105,106,110,108,105,107,108,109,113,112,110,110,110,108,106,108,110,109,109,107,105,109,109,109,111,107,106,111,110,108,107,108,108,107,106,107,109,108,107,106,106,108,110,109,107,105,107,109
112,109,107,107,105,108,109,106,108,109,107,108,107,106,108,108,106,108,109,108,109,109,106,107,109,107,107,111,109,105,107,108,105,106,108,108,108,107,110,111,107,107,108,109,110,109,109,108,107,108,109,107,107,108,112,111,107,107,107,108
109,110,111,109,106,108,108,106,106,108,109,110,108,105,107,111,110,109,109,107,106,109,108,107,111,109,108,108,105,103,107,109,106,107,109,108,105,107,110,108,106,108,109,109,111,112,109,107,107,110,111,109,108,107,109,109,108,108,107,108
108,109,110,105,104,110,111,106,107,107,108,109,108,107,108,108,108,108,108,106,107,112,110,107,109,110,108,106,108,109,107,107,104,104,109,109,105,106,108,106,107,108,107,108,110,109,106,106,109,111,110,108,107,107,108,109,107,107,109,106
108,110,110,107,108,110,111,107,107,110,108,107,109,109,108,107,107,109,110,109,109,109,109,109,109,109,108,109,110,109,106,106,105,105,112,112,107,107,108,109,109,107,105,107,108,108,107,108,110,110,110,109,107,106,109,109,108,111,113,111
106,106,107,105,106,109,109,107,106,109,108,107,110,109,108,108,108,108,110,110,109,107,108,107,106,104,104,106,108,109,109,111,111,108,110,109,104,105,109,110,110,108,106,106,110,111,108,108,109,108,108,107,106,105,105,105,107,110,109,109
109,109,107,108,110,110,110,111,109,110,110,109,110,109,108,109,108,108,108,108,110,110,109,107,107,106,106,108,110,108,107,110,112,109,108,110,109,107,108,108,108,107,106,107,110,109,107,108,106,106,106,106,107,106,105,105,105,107,106,105
107,108,108,108,109,109,109,110,108,108,109,108,107,108,109,110,110,110,109,109,110,110,109,109,109,109,109,111,112,109,106,107,107,106,108,110,108,108,109,107,107,109,109,109,109,107,108,109,106,105,107,107,109,111,109,106,106,107,108,107
107,109,107,105,106,107,107,107,108,108,108,108,106,107,110,108,110,111,110,109,108,108,109,109,106,107,111,110,108,106,109,110,109,109,109,106,105,107,109,109,108,111,111,109,110,108,106,108,108,107,109,108,108,112,113,109,108,110,107,104
110,110,107,106,106,105,104,106,107,108,110,111,109,110,110,107,109,110,107,107,106,106,110,109,106,108,109,108,106,108,111,112,109,108,109,110,111,108,108,110,107,107,109,110,111,108,106,109,109,109,112,110,108,111,113,110,107,108,109,107
110,107,106,108,109,106,108,112,108,106,108,109,109,110,110,107,108,108,106,106,105,108,111,105,104,108,107,111,111,106,107,110,107,106,110,111,109,108,110,110,108,108,112,110,108,108,109,109,107,107,109,108,108,109,108,107,106,105,105,105
110,107,107,109,107,106,111,109,107,107,108,108,107,109,110,107,108,109,108,106,106,109,108,105,107,109,107,110,112,107,107,109,107,108,109,108,107,108,110,110,109,109,113,109,108,107,108,108,108,106,105,106,109,109,105,106,108,105,103,103
107,105,106,108,108,110,109,106,107,110,108,109,108,109,111,108,107,109,111,108,107,108,108,108,106,107,109,109,108,110,108,108,109,109,109,110,110,108,106,109,108,107,109,110,109,106,108,110,109,108,108,108,109,111,108,107,106,107,109,108
107,111,111,107,107,111,108,108,110,109,107,109,108,109,111,108,107,108,110,108,107,110,111,107,106,108,110,109,107,109,105,109,112,107,109,109,106,105,106,108,107,109,107,108,109,111,112,111,110,109,109,105,104,108,107,108,112,110,107,107
108,109,107,105,107,111,108,110,110,108,109,109,107,109,111,107,110,110,107,105,105,110,109,107,108,108,111,112,109,109,106,107,110,109,110,107,109,110,110,106,105,110,107,109,109,110,108,106,109,110,109,105,106,109,108,109,111,106,104,107
111,110,109,108,107,111,108,106,109,108,110,108,108,108,107,108,110,109,109,108,108,110,107,109,110,106,107,110,108,111,109,111,111,110,111,107,107,110,110,106,107,108,106,112,109,107,107,107,108,107,108,110,108,106,108,109,108,105,108,109
109,109,108,109,108,110,110,106,108,107,107,108,109,107,104,110,111,108,109,106,108,109,106,110,112,107,104,108,106,109,106,108,108,107,106,104,107,108,107,107,110,108,109,108,107,111,110,111,111,107,106,106,107,106,110,107,108,104,107,109
109,109,109,109,111,110,111,109,111,108,110,107,109,105,106,110,112,106,108,105,106,109,108,108,110,106,103,107,111,109,110,113,108,108,106,104,107,104,107,111,109,107,111,106,106,111,109,109,111,108,107,106,111,110,108,109,109,107,108,106
110,108,106,107,109,106,108,106,110,107,110,105,107,106,109,110,108,103,108,110,109,108,108,107,108,109,108,107,109,108,106,108,107,109,109,108,110,109,111,109,104,105,109,108,109,109,108,107,106,105,109,111,110,108,110,111,110,106,108,104
109,108,106,105,104,104,108,106,109,108,107,106,108,108,108,108,105,104,110,108,112,109,108,110,108,111,110,109,113,110,106,109,109,110,111,109,109,111,111,106,106,109,107,108,110,109,107,107,106,106,109,109,106,106,109,107,111,108,107,105
109,108,107,106,106,109,109,106,110,110,107,109,109,107,107,108,107,109,111,106,110,106,107,111,109,109,109,108,110,109,108,108,108,109,108,109,107,110,108,107,107,110,106,109,109,109,108,108,107,110,108,108,109,108,110,108,111,110,107,111
106,108,107,109,109,108,108,106,109,111,110,110,108,106,109,110,109,111,109,105,106,108,106,108,110,109,110,110,108,107,110,106,105,110,108,109,106,109,107,108,108,108,107,108,108,108,109,109,109,110,107,106,107,108,107,109,108,107,106,111
110,111,108,110,108,108,110,106,107,111,109,108,108,106,110,112,111,110,108,108,107,110,109,110,111,108,108,109,107,108,108,104,105,111,112,111,106,106,107,107,107,108,105,105,108,109,110,110,110,107,106,111,110,107,104,106,105,107,109,110
111,112,110,110,107,107,109,107,108,107,106,110,109,107,111,111,110,109,108,109,108,110,109,108,108,108,108,108,108,108,107,107,110,109,108,109,107,108,110,106,108,109,107,105,107,111,111,109,108,107,110,112,110,108,106,107,106,106,107,109
106,107,108,109,110,108,108,105,110,108,107,112,110,109,109,107,108,108,107,108,108,109,107,106,108,109,108,108,110,109,108,107,109,107,107,107,104,104,107,110,110,108,109,107,106,109,110,107,106,110,112,107,106,107,106,108,109,108,108,110
107,111,111,109,108,108,108,105,107,108,111,110,111,110,106,105,107,108,109,111,108,107,108,108,110,109,107,108,111,107,106,106,107,107,111,113,108,105,109,109,108,107,106,108,108,109,108,106,106,110,108,106,108,107,103,108,108,108,107,104
109,112,111,108,108,109,109,107,106,110,111,106,109,109,107,109,107,109,110,111,108,106,106,106,110,110,109,110,108,107,108,109,110,109,110,113,110,108,113,108,106,105,105,109,111,111,109,107,108,108,105,107,109,106,105,109,109,111,111,106
111,110,110,109,108,110,110,108,105,104,105,105,108,108,110,110,109,111,107,107,109,108,106,108,111,109,107,108,107,107,109,108,109,111,109,110,109,109,112,109,108,108,107,109,111,110,109,110,108,107,107,107,106,106,109,110,110,110,108,105
107,108,108,105,105,108,107,107,107,106,106,108,109,108,110,109,109,110,107,107,109,107,107,110,108,106,106,109,113,113,111,112,113,110,109,111,109,108,108,107,110,110,108,110,112,109,109,113,110,108,109,107,106,106,107,106,106,108,106,105
107,108,108,110,111,109,107,106,110,109,107,108,108,109,111,110,108,108,108,108,108,106,107,108,105,105,109,110,110,111,110,111,112,111,111,109,107,109,108,109,111,109,106,109,111,109,109,111,108,106,107,108,110,108,106,107,110,111,108,108
108,109,109,108,107,107,108,109,110,108,107,108,107,108,111,112,110,108,108,109,108,107,108,110,108,105,110,112,109,114,118,114,112,115,115,110,108,110,109,111,113,110,107,107,107,107,108,107,105,109,110,108,109,109,109,112,114,112,107,107
106,106,107,105,105,106,108,109,109,109,109,110,109,108,110,112,110,106,109,110,107,108,111,112,109,106,109,113,113,116,121,119,116,116,112,108,107,107,107,107,108,109,110,107,105,108,110,108,107,109,109,107,108,108,107,107,108,108,106,107
108,107,108,106,107,109,108,107,108,108,109,110,109,106,108,110,108,107,111,111,108,109,110,111,109,106,107,110,114,120,124,123,122,120,113,109,109,108,108,109,108,109,108,105,107,111,110,109,109,108,108,109,110,109,107,104,105,108,108,108
107,107,106,106,108,108,108,108,108,109,110,109,107,105,106,109,108,107,109,109,109,110,109,112,112,109,110,114,118,123,127,126,125,123,117,115,114,112,111,112,111,109,105,103,104,108,109,108,109,109,108,107,108,109,110,108,107,108,111,112
106,106,104,104,107,109,111,110,106,108,111,109,105,106,106,108,108,106,107,108,110,110,108,109,110,112,112,112,118,125,127,127,124,121,118,115,112,110,111,110,109,108,107,105,103,104,108,109,108,108,106,105,106,108,108,108,109,111,111,109
105,106,108,109,112,113,109,106,107,108,109,108,106,109,110,109,110,109,108,109,109,106,106,109,112,111,113,116,120,126,129,128,124,125,122,116,113,109,107,107,107,107,107,108,108,108,111,110,109,111,111,109,108,107,106,107,107,108,110,109
107,108,110,110,107,107,106,106,109,109,107,108,107,109,113,111,110,111,109,108,108,108,110,112,110,110,111,113,119,130,130,125,123,124,121,114,112,110,107,110,111,108,106,107,110,110,111,109,107,110,111,110,110,107,105,109,111,107,106,108
109,108,106,107,107,105,105,108,108,108,108,106,106,107,111,112,109,109,108,108,109,110,112,111,110,113,115,117,123,128,127,126,128,125,116,113,113,111,111,110,109,110,108,108,111,109,106,106,107,109,108,109,112,111,108,108,109,107,108,110
110,109,106,105,104,102,106,109,106,108,109,108,109,108,108,110,108,108,109,111,111,111,110,112,114,113,116,119,125,129,130,131,133,130,118,114,113,111,111,108,106,109,108,109,114,108,104,109,111,110,110,108,109,111,109,107,108,108,109,109
111,108,109,108,109,108,112,111,108,109,109,110,112,109,108,107,108,110,112,110,109,109,108,111,113,110,115,120,126,128,129,132,130,125,118,114,112,111,111,111,108,109,109,110,111,108,107,109,108,110,109,107,105,107,111,108,108,109,108,108
111,110,110,109,108,109,111,110,107,107,111,109,109,107,107,108,107,110,110,107,107,107,108,110,113,114,114,119,126,127,128,131,130,126,120,113,110,111,112,113,111,112,109,109,107,109,111,108,106,108,107,106,106,108,110,108,109,108,109,110
109,106,106,109,107,109,110,106,108,107,112,107,107,105,107,109,107,110,110,107,109,109,108,108,110,114,119,122,127,129,129,129,131,131,123,114,110,108,109,109,110,109,106,107,108,109,110,108,108,108,107,106,107,107,105,106,108,106,108,110
109,106,110,113,107,107,108,108,112,111,108,105,107,107,109,110,109,110,109,110,110,113,113,110,115,116,123,127,131,134,132,131,133,133,124,116,114,111,109,109,109,107,106,108,108,106,106,108,108,107,109,108,109,108,108,111,112,109,108,109
108,107,111,113,107,106,107,108,108,109,109,108,110,109,107,109,109,108,110,114,109,110,112,113,118,116,121,125,130,136,136,136,137,137,126,118,115,114,110,109,109,109,108,108,107,107,107,111,111,109,112,112,111,105,107,111,110,107,108,110
108,106,111,109,111,108,105,105,104,109,111,107,110,111,107,107,109,105,108,115,111,109,113,114,115,119,124,129,136,141,143,141,137,135,128,119,113,111,112,109,109,108,110,111,109,108,110,110,107,108,109,109,108,107,108,108,107,107,106,108
111,108,110,110,109,104,106,110,108,107,107,106,109,111,107,108,111,106,108,113,115,108,111,115,117,122,131,138,148,151,154,153,151,144,131,122,115,112,115,111,110,108,110,113,111,107,110,109,107,109,106,108,106,108,107,110,110,109,107,106
108,108,106,106,108,107,110,113,106,107,105,107,108,108,108,109,109,108,109,110,110,106,112,116,119,127,142,166,183,180,175,182,187,166,135,124,117,115,115,111,111,111,109,109,109,108,111,108,110,111,108,107,108,110,106,109,108,107,110,107
109,111,110,107,112,110,107,111,107,109,106,108,106,106,109,108,108,109,108,107,107,109,115,118,120,126,146,187,220,216,203,206,214,186,136,120,113,116,114,110,112,114,110,107,108,113,113,106,109,108,108,110,112,111,108,109,107,109,109,109
111,109,103,106,111,107,107,107,106,107,107,106,106,107,108,108,108,108,109,107,109,112,112,116,121,123,145,185,217,208,195,182,192,178,135,119,115,116,111,110,111,112,112,110,109,111,111,106,107,106,108,112,111,107,109,112,108,107,105,107
110,110,107,107,106,106,106,107,109,108,110,107,107,110,108,108,108,108,110,108,111,112,112,115,117,119,136,165,186,184,177,176,176,153,126,118,123,118,111,111,112,110,114,113,110,108,107,105,104,106,107,108,106,106,109,109,108,108,109,111
110,111,109,110,107,106,107,109,110,109,110,108,108,111,110,109,109,109,108,109,112,113,112,110,113,122,131,144,158,161,159,160,154,139,124,117,119,111,109,113,112,110,112,111,109,109,108,107,104,106,109,106,104,108,109,107,107,109,107,108
107,108,105,110,110,107,109,110,107,107,107,109,109,108,110,112,109,108,108,107,111,112,111,114,114,119,122,129,144,147,145,148,140,134,126,118,116,111,114,111,109,108,108,109,110,109,110,110,108,107,110,109,108,108,110,113,112,111,107,106
109,107,107,109,107,107,108,108,108,108,108,110,108,106,107,111,108,109,112,109,112,112,113,114,113,114,117,125,135,137,140,138,131,130,126,120,116,116,118,110,110,109,108,110,111,107,109,109,109,107,111,110,106,106,108,108,107,105,104,109
109,107,110,111,108,110,108,108,109,107,108,108,105,106,108,110,109,109,111,110,109,112,114,111,111,114,119,127,133,132,137,139,133,127,122,118,117,114,113,110,112,111,108,109,109,106,109,111,110,108,110,110,106,105,108,106,105,109,111,113
110,110,108,107,110,112,107,106,108,107,107,106,105,108,110,111,110,107,109,112,109,110,112,109,113,113,114,122,130,130,133,133,132,127,120,116,115,111,109,110,112,110,108,110,108,104,109,113,110,109,108,110,107,107,108,107,109,110,109,110
110,112,109,107,111,111,106,106,108,107,108,107,106,110,111,111,108,107,110,111,110,109,112,111,114,115,112,115,126,130,127,129,129,126,118,115,114,111,111,111,110,111,111,112,110,106,107,110,108,109,108,109,108,108,109,108,106,108,109,107
110,109,106,106,111,109,106,109,109,107,108,107,106,110,112,110,107,108,108,109,109,108,109,110,112,115,114,113,126,129,124,129,128,124,118,113,111,109,110,110,108,110,112,111,110,109,110,109,105,108,109,109,109,108,109,108,108,107,108,106
107,106,108,108,109,107,106,110,110,109,108,106,107,110,110,109,107,106,108,108,106,107,108,111,113,113,112,115,123,124,125,129,126,123,120,115,112,111,112,112,110,108,108,109,109,108,109,109,106,109,112,109,107,105,105,107,111,109,107,108
110,110,108,106,105,106,106,106,110,109,106,107,109,111,110,107,107,106,108,110,107,108,110,110,112,113,112,115,121,125,129,130,125,125,122,112,111,113,111,113,112,109,107,109,109,108,107,107,108,110,110,109,108,104,105,109,110,109,109,107
108,108,109,108,107,108,106,106,108,106,107,110,109,109,110,106,107,113,114,110,108,111,112,108,108,111,112,114,120,126,128,129,128,126,121,114,111,111,111,112,112,111,109,107,109,111,110,109,108,107,106,108,109,107,107,110,107,108,111,108
108,111,110,108,107,109,109,109,109,108,109,111,109,108,110,106,109,115,111,105,104,107,108,108,108,109,112,114,121,129,129,129,127,123,120,117,112,109,110,110,111,111,108,108,107,109,112,109,109,110,108,108,111,109,107,107,108,108,107,108
108,107,106,105,107,108,108,110,111,109,109,112,111,108,110,110,110,109,106,106,107,106,107,110,112,112,110,111,119,131,135,133,126,123,124,118,113,111,111,110,109,109,109,110,108,110,110,108,109,109,108,109,112,111,110,111,111,110,107,107
108,105,104,107,110,109,108,109,110,109,109,110,107,105,110,113,111,110,112,111,109,107,109,112,111,111,113,111,118,130,133,131,127,125,123,114,110,112,111,109,110,109,109,111,110,109,111,110,109,106,107,109,107,105,106,109,108,108,107,107
107,109,110,108,109,109,107,106,107,108,107,106,105,108,112,110,107,110,111,110,107,105,108,111,109,109,111,111,117,124,128,130,127,126,123,114,109,110,108,108,109,107,105,110,109,106,110,109,107,106,106,108,106,104,105,109,110,108,108,110
106,108,110,109,108,106,106,106,108,108,106,103,106,112,110,107,108,109,108,107,106,105,108,110,109,109,110,112,113,116,119,123,125,126,124,116,112,110,110,109,109,108,106,110,110,106,109,109,107,106,107,110,108,106,108,110,107,107,111,112
109,111,112,111,109,108,109,112,111,109,108,105,104,108,109,109,112,109,106,108,108,109,109,110,110,109,109,113,114,114,116,118,122,123,119,115,113,111,110,110,110,110,109,110,110,108,109,108,107,107,108,108,107,109,113,110,107,111,111,106
110,108,108,108,109,110,110,109,110,109,109,109,106,106,110,112,111,107,105,108,110,110,109,110,113,111,109,110,110,110,111,113,116,115,113,111,111,109,107,108,109,108,108,108,111,111,110,108,108,107,108,107,105,109,112,109,108,110,111,108
109,108,107,109,109,109,108,107,110,109,110,110,107,106,110,110,108,107,107,108,108,108,110,111,111,109,109,110,109,108,110,111,113,109,107,110,111,107,106,108,109,108,109,107,109,110,109,109,110,108,107,109,108,109,111,108,107,107,110,108
107,108,109,109,108,108,109,107,107,107,108,109,107,106,107,108,107,108,111,112,107,108,111,109,108,107,107,109,110,109,108,107,112,110,108,112,111,108,106,110,112,111,111,109,107,108,107,106,109,109,106,108,112,112,109,108,110,108,106,105
106,108,110,107,106,109,109,105,106,108,105,106,108,108,108,109,108,109,108,111,108,108,111,108,105,109,110,111,110,108,111,110,110,111,110,110,114,112,109,109,109,109,111,109,106,110,108,106,109,110,109,110,110,110,108,108,108,107,105,106
104,109,109,106,110,111,109,109,111,108,107,108,109,108,110,112,111,110,106,108,108,106,110,109,108,113,113,112,107,105,109,112,111,109,107,106,111,110,108,108,109,107,110,111,106,108,109,108,110,108,108,108,106,108,110,108,109,110,108,106
108,111,110,111,111,109,109,109,108,105,109,111,110,109,110,111,108,107,109,111,109,106,108,107,107,107,111,109,109,110,107,108,108,109,108,107,108,109,107,110,109,105,110,111,106,107,109,107,109,106,108,108,106,108,109,109,110,110,108,109
112,111,107,110,112,109,109,105,104,106,108,108,109,110,111,109,107,107,111,112,109,107,107,108,108,107,110,107,107,110,108,106,107,109,108,107,110,109,109,110,107,104,108,107,108,110,109,106,109,108,108,108,107,110,107,106,110,108,107,107
110,107,107,108,110,107,108,105,104,108,110,107,108,108,110,110,112,110,109,109,108,107,105,107,108,106,107,109,110,108,109,110,110,107,108,108,109,109,109,108,107,107,109,107,109,111,109,106,109,109,107,108,109,110,108,107,107,108,105,105
111,108,108,108,107,107,108,107,106,109,111,109,108,109,112,111,113,110,107,109,109,107,109,107,106,110,110,109,110,109,107,107,109,107,110,110,108,109,108,109,110,110,111,109,107,107,106,105,108,109,107,110,111,109,109,110,109,112,110,104
111,110,109,110,109,109,109,112,107,108,110,108,109,109,113,109,111,108,106,106,105,106,112,109,107,111,110,107,108,109,107,107,109,107,108,109,108,109,107,110,110,108,108,106,104,108,108,106,106,109,108,105,107,106,105,107,108,110,107,106
109,110,107,110,109,108,108,109,105,107,110,108,107,107,109,108,108,106,108,108,106,107,106,109,110,110,106,108,108,108,110,111,109,107,111,113,109,108,108,109,106,105,107,106,107,111,110,109,108,109,106,104,107,109,109,109,108,106,101,108
106,108,110,110,109,109,106,105,106,108,109,110,109,109,109,108,108,107,111,114,111,109,107,108,110,106,105,110,107,108,110,109,107,106,110,112,108,107,109,110,106,111,109,109,107,108,106,107,110,110,107,110,111,111,108,109,110,109,108,110
106,107,108,106,109,111,109,107,108,109,108,112,113,111,107,106,110,109,111,110,108,109,108,107,109,108,111,109,104,106,108,107,108,106,106,107,107,108,110,113,108,115,109,108,106,108,107,105,108,108,106,107,106,109,106,107,109,109,111,109
105,109,108,106,110,110,108,108,109,109,110,110,111,107,103,105,108,109,109,106,109,110,107,105,109,109,111,111,108,109,108,107,107,111,107,109,109,111,110,110,107,112,109,108,108,109,109,105,104,106,109,107,107,108,107,107,110,109,108,107
105,109,105,104,110,111,109,110,110,110,111,108,108,108,108,110,109,106,104,108,109,108,106,110,111,107,108,113,111,109,110,112,110,110,109,109,107,109,107,106,104,109,112,107,109,108,106,108,106,105,110,108,107,109,109,108,111,112,110,108
108,109,109,113,112,106,104,109,107,107,110,106,108,110,109,110,110,107,106,110,109,106,108,111,112,109,106,109,110,108,109,112,110,108,108,109,108,107,107,108,106,109,112,105,108,109,107,111,109,108,110,106,104,107,109,108,109,107,104,109
106,107,106,107,108,105,106,108,107,107,108,105,107,108,105,107,108,109,109,110,110,108,107,108,110,110,107,108,106,103,106,109,108,109,106,110,111,108,108,111,108,106,108,106,110,111,110,112,111,111,109,108,110,108,107,107,107,106,106,110
107,108,106,106,107,107,108,106,107,110,108,109,109,108,105,103,106,106,105,108,110,109,107,108,111,110,107,109,108,108,109,108,108,110,107,109,112,108,107,112,107,105,109,110,111,110,108,111,112,108,108,108,111,107,106,110,108,106,108,109
110,108,107,109,108,109,109,105,107,110,109,112,111,110,107,104,108,107,108,107,108,110,108,109,112,110,107,105,109,113,111,108,109,109,106,107,108,107,107,110,107,106,109,112,111,108,106,107,110,109,108,107,108,107,106,107,105,106,109,109
107,107,108,108,108,110,110,110,110,110,110,110,110,110,109,109,109,108,111,109,109,111,107,107,108,108,109,107,112,114,111,109,109,109,106,108,108,109,106,108,109,107,105,108,109,109,109,108,108,108,107,106,107,109,106,106,108,109,110,108
107,107,108,110,113,112,109,108,106,107,110,111,108,108,108,108,107,107,109,109,109,108,107,109,109,109,110,109,109,107,106,106,106,107,107,107,109,108,107,110,109,108,107,107,108,110,109,108,111,108,107,109,110,110,108,110,112,111,110,110
109,106,106,109,110,111,107,104,104,106,111,111,107,107,108,107,108,108,109,109,109,107,108,110,108,107,110,111,108,107,107,107,109,108,109,111,111,109,108,110,109,108,110,108,107,109,107,107,110,107,106,110,109,108,108,108,105,108,109,108
109,109,108,110,110,107,105,104,106,108,108,110,110,108,107,108,110,110,109,110,106,102,107,111,107,106,109,109,106,107,110,111,110,107,109,110,108,109,107,107,108,108,108,107,106,108,108,108,108,107,108,108,106,107,110,106,102,109,110,108
106,106,107,110,110,108,108,110,108,105,105,109,112,108,106,109,110,109,109,108,103,103,108,110,106,107,110,109,108,110,111,109,105,106,107,109,109,108,107,108,109,107,107,109,108,107,106,107,107,104,107,107,107,109,109,108,109,112,111,110
110,108,108,109,107,108,109,109,108,107,107,109,109,105,106,112,110,107,109,109,107,109,110,108,109,109,109,108,108,107,107,107,105,109,111,109,110,108,106,109,109,106,108,112,108,106,108,108,109,108,105,108,110,110,108,107,111,111,107,106
110,106,107,106,105,109,110,107,109,109,107,107,107,107,107,112,113,109,109,111,110,109,110,110,109,109,109,108,107,107,105,108,109,108,108,107,108,107,107,107,107,108,111,111,107,107,110,110,111,111,107,109,109,105,107,110,110,109,106,104
107,109,110,109,109,111,109,107,108,108,109,109,108,109,108,109,115,112,107,108,110,109,110,110,108,108,107,106,107,109,111,111,108,106,107,107,108,109,107,107,108,109,108,108,109,109,109,108,108,109,108,108,108,108,110,110,109,108,107,107
110,112,112,110,108,106,106,109,109,109,110,109,107,109,110,108,110,111,109,108,108,108,107,108,110,109,107,107,109,108,109,110,110,110,110,108,110,110,108,108,109,108,106,109,111,108,107,105,105,109,109,107,106,107,109,108,108,108,108,109
107,109,109,108,108,108,107,108,108,107,107,106,105,107,110,109,108,109,109,108,108,109,109,110,109,106,107,107,106,106,107,110,109,107,107,108,109,110,109,108,108,107,108,110,110,108,108,109,108,108,109,107,107,107,108,110,113,110,106,109
105,106,108,109,110,110,109,108,107,107,106,107,108,107,109,110,108,107,107,108,111,111,109,110,111,108,108,109,106,108,111,109,107,106,108,109,110,110,108,108,109,108,109,109,109,109,110,112,109,106,109,109,109,110,111,108,106,107,108,106
107,107,111,113,109,109,110,111,111,109,107,109,111,108,108,108,107,105,108,110,110,109,110,110,109,109,109,109,109,111,109,106,107,111,111,110,111,109,106,108,108,107,107,108,108,107,110,108,106,107,107,110,110,109,110,107,105,106,108,106
108,107,108,109,108,108,110,110,108,108,108,109,110,109,107,108,108,107,108,108,109,108,109,108,106,107,107,111,110,108,108,108,108,112,110,108,110,108,108,109,108,108,106,106,107,107,108,107,108,109,110,112,110,109,106,107,111,108,109,107
