115,114,113,119,133,151,167,173,167,156,145,135,127,121,115,110,109,108,108,111,111,108,107,109,111,112,109,108,109,110,110,108,108,109,110,108,107,111,112,108,108,109,108,108,107,105,107,108,108,107,109,109,106,107,112,109,109,108,109,111
112,111,113,118,130,149,166,172,166,155,146,133,122,117,115,112,110,109,108,110,109,108,108,110,111,112,111,109,111,111,111,109,108,110,112,111,107,107,110,109,106,107,108,109,107,105,108,109,107,105,107,110,111,109,110,111,108,107,108,108
112,112,112,116,129,148,162,169,168,155,142,130,119,113,114,114,113,112,110,110,111,111,110,110,110,110,110,110,110,110,109,111,110,108,109,110,107,106,110,112,112,110,109,110,110,108,108,107,107,108,108,110,110,109,109,110,111,108,107,108
115,115,114,117,124,137,151,161,163,153,140,130,120,113,112,113,113,112,111,110,110,109,109,109,109,107,106,107,108,110,112,112,110,108,107,109,110,110,110,110,111,112,109,107,107,108,107,106,109,111,110,109,109,109,109,109,109,110,108,108
114,116,116,118,122,128,135,141,146,147,140,129,118,114,113,111,111,111,111,110,110,110,110,109,108,107,106,105,107,109,111,110,108,109,111,112,113,111,109,107,107,111,112,108,107,108,108,108,110,111,109,108,109,108,108,107,109,110,108,105
113,114,113,116,123,128,131,134,137,137,133,126,119,114,112,111,110,111,110,110,111,110,108,107,107,109,110,109,109,109,107,107,108,109,110,112,112,109,108,108,108,110,111,109,109,110,111,110,109,109,109,108,108,108,109,110,110,111,110,107
111,113,114,116,120,123,126,130,134,136,134,130,123,114,110,111,112,111,109,109,109,109,108,107,108,109,111,112,109,107,107,108,108,107,106,109,111,108,106,108,111,111,108,107,107,110,111,110,107,106,108,109,108,109,109,110,110,111,112,110
109,113,116,117,118,121,128,132,135,139,136,128,121,115,112,112,112,111,110,109,110,110,110,110,109,109,111,112,110,109,109,108,108,108,108,107,107,106,107,109,111,112,109,106,107,109,108,108,107,106,107,111,111,110,108,108,108,108,110,110
110,110,116,119,118,122,129,132,133,135,132,124,119,117,114,112,110,111,111,109,108,109,110,109,108,108,109,109,109,109,108,108,108,110,112,113,111,111,110,109,107,109,111,109,108,107,105,106,108,108,108,110,112,110,109,108,108,108,108,108
112,112,115,119,120,123,127,127,126,127,126,122,119,116,112,109,110,111,111,109,107,107,108,108,108,108,108,109,108,106,107,109,110,110,110,111,112,111,109,107,106,107,110,110,109,107,107,108,109,109,109,109,109,110,110,110,110,110,110,109
114,114,112,117,122,124,125,127,125,123,123,119,114,112,110,108,110,112,112,110,109,107,107,109,110,110,107,107,110,110,110,110,108,106,105,105,107,108,106,106,109,110,109,109,110,109,108,109,108,108,109,108,108,111,111,109,108,108,110,111
115,117,114,116,125,130,127,129,131,126,123,118,110,110,110,108,110,111,110,110,110,108,107,109,111,111,109,108,110,112,110,109,108,107,110,110,107,108,110,109,111,112,109,109,112,110,106,107,108,107,107,108,109,111,111,110,108,108,108,110
115,115,116,122,125,130,133,129,126,127,125,120,112,110,110,110,111,109,109,108,110,110,108,106,109,110,110,110,108,109,111,111,110,108,110,110,108,108,110,110,109,111,111,111,111,111,108,107,109,109,109,109,108,109,111,113,110,108,111,111
115,114,118,128,131,128,131,131,125,125,124,116,113,111,110,113,112,111,110,108,109,111,109,108,110,109,110,113,112,109,109,111,111,107,109,108,107,107,110,111,109,109,112,111,110,110,108,107,109,111,111,110,108,107,110,111,109,108,111,110
112,115,123,133,139,139,133,131,128,124,121,114,113,112,111,112,110,110,110,107,106,108,109,110,109,108,110,113,111,109,109,110,111,108,107,110,111,109,108,109,109,108,110,109,107,107,105,106,108,109,108,107,106,106,107,110,111,108,106,108
111,114,122,129,132,132,130,129,125,119,118,116,112,111,112,111,108,108,109,108,107,108,108,109,108,108,108,108,109,108,106,106,109,106,107,111,110,109,109,106,107,108,111,110,105,105,106,107,109,109,107,105,106,108,110,111,112,111,106,106
112,114,121,125,124,129,132,127,121,119,121,118,113,112,110,112,110,109,109,112,111,109,111,109,109,111,107,107,111,109,108,108,111,109,105,106,108,111,110,110,109,107,110,109,107,109,110,110,110,111,109,107,108,110,111,110,110,111,109,106
113,117,120,126,123,123,130,125,121,118,122,116,112,113,110,113,110,108,110,114,114,112,113,109,109,110,106,111,111,110,111,109,110,113,106,104,106,108,108,111,114,111,108,109,112,111,111,110,109,110,108,107,108,110,110,109,107,107,110,109
111,113,117,118,123,127,127,121,119,115,117,112,109,110,111,111,107,107,110,111,111,111,110,110,109,107,108,112,112,110,112,110,107,113,109,109,109,106,107,106,109,110,107,110,111,106,106,107,106,109,107,106,107,111,111,109,107,110,110,108
113,112,114,115,119,123,127,125,120,120,114,112,112,111,110,110,107,110,109,107,108,108,109,112,110,106,109,110,113,108,111,108,108,110,109,107,113,111,107,107,104,103,107,109,109,105,106,107,107,109,109,107,109,110,110,109,110,111,109,108
111,110,110,118,119,125,126,125,121,122,115,111,115,111,109,110,108,110,108,107,109,108,112,110,108,107,109,106,110,106,112,112,113,110,109,108,111,108,108,111,110,107,108,110,110,110,109,114,109,110,112,108,110,108,109,110,110,109,108,108
109,111,115,119,120,121,119,121,124,121,118,110,111,110,110,109,107,108,109,111,110,110,111,107,109,107,108,106,109,109,105,107,109,111,109,111,111,109,111,111,112,112,109,112,110,110,107,116,109,108,110,106,110,110,111,112,108,107,112,113
110,112,116,118,120,123,123,121,123,121,118,113,109,111,108,109,108,109,111,111,109,110,108,108,110,105,108,110,108,110,103,108,113,113,112,108,106,107,110,111,109,111,107,110,108,109,107,112,110,109,109,108,109,112,110,108,109,109,112,113
111,110,117,121,123,126,128,127,125,120,115,113,111,112,111,111,111,111,109,108,108,109,106,108,109,108,106,111,108,109,111,110,113,111,112,110,107,108,107,110,107,110,110,105,108,110,110,106,111,112,111,109,107,108,106,107,109,111,106,108
113,116,116,120,124,126,128,131,127,118,111,111,112,112,114,112,111,111,107,109,109,109,106,106,108,111,109,110,110,111,112,108,110,109,107,110,109,109,107,106,105,111,110,106,108,110,109,105,109,112,110,109,109,107,107,108,113,109,104,107
111,117,119,120,123,125,126,124,120,117,113,111,112,112,112,111,111,111,109,109,108,108,110,107,108,110,110,109,111,112,112,108,106,106,106,105,108,109,106,105,106,109,108,108,107,109,108,108,107,109,109,108,111,108,107,110,112,110,113,109
109,114,120,120,124,124,124,120,118,117,113,110,110,110,110,110,111,112,111,108,106,108,112,109,107,110,110,109,108,111,113,107,106,110,110,107,109,111,107,108,109,109,108,109,109,111,109,108,108,107,109,109,111,109,106,108,107,114,115,113
108,110,117,121,122,123,123,121,117,113,111,110,109,109,110,110,110,110,109,107,107,110,112,111,110,111,109,107,108,108,107,107,110,112,109,107,107,110,109,109,110,108,107,109,110,109,110,109,111,108,108,109,111,111,109,106,106,112,110,109
112,110,113,114,115,118,117,114,113,111,110,109,110,111,109,109,108,108,108,109,111,111,110,109,110,109,109,107,107,108,108,110,110,112,110,108,109,109,109,109,110,110,108,109,107,107,110,111,112,110,109,108,109,112,111,109,105,110,109,107
111,110,109,109,111,115,116,114,113,112,110,111,112,109,107,108,109,109,108,108,111,109,107,108,107,106,108,109,108,108,109,110,110,109,109,109,108,110,111,109,110,110,109,110,109,108,109,109,109,109,111,108,107,109,109,107,107,110,113,110
110,109,110,108,108,110,110,109,109,110,111,111,109,107,108,110,111,110,108,107,108,108,109,109,107,105,107,111,110,109,110,108,109,111,110,110,109,108,110,111,109,109,110,111,112,110,108,107,107,109,110,108,110,109,106,107,108,108,107,106
109,110,109,109,110,110,109,107,106,107,109,109,107,106,108,110,111,109,108,108,109,110,112,111,108,107,109,111,111,111,112,110,108,110,111,110,110,108,108,111,111,110,110,110,112,111,108,108,111,110,109,109,111,110,106,106,107,108,109,107
105,106,108,109,108,106,107,110,110,109,110,110,108,107,107,109,110,110,110,110,110,110,111,112,111,111,110,108,108,109,110,110,108,106,106,108,110,111,110,111,112,110,107,108,110,110,109,110,110,109,110,112,112,110,109,109,109,108,109,112
107,107,106,108,111,111,110,110,109,109,112,113,108,106,109,109,108,109,110,109,109,109,110,111,110,108,109,109,109,108,109,108,109,110,110,109,107,107,110,110,109,108,107,109,110,109,108,108,107,106,108,110,109,108,109,110,109,108,107,107
109,107,107,107,107,107,107,108,110,110,109,109,108,107,110,111,109,109,110,110,110,110,110,109,108,108,109,111,112,111,112,115,114,113,111,107,104,106,110,109,108,109,109,110,111,109,108,109,108,106,106,107,107,106,108,111,110,111,112,110
107,108,109,109,108,107,108,109,111,111,109,109,109,108,109,109,109,108,109,111,110,109,110,110,107,108,112,114,115,115,118,118,114,112,111,109,108,110,111,108,108,110,110,108,109,109,110,111,110,109,108,107,107,107,108,110,109,106,105,108
110,112,110,110,113,111,109,108,108,111,112,112,110,109,108,108,108,109,111,112,110,109,111,112,109,111,114,115,115,116,120,120,116,114,115,115,112,110,110,108,108,110,109,106,107,107,108,109,108,108,109,109,108,109,110,110,110,110,108,108
108,109,106,105,107,110,109,108,109,111,111,110,110,109,108,109,111,113,114,112,110,109,111,111,111,112,113,116,120,120,121,125,123,117,114,111,111,110,111,110,107,107,108,107,107,106,105,107,107,107,109,110,110,109,110,111,111,110,109,110
105,112,115,110,108,111,112,110,109,110,108,108,109,106,106,110,111,111,111,110,109,109,108,109,109,110,113,118,120,119,120,120,118,115,112,109,109,110,112,111,109,108,107,108,108,108,109,109,110,109,109,112,111,108,110,113,113,110,108,106
104,106,109,113,115,112,110,110,109,109,108,108,109,109,109,110,109,107,108,110,110,110,108,106,109,111,113,118,122,122,120,120,119,116,111,110,111,109,111,111,110,109,107,107,109,110,110,110,110,110,110,111,110,109,111,113,113,109,107,106
111,109,112,111,109,109,107,109,110,107,107,109,111,112,112,111,112,111,109,109,110,111,110,110,113,112,111,117,121,120,119,119,119,116,112,110,109,108,110,110,108,108,109,109,110,109,107,107,110,111,111,110,110,109,109,109,111,111,110,107
112,109,111,112,110,109,108,107,109,109,109,110,108,110,110,110,113,114,110,108,109,111,113,114,114,111,110,114,118,123,125,123,120,118,114,111,110,111,111,108,105,106,110,109,109,109,108,107,108,108,108,108,110,109,108,109,111,111,110,110
108,109,111,113,110,109,109,108,109,112,111,108,106,108,111,110,109,111,110,108,110,111,112,113,112,111,114,119,120,119,122,124,121,118,114,113,113,113,111,109,107,106,107,108,108,109,110,108,107,107,107,107,109,109,110,111,112,111,109,107
107,109,107,109,110,107,108,109,112,111,108,107,109,110,113,111,108,110,111,108,110,112,110,111,113,112,113,116,120,124,123,121,121,121,117,111,109,109,111,112,111,108,107,109,108,106,108,110,110,110,109,108,108,109,110,110,109,108,106,106
109,110,108,110,108,106,108,108,109,110,107,108,109,110,112,112,111,112,112,110,111,113,110,112,115,115,114,119,127,128,126,126,123,120,114,109,110,112,111,111,113,111,109,109,108,107,109,111,110,111,110,108,106,106,108,108,109,111,112,111
109,106,108,110,112,109,108,109,104,109,109,110,106,108,110,110,111,110,115,113,112,112,111,115,115,118,120,122,129,127,123,126,125,122,118,114,112,114,112,109,110,111,112,110,109,110,110,109,107,109,108,107,107,107,111,111,110,111,109,109
110,109,107,113,115,110,109,111,106,107,111,111,105,111,110,108,109,109,114,112,112,110,113,117,114,117,123,128,131,130,130,129,133,120,119,118,109,109,113,109,108,110,111,108,108,109,109,109,108,109,110,111,111,106,108,110,110,108,108,109
108,112,112,109,110,108,109,110,111,108,113,112,107,110,108,107,108,110,111,112,109,109,114,114,113,119,126,131,136,140,132,132,134,128,124,119,114,110,109,110,110,109,109,106,108,109,111,111,111,111,111,112,108,106,106,109,107,107,106,103
110,105,106,107,108,107,110,111,111,109,110,110,106,107,109,110,107,112,111,110,108,109,114,111,114,122,132,146,154,154,146,140,139,135,128,124,117,113,107,110,109,110,109,111,111,109,110,111,110,112,109,109,107,108,109,109,106,109,114,113
110,110,109,109,109,109,110,112,112,107,107,111,106,108,111,110,108,113,111,107,110,109,112,112,113,129,136,166,172,161,160,156,149,148,133,124,111,112,109,109,107,110,110,112,110,107,109,111,107,109,108,110,111,110,111,110,107,110,107,105
109,109,113,114,111,111,109,110,111,109,109,114,108,107,111,108,109,112,110,108,111,108,111,116,120,135,146,167,169,157,159,158,152,147,127,121,110,111,111,108,108,108,108,106,109,108,109,109,107,107,108,109,109,111,111,111,108,105,109,108
107,108,107,109,107,107,110,111,109,111,111,112,108,108,109,109,108,110,111,111,108,107,111,115,123,137,147,150,153,157,163,147,144,141,126,120,113,112,109,108,110,107,109,107,109,109,108,110,111,107,108,108,107,107,106,109,112,108,107,107
108,108,108,110,111,111,111,108,109,109,107,107,109,111,110,110,109,110,112,110,108,110,112,112,118,129,135,137,144,144,146,141,142,139,129,121,115,111,110,110,111,107,111,112,108,108,107,111,111,110,109,109,109,107,109,109,112,109,109,111
108,109,109,108,109,111,108,108,110,107,106,107,110,113,111,110,111,111,110,109,109,112,111,114,114,119,126,129,131,136,136,137,141,131,124,119,111,110,112,112,110,108,110,111,109,109,109,108,109,114,109,110,111,108,110,106,108,109,108,105
110,110,107,108,110,108,107,108,109,109,107,107,107,111,112,110,108,108,109,109,109,109,107,111,114,116,122,129,134,135,130,128,131,126,119,116,111,110,112,112,110,110,109,109,110,109,109,106,109,111,107,109,109,104,110,109,111,110,108,110
107,107,107,108,111,110,107,104,107,108,107,107,107,110,111,109,106,107,111,109,109,110,107,107,114,119,123,128,131,132,135,134,128,123,119,118,115,111,112,112,112,111,109,108,107,107,110,110,110,108,108,108,108,108,114,110,108,108,104,102
108,107,107,107,108,109,108,106,108,110,110,108,108,108,108,110,110,109,111,111,109,110,110,109,113,115,121,130,134,131,133,135,129,122,119,115,113,112,110,111,112,111,108,107,105,107,112,110,110,113,112,111,112,110,111,110,111,111,110,113
108,108,109,110,110,108,107,107,109,110,110,110,109,106,107,111,111,109,109,111,110,110,113,112,113,116,120,125,130,129,127,128,126,121,118,112,110,111,107,109,112,110,108,109,109,109,111,109,110,113,111,110,110,109,107,109,109,108,110,108
107,105,108,110,110,107,107,108,109,109,109,110,109,107,108,110,109,108,109,110,109,109,111,112,112,112,115,121,126,128,131,130,124,117,115,115,113,110,108,108,110,111,110,109,109,108,109,109,108,107,105,106,110,110,106,106,113,113,106,106
110,111,110,109,108,108,110,110,110,110,110,109,108,107,108,110,110,109,110,111,110,110,110,110,111,115,117,121,126,127,128,130,126,118,114,114,113,111,109,108,108,109,108,106,107,107,109,110,110,108,105,106,109,110,110,109,106,107,108,110
108,106,107,109,109,109,110,110,110,110,110,109,109,107,107,110,111,109,109,112,113,110,110,112,113,115,118,122,128,132,130,129,128,122,116,113,112,111,110,110,109,108,107,106,107,108,108,111,112,110,108,106,106,110,111,111,110,108,108,108
110,111,107,107,109,109,109,108,108,110,110,111,111,109,107,109,111,108,108,110,112,109,108,111,113,113,117,122,127,131,133,131,127,122,116,113,111,110,111,111,111,110,109,109,108,108,108,109,108,107,108,108,106,109,111,110,112,110,106,106
109,113,111,108,111,113,110,106,106,110,111,108,109,110,109,108,109,108,107,107,108,109,109,109,113,117,117,120,127,129,127,126,124,118,113,111,111,111,110,108,108,109,110,110,110,110,109,108,108,107,108,109,108,109,111,109,106,106,106,108
109,113,114,111,113,114,111,108,107,111,112,107,108,110,109,107,108,109,108,108,109,109,110,110,111,115,118,119,122,126,124,121,121,117,112,110,112,113,110,106,105,106,109,110,109,109,110,111,110,109,110,110,110,108,109,112,110,109,108,108
108,107,110,109,108,110,112,111,109,111,111,109,108,109,109,109,109,109,109,109,110,110,109,110,111,110,110,116,122,124,125,123,120,117,115,112,111,111,110,108,107,106,108,109,108,107,109,110,110,109,109,109,110,110,108,108,110,111,112,109
108,109,108,107,106,108,111,110,110,110,109,108,108,109,110,111,109,108,107,108,107,108,111,112,112,113,114,115,119,119,116,116,115,112,110,109,110,110,109,109,109,108,107,108,110,109,107,108,110,110,109,107,109,113,110,105,105,107,109,110
109,109,111,112,109,107,110,110,109,109,108,108,109,110,111,112,110,107,108,109,107,106,109,112,111,112,116,118,118,117,114,111,109,110,108,108,111,111,107,107,109,110,109,108,110,111,108,106,109,111,110,109,109,111,113,111,109,110,111,111
107,109,110,110,110,109,109,109,108,108,109,109,109,110,110,111,111,109,109,110,109,107,106,109,112,111,110,114,114,114,114,113,111,113,112,109,109,110,109,108,109,111,110,108,109,111,109,106,106,110,111,108,108,109,109,109,109,110,112,111
111,108,108,108,109,111,109,108,109,109,108,108,108,110,109,110,112,110,108,109,112,112,108,107,110,112,109,107,109,113,112,113,113,112,110,108,108,109,109,108,108,108,109,109,110,111,110,108,107,109,110,107,107,108,106,105,109,110,109,109
109,110,108,108,107,108,107,106,110,110,108,108,109,109,108,109,112,110,108,109,109,111,110,110,111,111,111,110,109,110,110,111,111,109,107,108,110,109,109,109,109,109,109,110,111,110,108,109,109,108,109,110,109,109,110,109,109,109,107,106
112,108,107,112,110,108,107,105,110,112,110,109,108,107,109,109,111,111,111,110,107,109,113,112,110,107,107,107,106,107,108,105,106,108,108,110,109,107,108,109,111,113,111,110,109,108,107,107,108,107,107,110,111,110,109,111,109,106,107,107
108,111,111,113,111,110,110,107,111,112,111,109,109,109,110,108,109,111,110,110,108,107,110,110,111,111,111,111,109,109,108,105,110,113,111,110,108,107,109,110,110,112,111,109,108,107,108,107,108,110,109,109,109,107,105,106,108,106,105,107
107,109,106,109,108,109,110,109,109,110,111,109,109,108,109,109,108,110,107,108,109,106,107,111,111,109,108,112,115,114,109,107,112,114,110,108,110,110,110,109,108,110,110,109,110,109,108,110,110,110,111,110,110,111,111,108,107,108,107,108
110,111,109,110,109,106,108,107,109,110,109,109,109,110,109,112,106,109,107,109,111,110,106,107,112,112,108,108,107,108,107,107,107,109,107,109,110,110,108,108,109,108,108,111,112,110,107,109,110,109,108,110,111,109,107,108,109,110,111,111
106,109,113,110,111,107,108,107,111,109,107,109,110,112,108,111,107,109,109,108,109,112,109,110,113,111,109,106,107,110,108,108,108,107,105,106,108,111,110,108,108,107,107,109,111,110,108,108,109,108,108,108,107,107,107,108,110,108,106,107
109,110,111,111,110,110,109,109,110,108,108,111,109,111,106,109,111,109,111,104,107,112,111,108,113,113,109,109,110,110,109,112,113,107,105,106,108,112,112,107,108,108,109,108,109,110,109,108,109,107,107,107,106,106,109,110,108,108,108,110
110,111,107,109,108,111,112,108,109,108,109,112,109,110,108,107,109,109,112,106,106,110,109,106,111,110,107,109,108,110,109,110,106,109,106,107,108,109,111,107,108,109,111,111,108,110,109,109,110,108,106,107,107,106,105,110,107,108,110,109
109,109,106,107,109,108,112,107,110,108,109,112,112,111,108,104,106,111,112,111,105,110,110,106,108,108,106,109,114,108,108,109,109,108,108,107,109,108,111,110,109,107,110,112,108,110,110,109,107,108,109,108,109,112,110,107,106,107,108,109
105,110,111,108,109,107,108,108,110,109,109,110,110,110,106,108,110,112,108,109,107,110,112,107,107,109,109,106,112,108,106,107,108,109,109,108,109,109,109,112,109,107,107,110,108,108,112,108,108,109,110,111,111,113,111,110,106,104,108,110
107,109,112,109,108,109,107,109,110,110,107,107,109,108,108,113,115,110,108,107,108,111,117,109,106,112,111,110,107,104,109,107,109,109,108,110,110,108,106,111,107,109,108,110,106,108,110,109,108,109,106,110,110,110,110,108,110,109,109,110
111,107,109,110,108,110,110,108,108,107,108,107,109,107,109,113,111,110,111,109,108,111,113,109,110,111,110,108,106,106,111,109,107,107,108,111,110,105,104,110,108,110,109,108,107,107,106,111,102,109,105,107,104,107,111,110,111,112,107,109
109,108,109,111,107,108,108,106,107,111,110,107,108,106,106,109,108,109,111,111,107,107,112,111,107,107,108,105,109,108,110,111,106,108,108,111,110,108,105,110,112,108,108,107,111,108,106,107,104,112,108,110,107,108,111,109,109,107,106,109
108,108,108,109,109,108,108,109,111,113,110,107,107,106,104,108,109,105,108,111,109,107,111,112,108,109,109,109,112,109,109,108,106,108,108,110,109,110,106,109,111,109,109,109,111,110,109,108,108,109,109,111,108,107,111,109,106,107,107,111
108,107,109,110,110,109,109,111,109,109,109,110,109,108,105,109,110,105,107,109,108,108,109,110,108,106,108,111,109,104,104,106,108,108,107,109,109,107,108,111,110,110,109,109,109,107,110,112,108,107,110,106,108,111,111,113,110,110,107,110
109,108,108,108,109,109,107,108,109,109,111,112,110,109,109,111,112,109,107,107,106,107,108,109,110,109,109,110,108,106,107,110,109,108,108,109,110,108,110,111,111,107,107,110,109,107,109,109,107,108,109,110,109,111,112,106,111,110,107,107
108,109,107,106,109,111,108,107,110,111,111,111,110,110,111,111,111,110,108,107,106,106,107,109,110,106,105,107,110,108,107,110,111,109,109,110,109,109,109,109,111,107,106,108,110,110,108,107,107,108,109,109,106,105,108,111,107,107,109,109
105,107,107,107,109,112,109,107,109,111,110,109,109,110,110,108,108,110,110,108,109,108,106,108,109,109,108,110,110,109,105,106,110,109,109,109,109,109,107,108,111,110,107,105,108,109,110,111,110,109,109,109,107,107,109,110,110,112,112,109
105,106,108,107,108,112,111,108,109,111,110,108,106,108,109,108,108,109,109,108,110,111,110,112,112,109,109,111,110,108,108,109,110,109,108,109,109,109,107,107,109,110,109,107,106,107,109,111,110,110,111,111,111,109,107,107,108,110,108,107
110,108,109,109,108,110,111,109,108,110,110,108,106,108,110,110,110,109,109,109,107,108,108,109,112,113,112,110,108,107,112,114,109,107,109,109,109,109,108,107,106,106,109,111,108,104,105,108,107,109,112,109,108,110,109,107,107,107,108,111
108,107,108,110,108,108,108,108,107,107,109,109,108,109,109,109,111,112,110,108,108,110,109,106,106,108,109,109,109,108,110,110,106,106,108,109,109,108,108,109,107,106,109,112,110,106,104,107,109,109,109,109,110,109,107,108,109,109,110,111
108,108,108,109,109,109,108,108,108,107,109,109,109,108,107,106,107,111,110,108,109,111,109,105,105,109,108,106,109,109,108,107,107,108,109,109,108,107,109,109,107,107,109,110,110,109,108,107,109,109,107,109,110,108,108,112,113,110,109,108
112,110,109,110,110,109,109,108,108,108,108,109,110,110,107,105,105,107,111,110,108,108,108,108,107,108,109,107,107,109,109,109,109,109,110,109,108,108,110,109,107,108,108,108,109,111,111,109,108,111,110,111,112,108,107,109,107,106,106,107
108,108,108,109,109,109,109,109,108,108,108,109,111,110,107,106,106,105,108,109,107,110,110,110,108,107,108,110,109,109,109,109,110,110,109,109,109,110,110,109,109,109,108,108,109,109,110,111,110,108,109,109,110,110,109,110,110,109,109,110
107,107,108,108,110,110,109,109,109,108,108,109,110,109,107,107,108,106,106,109,110,108,108,110,111,110,108,108,109,109,110,110,109,108,109,110,109,111,111,110,110,110,109,109,108,106,106,110,111,107,107,109,108,107,108,110,111,111,110,109
110,110,108,108,108,109,109,108,107,108,110,111,111,110,108,107,109,109,107,109,111,107,108,111,110,109,108,108,108,109,110,109,108,109,111,109,107,107,109,110,109,109,109,108,107,106,106,109,111,110,110,111,109,106,107,108,108,109,111,110
108,109,108,107,107,108,110,111,108,108,111,112,110,110,110,108,107,109,110,109,109,110,109,110,109,109,110,110,110,109,110,110,109,109,108,107,106,106,107,109,108,107,108,107,107,109,110,110,110,110,110,107,106,106,107,107,107,107,109,110
107,108,108,108,108,109,110,113,110,107,110,111,109,109,110,109,108,109,111,110,109,109,108,109,110,110,110,110,110,109,108,109,109,108,108,107,106,107,108,109,110,109,109,108,107,110,111,110,110,109,108,109,111,111,109,107,108,109,109,109
109,109,110,108,107,107,107,109,110,106,107,109,109,109,108,109,112,112,109,109,109,107,108,109,108,106,106,109,110,109,108,108,109,109,109,109,108,107,109,110,110,109,109,107,106,108,110,110,108,106,107,110,112,110,107,108,112,114,110,105
108,108,110,108,107,107,107,107,109,108,107,108,109,109,108,108,110,112,109,108,110,109,110,109,106,107,109,110,109,109,110,110,109,109,108,109,109,108,110,111,107,106,109,110,108,109,111,111,110,111,111,109,109,110,109,109,111,113,112,108
110,110,107,108,110,111,110,109,108,109,108,108,108,108,107,106,108,110,110,108,111,110,106,109,109,108,109,110,109,110,111,111,108,106,107,108,109,111,111,111,107,106,110,113,112,110,111,112,110,110,112,109,108,109,108,108,108,111,115,113
