105,106,110,111,110,107,106,108,109,111,110,107,108,109,109,108,107,107,108,108,108,107,106,109,111,111,108,107,110,111,111,111,107,106,108,108,109,110,108,106,108,110,108,105,108,108,105,108,109,107,105,108,112,108,105,107,110,110,111,111
107,104,105,106,108,110,108,108,106,106,109,108,108,109,108,107,109,109,108,108,108,107,109,111,109,108,108,109,109,110,109,105,107,110,108,106,107,108,110,106,106,111,110,108,110,107,105,108,109,109,107,108,110,106,104,106,107,104,103,106
110,108,108,108,105,105,109,111,107,106,108,109,108,108,108,109,111,108,108,109,108,107,109,109,106,107,107,109,112,108,104,108,112,110,105,106,110,109,110,108,106,108,109,109,109,108,108,109,108,109,108,109,110,109,109,112,108,103,105,107
108,106,106,108,109,108,107,109,110,107,107,109,107,105,107,109,111,108,109,110,110,108,108,109,107,108,105,103,107,106,105,108,108,108,106,107,110,108,109,109,106,108,109,104,104,108,108,107,107,107,107,110,110,107,108,109,109,107,107,109
106,107,110,108,106,108,108,108,110,108,107,110,111,107,106,109,109,107,106,109,110,108,106,108,109,108,105,104,107,111,109,108,106,104,104,104,106,105,105,106,107,108,107,103,103,106,105,103,106,108,108,108,109,107,107,105,104,105,106,107
106,106,106,105,106,108,109,107,108,109,106,106,111,109,107,108,108,106,105,106,108,107,106,105,107,109,108,109,110,111,112,110,108,110,110,107,107,108,105,106,109,109,108,106,106,107,106,107,108,108,107,108,109,107,107,109,110,107,108,110
108,108,107,108,109,109,109,108,109,108,105,105,107,108,106,105,107,109,109,106,106,110,110,108,106,109,109,106,105,108,108,109,111,111,111,109,109,109,108,108,107,108,109,108,109,108,107,110,111,107,107,107,106,108,108,107,108,106,105,107
110,105,105,108,107,108,109,107,108,109,108,108,106,105,107,106,107,111,111,106,106,110,111,109,110,108,107,109,108,107,108,107,108,109,107,107,110,110,109,109,109,109,108,108,108,106,107,110,110,108,108,108,107,109,109,107,108,112,112,109
112,109,106,107,109,111,111,110,109,111,109,104,103,106,108,108,106,105,107,106,105,107,107,107,108,108,108,109,108,108,111,110,107,108,107,105,106,107,108,109,110,109,105,107,109,107,108,109,108,108,108,110,110,108,108,106,104,106,106,105
106,107,106,107,108,108,109,110,109,109,110,107,109,109,106,106,107,104,103,106,106,105,108,108,106,109,109,107,106,106,107,107,106,108,111,111,110,110,109,108,109,110,107,109,110,108,107,108,108,107,107,108,108,107,109,110,107,107,108,105
106,107,108,109,110,111,111,108,107,108,109,110,111,109,105,105,107,108,107,108,107,108,109,108,107,107,109,109,108,111,111,108,106,104,105,107,109,108,109,109,109,110,110,110,110,108,107,108,108,108,107,105,107,110,111,108,104,105,107,107
108,109,109,106,107,109,108,107,107,106,106,106,107,110,109,107,108,110,112,111,107,108,109,107,107,107,108,109,106,108,110,107,108,106,104,105,107,106,107,108,106,108,108,106,109,109,107,108,109,110,109,106,106,106,109,110,108,108,110,106
108,108,107,108,108,108,107,107,110,109,108,107,107,107,108,107,109,110,108,110,111,107,106,107,106,109,108,105,105,108,109,107,107,108,110,108,108,107,105,106,106,107,108,107,109,110,108,110,111,109,110,108,106,108,108,110,111,107,104,105
108,107,105,106,108,108,106,108,112,109,106,108,108,106,105,108,108,109,106,108,115,109,106,107,107,108,107,107,108,104,104,110,109,105,106,105,109,110,106,107,111,108,109,109,109,110,111,111,110,107,107,107,107,109,106,105,110,108,104,108
107,107,110,110,109,107,108,111,109,109,106,108,106,107,109,108,105,108,107,106,110,109,110,108,107,106,105,106,107,106,106,109,110,106,106,105,106,110,109,107,111,108,109,107,106,109,111,109,107,109,108,108,110,109,106,108,109,107,108,108
110,102,104,107,108,110,108,109,108,109,107,107,105,107,110,110,105,109,106,108,107,108,109,108,108,110,111,108,106,111,111,109,108,109,109,107,105,107,110,107,109,107,108,107,108,108,109,108,106,110,108,108,112,109,107,107,104,104,106,107
110,109,110,110,109,108,105,107,109,108,106,106,105,106,109,111,106,108,106,108,109,112,110,108,110,108,108,111,109,107,109,110,110,107,108,105,107,109,108,108,109,106,105,109,109,105,110,109,107,108,107,107,108,106,107,107,108,106,108,110
109,107,106,104,111,110,109,105,108,107,108,107,105,108,108,108,107,107,106,105,111,111,107,107,111,108,107,108,106,109,108,110,111,107,111,104,110,114,108,109,108,111,107,105,107,107,110,108,110,108,108,108,107,104,104,107,111,109,109,111
117,109,108,106,106,106,107,106,111,108,107,110,107,106,108,106,109,104,108,106,109,107,106,102,109,109,111,110,108,108,107,106,109,109,111,107,106,108,109,109,108,114,109,104,105,109,107,109,109,107,109,109,107,109,109,108,111,109,105,105
106,108,107,105,109,109,109,108,108,108,108,108,109,107,110,108,112,106,110,106,107,107,111,105,107,108,113,111,110,112,110,108,109,108,108,110,105,106,110,108,106,110,108,107,103,106,106,109,107,105,109,110,107,112,107,106,104,103,105,107
107,109,108,107,107,108,110,103,108,108,109,104,107,111,111,107,112,110,109,105,107,107,113,115,108,108,111,111,112,115,112,110,111,111,107,113,108,108,106,104,106,109,106,107,107,105,108,108,110,107,110,108,109,111,106,109,108,110,110,107
104,107,109,109,108,109,107,107,107,106,108,107,103,109,108,105,107,109,107,107,110,106,110,113,108,107,107,111,111,113,111,112,111,112,110,110,107,109,104,104,108,109,106,108,108,109,108,106,112,108,111,105,108,108,109,112,108,106,111,108
110,111,105,106,108,105,104,111,103,109,111,109,105,106,104,107,104,107,106,110,111,107,107,107,109,111,106,115,117,120,118,111,113,111,112,108,107,107,105,108,108,108,107,109,105,112,105,105,109,106,111,105,109,106,107,110,103,102,106,109
108,111,107,109,110,107,108,112,108,110,111,107,109,106,107,111,104,105,106,109,107,108,110,108,109,114,109,120,124,123,126,118,117,112,109,112,110,109,109,109,109,108,109,112,108,110,107,107,108,107,115,107,109,109,110,108,106,106,103,109
102,110,109,109,107,107,109,107,111,110,109,108,109,107,109,109,104,106,106,108,106,110,110,109,109,111,111,115,124,126,125,124,117,116,111,109,111,109,110,107,110,108,107,113,109,108,111,110,108,110,108,105,107,109,108,109,109,109,105,109
109,109,107,108,107,109,107,106,110,107,109,109,109,110,109,108,107,108,106,109,108,111,109,110,112,112,115,119,124,127,123,118,114,114,112,112,113,107,107,105,108,112,106,109,107,107,111,111,108,109,104,104,108,108,107,107,107,112,109,104
110,109,108,109,108,110,107,110,108,107,108,108,107,109,110,110,109,110,107,111,111,109,110,112,112,110,114,119,119,122,124,120,119,118,111,111,112,110,108,105,108,115,107,105,105,107,106,110,110,106,106,107,110,107,107,105,106,108,110,107
106,108,109,108,109,108,107,108,108,110,106,107,107,108,108,109,109,112,109,112,111,105,108,111,111,110,113,117,120,124,125,123,121,118,111,110,111,111,111,109,109,111,107,106,107,105,104,106,106,107,109,108,111,106,106,107,109,105,110,110
107,107,107,106,109,108,104,105,108,111,107,106,109,107,105,108,110,112,110,109,110,107,108,110,109,110,113,118,122,127,129,127,121,117,111,109,112,110,107,108,107,108,108,110,110,106,105,105,104,106,109,107,110,108,105,110,113,109,108,105
107,103,105,110,110,109,108,107,108,111,109,106,106,106,105,108,110,108,106,107,111,111,111,111,110,111,114,119,121,123,125,125,123,116,109,109,113,112,109,109,110,109,108,108,110,110,107,108,108,105,108,108,107,107,102,104,111,110,110,110
110,109,107,109,107,105,107,106,105,108,110,107,105,108,108,108,110,107,107,109,108,108,111,112,113,114,114,114,116,119,122,121,120,119,115,111,111,113,113,112,110,108,109,106,108,110,107,108,110,107,107,109,105,106,108,108,109,107,103,105
106,109,109,106,106,107,110,111,105,104,107,106,105,109,109,108,111,109,106,108,109,108,109,110,111,112,112,116,120,123,123,123,124,119,112,109,112,112,111,110,109,110,110,108,107,108,107,106,108,107,105,108,109,108,109,109,106,106,108,109
107,109,111,109,106,106,107,109,109,106,105,106,107,108,108,109,111,108,103,107,113,112,110,111,113,113,115,119,122,124,123,119,115,115,113,111,110,109,110,110,110,109,108,109,109,108,107,106,106,108,108,106,108,110,110,109,106,106,110,108
108,106,109,111,108,107,106,107,109,109,107,109,111,108,108,110,109,107,108,109,110,110,110,113,114,113,116,123,123,119,120,119,119,123,119,116,113,110,110,110,109,107,107,109,108,108,107,106,107,107,108,107,106,105,105,108,110,107,105,106
108,108,109,109,109,109,108,107,107,107,106,108,109,107,108,111,110,109,112,111,109,110,111,112,115,116,114,114,120,123,124,123,122,120,117,117,116,112,111,109,108,109,108,107,105,106,107,108,110,109,106,106,106,107,108,107,108,110,110,109
107,108,111,108,106,107,109,109,108,107,107,107,109,109,110,113,112,107,106,110,111,113,114,111,111,114,116,120,123,123,126,131,133,126,118,114,110,110,113,111,110,111,110,108,107,107,108,108,108,108,107,106,106,105,106,109,108,106,107,107
108,108,110,110,109,107,104,106,109,109,109,109,109,109,110,111,110,106,106,110,111,114,118,113,112,116,118,123,123,121,127,129,128,124,117,115,111,109,112,110,108,109,109,110,110,110,110,108,106,108,109,110,110,109,107,107,109,106,105,109
109,109,107,104,108,111,111,109,109,109,109,109,109,108,106,106,109,110,110,111,112,113,114,115,115,115,117,122,124,124,127,127,125,120,112,113,113,109,109,109,110,110,109,108,110,112,111,109,107,108,110,112,110,109,108,107,108,109,109,111
107,106,108,110,108,108,111,111,109,111,110,107,108,110,108,107,110,112,112,112,113,112,114,117,115,115,119,122,126,126,125,122,123,122,120,119,116,109,109,113,114,112,108,106,108,109,109,110,109,107,108,109,107,105,108,109,109,109,110,109
106,105,109,113,108,106,107,105,108,111,110,108,108,109,111,112,110,110,111,113,113,113,115,117,117,119,120,122,128,129,128,127,126,123,119,119,119,114,111,113,113,111,109,110,111,108,108,110,111,108,104,105,109,110,111,110,106,104,105,108
105,109,109,106,107,108,106,107,111,111,109,110,109,108,113,114,110,110,111,111,113,113,114,114,115,116,121,127,128,125,125,126,125,122,116,115,118,118,114,109,110,112,112,113,115,110,108,109,110,111,110,108,109,111,109,107,110,110,108,106
107,108,106,107,106,106,106,108,107,108,107,108,108,108,111,111,110,113,113,112,112,114,115,117,119,121,122,124,127,126,128,127,125,123,120,115,114,114,112,110,111,111,111,109,110,108,107,109,108,108,111,113,106,104,111,111,108,107,105,107
106,106,107,108,107,109,107,108,108,108,109,108,108,108,109,108,110,112,113,114,110,112,113,114,118,121,119,122,123,122,122,120,119,119,118,116,113,110,110,114,113,109,108,106,107,109,109,110,109,109,106,108,109,107,111,111,110,111,109,105
108,110,109,107,108,110,106,106,109,105,110,114,112,110,110,111,112,109,112,112,112,112,111,110,116,118,113,115,121,125,128,127,125,119,114,115,115,112,110,112,114,110,108,109,110,109,110,112,111,111,107,105,110,109,108,107,107,106,109,109
107,109,109,108,108,108,109,109,111,105,109,114,114,113,110,111,112,109,110,113,115,113,115,115,116,116,118,123,128,126,123,125,127,121,113,112,112,112,113,114,115,112,109,110,110,108,108,110,109,109,110,109,108,106,108,105,106,109,110,105
105,108,111,108,113,111,112,108,109,110,110,109,108,112,111,109,112,110,110,114,116,114,116,114,113,117,121,123,125,122,127,130,126,121,119,115,114,115,117,115,114,108,109,109,108,109,109,109,107,108,109,108,107,108,108,105,109,110,109,107
109,111,110,105,107,106,107,107,107,108,106,110,106,109,113,109,111,111,109,113,113,112,114,112,110,115,120,126,128,125,127,129,124,121,116,115,113,116,114,110,113,109,109,110,108,111,111,109,107,108,108,110,107,112,110,111,108,108,107,108
108,105,109,111,110,111,106,109,109,108,106,111,109,109,111,109,110,109,108,113,112,111,114,114,111,115,119,128,135,138,136,137,128,124,116,116,111,115,113,109,111,114,111,111,109,109,111,108,109,112,108,108,105,110,108,112,107,108,107,104
110,108,109,109,105,105,110,111,111,106,111,108,107,110,109,112,110,110,111,112,112,112,113,114,114,111,120,135,144,158,158,149,133,120,116,117,117,117,114,111,112,113,112,110,110,108,112,107,107,112,107,106,108,109,112,108,104,107,108,104
107,106,108,112,109,108,108,107,109,102,109,109,107,112,112,114,110,114,114,111,111,112,111,115,118,119,121,139,159,180,179,157,136,122,117,115,120,114,111,110,114,109,109,106,110,109,111,107,102,107,108,106,109,107,113,110,103,107,104,107
111,108,108,109,109,110,105,108,109,105,108,112,110,111,115,111,112,111,112,112,112,114,112,114,118,119,120,143,156,174,169,155,133,123,120,113,116,113,112,109,111,109,109,107,112,107,110,109,105,108,108,106,104,104,103,109,107,109,104,109
104,105,106,104,103,110,106,108,108,109,110,109,109,108,112,107,112,109,112,112,111,113,114,114,115,117,123,137,146,157,149,147,130,122,118,113,110,115,114,112,108,113,111,111,110,109,111,113,108,109,106,110,110,110,106,106,106,106,105,106
108,105,107,109,105,108,106,106,106,105,108,106,109,110,110,106,113,113,113,112,112,112,111,111,116,116,122,131,137,147,140,134,126,125,117,112,112,110,114,113,112,114,108,109,107,113,110,110,110,108,105,107,109,105,110,108,110,108,109,106
110,110,109,106,105,105,110,107,106,105,105,109,111,112,112,109,112,114,109,109,112,112,112,111,114,116,117,123,127,131,133,130,126,125,122,118,117,113,115,109,112,114,108,107,107,110,107,108,111,109,108,104,108,107,107,104,113,108,109,109
111,110,110,109,110,111,110,108,109,109,109,113,111,111,112,110,109,109,108,110,111,111,112,114,114,115,116,121,120,121,124,128,127,118,118,118,116,115,112,108,109,112,112,110,111,108,108,109,108,108,111,107,104,109,109,105,107,107,109,108
107,106,111,111,108,107,110,111,109,108,111,109,107,111,113,111,109,110,112,113,111,111,114,114,110,113,120,122,127,128,123,125,126,116,115,114,112,111,109,111,111,110,113,112,111,107,108,108,107,104,106,107,101,105,108,107,107,108,110,108
109,108,107,105,106,108,106,107,108,107,108,107,105,109,112,111,110,113,113,112,111,113,112,111,109,109,114,115,117,120,124,126,120,116,117,113,113,112,112,113,111,108,108,110,108,105,108,110,110,107,104,107,106,103,106,109,107,104,105,105
107,106,107,108,109,108,103,103,107,107,107,109,108,108,110,109,109,111,111,111,111,114,111,110,112,111,113,113,117,123,123,120,122,124,118,113,113,110,111,111,109,106,106,110,108,106,109,108,108,112,108,106,109,107,107,104,107,108,108,108
108,106,106,104,108,112,111,106,107,109,108,107,109,110,111,110,108,110,112,112,111,112,113,116,117,114,116,117,112,115,121,120,121,121,116,113,110,111,112,111,111,110,109,112,111,108,108,106,106,109,107,105,108,106,105,106,108,110,106,103
108,108,107,106,108,110,110,109,107,109,110,108,108,109,111,112,109,110,113,112,112,111,110,114,115,110,109,114,115,118,123,120,114,114,114,111,109,111,113,112,111,111,110,109,110,109,108,109,111,109,105,107,111,110,111,109,108,111,111,108
108,110,109,109,109,107,108,111,111,109,109,111,110,108,109,111,110,108,109,111,112,112,111,111,111,111,116,119,118,118,120,120,117,114,112,111,110,110,113,114,110,109,108,107,108,110,108,108,110,110,106,106,109,111,110,107,105,106,109,111
109,112,112,108,108,111,110,109,111,110,108,110,112,112,110,108,108,107,108,110,112,112,112,112,111,111,114,116,117,117,120,122,122,120,114,111,113,113,112,110,110,109,107,108,109,109,109,105,107,111,111,107,105,109,111,110,108,106,107,107
107,106,108,109,107,109,111,110,111,112,110,110,111,112,113,110,109,111,113,112,111,112,113,113,113,113,113,114,114,116,120,118,117,120,118,111,110,111,108,108,110,111,109,110,110,109,110,108,107,108,109,106,106,108,109,109,108,106,107,109
108,108,109,111,109,107,109,108,106,107,109,110,109,109,110,110,110,113,115,113,110,112,115,113,112,114,114,116,120,119,117,118,117,114,112,108,107,110,110,110,109,109,109,109,109,110,110,108,106,106,107,107,108,109,109,109,107,105,108,112
108,110,109,108,112,110,106,108,107,105,107,109,109,108,107,107,109,111,112,112,111,110,110,112,113,113,115,114,115,118,119,121,117,110,108,109,110,111,109,110,110,107,108,107,106,109,109,107,107,107,107,107,109,110,108,110,110,107,106,107
102,108,111,108,108,107,105,108,109,109,110,110,110,109,107,108,109,108,109,111,111,107,108,114,113,112,115,114,115,115,115,116,118,115,113,112,112,112,108,109,112,110,108,108,106,107,108,108,110,108,104,105,108,109,106,103,107,110,108,108
109,110,110,108,105,108,109,107,105,108,111,111,110,109,109,113,111,108,110,111,108,107,109,112,111,109,111,114,118,116,111,112,115,111,109,110,110,112,111,109,110,109,110,111,109,108,106,107,110,109,105,105,108,109,107,107,110,110,106,106
109,111,111,110,109,109,111,110,107,108,111,110,109,109,109,111,111,110,111,111,111,111,109,108,111,112,110,111,110,115,122,120,114,112,109,108,112,112,110,109,107,107,111,111,110,110,109,108,110,111,110,109,108,107,110,110,108,107,103,103
103,104,105,108,109,107,109,112,110,111,112,110,109,109,108,108,108,109,111,111,110,109,109,108,106,109,113,116,113,111,115,117,112,113,115,112,112,112,110,110,109,109,111,109,106,108,108,107,108,110,111,112,111,110,107,106,107,107,110,111
109,111,106,105,106,106,109,110,108,110,110,109,109,109,110,107,106,110,112,109,107,109,110,113,113,112,116,116,116,114,111,113,114,111,112,113,109,109,108,109,111,108,108,108,107,108,107,106,108,110,107,106,106,109,107,105,107,105,104,107
108,108,106,108,108,107,108,109,106,108,110,107,106,110,110,109,108,110,109,107,108,115,114,110,108,108,110,109,113,118,117,116,112,108,107,110,110,108,109,108,109,108,109,109,110,112,111,108,108,108,106,107,105,107,109,108,109,108,108,108
108,108,104,109,110,106,106,113,110,107,110,111,106,108,109,109,111,109,109,110,109,112,109,109,110,110,112,115,115,116,118,115,112,111,110,108,110,110,109,108,108,107,108,110,111,112,111,109,107,105,108,107,108,107,107,105,105,109,107,105
107,109,108,110,109,108,108,110,110,108,106,110,105,108,111,105,108,108,110,111,107,109,106,107,109,107,111,113,110,111,115,114,114,109,108,108,109,111,106,106,109,107,104,108,108,107,106,109,110,108,107,103,106,106,105,108,108,105,105,106
110,109,110,109,111,110,108,106,108,111,107,108,107,107,111,106,106,108,109,110,109,111,110,107,111,111,111,114,110,112,115,112,113,110,109,112,108,108,107,105,109,109,106,109,107,105,104,107,110,109,107,105,107,109,107,106,107,106,105,107
104,106,113,109,109,111,108,108,106,110,109,107,112,106,109,108,107,108,108,110,107,111,108,107,111,111,107,110,112,112,112,113,113,112,111,113,107,108,112,110,108,111,109,109,109,107,108,107,107,106,105,106,108,110,108,106,105,110,108,109
108,105,108,106,105,106,108,107,107,108,111,104,110,108,108,108,106,104,106,110,108,108,108,109,109,112,110,109,110,114,112,108,109,109,110,110,107,112,112,109,108,110,110,107,109,108,109,109,106,107,108,108,108,110,106,109,107,107,106,106
107,105,110,108,110,108,110,108,108,109,111,105,107,108,107,107,104,103,108,109,110,108,111,107,105,111,113,115,116,113,117,111,111,111,114,109,107,112,107,105,107,108,110,107,108,107,107,107,106,106,108,107,104,109,106,107,109,110,110,109
108,105,105,104,109,103,107,109,108,107,108,108,107,107,106,108,108,107,109,107,110,109,111,106,104,107,109,114,112,106,110,110,107,107,110,108,109,110,106,109,107,105,105,108,106,108,107,106,110,111,108,107,104,110,108,109,110,108,108,107
110,111,109,106,107,107,107,108,106,110,110,108,109,108,108,106,109,108,109,106,107,110,107,108,111,108,109,113,111,109,105,108,111,106,107,105,111,107,107,111,107,105,105,111,104,107,107,107,108,112,108,108,108,112,111,108,113,105,107,107
107,108,109,109,109,108,108,111,108,112,111,108,110,108,109,105,106,108,110,108,106,108,107,109,109,109,110,109,112,110,108,106,111,111,111,109,109,107,105,108,107,109,108,111,107,109,106,108,104,108,106,107,105,107,113,102,103,107,111,107
104,106,111,111,112,108,108,111,110,110,108,110,110,109,108,108,105,107,108,107,107,108,108,110,107,110,112,109,110,111,107,107,111,108,109,112,108,106,107,108,108,109,106,108,108,110,107,108,105,107,107,109,105,106,110,109,109,107,109,107
110,109,109,106,108,110,106,106,106,109,106,110,110,112,109,109,106,108,106,104,108,107,105,108,106,107,108,109,109,107,106,109,110,110,108,107,108,108,112,109,108,110,110,108,107,108,110,109,107,106,106,108,104,110,107,111,109,107,108,109
107,106,108,107,107,110,110,107,105,108,108,109,107,110,109,107,106,112,112,104,106,110,108,108,109,106,104,108,109,109,106,106,107,111,110,107,107,109,111,107,106,110,112,106,107,105,109,112,110,108,105,110,105,110,106,106,106,113,104,105
111,107,106,109,111,108,107,113,109,108,109,108,106,108,107,107,107,111,114,107,104,110,110,106,105,107,106,108,108,110,106,111,106,107,108,109,106,108,110,109,107,106,106,104,106,106,107,110,109,108,109,112,106,107,107,108,105,106,103,105
107,108,112,108,108,110,110,112,110,109,108,109,107,109,108,108,109,108,110,111,106,108,109,108,107,109,107,109,110,107,106,109,107,105,105,108,106,110,111,112,110,108,106,106,103,106,107,106,109,109,108,109,108,108,107,108,107,108,110,109
108,105,110,110,108,107,107,107,111,112,107,108,108,108,109,108,109,107,107,109,106,106,107,108,107,110,108,107,107,105,109,110,109,108,108,109,106,109,108,109,109,111,112,108,106,106,107,108,108,111,106,106,111,108,106,109,112,109,109,110
109,105,103,102,107,108,106,108,112,112,106,108,110,107,108,109,110,110,106,105,107,107,108,109,105,107,108,104,106,106,107,108,110,109,106,109,110,107,106,107,106,108,110,108,111,107,106,108,105,108,107,107,108,108,107,107,109,104,105,109
111,110,107,108,107,107,109,110,108,109,106,107,110,107,107,108,110,110,107,107,107,106,107,110,110,107,110,110,108,107,109,108,106,108,106,108,111,107,104,107,107,103,104,106,110,108,104,107,107,106,108,108,108,109,106,103,106,107,105,109
108,108,107,108,107,105,109,106,104,108,107,105,108,108,107,107,108,108,107,109,108,107,109,108,108,108,109,110,110,110,109,109,109,110,106,104,108,108,108,110,109,106,106,106,108,108,106,106,108,107,107,108,106,106,107,107,109,112,109,107
111,110,106,107,109,108,108,107,107,108,108,107,110,109,106,107,109,109,108,109,110,109,108,107,107,112,111,105,104,108,108,105,105,108,110,108,105,107,110,109,110,111,108,106,107,109,108,107,107,108,108,107,106,104,105,107,107,106,109,111
106,111,112,110,108,105,106,108,108,107,108,108,108,109,106,106,110,109,106,107,109,108,107,107,108,111,111,108,109,112,110,106,104,106,109,108,104,104,107,107,109,109,107,106,106,110,110,107,107,111,111,106,107,107,107,110,108,104,106,108
108,107,107,106,106,104,105,107,108,107,108,108,106,107,107,106,108,107,104,104,106,108,109,108,108,108,106,105,109,110,108,108,109,107,108,109,107,105,105,106,107,107,110,107,105,109,110,108,107,108,109,107,108,107,104,108,109,105,107,109
107,108,109,108,109,107,107,109,109,108,108,109,108,106,108,108,107,105,106,106,106,107,109,109,108,108,109,108,107,106,105,107,108,108,109,109,110,109,108,107,105,108,110,109,108,108,109,111,110,108,106,104,108,108,106,109,107,104,107,107
109,107,107,106,107,109,108,108,108,108,109,107,106,108,108,108,110,107,108,110,110,109,110,109,105,103,107,109,108,109,110,109,109,109,109,108,105,107,110,109,106,107,108,108,110,109,109,109,107,107,106,105,106,107,105,108,111,110,108,107
107,110,109,106,107,109,110,109,107,106,108,106,104,107,108,107,109,108,107,111,112,110,109,109,111,110,109,108,105,105,109,110,109,107,109,110,106,106,109,109,107,106,107,108,108,108,109,108,106,106,108,108,106,107,106,106,108,109,108,108
104,106,109,108,107,106,107,109,109,107,107,109,106,105,109,109,107,107,107,109,111,110,109,106,109,112,109,107,108,111,109,104,106,108,106,106,107,107,107,107,108,106,107,111,108,106,108,109,110,109,109,108,109,109,106,106,109,109,107,107
110,110,111,109,106,105,105,107,109,108,106,108,108,106,107,108,108,108,107,108,109,107,107,105,105,109,108,107,108,109,109,111,108,104,103,106,106,106,107,107,107,106,108,112,110,107,107,108,109,109,106,107,108,108,110,108,104,105,106,106
109,109,109,108,109,111,110,108,108,106,107,108,108,107,104,105,108,110,107,107,107,104,107,109,106,106,106,111,112,107,103,105,106,104,106,107,107,108,110,110,106,106,109,109,110,111,107,105,109,112,109,109,108,109,110,108,105,106,108,109
105,110,109,108,106,106,106,107,108,106,108,108,106,108,106,105,108,110,107,105,107,107,110,111,109,109,108,110,111,107,107,107,105,107,109,107,107,107,108,110,109,107,107,107,106,107,106,106,111,111,108,108,108,108,108,110,112,109,105,109
103,105,108,108,106,109,110,109,108,108,108,106,104,106,108,109,108,109,109,106,108,108,107,105,108,110,107,107,109,108,108,110,107,108,109,108,107,104,105,107,111,111,108,108,105,104,107,108,109,106,105,109,110,111,111,110,108,108,109,108
