106,106,108,112,115,112,110,110,106,108,110,110,111,110,111,111,108,106,106,107,108,110,109,110,110,107,106,107,108,108,107,107,106,107,108,108,109,111,107,106,106,108,108,108,108,108,107,111,113,111,109,110,110,107,106,107,111,111,108,108
108,107,108,110,112,111,108,107,108,110,109,108,110,111,111,110,107,105,107,110,111,109,108,108,108,105,107,111,110,107,105,109,111,109,111,111,109,108,107,108,110,109,106,107,111,108,108,111,110,109,108,107,107,107,108,109,111,111,110,109
108,107,107,108,109,112,110,105,107,110,107,106,107,109,110,107,106,108,110,110,110,109,108,108,110,109,108,110,110,109,107,106,109,108,106,106,106,106,106,107,109,110,107,108,111,108,106,108,108,109,109,107,109,110,109,108,108,109,110,109
106,107,108,107,108,109,106,102,105,110,108,107,106,107,111,109,107,108,109,108,109,107,107,109,111,110,108,109,108,109,112,112,110,108,107,107,109,111,111,109,109,109,107,107,109,109,107,106,108,110,109,106,109,110,108,108,107,109,110,109
104,107,110,110,108,108,109,110,111,109,106,107,108,107,110,109,106,107,106,108,109,107,108,112,112,111,111,109,107,107,108,107,109,109,106,106,109,110,110,110,109,108,108,108,109,112,110,108,109,109,107,106,107,110,110,109,108,110,109,108
111,113,113,110,109,113,116,110,106,107,107,109,109,108,108,107,107,108,107,108,110,109,109,111,111,109,108,107,107,109,110,108,106,107,107,108,108,105,105,108,108,108,109,109,108,110,110,109,110,109,108,107,108,111,111,111,109,107,108,110
111,109,108,109,110,110,110,107,107,111,112,110,109,110,110,108,108,110,108,109,111,109,107,109,110,109,109,108,110,113,111,106,106,107,106,108,111,109,106,107,109,109,110,109,107,107,109,109,109,111,111,111,110,111,112,111,110,110,109,109
109,109,107,108,111,108,106,108,108,108,107,108,111,110,109,109,110,111,110,109,110,109,109,109,109,110,110,108,107,107,108,108,109,109,108,109,108,108,109,109,108,108,108,108,109,108,108,109,111,112,111,111,109,108,107,108,109,109,111,112
108,109,108,110,110,110,109,108,108,107,108,108,107,106,107,110,111,109,108,108,108,109,109,109,109,109,110,110,107,106,107,109,110,109,109,111,109,107,110,110,108,108,108,107,109,109,107,110,112,110,107,106,107,109,109,109,109,108,108,111
111,115,113,110,109,110,112,108,107,111,111,110,107,107,109,110,110,108,106,107,109,109,109,108,107,108,107,106,109,111,111,111,109,108,110,110,108,108,108,108,109,109,108,107,107,109,108,110,111,108,108,108,108,112,112,109,108,107,107,107
110,109,108,108,110,109,110,109,106,108,110,110,111,110,109,110,112,111,109,109,110,110,109,107,106,106,107,107,107,109,110,108,106,106,107,107,107,108,108,109,109,107,106,108,109,109,110,111,110,109,111,110,110,110,107,107,108,109,110,109
106,107,109,109,111,109,109,111,107,110,113,109,108,108,108,108,110,110,107,109,109,108,108,108,107,108,108,108,108,109,109,109,112,111,109,110,109,110,111,111,109,108,108,110,110,107,108,109,108,109,109,110,111,109,106,108,107,107,108,109
103,106,111,111,107,105,108,107,107,112,111,107,108,107,106,105,106,109,107,106,105,105,109,109,105,106,109,108,108,109,108,108,108,109,111,110,108,109,110,109,108,110,111,110,109,106,107,107,106,107,106,109,110,108,107,109,108,107,112,112
107,109,106,110,113,112,108,106,110,112,111,108,109,107,107,107,109,110,110,107,105,106,108,108,107,106,108,109,111,113,110,112,111,108,109,110,108,108,109,110,108,109,110,109,109,108,108,108,108,108,106,107,107,107,109,110,112,110,108,109
110,112,104,108,108,104,107,109,109,107,109,107,107,110,109,110,109,107,110,109,108,107,107,107,111,110,109,109,111,113,107,107,109,105,108,112,110,109,109,110,109,111,108,107,110,109,106,108,111,111,109,107,107,107,109,109,110,108,110,114
108,107,103,107,110,109,108,110,108,106,109,107,109,110,110,108,106,105,109,110,107,109,110,106,110,108,109,110,110,109,106,109,107,108,106,107,109,110,110,108,107,109,107,109,111,109,107,107,110,110,112,110,109,108,107,108,109,109,110,111
107,111,109,109,111,111,106,106,108,110,109,109,110,107,110,107,108,107,110,109,106,110,111,104,110,106,106,109,110,109,105,107,107,110,110,108,108,108,108,107,107,108,109,113,109,107,107,108,108,108,111,110,110,112,108,110,112,111,107,105
105,111,107,105,110,108,107,107,109,106,107,111,110,106,110,111,111,109,112,106,108,110,111,107,111,104,110,108,110,107,109,111,110,113,115,110,107,110,108,108,108,109,110,111,105,105,108,109,109,108,108,107,109,112,107,107,107,109,110,111
110,114,108,106,109,108,110,111,111,107,111,109,112,108,108,113,111,109,108,103,110,112,110,109,113,104,110,109,109,109,110,111,111,110,111,109,107,112,110,109,106,110,110,109,105,108,110,109,110,110,106,105,109,108,106,108,109,109,112,111
112,105,112,112,110,109,110,108,105,113,110,107,113,109,105,111,111,104,106,106,112,109,107,110,114,104,111,107,106,107,109,107,109,108,112,113,108,108,109,107,106,112,110,109,106,110,109,108,109,111,108,109,109,108,110,107,110,108,110,107
107,103,113,111,108,107,108,108,110,114,106,110,110,109,106,111,111,104,109,110,110,105,109,111,111,106,111,102,108,108,108,106,107,103,107,112,106,108,114,106,108,113,110,108,108,111,107,110,109,112,111,110,107,108,113,109,110,106,109,109
106,107,113,110,111,108,108,106,111,109,108,110,109,109,110,110,111,107,111,109,108,106,111,110,103,109,112,108,113,110,109,107,110,109,113,114,107,106,110,103,110,111,107,108,110,111,110,111,109,112,108,105,105,112,108,107,109,107,113,110
109,110,107,106,109,106,112,109,109,108,111,109,110,107,111,106,109,108,109,108,106,108,111,110,105,110,107,112,109,110,110,107,106,108,109,106,110,109,108,106,108,110,107,109,109,110,110,109,108,111,106,106,107,114,106,106,107,106,106,104
111,112,111,110,111,108,109,109,109,109,109,108,107,107,110,104,108,109,109,108,106,112,114,111,108,110,107,107,106,106,109,109,104,112,112,107,109,112,110,108,107,112,108,110,110,111,108,107,110,110,107,112,109,111,109,109,110,109,109,113
111,106,107,107,108,110,111,111,112,110,109,107,106,109,110,106,108,110,111,108,111,113,111,107,104,108,109,110,109,107,108,109,107,116,113,109,109,110,109,108,108,109,108,110,109,109,109,106,109,107,107,111,109,110,110,108,106,107,108,110
113,110,109,109,110,110,111,110,108,109,110,109,108,109,110,110,110,109,111,109,113,109,107,108,105,107,112,112,111,109,108,108,109,109,110,110,109,108,110,109,109,109,109,108,109,108,110,107,107,107,108,109,110,109,109,112,109,108,108,107
110,110,109,110,110,110,109,108,108,110,110,109,110,112,109,108,111,108,107,108,110,106,107,110,110,110,112,111,109,109,110,108,108,113,114,113,111,109,110,110,109,112,111,106,109,110,109,108,108,110,108,109,110,107,109,110,106,111,111,109
110,109,109,109,104,103,107,108,109,110,107,107,111,113,108,107,111,109,108,108,110,108,108,111,112,112,110,110,111,110,109,115,114,111,112,112,111,111,110,110,109,110,110,106,108,112,109,108,107,108,107,109,109,108,111,107,109,113,110,109
109,108,108,109,109,109,110,110,108,106,106,106,107,108,108,110,110,109,109,112,113,109,107,107,108,111,108,108,113,113,107,110,113,112,111,110,108,110,110,110,107,107,108,107,108,109,110,108,107,109,110,107,106,108,112,109,109,110,111,110
110,108,106,105,106,109,109,107,107,107,107,106,106,108,110,109,107,107,108,109,111,110,110,110,109,110,108,109,115,112,108,111,113,114,112,109,109,110,110,110,109,108,107,107,108,107,109,108,107,111,112,106,106,110,110,108,110,111,109,109
109,105,107,110,109,106,105,108,111,109,108,109,110,112,109,106,108,108,106,106,108,111,113,114,111,110,109,109,111,111,114,114,112,113,113,110,109,108,109,109,110,110,109,108,108,109,110,107,106,108,109,108,108,110,110,110,112,110,107,111
111,108,105,107,109,110,109,110,110,107,107,109,111,109,107,108,112,111,108,108,109,109,109,111,109,108,111,113,114,115,113,112,112,114,113,110,107,107,108,108,108,109,110,110,109,111,111,107,106,106,109,111,106,107,109,109,109,106,107,110
107,107,109,111,110,108,109,109,108,107,107,109,109,107,109,112,112,111,109,110,109,108,108,109,106,104,108,108,107,111,114,117,118,116,114,112,109,110,110,109,108,108,109,109,110,111,110,109,109,109,112,114,109,108,110,109,110,111,111,110
109,107,107,109,110,109,107,107,107,106,107,112,111,109,112,111,110,111,110,108,108,110,110,110,109,108,110,113,115,116,116,117,119,116,112,110,111,112,111,110,110,109,110,110,111,110,110,112,110,108,109,111,109,108,109,106,105,105,105,107
109,108,109,110,109,110,110,110,109,108,110,113,111,110,110,109,109,111,109,108,110,111,110,111,112,111,110,112,116,118,118,120,120,117,114,112,112,113,110,109,111,111,110,109,110,110,108,109,109,107,109,109,105,107,112,111,109,109,108,106
110,108,109,111,112,109,106,105,108,111,111,110,108,108,110,111,109,108,108,109,111,109,108,109,108,109,111,113,116,119,120,121,116,113,115,116,114,113,109,108,112,111,109,109,110,109,107,108,109,108,109,111,110,110,111,110,108,109,111,110
106,110,110,107,108,108,106,107,109,110,111,109,108,109,112,111,107,107,110,109,109,109,108,109,111,112,113,114,116,116,118,122,122,118,116,115,112,111,112,111,111,110,108,110,109,108,109,109,108,108,109,111,111,109,108,108,107,106,107,108
109,112,111,107,107,108,108,108,107,108,109,109,110,110,109,106,106,109,112,110,109,110,109,110,114,114,113,112,115,121,124,121,119,118,119,114,109,111,115,112,108,107,108,110,109,109,111,112,110,108,110,111,110,109,108,109,111,110,107,109
110,109,106,105,107,110,109,109,109,110,109,108,110,108,104,106,109,110,110,109,110,110,108,108,109,110,113,114,114,117,120,122,123,123,120,113,108,111,116,114,108,106,109,112,111,109,109,111,111,109,110,111,108,107,110,110,106,104,106,105
109,108,105,104,109,111,110,109,110,112,108,108,109,107,107,110,110,109,107,107,111,111,111,111,109,110,115,119,121,122,125,127,128,122,116,113,113,112,113,111,109,108,111,111,109,108,108,108,108,110,114,112,106,106,111,112,109,108,109,107
108,109,109,109,110,108,106,107,109,107,105,108,110,109,111,110,108,110,109,110,112,111,112,113,113,113,114,117,122,122,124,126,124,120,116,113,114,113,111,110,109,109,110,109,108,110,109,106,106,109,110,107,106,108,110,109,109,108,107,108
104,106,112,109,108,107,106,108,110,107,109,112,109,110,110,110,110,111,111,112,110,109,112,112,113,114,114,119,126,129,127,126,125,122,120,115,113,113,113,114,110,108,111,111,110,111,109,107,109,109,105,104,108,111,108,109,112,109,107,107
107,109,109,110,108,107,107,107,108,107,113,112,109,110,109,110,112,110,107,109,108,111,116,114,114,115,116,119,123,125,127,128,126,124,123,115,111,114,114,113,109,109,112,111,110,109,109,110,110,109,109,110,111,111,110,111,112,109,110,110
108,109,106,109,107,104,107,108,108,106,110,108,108,107,108,109,111,109,105,107,107,113,113,111,115,116,117,120,124,125,130,131,128,126,122,113,110,117,117,108,107,111,111,110,107,109,110,109,109,110,111,111,111,109,108,110,112,109,110,111
111,114,107,110,110,108,109,107,110,107,108,108,108,105,107,108,111,110,108,109,108,112,111,113,116,118,121,127,131,131,131,134,128,123,124,120,115,117,117,110,110,113,112,110,110,112,110,106,110,112,108,107,109,107,108,112,108,107,108,110
110,108,108,109,107,110,107,110,111,108,109,110,108,106,105,109,111,108,112,110,109,111,113,114,117,121,126,128,126,134,136,136,133,131,129,122,117,116,116,113,112,111,111,111,112,112,110,108,110,111,107,108,111,108,107,106,104,107,106,102
107,111,113,110,108,110,110,112,109,109,107,109,108,107,106,112,109,107,111,109,110,110,113,108,114,120,124,131,139,148,141,137,137,134,123,119,120,116,117,111,112,110,109,110,110,109,111,112,110,109,108,109,109,107,108,109,114,113,115,113
109,112,110,108,107,109,112,109,105,109,107,107,109,108,110,111,109,110,109,108,114,111,115,110,122,126,123,136,139,147,145,143,143,136,122,123,122,115,117,110,115,111,109,109,110,110,110,110,109,110,110,110,107,109,108,106,109,108,108,109
111,113,109,106,108,107,107,108,104,109,108,107,110,110,111,109,113,109,107,110,113,113,117,116,127,125,125,146,154,159,159,156,159,139,124,123,120,116,116,113,115,109,108,108,113,109,107,106,107,107,111,111,106,107,107,106,108,105,107,114
110,112,103,108,112,109,109,109,108,109,107,108,109,111,109,108,113,104,109,109,109,118,115,116,122,123,127,146,179,199,198,179,166,137,123,118,115,116,115,114,111,108,108,108,110,106,108,107,111,107,110,111,108,108,108,107,110,105,104,108
109,109,104,113,114,110,110,110,110,108,107,108,107,110,109,110,111,105,114,110,110,119,113,113,115,121,123,148,189,222,210,196,177,142,125,120,119,118,115,113,112,111,111,109,107,109,111,108,113,109,110,110,108,112,112,107,112,106,110,110
111,108,105,111,108,109,112,113,111,108,107,108,107,109,110,110,111,108,111,111,112,115,113,114,112,118,121,142,173,201,193,198,180,145,124,120,119,117,115,112,112,111,110,109,108,113,111,109,111,106,110,109,107,109,110,110,112,106,108,108
113,109,111,111,106,111,113,111,109,108,110,108,107,110,109,106,109,110,108,111,112,113,115,116,113,117,120,132,146,163,160,167,162,139,127,117,114,113,115,115,110,111,110,110,111,110,109,110,109,107,110,110,108,105,112,108,110,108,111,111
109,111,111,111,110,112,112,109,106,109,111,109,107,111,111,107,108,113,111,110,111,110,113,116,115,118,123,130,134,139,137,142,143,134,124,115,114,113,116,117,112,114,112,110,110,105,107,110,107,111,109,108,108,105,114,111,111,107,113,112
107,108,107,109,110,109,110,109,110,111,110,108,107,111,111,108,107,111,113,107,108,113,112,112,112,116,120,122,132,127,130,134,131,127,123,118,118,115,113,114,110,113,108,110,109,106,107,111,108,111,108,113,112,109,108,107,109,107,105,107
112,110,108,110,110,107,106,108,113,109,107,109,107,108,109,107,108,110,111,108,109,111,110,111,114,116,118,120,127,124,123,131,129,126,122,118,116,113,110,112,110,112,111,111,109,109,109,111,108,109,109,113,106,105,103,111,112,109,107,107
114,112,108,106,107,107,108,107,109,109,107,110,110,108,107,107,110,112,108,108,110,110,111,110,112,113,116,121,125,126,128,131,127,124,120,117,114,110,109,113,112,114,116,112,110,109,111,111,108,109,109,109,105,109,110,111,112,110,109,110
110,107,104,105,108,108,107,108,109,111,107,108,113,111,107,109,113,112,109,110,110,110,110,110,112,111,115,122,121,121,125,128,127,125,120,116,114,112,112,114,112,113,115,109,108,109,110,111,108,108,109,110,106,106,110,110,109,108,112,110
109,110,107,107,108,107,108,109,109,108,106,106,109,110,109,110,111,111,111,111,110,112,113,113,110,110,117,122,119,120,121,122,125,125,121,116,113,114,114,113,111,113,112,107,107,110,108,107,106,106,109,112,110,109,109,108,109,110,109,108
107,106,109,110,107,109,112,112,109,110,110,108,107,108,110,110,108,108,109,110,112,115,113,113,114,112,112,117,121,123,127,127,125,122,117,113,113,113,113,111,110,112,111,107,109,112,108,106,107,108,109,109,106,109,111,108,107,108,108,108
110,107,105,107,109,110,111,109,109,113,113,110,109,109,110,110,109,108,108,110,111,108,108,111,112,111,110,114,120,124,126,126,125,121,116,114,115,112,111,112,109,109,108,108,111,111,108,108,107,109,111,110,106,107,109,106,108,112,108,107
109,114,113,109,110,112,111,108,108,111,110,106,109,111,111,112,111,108,107,111,111,108,108,108,109,110,110,111,115,117,117,120,123,123,120,117,116,111,110,111,110,109,109,110,112,111,109,110,110,107,109,113,111,107,109,110,109,112,112,108
108,108,107,107,110,111,110,110,111,110,107,105,109,111,109,110,110,107,108,112,112,112,111,109,110,112,113,112,114,116,120,124,125,124,119,113,112,113,111,109,110,112,110,109,109,110,110,110,108,106,108,111,110,109,112,114,111,111,111,108
111,113,109,106,109,110,109,110,109,108,107,109,111,109,107,108,107,108,112,112,109,108,109,108,110,112,110,113,116,118,122,124,121,122,120,113,112,115,114,111,110,111,108,106,108,109,109,108,105,107,111,111,108,108,108,109,109,107,107,111
109,111,110,108,108,108,109,110,107,105,106,108,111,108,108,110,108,108,110,110,108,109,112,112,108,108,111,112,114,117,119,120,120,121,119,116,115,114,113,112,111,109,108,109,110,108,109,110,108,107,109,108,107,108,109,110,111,110,107,108
106,107,108,107,107,109,111,112,109,106,107,110,111,109,110,112,110,108,107,108,108,108,112,113,108,107,111,111,111,114,119,124,123,119,116,115,113,111,110,110,110,109,109,111,109,107,110,111,108,109,108,104,103,106,109,108,108,112,112,109
111,113,110,107,109,110,110,111,110,108,109,110,110,110,111,111,110,108,107,107,106,106,109,111,110,109,111,113,114,114,115,118,120,120,117,112,112,111,109,109,111,111,110,110,109,109,111,109,109,110,108,106,108,109,111,109,107,112,113,107
111,107,105,108,111,108,108,109,109,108,105,106,109,110,111,110,109,110,110,109,110,110,108,110,111,110,111,113,112,111,115,119,119,119,120,118,117,112,108,109,111,111,110,111,112,112,109,109,109,109,108,108,109,108,109,112,109,107,106,103
112,108,108,111,111,109,108,109,109,109,107,107,107,108,110,109,110,108,107,111,113,109,108,108,108,111,112,111,111,113,116,118,121,124,122,119,117,113,110,110,111,110,110,113,114,110,110,110,108,109,111,110,108,108,108,110,110,110,108,107
106,103,106,108,110,110,109,110,108,108,110,109,108,110,111,109,108,107,108,111,109,106,108,109,108,110,111,108,107,110,112,115,119,120,120,118,114,113,114,111,111,111,109,110,111,110,110,110,108,110,110,108,108,109,108,107,107,108,108,108
107,108,109,106,107,108,108,108,108,108,110,110,111,112,112,111,109,110,112,109,105,109,111,112,112,109,106,106,109,108,111,114,114,113,116,116,112,111,113,111,111,111,109,108,108,109,110,110,108,109,109,107,110,110,108,108,106,105,109,111
109,110,111,110,108,109,110,108,109,109,110,110,109,110,111,110,109,109,109,107,108,112,108,107,110,108,107,109,114,111,113,114,112,109,111,115,112,109,112,111,111,111,109,110,109,108,111,111,110,107,109,109,110,114,111,108,108,109,110,110
106,106,111,113,107,107,111,109,110,108,109,110,107,107,109,107,110,110,107,107,113,112,108,109,109,107,108,110,109,107,111,114,110,108,111,113,110,110,113,112,110,109,108,110,111,109,109,111,111,109,110,110,108,109,109,106,108,110,108,109
106,105,110,111,106,108,113,110,108,108,108,111,109,109,110,110,112,109,107,107,111,111,109,109,111,113,112,111,110,111,111,110,107,108,110,111,110,112,112,112,109,107,107,107,109,109,111,111,109,109,112,114,109,109,110,106,108,111,109,107
113,110,108,110,108,108,113,107,107,108,108,109,110,111,112,110,110,106,107,108,111,110,108,106,109,111,105,107,110,107,108,111,109,108,109,113,111,112,111,110,110,106,108,108,110,110,112,109,106,107,110,111,110,108,108,107,107,108,108,110
110,106,107,109,110,108,112,106,106,108,108,111,108,113,111,106,110,107,107,110,109,109,111,110,111,112,106,109,106,108,109,112,109,109,111,114,111,108,110,107,109,107,109,112,113,109,108,106,104,106,110,110,109,109,106,107,113,110,112,111
109,107,106,105,108,108,109,109,106,109,112,111,105,112,108,106,114,106,107,109,108,109,109,108,107,107,113,111,107,108,106,111,106,108,109,110,109,108,109,107,106,109,110,111,112,109,107,108,106,108,110,109,105,109,109,108,114,108,109,110
109,110,108,107,106,108,108,109,106,112,112,107,107,111,107,108,115,106,108,110,106,108,107,109,110,111,112,105,107,113,109,112,106,108,111,111,108,107,111,112,104,110,108,108,109,112,111,110,107,109,107,106,106,107,107,108,109,105,106,111
110,114,110,108,109,113,108,107,109,110,110,110,112,112,110,110,112,109,109,109,107,110,107,110,106,108,108,106,110,113,107,112,109,109,110,107,108,107,114,113,106,112,108,110,109,112,110,110,108,111,106,107,112,114,110,111,109,108,109,110
105,109,107,109,110,115,106,109,110,105,108,110,113,111,110,109,108,110,107,109,113,109,108,111,109,111,107,108,111,107,104,110,110,110,108,105,110,108,112,108,110,114,107,110,109,111,106,107,109,110,107,109,110,112,106,113,109,108,108,109
107,111,106,110,110,107,106,109,110,107,105,107,111,107,107,108,109,108,107,111,115,109,109,112,110,110,108,111,109,108,106,109,109,107,108,110,110,109,107,108,111,112,105,109,108,111,106,108,110,109,108,109,109,110,110,108,106,107,109,108
110,110,107,108,110,106,109,110,112,108,105,109,109,106,110,109,108,108,109,112,108,109,108,108,107,108,109,109,108,109,109,113,107,108,110,108,107,110,108,111,111,111,103,108,109,109,108,114,109,110,107,107,110,107,109,106,112,105,109,109
108,107,108,109,110,108,110,110,111,109,108,110,109,108,111,109,107,110,111,112,109,109,108,111,111,110,110,110,109,110,108,110,105,109,110,106,108,111,109,111,109,110,103,109,111,107,110,113,105,107,106,106,110,109,110,107,111,107,113,109
108,107,109,111,109,107,109,109,109,109,108,108,109,109,108,107,107,109,113,112,109,107,109,110,107,107,109,113,112,108,108,108,106,110,111,108,109,111,109,108,108,109,105,110,111,109,112,107,106,110,106,111,110,107,109,110,110,108,113,109
107,109,110,108,108,108,108,111,108,106,107,108,111,110,107,108,108,107,111,111,106,110,114,110,109,110,109,111,109,108,111,113,109,111,111,110,109,111,109,108,110,108,106,109,109,109,110,107,110,111,104,111,111,107,110,109,105,106,111,110
109,109,110,108,107,108,109,109,108,108,108,110,112,108,107,108,108,107,109,111,108,111,111,108,107,107,110,108,106,106,108,112,109,104,110,111,109,108,106,107,110,109,109,110,109,107,108,110,108,107,107,112,109,108,110,109,109,109,111,108
106,106,106,104,107,108,109,107,109,111,109,110,110,106,107,109,110,108,108,110,109,109,106,106,109,107,110,110,111,112,110,109,105,102,109,109,107,108,106,108,110,109,111,112,109,108,110,109,106,108,108,107,105,108,110,110,109,111,110,106
105,106,107,107,109,111,111,111,111,111,108,108,109,109,110,111,110,109,108,108,107,109,106,106,111,111,109,109,111,109,108,109,108,106,109,108,108,109,107,111,111,107,108,110,109,111,112,111,110,108,106,110,111,110,112,109,106,110,110,110
107,108,109,111,111,110,109,109,109,109,108,108,109,110,110,110,109,107,111,110,107,108,105,108,115,112,106,105,107,108,110,111,111,110,109,107,106,106,108,111,109,107,109,109,109,111,110,111,110,106,104,109,110,109,110,108,107,110,108,107
109,107,107,108,108,106,107,107,107,109,110,109,109,108,107,109,110,110,110,109,108,110,109,110,111,110,110,107,107,111,112,108,109,111,110,108,107,106,108,109,109,110,111,109,109,108,108,108,106,107,108,108,107,107,110,111,110,109,106,106
112,110,110,109,107,109,112,110,107,108,109,109,110,109,107,107,110,110,107,107,110,110,110,111,110,108,108,107,108,110,109,107,109,110,108,109,111,109,107,110,112,111,109,108,107,108,110,110,107,109,111,109,109,112,110,109,108,106,109,110
107,108,109,108,109,110,111,108,106,107,108,110,111,110,109,108,108,108,108,111,111,106,106,108,108,107,106,107,110,107,105,108,109,108,106,106,111,111,108,110,110,108,107,107,107,108,109,109,109,109,110,110,110,111,110,109,109,108,110,112
105,106,109,110,111,110,107,108,110,109,108,110,110,108,109,110,107,107,110,112,108,103,107,111,110,110,109,108,111,111,109,108,106,107,108,107,109,111,109,107,107,108,108,108,110,109,108,109,109,109,109,109,110,109,107,108,111,111,109,109
109,108,111,113,111,109,107,110,112,110,108,110,109,107,108,109,108,109,111,110,108,106,108,110,109,109,109,108,110,110,107,106,107,108,109,108,107,109,108,108,111,110,107,108,110,108,110,110,105,107,112,109,106,108,107,108,109,107,107,109
108,106,109,111,109,108,108,108,109,109,109,108,108,109,108,108,110,111,109,108,109,110,110,110,109,108,109,110,109,109,108,107,109,109,108,108,108,109,108,110,112,110,106,107,108,109,111,111,108,110,113,111,110,111,110,111,110,108,108,107
109,108,108,108,106,105,107,107,107,108,107,106,108,109,109,109,108,107,107,111,113,111,110,109,107,108,107,109,109,107,107,110,111,109,108,108,110,111,109,108,108,108,107,106,108,109,109,111,112,110,107,106,108,108,108,111,112,109,108,110
112,107,104,105,106,106,109,110,108,108,109,108,108,108,108,109,106,106,110,113,111,110,111,109,108,107,106,108,108,106,109,111,110,111,110,109,110,109,107,105,106,107,106,107,110,109,109,111,110,108,108,110,109,107,106,109,108,104,107,111
109,108,108,106,105,107,111,111,110,110,113,113,110,110,110,110,108,108,110,109,108,109,108,108,111,114,116,113,108,109,112,111,109,109,110,109,107,107,107,106,107,108,106,107,110,109,110,111,108,106,110,113,113,109,107,108,110,109,108,108
110,110,112,105,107,112,109,108,109,111,111,112,110,110,112,111,107,107,109,109,110,110,107,105,106,106,110,109,106,108,109,107,108,108,108,107,106,108,108,107,108,108,108,107,108,109,108,109,109,107,108,111,111,109,107,106,108,107,108,109
107,107,110,106,108,112,107,109,109,109,107,108,108,108,110,111,107,107,109,109,112,108,107,110,109,111,111,109,107,108,107,107,109,110,108,108,109,110,107,108,110,107,107,107,109,112,107,105,107,109,108,109,110,110,108,108,110,107,105,106
