    1,    1,    1,    1,    1,    1,    1,    1,    1,    1,    1,    1,    1,    1,    1,    1,    1,    1,    1,    1,    1,    1,    1,    1,    1,    1,    1,    3,    6,    7,    7,    6,    4,    4,    4,    4,    5,    7,    7,    8,    7,    4,    2,    2,    1,    1,    1,    1,    1,    1,    1,    1,    1,    1,    1,    1,    1,    1,    1,    1
    1,    1,    1,    1,    1,    1,    1,    1,    1,    1,    1,    1,    1,    1,    1,    1,    1,    1,    3,    2,    1,    1,    1,    1,    1,    1,    1,    1,    2,    4,    8,    8,    4,    3,    4,    4,    5,    7,    7,    8,    7,    4,    2,    2,    1,    1,    1,    1,    1,    1,    1,    1,    1,    1,    1,    1,    1,    1,    1,    1
    1,    1,    1,    1,    1,    1,    1,    1,    1,    1,    1,    1,    1,    1,    1,    1,    1,    3,    6,    4,    1,    1,    1,    1,    1,    1,    1,    1,    1,    5,   13,   15,    6,    2,    2,    2,    5,    9,    8,    5,    5,    3,    2,    2,    1,    1,    1,    1,    1,    1,    1,    1,    1,    1,    1,    1,    1,    1,    1,    1
    1,    1,    1,    1,    1,    1,    1,    1,    1,    1,    1,    1,    1,    1,    1,    1,    1,    3,    4,    3,    1,    1,    1,    1,    1,    1,    1,    1,    4,    7,   10,   12,    7,    4,    4,    3,    5,   10,    8,    2,    1,    1,    1,    1,    1,    1,    1,    1,    1,    1,    1,    1,    1,    1,    1,    1,    1,    1,    1,    1
    1,    1,    1,    1,    1,    1,    1,    1,    1,    1,    1,    1,    1,    1,    1,    1,    1,    1,    1,    1,    1,    1,    1,    1,    1,    1,    1,    4,   10,    9,    3,    3,    5,    4,    4,    3,    3,    6,    4,    1,    1,    1,    1,    1,    1,    1,    1,    1,    1,    1,    1,    1,    1,    1,    1,    1,    1,    1,    1,    1
    1,    1,    1,    1,    1,    1,    1,    1,    1,    1,    1,    1,    1,    1,    1,    1,    1,    1,    1,    1,    1,    1,    1,    1,    1,    1,    1,    2,    9,   12,    5,    1,    1,    1,    1,    1,    1,    1,    1,    1,    1,    1,    1,    1,    1,    1,    1,    1,    1,    1,    1,    1,    1,    1,    1,    1,    1,    1,    1,    1
    1,    1,    1,    1,    1,    1,    1,    1,    1,    1,    1,    1,    1,    1,    1,    1,    1,    1,    1,    1,    1,    1,    1,    1,    1,    1,    1,    1,    4,    9,    6,    1,    1,    1,    2,    4,    5,    3,    1,    1,    1,    1,    1,    1,    1,    1,    1,    1,    1,    1,    1,    1,    1,    1,    1,    1,    1,    1,    1,    1
    1,    1,    1,    1,    2,    2,    1,    1,    1,    1,    1,    1,    1,    1,    1,    1,    1,    1,    1,    1,    1,    1,    1,    1,    1,    1,    1,    1,    4,   10,    8,    2,    1,    1,    3,   11,   15,   13,    8,    3,    1,    1,    1,    1,    1,    1,    1,    1,    1,    1,    1,    1,    1,    1,    1,    1,    1,    1,    1,    1
    1,    1,    1,    3,    5,    4,    1,    1,    1,    1,    1,    1,    1,    1,    1,    1,    1,    1,    1,    1,    1,    1,    1,    1,    1,    1,    1,    1,    4,   10,    8,    2,    1,    1,    3,   11,   17,   17,   13,    5,    1,    1,    1,    1,    1,    1,    1,    1,    1,    1,    1,    1,    1,    1,    1,    1,    1,    1,    1,    1
    1,    1,    1,    3,    6,    4,    1,    1,    1,    1,    1,    1,    1,    1,    1,    1,    1,    1,    1,    1,    1,    1,    1,    1,    1,    1,    1,    4,    6,    3,    1,    1,    1,    1,    2,    4,    6,    8,    9,    5,    1,    1,    1,    1,    2,    2,    1,    1,    1,    1,    1,    1,    1,    1,    1,    1,    1,    1,    1,    1
    1,    1,    1,    1,    2,    1,    1,    1,    1,    1,    1,    1,    1,    1,    1,    1,    1,    1,    1,    1,    1,    1,    1,    1,    1,    1,    1,    3,    6,    5,    2,    1,    1,    1,    1,    1,    1,    1,    2,    2,    1,    1,    1,    2,    5,    4,    1,    1,    1,    1,    1,    1,    1,    1,    1,    1,    1,    1,    1,    1
    1,    1,    1,    1,    1,    1,    1,    1,    1,    1,    1,    1,    1,    1,    1,    1,    1,    1,    1,    1,    1,    1,    1,    4,    5,    2,    2,    2,    3,    5,    4,    2,    2,    1,    1,    2,    3,    2,    1,    1,    1,    1,    1,    2,    3,    3,    1,    1,    1,    1,    1,    1,    1,    1,    1,    1,    1,    1,    1,    1
    1,    1,    1,    1,    1,    1,    1,    1,    1,    1,    1,    1,    1,    1,    1,    1,    1,    1,    1,    1,    1,    1,    3,    9,    8,    2,    8,   15,    9,    2,    4,    5,    3,    1,    1,    3,    6,    3,    1,    1,    1,    1,    1,    1,    1,    1,    1,    1,    1,    1,    1,    1,    1,    1,    1,    1,    1,    1,    1,    1
    1,    1,    1,    1,    1,    1,    1,    1,    1,    1,    1,    1,    1,    1,    1,    1,    1,    1,    1,    1,    1,    1,    4,    8,    4,    1,    4,    6,    3,    2,    6,    5,    1,    1,    1,    3,    4,    2,    3,    4,    2,    1,    1,    1,    1,    1,    1,    1,    1,    1,    1,    1,    1,    1,    1,    1,    1,    1,    1,    1
    1,    1,    1,    1,    1,    1,    1,    1,    1,    1,    1,    1,    1,    1,    1,    1,    1,    1,    1,    1,    1,    1,    5,    6,    2,    1,    1,    1,    3,   11,   12,    3,    1,    1,    1,    1,    1,    2,    5,    6,    2,    1,    1,    1,    1,    1,    1,    1,    1,    1,    1,    1,    1,    1,    1,    1,    1,    1,    1,    1
    1,    1,    1,    1,    1,    1,    1,    1,    1,    1,    1,    1,    1,    1,    1,    1,    1,    1,    1,    1,    1,    1,    2,    3,    3,    3,    2,    1,    2,    7,    8,    3,    2,    1,    1,    1,    1,    1,    3,    3,    1,    1,    1,    1,    1,    1,    1,    1,    1,    1,    1,    1,    1,    1,    1,    1,    1,    1,    1,    1
    1,    1,    1,    1,    1,    1,    1,    1,    1,    1,    1,    1,    1,    1,    1,    1,    1,    1,    1,    1,    1,    1,    1,    1,    4,    6,    4,    1,    2,    3,    3,    6,    8,    1,    1,    1,    1,    1,    1,    1,    1,    1,    1,    1,    1,    1,    1,    1,    1,    1,    1,    1,    1,    1,    1,    1,    1,    1,    1,    1
    1,    1,    1,    1,    1,    1,    1,    1,    1,    1,    1,    1,    1,    1,    1,    1,    1,    1,    1,    1,    1,    1,    1,    1,    1,    4,    4,    3,    6,    6,    2,    8,    7,    1,    2,    2,    2,    2,    1,    1,    1,    1,    1,    1,    1,    1,    1,    1,    1,    1,    1,    1,    1,    1,    1,    1,    1,    1,    1,    1
    1,    1,    1,    1,    1,    1,    1,    1,    1,    1,    1,    1,    1,    1,    1,    1,    1,    1,    1,    1,    1,    1,    2,    4,    3,    7,   12,    6,    3,    2,    2,    9,    4,    1,    5,    7,    7,    3,    1,    1,    1,    1,    1,    1,    1,    1,    1,    1,    1,    1,    1,    1,    1,    1,    1,    1,    1,    1,    1,    1
    1,    1,    1,    1,    1,    1,    1,    1,    1,    1,    1,    1,    1,    1,    1,    1,    1,    1,    1,    1,    1,    2,    6,    6,    4,    9,   14,    5,    2,    3,    3,    9,    4,    1,    4,    8,    8,    2,    1,    1,    1,    1,    1,    1,    1,    1,    1,    1,    1,    1,    1,    1,    1,    1,    1,    1,    1,    1,    1,    1
    1,    1,    1,    1,    1,    1,    1,    1,    1,    1,    1,    1,    1,    1,    1,    1,    1,    1,    1,    1,    1,    3,    6,    5,    2,    5,    6,    3,    6,    4,    1,    2,    1,    3,    4,    5,    3,    1,    1,    1,    1,    1,    1,    1,    1,    1,    1,    1,    1,    1,    1,    1,    1,    1,    1,    1,    1,    1,    1,    1
    1,    1,    1,    1,    1,    1,    1,    1,    1,    1,    1,    1,    1,    1,    1,    1,    1,    1,    1,    1,    1,    2,    3,    2,    1,    2,    1,    1,    4,    2,    1,    1,    4,    9,    7,    4,    3,    4,    2,    1,    1,    1,    1,    1,    1,    1,    1,    1,    1,    1,    1,    1,    1,    1,    1,    1,    1,    1,    1,    1
    1,    1,    1,    1,    2,    4,    3,    2,    1,    1,    1,    1,    1,    1,    1,    1,    1,    1,    1,    1,    1,    1,    1,    1,    1,    1,    1,    1,    1,    1,    1,    1,    4,    8,    5,    2,    5,    9,    3,    1,    1,    1,    1,    1,    1,    1,    1,    1,    1,    1,    1,    1,    1,    1,    1,    1,    1,    1,    1,    1
    1,    1,    1,    1,    2,    6,    5,    2,    1,    1,    1,    1,    1,    1,    1,    1,    1,    1,    1,    1,    1,    1,    1,    1,    1,    1,    1,    1,    1,    2,    1,    1,    2,    3,    1,    1,    4,    7,    2,    1,    1,    1,    1,    1,    1,    1,    1,    1,    1,    1,    1,    1,    1,    1,    1,    1,    1,    1,    1,    1
    1,    1,    1,    1,    1,    3,    2,    1,    1,    1,    1,    1,    1,    1,    1,    1,    1,    1,    1,    1,    1,    1,    1,    1,    1,    4,    5,    2,    2,    5,    3,    1,    4,    5,    3,    2,    2,    2,    1,    1,    1,    1,    1,    1,    1,    1,    1,    1,    1,    1,    1,    1,    1,    1,    1,    1,    1,    1,    1,    1
    1,    1,    1,    1,    1,    1,    1,    1,    1,    1,    1,    1,    1,    1,    1,    1,    1,    1,    1,    1,    1,    1,    1,    1,    1,    6,    9,    5,    2,    5,    3,    1,    3,    5,    5,    7,    4,    1,    1,    1,    1,    1,    1,    1,    1,    1,    1,    1,    1,    1,    1,    1,    1,    1,    1,    1,    1,    1,    1,    1
    1,    1,    1,    1,    1,    1,    1,    1,    1,    1,    1,    1,    1,    1,    1,    1,    1,    1,    1,    1,    1,    1,    1,    1,    1,    4,    6,    3,    1,    2,    1,    1,    1,    2,    6,    9,    5,    1,    1,    1,    1,    1,    1,    1,    1,    1,    1,    1,    1,    1,    1,    1,    1,    1,    1,    1,    1,    1,    1,    1
    1,    1,    1,    1,    1,    1,    1,    1,    1,    1,    1,    1,    1,    1,    1,    1,    1,    1,    1,    1,    1,    2,    1,    1,    1,    1,    2,    3,    2,    1,    1,    1,    1,    1,    2,    3,    2,    1,    1,    1,    1,    1,    1,    1,    1,    1,    1,    1,    1,    1,    1,    1,    1,    1,    1,    1,    1,    1,    1,    1
    1,    1,    1,    1,    1,    1,    1,    1,    1,    1,    1,    1,    1,    1,    1,    1,    1,    1,    1,    1,    4,    6,    2,    1,    3,    3,    5,    7,    4,    1,    3,    7,    6,    2,    1,    1,    1,    1,    1,    1,    1,    1,    1,    1,    1,    1,    1,    1,    1,    1,    1,    1,    1,    1,    1,    1,    1,    1,    1,    1
    1,    1,    1,    1,    1,    1,    1,    1,    1,    1,    1,    1,    1,    1,    1,    1,    1,    1,    1,    1,    4,    5,    2,    4,    9,    7,    7,    8,    4,    1,    6,   15,   11,    3,    3,    4,    2,    1,    1,    1,    1,    1,    1,    1,    1,    1,    1,    1,    1,    1,    1,    1,    1,    1,    1,    1,    1,    1,    1,    1
    1,    1,    1,    1,    1,    1,    1,    1,    1,    1,    1,    1,    1,    1,    1,    1,    1,    1,    1,    1,    2,    2,    2,    7,   10,    8,   12,   17,   11,    3,    4,    9,    5,    2,    8,   12,    6,    1,    1,    1,    1,    1,    1,    1,    1,    1,    1,    1,    1,    1,    1,    1,    1,    1,    1,    1,    1,    1,    1,    1
    1,    1,    1,    1,    1,    1,    1,    1,    1,    1,    1,    1,    1,    1,    1,    1,    1,    1,    1,    1,    1,    1,    1,    4,    4,    2,    9,   16,   12,    3,    1,    2,    1,    2,    8,   10,    5,    1,    1,    1,    1,    1,    1,    1,    1,    1,    1,    1,    1,    1,    1,    1,    1,    1,    1,    1,    1,    1,    1,    1
    1,    1,    1,    1,    1,    1,    1,    1,    1,    1,    1,    1,    1,    1,    1,    1,    1,    1,    1,    1,    1,    1,    1,    1,    3,    6,    5,    4,    2,    1,    3,    5,    3,    1,    2,    3,    4,    3,    1,    1,    1,    1,    1,    1,    1,    1,    1,    1,    1,    1,    1,    1,    1,    1,    1,    1,    1,    1,    1,    1
    1,    1,    1,    1,    1,    1,    1,    1,    1,    1,    2,    1,    1,    1,    1,    1,    1,    1,    1,    1,    1,    1,    1,    1,    6,    9,    5,    1,    1,    3,    4,    4,    2,    3,    3,    5,    7,    6,    2,    1,    1,    1,    1,    1,    1,    1,    1,    1,    1,    1,    1,    1,    1,    1,    1,    1,    1,    1,    1,    1
    1,    1,    1,    1,    1,    1,    1,    1,    1,    3,    4,    4,    1,    1,    1,    1,    1,    1,    1,    1,    1,    1,    1,    2,    4,    4,    2,    3,    5,    5,    5,    3,    2,    3,    5,    6,    7,    5,    2,    1,    1,    1,    1,    1,    1,    1,    1,    1,    1,    1,    1,    1,    1,    1,    1,    1,    1,    1,    1,    1
    1,    1,    1,    1,    1,    1,    1,    1,    1,    3,    5,    3,    1,    1,    1,    1,    1,    1,    1,    1,    1,    1,    2,    4,    6,    3,    1,    3,    4,    2,    2,    2,    1,    2,    5,    6,    4,    2,    1,    1,    1,    1,    1,    1,    1,    1,    1,    1,    1,    1,    1,    1,    1,    1,    1,    1,    1,    1,    1,    1
    1,    1,    1,    1,    1,    1,    1,    1,    1,    1,    2,    1,    1,    1,    1,    1,    1,    1,    1,    1,    4,   13,   17,   14,   13,    8,    2,    1,    1,    1,    1,    1,    1,    3,    7,    8,    4,    1,    1,    1,    1,    1,    1,    1,    1,    1,    1,    1,    1,    1,    1,    1,    1,    1,    1,    1,    1,    1,    1,    1
    1,    1,    1,    1,    1,    1,    1,    1,    1,    1,    1,    1,    1,    1,    1,    1,    1,    1,    1,    1,    7,   22,   24,   15,   13,    9,    2,    1,    2,    1,    1,    1,    1,    4,    5,    5,    2,    1,    1,    1,    1,    1,    1,    1,    1,    1,    1,    1,    1,    1,    1,    1,    1,    1,    1,    1,    1,    1,    1,    1
    3,    3,    1,    1,    1,    1,    1,    1,    1,    1,    1,    1,    1,    1,    1,    1,    1,    2,    2,    1,    6,   13,   10,    6,    5,    3,    2,    4,    4,    1,    1,    1,    1,    3,    4,    2,    1,    1,    1,    1,    1,    1,    1,    1,    1,    1,    1,    1,    1,    1,    1,    1,    1,    1,    1,    1,    1,    1,    1,    1
    4,    5,    2,    1,    1,    1,    1,    1,    1,    1,    1,    1,    1,    1,    1,    1,    2,    5,    4,    2,    4,    4,    2,    4,    3,    3,    6,    6,    4,    2,    2,    1,    2,    7,   11,    6,    1,    1,    1,    1,    1,    1,    1,    1,    1,    1,    1,    1,    1,    1,    1,    1,    1,    1,    1,    1,    1,    1,    1,    1
    1,    2,    1,    1,    1,    1,    1,    1,    1,    1,    1,    1,    1,    1,    1,    1,    2,    4,    3,    2,    3,    2,    2,    4,    4,    7,   11,    8,    4,    6,    5,    3,    2,    6,   11,    7,    3,    2,    1,    1,    1,    1,    1,    1,    1,    1,    1,    1,    1,    1,    1,    1,    1,    1,    1,    1,    1,    1,    1,    1
    1,    1,    1,    1,    1,    1,    1,    1,    1,    1,    1,    1,    1,    1,    1,    1,    1,    1,    1,    1,    1,    1,    1,    1,    2,    5,    8,    4,    3,    6,    6,    5,    4,    4,    7,    6,    4,    3,    1,    1,    1,    1,    1,    1,    1,    1,    1,    1,    1,    1,    1,    1,    1,    1,    1,    1,    1,    1,    1,    1
    1,    1,    1,    1,    1,    1,    3,    4,    2,    1,    1,    1,    1,    1,    1,    1,    1,    1,    1,    1,    1,    1,    1,    2,    5,    5,    3,    1,    1,    2,    2,    2,    3,    5,    8,    5,    2,    2,    1,    1,    1,    1,    1,    1,    1,    1,    1,    1,    1,    1,    1,    1,    1,    1,    1,    1,    1,    1,    1,    1
    1,    1,    1,    1,    1,    1,    4,    6,    3,    1,    1,    1,    1,    1,    1,    1,    1,    1,    1,    2,    3,    1,    1,    3,    4,    4,    1,    2,    7,    7,    2,    1,    1,    2,    4,    2,    1,    1,    1,    1,    1,    1,    1,    1,    1,    1,    1,    1,    1,    1,    1,    1,    1,    1,    1,    1,    1,    1,    1,    1
    1,    1,    1,    1,    1,    1,    2,    3,    2,    1,    1,    1,    1,    1,    1,    1,    1,    1,    1,    4,    5,    2,    1,    1,    1,    1,    1,    5,   18,   16,    6,    8,    4,    3,    5,    2,    1,    1,    1,    1,    1,    1,    1,    1,    1,    1,    1,    1,    1,    1,    1,    1,    1,    1,    1,    1,    1,    1,    1,    1
    1,    1,    1,    1,    1,    1,    1,    1,    1,    1,    1,    1,    1,    1,    1,    1,    1,    1,    1,    3,    3,    1,    1,    6,    7,    6,    6,   11,   16,   10,   11,   20,   11,    1,    3,    1,    1,    1,    1,    1,    1,    1,    1,    1,    1,    1,    1,    1,    1,    1,    1,    1,    1,    1,    1,    1,    1,    1,    1,    1
    1,    1,    1,    1,    1,    1,    1,    1,    1,    1,    1,    1,    1,    1,    1,    1,    1,    1,    1,    1,    1,    5,   16,   23,   17,    6,    8,    6,    1,   11,   13,    8,   14,    7,    2,    2,    1,    1,    1,    1,    1,    1,    1,    1,    1,    1,    1,    1,    1,    1,    1,    1,    1,    1,    1,    1,    1,    1,    1,    1
    1,    1,    1,    1,    1,    1,    1,    1,    1,    1,    1,    1,    1,    1,    1,    1,    1,    1,    1,    2,    7,   21,   32,   24,   15,    1,    4,   11,   15,   37,   39,    3,   32,   22,    5,    7,    1,    1,    1,    1,    1,    1,    1,    1,    1,    1,    1,    1,    1,    1,    1,    1,    1,    1,    1,    1,    1,    1,    1,    1
    1,    1,    1,    1,    1,    1,    1,    1,    1,    1,    1,    1,    1,    1,    1,    1,    1,    1,    3,    5,   11,   25,   33,   27,   19,    3,   11,   33,   17,   12,   37,   36,   60,   37,   18,   13,    1,    1,    1,    1,    1,    1,    1,    1,    1,    1,    1,    1,    1,    1,    1,    1,    1,    1,    1,    1,    1,    1,    1,    1
    1,    1,    1,    1,    1,    1,    1,    1,    1,    1,    1,    1,    1,    1,    1,    1,    1,    2,    5,    7,   18,   38,   52,   59,   59,   29,   14,   21,   28,    3,   32,   80,   77,   80,   78,   37,    5,    1,    1,    1,    1,    1,    1,    1,    1,    1,    1,    1,    1,    1,    1,    1,    1,    1,    1,    1,    1,    1,    1,    1
    1,    1,    1,    1,    1,    1,    1,    1,    1,    1,    1,    1,    1,    1,    1,    1,    1,    2,    3,    8,   29,   64,   94,   96,  108,   78,   51,   36,   55,   49,   63,  104,  109,  137,  117,   52,   12,    2,    1,    1,    1,    1,    1,    1,    1,    1,    1,    1,    1,    1,    1,    1,    1,    1,    1,    1,    1,    1,    1,    1
    1,    1,    1,    1,    1,    1,    1,    1,    1,    1,    1,    1,    1,    1,    1,    1,    1,    1,    2,    6,   25,   57,  102,  112,  106,   84,   62,   33,   23,   43,   41,   60,   84,  117,   73,   19,    4,    1,    1,    1,    1,    1,    1,    1,    1,    1,    1,    1,    1,    1,    1,    1,    1,    1,    1,    1,    1,    1,    1,    1
    1,    1,    1,    1,    1,    1,    1,    1,    1,    1,    1,    1,    1,    1,    1,    1,    1,    1,    2,    5,   16,   30,   60,   72,   79,   64,   36,   22,    7,   24,   20,   18,   50,   62,   31,    8,    1,    1,    1,    1,    1,    1,    1,    1,    1,    1,    1,    1,    1,    1,    1,    1,    1,    1,    1,    1,    1,    1,    1,    1
    1,    1,    1,    1,    1,    1,    1,    1,    1,    1,    1,    1,    1,    1,    1,    1,    1,    1,    2,    4,   11,   12,   22,   34,   61,   51,    7,   28,   33,   26,   15,   16,   26,   14,   18,   19,    5,    1,    1,    1,    1,    1,    1,    1,    1,    1,    1,    1,    1,    1,    1,    1,    1,    1,    1,    1,    1,    1,    1,    1
    1,    1,    1,    1,    1,    1,    1,    1,    1,    1,    1,    1,    1,    1,    1,    1,    1,    1,    2,    1,    5,    4,    6,   15,   25,   20,    7,   28,   30,   14,    8,   10,    7,    1,    6,    7,    3,    1,    1,    1,    1,    1,    1,    1,    1,    1,    1,    1,    1,    1,    1,    1,    1,    1,    1,    1,    1,    1,    1,    1
    1,    1,    1,    1,    1,    1,    1,    1,    1,    1,    1,    1,    1,    1,    1,    1,    1,    1,    2,    1,    6,   10,    7,   10,    7,    6,   18,   18,    6,    5,    8,    7,   11,    9,    3,    3,    4,    2,    1,    1,    1,    1,    1,    1,    1,    1,    1,    1,    1,    1,    1,    1,    1,    1,    1,    1,    1,    1,    1,    1
    1,    1,    1,    1,    1,    1,    1,    1,    1,    1,    1,    1,    1,    1,    1,    1,    1,    1,    1,    3,   13,   20,   13,   13,   14,    9,   17,   12,    1,    2,    3,    4,    6,    9,    9,    6,    2,    1,    1,    1,    1,    1,    1,    1,    1,    1,    1,    1,    1,    1,    1,    1,    1,    1,    1,    1,    1,    1,    1,    1
    1,    1,    1,    1,    1,    1,    1,    1,    1,    1,    1,    1,    2,    2,    1,    1,    1,    1,    1,    2,    9,   13,   10,   12,   14,    7,    6,    5,    3,    8,   12,    5,    1,    6,   11,    6,    1,    1,    1,    1,    1,    1,    1,    1,    1,    1,    1,    1,    1,    1,    1,    1,    1,    1,    1,    1,    1,    1,    1,    1
    1,    1,    1,    1,    1,    1,    1,    1,    1,    1,    1,    1,    3,    5,    3,    1,    1,    1,    1,    1,    3,    5,    3,    6,    8,    3,    1,    1,    3,   11,   13,    6,    1,    4,    9,    7,    6,    4,    2,    1,    1,    1,    1,    1,    1,    1,    1,    1,    1,    1,    1,    1,    1,    1,    1,    1,    1,    1,    1,    1
    1,    2,    4,    4,    2,    1,    1,    1,    1,    1,    1,    1,    3,    4,    3,    1,    1,    1,    1,    1,    4,    8,    5,    4,    7,    4,    1,    1,    1,    3,    4,    2,    1,    4,    4,    5,    9,    7,    2,    1,    1,    1,    1,    1,    1,    1,    1,    1,    1,    1,    1,    1,    1,    1,    1,    1,    1,    1,    1,    1
    1,    2,    6,    5,    2,    1,    1,    1,    1,    1,    1,    1,    1,    1,    1,    1,    1,    1,    1,    1,    4,    8,    5,    4,    7,    7,    5,    3,    1,    3,    5,    4,    4,    6,    3,    3,    5,    3,    1,    1,    1,    1,    1,    1,    1,    1,    1,    1,    1,    1,    1,    1,    1,    1,    1,    1,    1,    1,    1,    1
    1,    1,    2,    1,    1,    1,    1,    1,    1,    1,    1,    1,    1,    1,    1,    1,    1,    1,    1,    1,    2,    3,    2,    3,    4,    4,    7,    7,    2,    2,    4,    3,    2,    5,    6,    6,    4,    2,    1,    1,    1,    1,    1,    1,    1,    1,    1,    1,    1,    1,    1,    1,    1,    1,    1,    1,    1,    1,    1,    1
    1,    1,    1,    1,    1,    1,    1,    1,    1,    1,    1,    1,    1,    1,    1,    1,    1,    1,    1,    2,    4,    3,    1,    2,    6,    6,    5,    5,    2,    1,    1,    1,    1,    3,    6,    8,    5,    2,    1,    1,    1,    1,    1,    1,    1,    1,    1,    1,    1,    1,    1,    1,    1,    1,    1,    1,    1,    1,    1,    1
    1,    1,    1,    1,    1,    1,    1,    1,    1,    1,    1,    1,    1,    1,    1,    1,    1,    1,    1,    2,    4,    4,    1,    2,    7,    9,    4,    2,    4,    3,    1,    1,    1,    1,    4,    6,    4,    2,    1,    1,    1,    1,    1,    1,    1,    1,    1,    1,    1,    1,    1,    1,    1,    1,    1,    1,    1,    1,    1,    1
    1,    1,    1,    1,    1,    1,    1,    1,    1,    1,    1,    1,    1,    1,    1,    1,    1,    1,    1,    3,    3,    3,    2,    1,    5,    6,    3,    3,    6,    4,    3,    4,    2,    2,    7,    9,    6,    3,    1,    1,    1,    1,    1,    1,    1,    1,    1,    1,    1,    1,    1,    1,    1,    1,    1,    1,    1,    1,    1,    1
    1,    1,    1,    1,    1,    1,    1,    1,    1,    1,    1,    1,    1,    1,    1,    1,    1,    1,    2,    4,    5,    4,    4,    2,    2,    5,    3,    2,    3,    4,    5,    5,    4,    6,    8,    6,    3,    2,    1,    1,    1,    1,    1,    1,    1,    1,    1,    1,    1,    1,    1,    1,    1,    1,    1,    1,    1,    1,    1,    1
    1,    1,    1,    1,    1,    1,    1,    1,    1,    1,    1,    1,    1,    1,    1,    1,    1,    1,    1,    2,    3,    3,    3,    2,    1,    3,    2,    1,    5,    9,    7,    3,    6,   13,   13,    6,    3,    2,    1,    1,    1,    1,    1,    1,    1,    1,    1,    1,    1,    1,    1,    1,    1,    1,    1,    1,    1,    1,    1,    1
    1,    1,    1,    1,    1,    1,    1,    1,    1,    1,    1,    1,    1,    1,    1,    1,    1,    1,    1,    1,    1,    1,    1,    1,    1,    4,    9,    6,    3,    6,    4,    1,    6,   14,   14,    9,    7,    5,    2,    1,    1,    1,    1,    1,    1,    1,    1,    1,    1,    1,    1,    1,    1,    1,    1,    1,    1,    1,    1,    1
    1,    1,    1,    1,    1,    1,    1,    1,    1,    1,    1,    1,    1,    1,    1,    1,    1,    1,    1,    1,    1,    1,    1,    1,    1,    8,   19,   15,    5,    4,    3,    1,    2,    4,    3,    2,    4,    5,    3,    1,    1,    1,    1,    1,    1,    1,    1,    1,    1,    1,    1,    1,    1,    1,    1,    1,    1,    1,    1,    1
    1,    1,    1,    1,    1,    1,    1,    1,    1,    1,    1,    1,    1,    1,    1,    1,    1,    1,    1,    1,    1,    1,    1,    1,    2,    9,   17,   13,    8,    7,    4,    1,    1,    2,    4,    4,    3,    3,    3,    1,    1,    1,    1,    1,    1,    1,    1,    1,    1,    1,    1,    1,    1,    1,    1,    1,    1,    1,    1,    1
    1,    1,    1,    1,    1,    1,    1,    1,    1,    1,    1,    1,    1,    1,    1,    1,    1,    1,    1,    1,    1,    1,    3,    3,    2,    5,    8,   10,   12,    9,    3,    1,    1,    4,    9,    9,    3,    2,    2,    1,    1,    1,    1,    1,    1,    1,    1,    1,    1,    1,    1,    1,    1,    1,    1,    1,    1,    1,    1,    1
    1,    1,    1,    1,    1,    1,    1,    1,    1,    1,    1,    1,    1,    1,    1,    1,    1,    1,    1,    1,    1,    2,    6,    6,    2,    2,    4,   11,   15,   12,    9,    6,    1,    1,    6,    8,    6,    4,    3,    1,    1,    1,    1,    1,    1,    1,    1,    1,    1,    1,    1,    1,    1,    1,    1,    1,    1,    1,    1,    1
    1,    1,    1,    1,    1,    1,    1,    1,    1,    1,    1,    1,    1,    1,    1,    1,    1,    1,    1,    1,    1,    1,    3,    4,    2,    1,    1,    5,    8,   14,   23,   17,    3,    1,    5,    8,    7,    4,    2,    1,    1,    1,    1,    1,    1,    1,    1,    1,    1,    1,    1,    1,    1,    1,    1,    1,    1,    1,    1,    1
    1,    1,    1,    1,    1,    1,    1,    1,    1,    1,    1,    1,    1,    1,    1,    1,    1,    1,    1,    1,    1,    1,    1,    1,    1,    2,    6,    7,    3,    7,   20,   15,    2,    1,    3,    5,    4,    2,    1,    2,    2,    1,    1,    1,    1,    1,    1,    1,    1,    1,    1,    1,    1,    1,    1,    1,    1,    1,    1,    1
    1,    1,    1,    1,    1,    1,    1,    1,    1,    1,    1,    1,    1,    1,    1,    1,    1,    1,    1,    1,    1,    1,    1,    1,    1,    4,   11,   12,    4,    3,   11,   11,    3,    4,    6,    4,    4,    4,    3,    5,    4,    1,    1,    1,    1,    1,    1,    1,    1,    1,    1,    1,    1,    1,    1,    1,    1,    1,    1,    1
    1,    1,    1,    1,    1,    1,    1,    1,    1,    1,    1,    1,    1,    1,    1,    1,    1,    1,    1,    1,    1,    1,    1,    1,    1,    2,    6,    6,    2,    2,   11,   12,    6,    7,    9,    5,    3,    4,    3,    4,    3,    1,    1,    1,    1,    1,    1,    1,    1,    1,    1,    1,    1,    1,    1,    1,    1,    1,    1,    1
    1,    1,    1,    1,    1,    1,    1,    1,    1,    1,    1,    1,    1,    1,    1,    1,    1,    1,    1,    1,    1,    1,    1,    1,    1,    1,    4,    5,    1,    2,   10,   10,    3,    2,    6,    5,    1,    1,    1,    1,    1,    1,    1,    3,    4,    2,    1,    1,    1,    1,    1,    1,    1,    1,    1,    1,    1,    1,    1,    1
    1,    1,    1,    1,    1,    1,    1,    1,    1,    1,    1,    1,    1,    1,    1,    1,    1,    1,    1,    1,    1,    1,    1,    1,    1,    1,    8,   12,    3,    1,    5,    4,    1,    2,    2,    5,    2,    1,    1,    1,    1,    1,    1,    3,    6,    3,    1,    1,    1,    1,    1,    1,    1,    1,    1,    1,    1,    1,    1,    1
    1,    1,    1,    1,    1,    1,    1,    1,    1,    1,    1,    1,    1,    1,    1,    1,    1,    1,    1,    1,    1,    1,    1,    1,    1,    3,   10,   16,    3,    1,    2,    2,   10,   11,    5,    3,    1,    1,    1,    1,    1,    1,    1,    2,    3,    2,    1,    1,    1,    1,    1,    1,    1,    1,    1,    1,    1,    1,    1,    1
    1,    1,    1,    1,    1,    1,    1,    1,    1,    1,    1,    1,    1,    1,    1,    1,    1,    1,    1,    1,    1,    1,    1,    1,    1,    1,    3,   13,    6,   10,    9,    4,   16,   21,   14,    5,    1,    1,    1,    1,    1,    1,    1,    1,    1,    1,    1,    1,    1,    1,    1,    1,    1,    1,    1,    1,    1,    1,    1,    1
    1,    1,    1,    1,    1,    1,    1,    1,    1,    1,    1,    1,    1,    1,    1,    1,    1,    1,    1,    1,    1,    1,    2,    3,    3,    7,   12,   19,   10,   10,    7,    1,   11,   16,   15,   10,    3,    1,    1,    1,    1,    1,    1,    1,    1,    1,    1,    1,    1,    1,    1,    1,    1,    1,    1,    1,    1,    1,    1,    1
    1,    1,    1,    1,    1,    1,    1,    1,    1,    1,    1,    1,    1,    1,    1,    1,    1,    1,    1,    1,    1,    1,    4,    5,    6,   12,   16,   12,    3,    2,    3,   10,   17,   13,   11,   14,    8,    2,    1,    1,    1,    1,    1,    1,    1,    1,    1,    1,    1,    1,    1,    1,    1,    1,    1,    1,    1,    1,    1,    1
    1,    1,    1,    1,    1,    1,    1,    1,    1,    1,    1,    1,    1,    1,    1,    1,    1,    1,    1,    1,    1,    1,    3,    4,    4,    6,    8,    8,    5,   11,    7,    9,   14,    6,    4,    8,    7,    2,    5,    5,    1,    1,    1,    1,    1,    1,    1,    1,    1,    1,    1,    1,    1,    1,    1,    1,    1,    1,    1,    1
    1,    1,    1,    1,    1,    1,    1,    1,    1,    1,    1,    1,    1,    1,    1,    1,    1,    1,    1,    1,    1,    1,    1,    1,    1,    1,    7,   12,    9,   10,    4,    2,    2,    1,    1,    2,    4,    4,   18,   19,    5,    1,    1,    1,    1,    1,    1,    1,    1,    1,    1,    1,    1,    1,    1,    1,    1,    1,    1,    1
    1,    1,    1,    1,    1,    1,    1,    1,    1,    1,    1,    1,    1,    1,    1,    1,    1,    1,    1,    1,    1,    1,    1,    1,    1,    1,    9,   11,    4,    2,    2,    1,    1,    1,    1,    2,    7,    7,   21,   24,    8,    1,    1,    1,    1,    1,    1,    1,    1,    1,    1,    1,    1,    1,    1,    1,    1,    1,    1,    1
    1,    1,    1,    1,    1,    1,    1,    1,    1,    1,    1,    1,    1,    1,    1,    1,    1,    1,    1,    1,    1,    1,    1,    1,    1,    2,    9,    8,    2,    1,    1,    1,    2,    4,    2,    3,    8,    6,    8,   10,    4,    1,    1,    1,    1,    1,    1,    1,    1,    1,    1,    1,    1,    1,    1,    1,    1,    1,    1,    1
    1,    1,    1,    1,    1,    1,    1,    1,    1,    1,    1,    1,    1,    1,    1,    1,    1,    1,    1,    1,    1,    1,    1,    1,    1,    2,    5,    4,    1,    1,    1,    1,    9,   12,    5,    2,    5,    4,    1,    1,    1,    1,    1,    1,    1,    1,    1,    1,    1,    1,    1,    1,    1,    1,    1,    1,    1,    1,    1,    1
    1,    1,    1,    1,    1,    1,    1,    1,    1,    1,    1,    1,    1,    1,    1,    1,    1,    1,    1,    1,    1,    1,    1,    1,    1,    1,    1,    1,    1,    1,    1,    5,    9,    6,    1,    1,    2,    5,    7,    5,    2,    1,    1,    1,    1,    1,    1,    1,    1,    1,    1,    1,    1,    1,    1,    1,    1,    1,    1,    1
    1,    1,    1,    1,    1,    1,    1,    1,    1,    1,    1,    1,    1,    1,    1,    1,    1,    1,    1,    1,    1,    1,    1,    1,    1,    1,    1,    1,    1,    2,    2,    2,    2,    1,    1,    3,    3,    5,    7,    6,    2,    1,    1,    1,    1,    1,    1,    1,    1,    1,    1,    1,    1,    1,    1,    1,    1,    1,    1,    1
    1,    1,    1,    1,    1,    1,    1,    1,    1,    1,    1,    1,    1,    1,    1,    1,    1,    1,    1,    1,    1,    1,    1,    1,    1,    1,    1,    1,    2,    6,    5,    1,    1,    1,    5,   10,    7,    2,    1,    1,    1,    1,    1,    1,    1,    1,    1,    1,    1,    1,    1,    1,    1,    1,    1,    1,    1,    1,    1,    1
    1,    1,    1,    1,    1,    1,    1,    1,    1,    1,    1,    1,    1,    1,    1,    1,    1,    1,    1,    1,    1,    1,    1,    1,    1,    1,    1,    1,    1,    3,    2,    1,    1,    1,    6,   11,    7,    1,    1,    1,    1,    1,    1,    1,    1,    1,    1,    1,    1,    1,    1,    1,    1,    1,    1,    1,    1,    1,    1,    1
    1,    1,    1,    1,    1,    1,    1,    1,    1,    1,    1,    1,    1,    1,    1,    1,    1,    1,    1,    1,    1,    1,    3,    4,    2,    2,    3,    1,    3,    9,   10,    4,    1,    1,    1,    1,    1,    1,    1,    1,    1,    1,    1,    1,    1,    1,    1,    1,    1,    1,    1,    1,    1,    1,    1,    1,    1,    1,    1,    1
    1,    1,    1,    1,    1,    1,    1,    1,    1,    1,    1,    1,    1,    1,    1,    1,    1,    1,    1,    1,    1,    1,    4,    5,    4,    5,    5,    2,    5,   13,   12,    4,    1,    1,    1,    1,    1,    1,    1,    1,    1,    1,    1,    1,    1,    1,    1,    1,    1,    1,    1,    1,    1,    1,    1,    1,    1,    1,    1,    1
    1,    1,    1,    1,    1,    1,    1,    1,    1,    1,    1,    1,    1,    1,    1,    1,    1,    1,    1,    1,    1,    1,    3,    3,    2,    4,    3,    3,    9,   12,    5,    1,    1,    1,    1,    1,    1,    1,    1,    1,    1,    1,    1,    1,    1,    1,    1,    1,    1,    1,    1,    1,    1,    1,    1,    1,    1,    1,    1,    1
    1,    1,    1,    1,    1,    1,    1,    1,    1,    1,    1,    1,    1,    1,    1,    1,    1,    1,    1,    1,    1,    1,    1,    1,    1,    1,    1,    3,   12,   11,    3,    1,    5,    6,    2,    1,    1,    1,    1,    1,    1,    1,    1,    1,    1,    1,    1,    1,    1,    1,    1,    1,    1,    1,    1,    1,    1,    1,    1,    1
    1,    1,    1,    1,    1,    1,    1,    1,    1,    1,    1,    1,    1,    1,    1,    1,    1,    1,    1,    1,    1,    1,    1,    1,    1,    1,    1,    1,    7,   11,    6,    1,    3,    4,    2,    1,    1,    1,    1,    1,    1,    1,    1,    1,    1,    1,    1,    1,    1,    1,    1,    1,    1,    1,    1,    1,    1,    1,    1,    1
    1,    1,    1,    1,    1,    1,    1,    1,    1,    1,    1,    1,    1,    1,    1,    1,    1,    1,    1,    1,    1,    1,    1,    1,    1,    1,    1,    1,    3,    8,    7,    2,    1,    1,    1,    1,    1,    1,    1,    1,    1,    1,    1,    1,    1,    1,    1,    1,    1,    1,    1,    1,    1,    1,    1,    1,    1,    1,    1,    1
    1,    1,    1,    1,    1,    1,    1,    1,    1,    1,    1,    1,    1,    1,    1,    1,    1,    1,    1,    1,    1,    1,    1,    1,    1,    1,    1,    1,    1,    2,    2,    1,    1,    1,    1,    1,    1,    1,    1,    1,    1,    1,    1,    1,    1,    1,    1,    1,    1,    1,    1,    1,    1,    1,    1,    1,    1,    1,    1,    1
    1,    1,    1,    1,    1,    1,    1,    1,    1,    1,    1,    1,    1,    1,    1,    1,    1,    1,    1,    1,    1,    1,    1,    1,    1,    1,    1,    1,    1,    2,    4,    2,    1,    1,    1,    1,    1,    1,    1,    1,    1,    1,    1,    1,    1,    1,    1,    1,    1,    1,    1,    1,    1,    1,    1,    1,    1,    1,    1,    1
    1,    1,    1,    1,    1,    1,    1,    1,    1,    1,    1,    1,    1,    1,    1,    1,    1,    1,    1,    1,    1,    1,    1,    1,    1,    1,    1,    1,    1,    4,    6,    4,    1,    1,    1,    1,    1,    1,    1,    1,    1,    1,    1,    1,    1,    1,    1,    1,    1,    1,    1,    1,    1,    1,    1,    1,    1,    1,    1,    1
