112,109,109,111,111,111,111,112,114,114,111,111,112,112,110,108,107,109,110,111,107,109,109,109,111,110,110,112,111,108,110,111,108,109,108,108,110,111,110,112,111,108,109,111,112,113,110,109,107,110,111,108,109,109,112,111,110,112,110,110
113,109,107,110,106,105,107,110,114,112,108,112,112,109,108,110,109,108,108,110,107,108,110,109,112,110,108,112,111,110,112,110,107,108,109,108,109,107,107,110,111,110,109,109,110,111,110,110,111,110,110,107,108,109,112,111,109,109,109,108
109,107,107,111,114,110,107,108,113,112,109,112,113,109,108,113,114,111,108,110,110,110,110,111,109,109,109,110,106,109,110,107,109,108,110,110,109,109,107,109,111,113,112,109,109,109,107,108,109,109,110,110,109,111,112,111,110,111,111,108
109,110,111,110,111,111,110,111,112,111,108,108,111,110,109,111,111,112,110,113,113,110,110,112,109,107,110,113,111,112,112,110,112,107,110,111,111,113,108,108,111,113,111,108,109,110,108,110,110,108,109,109,108,110,113,111,110,109,111,111
111,113,114,109,106,107,109,109,110,113,110,106,109,113,113,110,108,109,110,110,110,107,109,112,111,108,109,112,109,112,111,110,112,112,110,110,111,111,110,112,111,111,109,108,110,112,110,112,112,109,108,107,107,110,112,112,110,110,112,112
111,111,112,111,109,108,109,110,111,114,114,109,107,110,113,109,106,108,107,108,109,111,111,109,111,111,112,112,106,109,108,108,111,110,109,108,110,109,110,113,111,110,110,108,110,113,109,109,111,111,110,109,110,111,110,109,110,112,110,111
109,108,110,109,110,109,109,109,108,111,114,111,108,109,112,110,110,112,107,110,110,114,113,109,111,112,111,111,108,108,109,111,113,110,110,109,110,110,110,109,108,106,108,109,109,111,109,108,109,113,112,110,111,111,111,108,110,109,108,110
111,109,110,110,108,107,111,112,108,108,112,112,110,110,112,112,112,112,108,109,107,109,110,110,114,110,109,110,109,109,110,111,111,109,109,111,110,109,108,108,109,107,109,109,110,109,110,109,108,110,108,107,111,110,112,109,109,110,111,110
113,110,110,113,110,109,113,112,108,110,112,112,112,112,111,109,110,111,107,108,107,107,109,109,110,108,108,109,108,111,108,111,111,110,108,109,111,111,112,111,108,109,111,110,111,108,110,109,108,108,107,107,111,110,112,110,109,111,112,111
113,111,111,113,112,110,110,108,108,111,111,110,112,111,110,110,108,109,109,109,110,107,111,114,110,110,111,111,111,110,109,112,113,113,111,107,108,112,113,110,108,110,113,111,109,108,110,110,111,112,110,108,109,107,111,110,111,110,110,110
110,109,111,113,110,110,111,108,109,111,109,106,107,110,112,112,110,111,113,111,112,110,110,111,109,110,113,113,112,111,109,111,112,113,114,110,110,115,114,110,108,108,112,108,109,110,111,109,111,112,111,110,108,107,110,109,111,111,111,110
110,109,109,110,109,110,111,110,110,110,111,111,108,110,113,113,111,112,113,111,108,111,113,110,106,108,112,110,110,111,108,107,106,109,109,107,109,111,110,108,108,108,110,107,109,111,114,109,109,110,110,111,109,108,110,108,109,110,111,110
113,112,106,110,109,109,110,111,111,111,112,112,109,109,110,110,109,108,110,111,112,112,116,113,106,107,111,110,111,110,110,110,107,109,108,109,111,109,110,109,111,111,110,108,107,109,111,109,109,109,108,112,112,110,110,109,110,108,108,109
114,113,110,111,109,111,110,110,111,111,112,111,108,107,111,111,109,109,110,110,111,109,111,112,108,109,112,109,110,111,111,113,112,113,110,108,112,111,107,107,112,111,110,112,110,108,107,107,106,107,109,111,112,110,109,110,111,109,108,110
110,110,112,111,110,109,108,108,108,109,112,111,109,108,110,112,110,109,110,108,110,110,111,110,111,113,112,108,106,111,113,111,110,113,111,109,111,109,107,108,111,110,110,113,111,107,107,107,108,109,110,110,110,109,110,110,110,111,110,111
110,109,110,111,111,109,111,110,107,107,111,112,109,109,112,112,112,110,111,109,112,110,111,110,110,113,112,111,108,109,112,112,111,109,111,112,113,108,108,112,113,110,111,113,111,111,111,110,110,112,112,113,109,108,111,112,110,111,111,111
110,109,109,111,112,110,110,109,109,108,111,112,110,106,108,110,110,110,112,111,110,109,110,109,109,109,107,112,110,110,110,113,113,109,111,114,113,106,107,113,112,110,109,109,109,111,111,108,107,108,110,112,109,107,109,110,110,109,108,110
108,107,107,109,108,107,109,109,109,110,112,111,109,108,107,107,111,110,112,110,108,111,113,112,111,110,108,111,112,114,112,114,113,111,112,114,112,109,107,108,107,108,106,106,108,109,109,110,112,109,109,113,111,109,107,108,110,108,106,109
109,112,111,108,109,111,113,111,107,108,110,110,108,111,112,109,110,109,112,110,110,111,111,112,112,113,113,113,115,117,118,121,116,113,113,111,111,112,111,107,106,109,111,110,109,108,108,108,109,109,108,109,110,111,110,110,112,111,109,109
110,109,109,108,109,111,113,110,107,109,109,111,109,109,112,112,110,108,108,108,112,113,111,111,111,113,116,119,122,122,120,122,118,114,113,110,111,113,114,110,109,111,111,111,109,107,106,109,111,110,108,108,109,111,113,110,111,114,109,106
110,108,109,110,110,110,109,109,109,111,111,110,110,109,109,111,108,108,112,111,111,114,112,111,112,115,117,121,126,126,124,123,117,116,115,110,108,109,111,111,113,112,109,111,109,107,107,108,111,110,108,110,109,109,111,108,107,111,110,109
110,109,110,110,111,112,110,111,110,112,112,109,111,110,108,110,108,107,109,110,110,113,111,112,109,111,117,123,126,128,127,122,117,117,116,113,113,111,110,108,112,111,108,111,109,111,112,110,110,110,109,109,108,109,111,108,111,112,111,112
108,109,108,110,112,112,112,113,109,110,112,109,112,110,111,110,110,110,109,109,108,109,111,113,111,111,115,124,126,131,130,123,117,115,114,113,112,112,111,109,112,109,107,111,107,112,111,109,109,112,111,109,110,114,114,108,109,110,109,112
107,110,110,110,110,108,107,111,110,107,110,110,112,110,111,112,110,112,111,110,111,110,110,112,113,114,117,122,125,129,127,124,118,111,112,115,110,112,113,111,112,109,109,111,107,110,111,110,108,112,109,109,109,109,109,106,112,111,110,114
108,109,111,113,110,108,107,111,113,108,109,112,115,111,106,108,111,111,109,111,111,110,109,111,111,114,119,122,124,127,124,123,121,116,115,116,108,109,111,111,111,109,111,111,110,109,110,110,109,112,110,108,107,109,108,106,113,114,110,112
110,109,108,111,112,110,109,112,113,108,110,109,112,110,108,109,112,112,112,113,113,111,110,111,110,112,120,121,122,129,126,120,119,115,115,114,109,109,110,111,111,108,109,109,110,109,108,109,109,111,111,109,109,112,111,110,112,112,109,112
112,110,107,108,110,109,107,109,110,109,111,111,112,110,106,109,111,109,110,113,113,112,113,114,111,113,120,122,123,127,125,120,117,112,114,115,111,112,111,112,111,111,111,111,110,110,113,113,109,111,111,111,111,110,109,110,112,110,111,111
111,111,109,109,108,110,111,110,111,111,112,111,112,113,108,107,110,110,110,114,114,110,111,113,114,118,124,126,126,129,126,123,120,115,114,117,112,112,109,110,109,109,111,112,111,109,110,111,110,110,111,112,112,108,106,108,114,111,111,112
109,109,108,109,111,114,112,111,110,111,112,109,109,111,109,109,112,111,110,111,111,111,110,111,115,117,121,124,123,128,127,126,123,119,115,115,113,111,108,107,112,114,111,110,113,110,109,109,109,109,112,112,110,111,109,108,112,111,109,109
108,108,110,111,111,113,112,112,112,111,110,110,111,110,109,111,113,109,110,111,108,113,113,112,114,115,120,122,122,126,127,127,125,121,116,113,111,112,110,105,108,112,110,108,111,112,110,110,110,109,111,112,109,111,112,110,110,112,108,106
110,108,108,112,111,110,110,111,112,110,111,109,111,112,109,108,111,108,111,111,108,113,112,113,115,112,119,125,125,126,127,127,125,119,117,112,109,111,113,109,112,111,111,110,111,113,111,111,111,109,109,110,110,109,110,110,109,114,111,107
110,110,108,110,112,113,112,110,110,110,113,110,111,111,110,110,110,108,110,111,110,111,110,112,114,111,118,126,127,127,127,129,127,119,116,114,110,110,111,111,112,109,111,111,109,110,110,109,112,113,112,111,109,110,109,109,111,114,112,108
111,112,110,107,110,107,110,111,109,110,111,108,109,109,112,113,109,109,111,113,110,110,108,110,113,114,120,126,128,127,127,128,128,123,117,116,111,111,107,110,112,108,110,112,110,109,107,107,110,111,115,113,108,112,110,110,111,109,109,110
113,114,112,108,109,107,110,110,107,109,111,108,110,109,111,112,110,110,109,111,111,112,111,113,114,116,119,123,121,124,124,123,125,124,117,115,114,115,108,109,112,109,110,112,112,109,107,109,110,108,111,110,110,112,109,111,109,105,108,111
109,108,109,109,108,109,111,109,106,107,108,107,111,108,109,108,109,110,109,111,112,112,113,115,113,113,117,122,122,128,129,123,121,121,116,113,110,111,112,114,114,112,111,112,114,109,110,111,112,111,108,108,111,112,111,111,111,111,110,110
107,112,112,110,109,110,113,114,110,109,109,109,110,107,109,110,110,110,109,110,111,111,112,114,115,116,120,124,125,131,130,124,121,120,117,116,113,114,112,111,112,113,112,113,114,111,110,107,108,112,108,110,110,113,112,109,107,110,111,108
109,114,113,110,111,111,112,113,111,114,111,111,112,111,110,112,112,110,110,111,111,111,113,114,114,116,122,125,127,128,129,128,126,122,118,116,113,115,110,107,111,112,109,110,110,108,107,106,110,112,108,108,109,113,113,111,107,109,108,107
112,111,111,110,109,107,109,111,111,113,111,111,110,112,110,110,112,109,112,114,113,113,113,115,116,118,122,129,131,126,127,127,125,122,117,115,114,114,110,109,112,113,112,112,111,109,107,109,111,110,110,113,110,110,112,111,109,109,107,108
113,107,110,112,114,109,107,109,109,110,111,110,107,110,112,110,111,109,110,111,110,115,114,115,115,115,116,123,129,127,129,126,122,120,115,114,114,113,110,107,110,112,112,112,111,110,108,110,111,108,111,111,110,108,110,111,111,108,110,112
111,107,106,108,112,112,110,110,110,109,111,111,108,111,113,112,112,113,113,111,109,114,113,114,117,118,117,120,127,128,128,128,123,119,115,116,115,111,109,108,110,111,110,109,108,109,109,110,112,110,111,111,110,110,110,111,109,108,110,113
110,109,107,109,110,110,111,112,112,111,111,111,108,110,112,113,113,114,113,113,113,114,113,113,114,116,121,122,125,128,130,130,125,118,116,116,114,111,110,110,111,111,110,109,108,110,111,107,110,110,110,109,108,108,109,109,108,110,109,111
109,110,110,112,109,109,111,110,109,109,110,111,110,110,111,113,110,110,109,111,112,111,112,114,113,114,119,123,125,126,130,131,125,117,116,117,116,112,111,109,111,112,109,109,110,112,113,107,107,109,111,110,110,109,110,111,109,111,109,108
111,111,109,110,109,110,112,111,109,111,109,111,112,112,110,111,110,111,113,113,112,111,114,115,115,115,121,126,129,133,134,132,130,122,118,118,116,112,111,108,111,112,110,108,108,109,115,112,109,109,109,109,110,110,112,111,110,111,107,108
112,113,110,107,108,109,111,112,111,112,110,109,110,111,111,113,110,112,114,112,111,113,115,116,116,116,120,126,128,132,131,128,131,127,119,114,111,113,114,112,111,112,112,111,110,107,109,109,111,111,109,107,108,110,111,110,110,109,108,109
112,114,115,110,108,109,112,112,108,108,111,109,107,107,109,111,109,110,110,109,106,110,112,114,117,118,124,129,130,132,130,131,134,128,118,115,110,111,114,114,110,111,113,112,112,110,109,109,110,109,112,109,110,109,110,109,109,109,108,110
111,112,111,109,109,109,110,110,107,107,112,111,109,109,111,111,109,110,112,112,110,111,111,113,119,118,122,130,132,133,131,131,132,128,121,117,114,112,113,112,110,112,113,109,107,109,109,111,111,110,112,110,109,109,110,108,108,112,109,110
109,110,109,109,110,110,109,108,106,107,111,110,111,111,108,109,110,112,114,113,113,115,115,116,119,120,124,131,136,139,138,134,131,130,123,118,116,113,111,109,110,112,113,113,110,109,107,108,111,111,112,111,110,110,113,110,110,112,109,108
110,111,113,111,109,110,109,109,107,108,112,112,112,112,111,109,109,112,114,112,111,114,117,117,118,119,123,132,145,155,158,152,140,135,127,118,117,117,112,109,113,113,110,110,110,109,111,111,111,111,112,111,112,109,114,112,110,112,108,107
110,109,112,109,109,112,111,111,109,110,111,114,115,113,112,111,110,111,112,112,111,112,116,114,116,121,133,150,166,174,181,175,160,145,133,121,118,117,111,107,111,112,110,111,111,109,111,110,110,112,111,109,110,109,112,110,110,113,109,109
111,109,111,109,108,109,108,109,108,108,108,111,112,111,111,111,110,112,112,111,111,113,116,114,116,125,148,178,202,204,209,211,191,160,138,125,118,115,111,110,110,110,110,114,112,111,112,108,107,109,110,108,107,108,111,111,110,111,108,108
109,111,114,111,109,109,106,108,110,110,109,108,110,110,109,111,114,116,115,115,113,114,113,113,118,124,142,169,198,216,217,212,195,164,139,126,119,115,111,112,111,110,114,115,113,113,114,111,109,109,112,112,111,109,109,109,108,109,108,110
108,107,111,111,112,112,109,110,112,111,108,107,109,111,109,110,110,110,112,114,113,115,115,116,120,122,132,154,186,213,209,188,173,154,134,124,121,117,110,107,110,111,113,111,111,108,110,111,111,110,110,110,111,109,109,110,109,109,109,112
110,109,110,109,110,114,111,109,112,112,107,107,108,112,108,110,111,108,109,112,113,116,117,119,121,121,126,143,168,186,180,166,158,148,133,122,121,118,113,111,112,113,115,110,109,108,107,108,110,111,112,110,109,109,112,113,112,111,111,112
108,106,109,108,111,112,109,109,112,112,110,110,110,110,110,112,114,113,112,114,113,115,114,115,119,121,123,128,141,149,148,148,148,141,132,120,119,114,113,110,110,108,110,110,110,110,109,108,109,110,111,112,112,111,107,109,110,111,112,112
108,108,110,109,111,109,108,109,112,113,111,114,114,113,113,111,110,113,113,112,112,115,115,113,116,122,125,129,135,140,142,140,139,138,132,123,117,113,112,111,110,107,110,111,111,112,112,110,107,108,108,109,114,113,107,109,112,112,111,111
111,111,111,111,111,109,109,112,113,113,109,111,112,112,114,112,108,112,115,112,112,115,116,114,115,119,125,128,131,134,134,136,135,132,130,123,117,115,113,112,111,109,111,110,109,111,112,110,107,109,114,111,112,112,108,111,112,109,107,111
111,109,107,110,113,112,112,113,110,111,110,107,108,108,111,112,111,114,118,114,112,115,115,113,113,115,121,125,128,131,134,138,137,128,126,121,115,114,112,112,111,110,112,110,110,111,113,112,108,109,112,109,111,111,109,110,112,109,108,111
110,107,107,111,113,113,113,112,109,109,111,110,112,108,110,113,111,111,113,111,111,115,114,114,116,116,118,120,127,132,129,132,130,123,122,120,115,114,113,111,112,113,113,110,109,108,110,113,109,108,108,109,112,113,108,106,110,111,110,111
110,109,111,114,112,111,110,111,111,107,108,111,112,109,110,109,111,109,111,112,113,115,115,115,116,119,121,120,126,134,126,124,124,121,119,116,114,114,113,109,111,114,113,113,111,108,110,109,108,111,110,111,110,111,109,106,110,112,110,108
110,108,107,111,110,112,109,109,113,110,106,107,109,111,110,108,111,110,112,113,109,112,115,114,115,116,120,120,123,129,129,128,128,122,118,113,112,116,112,108,108,109,109,111,110,109,111,110,109,112,111,112,112,113,111,109,113,112,108,107
111,109,110,110,110,111,110,107,110,110,106,109,111,113,114,113,113,114,114,113,110,112,115,115,115,116,121,120,122,120,125,128,128,121,115,113,112,115,113,110,111,108,108,109,107,108,108,108,108,109,110,111,110,110,109,109,112,111,109,110
113,111,112,111,109,111,110,108,108,108,108,112,113,112,111,110,110,114,114,113,110,112,114,114,114,115,119,122,124,121,123,124,123,119,112,113,112,114,114,112,112,111,110,111,108,110,111,111,111,110,110,109,108,111,112,112,111,110,109,110
113,109,109,110,111,113,110,109,110,110,111,111,110,110,111,109,108,115,114,113,109,112,114,113,112,115,120,123,125,125,126,123,120,120,114,114,113,114,112,110,110,109,109,109,107,109,111,110,111,109,109,108,106,112,112,110,109,109,109,110
108,108,110,110,111,113,111,112,112,110,112,113,112,108,112,112,110,113,112,112,111,113,116,113,112,118,120,120,120,122,124,123,121,118,113,113,113,111,109,110,112,110,112,111,107,108,109,109,108,108,108,108,106,109,111,109,108,110,110,112
107,109,111,110,111,110,113,112,110,107,109,112,113,108,110,111,112,113,110,112,110,112,115,113,114,122,123,120,122,123,122,122,121,115,111,112,115,112,110,113,113,110,113,113,111,112,112,110,109,109,110,110,111,113,111,108,109,112,111,110
109,109,110,110,113,108,109,110,109,108,109,112,111,109,109,110,112,112,109,112,110,111,114,113,115,120,122,121,124,125,122,120,119,117,116,115,115,111,110,113,112,110,111,112,112,112,110,110,111,111,112,111,111,114,113,110,110,112,110,108
111,110,111,110,109,110,107,109,112,111,111,112,110,110,109,109,111,112,110,111,111,111,111,114,116,118,121,121,122,125,119,117,120,116,115,115,111,109,110,111,111,110,110,110,112,110,108,111,110,111,111,109,108,109,109,111,112,110,112,109
113,111,112,108,106,111,109,107,110,110,110,111,111,112,111,109,109,109,113,112,112,113,111,114,117,120,124,122,120,124,121,120,122,118,113,114,111,110,111,110,111,110,110,110,110,110,109,110,110,110,109,107,111,110,109,111,111,109,111,113
111,106,109,109,111,112,111,113,110,108,110,113,113,113,112,108,108,109,114,113,111,112,111,115,117,122,127,127,122,123,123,118,119,118,112,112,111,111,112,110,111,111,112,111,112,112,112,111,110,111,110,108,111,110,107,108,107,108,108,110
112,111,112,111,110,110,109,109,109,107,106,111,112,110,111,108,109,110,109,111,111,112,112,115,118,121,123,128,125,123,124,116,116,116,111,112,112,113,113,109,110,111,113,113,112,113,114,113,111,113,111,109,111,112,110,109,107,107,108,112
112,112,113,111,112,111,110,110,109,108,108,111,111,109,110,110,113,112,108,109,113,113,112,115,120,121,121,125,123,121,119,115,115,116,112,113,112,111,113,112,111,110,111,111,108,109,111,111,111,113,110,113,114,114,109,110,110,110,110,112
112,110,109,109,112,113,112,110,110,111,112,112,111,111,111,110,111,111,109,110,113,112,111,116,122,122,123,125,122,122,118,115,114,112,111,111,109,109,111,111,112,111,112,110,110,112,110,108,108,111,110,111,112,112,111,111,110,109,109,109
111,111,108,111,111,110,109,110,110,109,111,110,108,111,113,111,110,109,107,108,113,115,115,119,122,122,125,128,121,124,123,116,115,110,110,112,112,110,109,111,111,111,110,107,112,114,110,111,110,112,110,109,112,111,109,109,109,110,111,114
110,110,106,111,108,107,107,110,110,109,111,111,109,111,112,112,113,111,110,107,113,115,119,124,127,125,127,126,120,121,119,114,114,112,111,112,111,111,110,111,109,109,109,108,110,110,109,111,111,110,111,111,111,113,110,110,110,110,110,111
111,110,107,108,110,112,109,111,111,111,112,113,111,110,108,109,113,115,113,111,114,114,117,123,128,128,128,128,124,124,120,114,115,114,111,110,109,111,110,110,109,109,110,112,111,109,108,111,109,108,109,110,110,112,113,111,111,112,110,110
110,111,110,107,111,113,110,111,111,110,111,112,110,110,107,110,113,115,113,112,116,116,115,119,124,126,128,127,127,127,120,114,112,113,115,114,112,111,110,109,110,112,110,112,110,107,107,110,109,110,107,109,112,110,113,115,112,113,109,109
109,110,112,111,112,111,109,109,111,112,111,112,111,111,112,112,111,113,112,112,115,115,116,122,124,125,127,126,127,128,122,114,112,115,114,112,112,109,109,108,109,110,111,112,110,108,110,108,109,116,108,108,113,110,109,108,110,110,109,108
109,110,110,110,111,111,113,110,110,112,110,112,111,112,111,109,110,113,113,115,116,115,119,127,129,128,131,129,126,124,121,116,116,115,109,108,112,111,109,107,108,106,109,110,109,111,113,111,111,111,107,107,111,111,110,110,109,109,110,108
110,112,114,111,109,110,113,107,108,113,112,112,108,111,110,109,113,114,112,115,118,118,122,126,128,127,128,128,124,118,115,113,113,113,110,110,113,113,110,109,110,109,110,110,108,110,112,110,112,111,107,110,112,111,109,108,108,109,111,111
110,112,111,109,109,109,110,109,109,111,113,113,109,110,110,110,114,115,109,112,114,118,122,127,129,127,126,125,125,120,113,111,111,112,114,112,110,111,109,110,110,109,110,112,110,108,110,110,110,110,109,113,111,110,107,110,110,110,111,113
110,109,110,110,112,112,112,111,109,109,109,113,108,111,113,111,113,117,113,113,114,116,122,127,128,128,126,125,121,120,115,111,108,109,111,112,109,110,108,110,111,109,111,114,112,109,107,108,108,108,109,112,111,110,107,110,111,110,109,111
110,108,108,110,110,110,112,113,110,110,110,115,108,110,109,111,111,115,115,116,117,118,124,127,126,127,132,131,120,116,115,114,112,113,111,109,110,109,109,113,112,108,110,110,111,112,109,111,111,109,110,112,110,110,110,109,108,109,110,110
110,108,108,111,110,110,113,112,109,110,109,110,110,110,107,110,109,112,112,112,115,119,129,132,132,132,137,135,123,116,115,114,117,117,112,110,111,111,111,112,108,106,108,107,110,111,111,111,110,112,112,109,109,111,112,110,110,109,110,110
110,109,111,114,112,112,112,109,109,111,110,109,113,114,110,112,113,112,112,112,116,122,130,133,134,135,133,133,123,117,115,113,113,113,110,110,110,108,109,114,110,107,111,109,111,110,111,110,107,108,110,109,111,110,109,111,112,110,110,111
112,110,112,113,110,110,110,110,112,113,112,109,111,111,109,112,112,112,113,119,124,124,124,127,130,133,129,127,120,115,115,114,111,112,111,110,110,110,108,110,111,108,112,111,114,112,111,112,110,106,109,112,112,110,109,111,110,112,111,110
112,109,110,111,107,108,109,109,112,113,110,108,111,111,112,113,112,113,110,114,120,121,123,128,137,137,130,125,119,113,112,112,111,111,111,110,110,112,111,109,109,108,108,110,112,111,109,111,110,106,110,111,112,111,108,108,108,109,109,109
109,107,108,110,108,109,112,111,110,110,111,111,111,109,110,111,112,114,112,110,113,115,119,128,136,138,127,122,116,112,110,110,110,111,111,111,110,108,111,109,108,112,111,110,111,110,110,109,109,109,110,110,110,112,111,109,109,110,110,111
110,108,108,111,110,110,112,111,109,108,109,110,110,107,107,110,110,111,111,111,113,117,118,120,124,125,119,118,114,112,112,111,109,111,109,110,111,108,110,111,109,113,113,110,111,112,110,113,115,113,110,110,108,112,113,109,108,108,111,114
111,109,109,110,111,110,109,108,112,110,108,109,111,109,110,114,114,113,112,111,111,114,113,114,117,115,114,116,115,112,110,109,110,113,111,111,110,109,110,110,110,110,112,111,110,109,108,109,110,111,110,110,107,110,110,108,110,107,106,111
112,111,109,108,108,108,108,107,111,109,110,109,110,110,113,113,111,112,115,112,111,113,114,114,115,113,115,116,115,114,111,109,110,112,112,111,109,110,110,108,109,108,108,110,112,113,109,107,107,110,110,110,110,109,108,108,110,109,105,108
110,109,110,110,110,110,111,109,110,109,109,110,109,109,111,109,108,109,112,114,115,115,115,113,111,111,113,112,113,114,113,111,111,111,110,111,110,109,109,108,109,110,110,109,111,113,111,110,110,111,111,109,111,110,109,109,110,111,109,110
110,108,112,112,111,111,110,109,112,113,109,111,111,108,111,111,111,114,114,115,111,109,112,111,111,109,111,111,113,115,112,111,110,108,108,109,109,109,112,111,111,111,111,109,108,109,110,109,110,110,107,105,111,112,111,110,111,110,110,112
108,108,110,112,111,110,109,108,111,114,109,111,110,108,113,112,111,111,110,109,108,111,113,112,113,108,111,110,111,112,110,110,109,107,108,108,107,108,112,112,111,110,110,109,109,109,112,111,111,110,107,107,113,114,112,112,111,108,108,112
110,109,107,111,112,109,109,108,110,113,109,111,111,107,109,109,109,109,105,108,114,117,113,110,112,110,111,112,112,111,110,110,112,111,110,114,112,109,109,109,107,108,109,109,109,110,110,109,109,107,107,110,111,109,111,113,114,111,112,114
110,111,107,110,112,111,112,108,108,110,107,109,111,109,110,111,110,111,110,109,107,110,111,114,115,113,111,112,112,111,112,108,109,111,108,108,113,113,109,108,107,108,109,109,109,109,109,109,110,107,109,111,110,108,110,108,112,112,110,109
111,112,110,109,111,112,113,109,110,113,109,107,108,111,110,111,110,110,111,109,105,106,110,112,112,110,109,111,112,110,111,110,111,112,112,110,111,113,111,109,107,108,109,108,109,110,109,109,111,112,112,111,109,109,111,111,111,111,108,106
113,113,111,108,110,111,110,109,110,112,111,109,109,112,110,109,109,110,109,110,109,108,110,113,111,108,110,111,109,108,110,110,111,111,114,111,110,112,112,109,106,108,111,112,111,111,107,104,108,109,110,109,108,110,110,110,110,111,108,109
112,112,113,110,109,107,107,111,111,109,109,111,111,113,110,108,109,112,110,108,109,110,109,110,110,108,110,111,107,109,112,109,111,111,113,110,107,107,110,110,106,108,113,114,111,109,108,107,109,107,108,107,108,112,108,108,108,110,106,107
110,111,111,111,110,109,109,111,112,109,107,111,108,112,112,110,110,112,112,111,110,111,111,109,109,108,110,113,109,110,112,108,110,111,110,111,109,107,110,113,110,110,112,111,109,107,110,111,112,109,109,109,110,111,109,108,110,111,108,109
111,111,109,108,112,113,112,111,112,112,111,110,106,109,111,109,107,108,110,113,109,109,111,110,109,110,110,113,110,110,110,107,110,110,108,112,113,111,113,114,111,108,108,110,110,109,112,112,110,108,109,109,109,111,108,108,109,110,109,110
