111,110,110,113,114,112,112,113,111,113,114,110,109,110,110,110,110,109,109,111,114,112,109,111,111,110,111,110,111,113,113,114,115,112,109,107,109,110,111,110,112,115,112,111,113,111,110,112,113,111,112,111,109,112,114,111,108,108,109,110
111,110,110,110,113,113,110,110,110,112,114,110,109,111,110,109,111,111,110,112,114,111,109,111,111,110,109,107,110,114,114,113,112,112,112,110,109,110,109,109,110,112,111,112,113,112,110,111,111,111,112,112,110,113,113,111,110,110,110,109
113,113,113,112,112,111,108,107,110,112,113,111,109,111,111,109,111,112,109,111,111,109,109,112,112,111,113,112,110,111,112,111,109,110,112,112,112,110,109,110,109,108,109,111,112,112,111,111,110,110,110,111,111,110,111,112,112,110,108,108
110,110,111,111,110,110,110,109,110,110,109,110,110,111,114,112,111,111,110,110,111,108,108,112,111,111,114,114,111,110,110,112,113,111,110,112,111,110,111,112,111,109,109,111,111,110,111,112,111,110,110,111,111,109,110,111,110,110,111,111
112,111,113,113,113,111,111,112,111,110,110,110,109,110,113,114,111,111,111,111,114,113,109,109,111,111,111,110,110,112,112,112,112,109,108,108,109,112,113,113,111,109,110,112,111,108,110,113,110,108,108,110,111,112,112,112,112,111,112,113
110,110,112,111,109,110,112,114,114,113,113,112,110,108,110,113,110,110,111,112,114,115,111,109,111,110,109,109,109,111,114,111,108,108,110,112,112,112,111,111,110,108,108,111,112,111,111,111,108,106,107,109,111,112,112,112,110,109,110,112
111,110,110,110,109,108,110,112,112,111,110,112,112,110,110,111,110,109,111,113,113,112,112,111,111,112,113,112,110,110,112,111,110,112,114,114,113,111,111,110,110,110,109,110,112,113,112,110,109,108,109,112,111,110,110,112,111,108,107,107
113,112,109,112,113,110,108,110,111,109,108,111,113,112,112,111,111,110,110,113,114,112,112,112,113,116,116,113,110,108,109,111,112,112,112,111,111,111,111,111,111,110,110,110,110,112,112,111,112,113,111,111,112,112,111,111,111,110,108,109
109,110,112,114,114,112,110,112,113,112,111,112,113,112,110,111,114,113,109,109,113,114,112,110,111,114,113,110,109,109,109,111,113,110,108,111,111,108,109,113,112,108,109,111,110,109,111,112,112,111,111,111,112,113,113,110,109,111,110,111
111,112,115,114,111,111,111,110,112,112,110,112,114,111,109,111,114,113,109,110,111,112,113,111,110,110,109,110,111,110,109,109,110,111,110,111,110,108,110,115,114,110,110,113,110,106,110,112,110,107,108,111,110,110,111,112,111,109,109,110
113,114,114,112,112,114,114,111,110,112,110,110,112,113,113,113,113,112,112,114,112,111,114,112,110,109,110,111,113,112,110,111,110,110,110,111,109,108,111,113,112,111,110,112,110,107,110,112,110,108,108,110,111,109,108,110,112,112,110,109
113,112,112,109,110,115,117,113,111,111,113,111,110,112,111,111,111,111,113,113,111,110,112,112,110,111,112,112,113,113,112,111,112,112,112,112,110,110,110,110,108,109,111,112,112,110,111,112,111,109,109,110,112,110,109,109,109,110,112,112
111,114,112,109,109,113,113,111,107,107,111,112,111,110,108,109,110,110,110,111,109,109,112,113,110,110,111,112,114,115,112,111,111,108,108,109,110,111,113,113,111,110,112,112,113,112,111,111,111,109,110,112,112,111,110,109,108,108,111,112
110,112,114,113,111,110,110,107,107,109,109,110,112,110,109,110,111,111,111,112,110,110,112,113,110,107,107,111,112,112,112,113,112,111,111,110,110,113,113,112,110,110,111,111,112,112,111,111,111,111,111,112,112,111,110,109,109,111,111,111
111,112,113,110,111,110,110,110,112,112,110,109,112,113,111,111,113,113,113,114,112,110,111,111,111,110,109,112,112,111,111,111,110,111,110,110,110,111,111,109,107,109,111,111,110,111,111,111,110,111,110,108,110,113,111,110,112,113,113,109
112,110,112,114,114,113,113,112,112,112,112,111,111,112,111,111,114,114,111,112,111,111,112,111,111,112,111,109,109,112,114,111,109,111,112,110,110,112,113,109,107,110,110,109,111,111,112,111,109,110,111,109,110,113,113,112,111,112,112,109
111,109,109,111,113,113,113,112,112,111,112,110,109,111,110,111,113,113,110,110,112,110,113,113,112,114,113,112,111,113,114,113,109,111,114,112,110,112,113,111,110,109,108,109,111,112,112,110,109,110,111,112,111,111,112,109,109,114,115,112
116,112,106,107,110,110,107,111,113,111,112,111,110,113,110,110,110,110,111,111,113,110,113,112,109,111,112,113,112,110,111,112,113,115,115,110,110,111,111,112,112,110,108,111,109,112,112,110,108,110,112,111,110,112,110,108,110,115,112,112
111,110,109,110,111,109,105,112,113,111,113,111,112,113,111,110,109,111,113,112,109,109,113,110,108,109,110,115,113,110,111,110,111,115,113,112,111,112,112,112,111,112,110,111,109,111,112,111,110,111,113,111,111,112,108,109,112,112,108,109
109,111,109,110,114,114,110,111,114,111,110,108,111,111,112,110,110,112,115,111,106,108,114,111,111,112,110,113,114,113,114,111,112,113,110,113,112,112,116,112,111,111,110,111,111,111,111,111,111,112,110,111,110,110,109,110,111,110,108,110
111,113,111,109,112,114,108,109,112,110,109,110,108,110,114,109,108,111,112,112,110,110,112,111,109,112,112,112,113,113,118,118,116,114,113,114,114,114,116,112,112,111,110,109,111,112,110,110,111,111,110,110,111,111,111,110,110,109,109,112
110,110,110,109,110,110,109,111,109,109,111,111,110,111,113,110,108,110,112,113,113,113,113,109,107,110,113,113,113,114,122,119,116,114,114,113,113,113,111,110,112,113,109,110,111,112,110,110,110,112,113,112,111,112,111,110,111,110,109,114
111,112,109,110,113,114,111,111,110,110,110,111,112,112,111,113,112,114,113,112,110,113,115,110,110,115,114,116,118,116,121,121,117,115,116,113,110,109,109,108,111,111,109,111,111,111,111,110,109,110,113,113,113,110,109,113,113,112,111,113
111,114,111,110,112,112,109,111,112,110,110,111,111,112,111,111,112,114,112,112,112,112,114,112,111,114,116,117,122,120,122,124,120,117,116,115,113,109,112,109,109,110,110,110,112,109,111,113,111,109,111,111,111,110,111,114,113,112,114,112
111,111,111,110,108,109,110,111,110,111,111,110,110,110,111,108,110,111,109,112,115,111,111,111,108,114,116,115,119,126,130,129,122,121,117,117,113,110,113,111,109,109,109,111,113,109,111,115,111,112,112,109,108,111,111,110,112,110,111,113
111,109,112,111,107,109,112,112,110,112,112,109,111,112,112,109,111,111,108,111,114,115,114,112,110,114,115,118,120,127,132,128,123,122,120,116,112,111,112,111,109,109,109,110,111,110,113,113,107,111,114,109,106,111,113,111,113,112,110,114
109,113,116,115,111,109,111,113,112,113,114,112,112,115,113,112,112,111,109,108,109,114,116,114,114,115,118,122,124,130,134,130,127,123,119,116,115,111,112,112,111,110,111,109,108,109,111,111,108,110,114,111,110,111,113,113,111,111,112,112
111,111,110,112,112,113,110,110,110,111,112,110,112,114,113,110,110,111,111,109,106,110,114,112,112,114,117,122,126,129,130,133,132,125,117,114,114,113,115,114,111,109,112,111,109,110,111,110,113,112,113,111,110,111,112,112,110,112,113,113
111,110,109,110,110,111,111,111,109,108,109,109,110,113,112,110,111,113,114,113,110,110,114,111,108,111,113,116,124,131,132,132,128,125,120,113,111,114,115,113,111,110,111,112,110,111,112,112,114,114,111,111,110,111,111,112,111,110,110,111
111,112,114,111,110,111,110,112,112,111,111,112,111,112,113,113,111,112,113,115,115,113,114,113,110,113,119,121,127,132,131,132,126,123,120,116,112,112,111,111,111,112,110,110,111,110,111,112,112,112,111,111,111,111,110,110,110,108,111,114
110,109,110,108,107,111,111,112,113,112,112,112,112,111,114,113,110,110,112,115,115,112,113,114,113,115,121,126,129,131,131,134,133,124,116,114,114,113,112,111,110,110,109,109,110,110,111,112,109,110,111,111,111,111,113,114,114,110,107,111
111,110,111,112,112,111,112,112,111,111,112,112,111,111,113,112,111,113,114,114,113,112,112,112,114,117,121,125,128,129,130,129,127,122,117,117,117,114,112,112,110,109,109,110,110,109,112,113,110,109,111,112,111,113,113,112,114,110,105,109
111,113,110,113,114,112,110,110,109,109,110,110,111,112,112,111,110,113,113,113,113,113,110,111,116,120,120,121,127,130,130,128,126,123,122,119,116,112,111,111,111,110,112,114,113,109,111,112,110,109,109,111,111,108,106,107,111,111,110,109
111,112,110,108,109,112,112,111,110,110,109,109,112,113,112,110,109,109,111,112,113,113,110,109,112,117,120,122,127,133,134,132,129,125,121,116,112,112,112,112,112,112,114,116,115,113,111,110,111,112,110,110,111,108,106,108,111,111,111,112
111,113,111,108,111,114,114,113,113,111,110,110,113,113,113,112,110,111,112,111,111,111,111,110,112,117,122,127,131,134,133,132,129,123,118,114,113,115,113,111,112,112,112,114,115,114,113,111,110,113,113,111,111,111,113,114,112,111,113,114
112,114,114,111,112,112,112,112,111,112,112,112,113,112,111,111,112,114,114,111,110,110,111,112,114,117,122,128,131,130,130,131,130,124,117,114,113,113,110,108,109,110,110,112,112,111,112,111,110,111,113,111,109,110,113,114,112,112,114,115
112,110,111,112,110,111,110,109,110,112,112,111,111,110,109,111,112,113,114,113,111,111,112,113,115,117,123,126,126,127,130,132,132,127,120,113,110,108,106,108,110,109,109,110,109,109,110,110,111,112,112,110,109,109,110,112,111,110,110,111
112,112,113,113,111,111,111,109,111,112,110,110,111,111,110,111,112,112,113,114,114,113,113,113,116,118,122,128,130,129,133,136,134,127,120,116,112,109,108,111,113,112,110,109,109,110,111,111,112,113,112,110,110,110,110,111,112,110,109,110
113,112,113,114,111,112,114,111,111,111,109,109,110,111,111,111,112,112,112,113,113,113,113,113,116,119,122,128,132,132,134,137,135,128,119,116,116,113,111,112,114,115,113,110,110,111,112,113,114,114,111,110,111,112,111,113,115,113,112,111
114,112,111,111,111,111,112,111,110,111,111,110,111,112,112,112,112,112,111,111,113,114,112,112,117,122,124,126,131,134,134,136,133,123,117,115,114,112,111,112,113,114,115,113,111,110,111,112,113,112,111,111,112,112,111,110,113,114,112,111
111,114,113,112,112,113,113,112,110,110,112,113,112,112,111,111,111,111,111,112,115,115,113,112,115,121,128,130,127,128,131,132,129,123,119,116,114,111,110,112,112,111,112,113,112,110,110,111,109,110,113,112,110,109,108,108,108,110,112,114
110,113,112,112,113,115,116,114,111,108,110,113,111,111,110,109,112,113,112,114,117,117,116,116,117,120,127,129,128,128,131,130,126,122,119,114,113,111,109,110,111,110,110,112,113,114,111,109,108,111,114,113,111,110,111,111,111,110,112,114
113,112,111,113,113,111,114,115,115,109,110,112,110,111,111,110,113,113,112,111,114,117,116,119,121,118,121,128,133,133,133,130,122,119,116,112,112,114,114,111,110,111,112,114,114,113,111,109,109,111,113,112,112,113,113,110,111,111,112,112
108,112,112,113,112,110,112,113,113,110,111,113,111,110,112,112,110,112,111,110,112,114,113,115,120,121,127,133,135,134,132,131,126,118,116,112,110,112,114,113,112,111,112,114,114,112,113,111,111,113,111,111,113,112,112,111,110,111,112,113
109,111,112,113,111,111,111,111,110,109,112,114,110,110,113,111,109,113,112,112,113,114,115,116,121,126,128,132,135,137,133,133,127,119,117,112,110,111,113,114,114,112,110,110,113,112,113,111,113,113,109,110,114,113,114,114,113,111,109,110
112,111,110,112,113,113,112,109,110,110,114,111,111,113,111,109,109,113,113,113,114,114,118,118,122,124,129,135,134,137,139,136,131,123,121,116,111,113,113,112,112,112,112,109,110,112,114,111,112,113,108,108,112,114,115,114,112,110,111,111
111,111,111,112,111,111,113,110,112,112,113,111,113,114,110,109,109,113,113,113,114,113,115,119,124,126,134,149,152,152,152,146,141,129,122,119,116,115,114,111,109,110,112,111,112,113,115,112,111,114,110,109,110,113,112,113,112,111,114,112
110,111,111,113,114,109,108,111,110,110,113,111,112,112,112,110,112,112,111,113,116,113,116,120,125,132,144,163,169,170,172,166,157,142,126,121,118,114,114,113,111,110,109,110,113,112,113,112,112,114,110,109,109,111,111,110,111,113,111,108
108,112,110,110,113,112,110,113,108,109,112,110,111,113,113,109,110,110,110,113,116,115,119,124,128,143,160,178,189,191,191,185,179,168,143,124,118,111,110,114,116,110,109,110,111,111,112,110,110,112,109,111,111,110,110,110,110,112,109,108
110,110,108,110,109,112,110,112,110,111,112,111,110,113,112,109,107,109,112,113,115,118,118,125,133,159,187,214,227,224,223,218,207,189,156,127,119,114,111,113,114,109,112,111,111,111,113,111,110,111,111,114,113,109,111,112,112,114,109,109
112,109,111,115,111,112,112,114,112,110,112,111,110,111,113,112,110,111,113,112,112,118,116,121,137,166,203,235,236,233,237,228,217,189,154,131,119,117,114,112,110,109,116,113,112,112,112,112,110,111,113,115,113,111,114,114,110,111,110,110
111,112,112,114,113,110,112,114,112,110,111,109,110,112,114,113,111,111,110,110,113,116,113,119,140,161,191,214,213,205,206,203,190,171,148,133,119,115,114,112,110,110,116,114,114,112,110,110,108,113,112,113,113,112,113,113,111,110,112,110
111,114,111,112,113,109,110,113,112,111,111,108,111,112,113,112,111,111,110,111,115,117,115,119,137,153,175,188,184,177,178,179,173,162,142,126,117,116,115,115,113,110,113,112,111,110,110,110,108,113,113,112,110,108,110,111,109,108,110,113
108,110,108,112,114,107,108,112,111,113,112,111,112,111,111,112,113,111,113,113,115,118,117,119,130,140,152,164,166,169,171,165,158,153,138,122,117,117,116,117,114,110,113,109,107,109,112,113,111,111,110,110,110,108,108,112,111,111,112,111
110,111,110,113,116,112,108,111,112,112,110,111,112,111,111,111,112,111,112,113,115,115,117,120,122,129,141,149,155,154,154,158,159,149,131,121,117,112,111,112,113,111,112,109,110,112,112,113,112,111,110,109,113,113,109,112,113,114,112,109
113,112,110,112,117,116,112,112,112,110,110,110,111,111,109,108,111,112,111,113,115,113,114,118,119,127,135,140,150,152,145,153,159,146,128,118,115,110,109,110,113,112,109,111,113,113,112,112,112,114,113,110,113,113,111,109,110,111,111,109
111,112,110,110,111,114,114,113,113,111,112,113,112,111,110,110,113,113,113,113,113,114,113,116,120,127,134,136,140,139,138,149,153,144,128,117,114,113,113,113,112,113,110,112,111,111,111,112,111,113,113,111,110,108,113,113,112,111,111,112
109,110,111,110,110,113,114,111,111,112,111,113,113,112,111,112,113,112,112,112,111,114,116,117,120,123,128,134,137,138,139,145,147,139,125,115,112,111,110,111,112,112,112,111,110,111,111,112,110,112,114,115,114,110,110,112,111,113,109,108
109,112,112,112,111,112,112,109,109,111,108,110,113,111,110,111,111,109,110,112,111,114,117,118,118,122,126,131,137,143,140,137,135,128,121,116,111,109,108,109,110,112,111,109,110,109,110,113,110,110,113,115,116,113,111,112,111,110,110,110
110,109,110,109,108,110,113,111,110,112,111,111,111,110,111,112,112,111,111,112,112,112,114,116,117,120,125,129,133,138,134,129,128,124,119,115,114,113,111,110,111,112,109,108,111,110,109,111,111,111,111,109,110,111,111,113,111,108,109,110
111,109,110,113,112,111,111,111,113,114,115,113,111,111,114,113,112,111,110,112,112,112,112,114,117,120,124,129,131,131,131,129,127,121,116,112,112,113,113,113,112,111,110,110,111,111,109,110,112,112,111,110,110,110,111,113,112,111,112,113
111,112,111,112,115,112,109,108,112,114,114,115,113,112,113,113,111,109,109,110,111,112,114,114,117,121,123,125,128,130,133,130,124,119,115,112,110,110,112,115,112,110,111,112,112,111,110,112,114,113,112,112,112,112,112,113,114,114,113,112
109,109,110,110,112,112,111,111,112,112,111,112,113,112,112,113,112,111,112,112,112,112,113,114,115,120,125,129,130,129,127,126,122,116,114,114,113,112,112,113,111,109,111,112,111,110,110,112,111,110,111,112,111,111,112,114,114,110,111,112
113,111,111,111,111,112,112,113,113,113,112,110,110,111,113,113,112,112,113,112,111,111,113,116,119,123,128,131,131,129,129,126,120,115,114,114,113,113,112,109,110,111,110,110,110,110,110,110,107,108,111,112,110,110,111,115,115,112,114,116
112,114,114,113,113,112,110,110,111,112,112,112,111,111,112,113,112,109,110,112,111,111,112,115,118,122,127,131,130,127,126,125,121,117,114,110,109,112,112,110,111,113,111,110,111,111,111,112,109,108,111,111,110,111,110,110,108,107,110,111
114,113,110,110,111,110,109,109,110,110,110,113,114,111,110,112,113,112,112,114,115,114,113,114,117,123,128,128,129,132,131,128,123,119,115,112,110,109,110,111,114,115,114,112,113,114,114,114,113,109,108,109,110,111,111,113,113,111,108,106
110,112,112,109,108,111,111,110,111,111,110,111,112,109,109,111,114,114,113,113,113,113,113,115,119,126,129,126,128,132,132,128,124,118,115,112,109,107,109,113,114,114,115,113,111,113,113,113,114,112,107,107,110,111,112,114,113,112,111,109
110,111,111,108,107,112,114,112,112,115,115,112,109,109,112,113,112,111,110,109,112,111,113,116,119,124,128,128,129,130,130,127,122,117,114,111,110,110,111,111,111,113,113,111,110,111,110,110,112,113,111,109,110,109,108,108,111,112,111,111
109,110,110,109,109,111,113,113,113,113,114,113,110,110,112,111,110,110,109,109,113,113,113,116,118,122,124,128,130,129,126,122,118,114,114,114,110,108,108,109,110,112,113,111,111,111,109,109,110,111,111,111,110,110,109,108,110,113,114,112
109,112,114,111,110,110,111,113,113,110,109,113,113,108,108,110,112,114,112,110,112,112,113,118,121,125,131,131,130,129,124,119,119,113,110,112,110,108,109,110,111,112,113,113,112,112,110,111,112,112,112,111,109,111,114,113,110,110,113,112
111,112,111,110,111,113,114,112,112,109,107,112,113,108,107,110,113,115,115,114,113,112,114,118,120,124,131,135,134,129,122,119,118,112,108,110,112,114,113,112,113,112,110,111,111,111,110,111,113,114,114,112,112,109,110,112,112,110,111,112
111,113,111,112,113,112,115,113,111,110,108,111,112,111,110,110,110,112,117,117,114,113,114,117,121,124,128,131,131,125,121,117,115,112,110,110,112,114,113,112,115,115,111,111,112,111,110,111,111,112,113,111,111,111,110,113,112,111,111,111
113,113,108,111,112,111,113,112,112,114,111,112,113,113,112,112,110,111,116,115,112,112,116,118,124,126,125,127,127,126,124,117,113,112,111,111,110,111,112,111,112,115,113,112,112,111,111,111,110,111,111,109,110,111,113,113,112,110,112,110
111,111,108,109,109,112,112,111,111,112,115,113,113,112,112,113,112,112,112,112,110,111,116,117,120,123,124,124,125,124,123,117,112,113,112,111,111,111,112,111,109,112,112,111,112,111,111,111,110,111,110,109,111,109,108,108,112,112,112,112
113,110,111,112,107,111,112,109,109,111,113,112,111,112,112,113,110,111,110,111,109,111,117,122,122,127,129,129,128,120,117,116,114,113,111,110,110,111,112,110,109,112,111,110,113,112,110,110,111,111,112,111,110,109,109,109,111,110,111,112
113,110,112,116,109,109,113,109,110,112,110,111,109,110,110,112,111,112,112,113,111,112,117,122,124,129,132,134,130,121,116,114,113,111,112,111,109,111,112,110,110,112,110,110,112,112,110,111,114,113,112,112,112,111,110,110,112,110,111,114
111,110,112,117,112,111,115,113,112,112,109,109,109,108,108,112,112,114,113,113,114,115,114,118,120,124,127,126,125,122,117,114,111,112,113,114,110,112,112,110,110,110,110,110,112,111,112,111,113,113,111,110,111,112,110,112,114,112,112,112
108,109,108,111,110,111,115,112,110,110,109,107,110,111,109,113,111,114,112,112,112,114,114,120,123,125,128,125,122,120,118,118,110,114,114,114,113,112,112,111,110,110,109,112,112,114,114,110,110,112,111,109,110,112,109,111,114,111,108,108
111,110,110,108,109,112,113,113,111,111,111,109,112,113,112,112,113,112,111,112,113,115,119,123,125,126,129,128,124,118,117,116,107,113,113,114,112,109,111,112,111,110,109,112,110,114,114,111,109,111,114,110,111,112,109,109,109,112,111,109
111,111,111,109,111,110,110,113,114,114,113,113,113,113,111,112,113,110,110,112,114,118,119,120,124,127,127,126,125,119,116,115,108,109,111,113,113,108,108,113,112,113,112,111,110,109,112,112,110,111,115,111,108,110,111,113,110,110,111,111
110,111,109,109,112,112,112,111,111,114,112,111,111,113,111,110,112,109,109,112,114,115,118,119,123,129,130,126,123,120,116,115,113,110,113,115,112,111,108,110,110,115,114,112,112,109,110,114,113,110,115,110,107,107,111,114,113,108,109,113
113,113,109,109,111,112,111,110,110,111,108,108,110,113,111,110,113,111,109,112,114,111,114,121,123,126,128,121,119,115,111,111,111,110,114,114,112,115,110,107,109,115,113,112,113,110,109,114,112,109,113,112,110,109,111,109,111,110,108,113
112,113,110,107,106,109,109,110,112,110,109,110,110,111,113,112,111,112,110,111,114,112,113,121,123,123,125,120,119,116,111,112,112,110,110,111,112,117,111,108,109,113,111,112,112,109,108,112,110,108,110,112,113,111,112,111,114,116,112,111
111,112,111,109,110,109,109,110,112,113,113,110,108,110,114,113,111,112,110,111,114,114,115,118,122,123,120,120,119,115,113,115,117,113,108,109,109,111,112,110,110,112,111,110,110,110,111,111,111,110,110,112,114,113,112,113,111,113,113,110
113,115,114,111,112,112,111,112,112,114,113,107,107,111,111,112,113,111,110,114,115,111,112,116,118,120,116,113,113,111,110,114,113,111,111,110,107,107,112,113,110,111,111,110,109,112,113,111,110,111,112,112,112,111,110,110,107,108,109,111
110,112,113,113,112,112,112,112,112,112,111,110,111,113,110,110,112,110,111,115,116,112,111,113,116,118,115,112,110,113,111,110,109,110,113,112,109,108,112,113,110,112,111,111,111,112,111,111,110,112,112,111,109,112,114,113,111,113,112,111
110,110,113,113,110,108,112,114,112,111,111,113,115,113,109,110,110,109,110,111,111,111,112,113,114,116,117,114,112,113,112,109,111,113,114,114,112,111,111,112,111,113,112,111,112,112,111,111,112,114,113,111,111,111,112,113,110,110,110,109
112,113,112,113,112,108,111,114,113,110,110,112,113,110,109,111,111,111,111,111,111,110,110,114,115,113,114,116,113,110,109,111,111,112,115,114,112,110,111,112,110,110,112,110,110,112,111,111,111,112,110,110,114,111,109,112,114,110,108,111
111,112,110,111,112,109,108,111,112,109,108,110,111,111,112,112,110,111,113,114,113,112,110,111,109,107,110,112,111,112,113,114,111,109,112,112,111,111,112,112,109,108,111,110,109,111,113,112,110,110,109,110,114,113,111,112,111,108,110,114
113,112,111,110,111,112,108,109,111,110,109,110,110,112,113,111,108,110,113,114,113,113,112,113,113,111,112,111,110,110,110,111,111,110,110,111,111,112,113,112,110,111,111,111,111,110,112,114,113,112,112,111,111,111,111,112,111,111,113,112
111,112,113,111,109,111,110,110,110,110,111,111,111,110,110,111,111,112,112,113,113,112,109,112,115,113,112,112,109,107,107,108,110,112,111,110,112,112,111,110,110,110,111,111,112,111,110,112,113,113,112,111,111,109,109,111,108,106,111,111
109,108,110,110,110,111,112,110,110,110,111,111,111,109,108,111,113,112,111,112,113,112,111,112,113,111,111,113,113,113,111,109,110,113,114,112,111,111,109,110,110,109,110,111,112,112,110,109,110,109,111,113,112,109,108,111,112,112,112,112
110,110,110,112,113,113,112,111,109,109,109,110,113,112,110,109,111,111,111,112,113,115,115,112,112,115,116,112,112,115,114,110,109,112,113,112,111,111,110,111,113,112,111,112,112,111,109,109,109,109,111,113,111,109,109,113,114,112,110,110
113,113,112,111,111,110,111,112,109,107,109,111,114,114,112,110,111,112,113,113,111,111,112,110,108,111,113,108,106,111,112,111,111,112,112,112,112,112,111,113,114,113,111,110,110,108,108,110,113,113,113,113,112,110,110,111,110,111,110,107
114,112,109,108,109,109,108,109,109,108,110,113,113,113,113,113,113,112,113,112,110,109,110,110,111,115,116,111,107,109,113,113,111,109,110,113,113,112,112,113,113,110,109,109,109,109,109,111,114,114,110,108,111,113,111,109,108,112,114,110
111,109,107,111,115,115,110,108,111,112,111,112,113,113,111,111,112,112,113,113,112,112,112,111,110,111,113,112,112,112,110,110,110,108,108,110,112,112,111,111,110,110,110,111,110,111,113,112,110,112,111,109,110,112,111,110,111,112,114,112
112,114,112,112,115,116,113,110,112,113,112,111,113,112,110,110,111,111,111,112,112,112,112,111,112,112,111,110,111,113,113,112,111,110,108,107,109,112,113,111,111,111,110,110,112,113,114,112,109,111,114,113,110,110,111,110,111,114,116,114
112,113,112,112,112,110,110,110,110,111,110,110,112,112,111,112,112,110,110,110,108,109,111,111,112,113,112,111,112,112,111,111,111,110,108,107,108,111,114,114,115,113,110,111,112,112,112,112,111,112,112,111,110,111,111,108,106,108,113,113
113,111,109,112,112,109,108,110,111,110,109,109,110,111,111,110,112,110,110,111,109,109,109,111,113,112,111,112,113,113,110,109,111,111,111,110,109,109,112,114,114,113,111,110,111,110,110,111,112,110,111,112,113,110,110,111,111,111,110,111
113,113,112,111,111,112,112,113,114,112,111,111,110,113,111,108,111,111,109,112,113,110,107,110,113,112,110,111,112,113,112,113,112,112,113,112,109,111,112,112,110,110,111,109,108,109,112,112,110,109,109,112,113,111,108,108,111,114,112,110
