54,62,70
118,115,112,114,111,112,115,112,113,113,119,118,115,114,115,116,118,114,120,115,112,110,118,114,118,116,114,115,113,114,113,117,115,115,113,117,116,115,112,116,117,114,113,111,116,111,110,114,116,112,114,110,121,115,117,115,111,113,115,112
115,116,116,114,120,118,117,116,111,114,115,114,114,116,117,115,111,113,119,117,114,116,112,113,115,118,114,114,114,115,118,119,117,118,112,114,114,115,116,112,109,116,113,113,117,115,111,114,113,116,114,113,116,112,117,116,117,112,117,115
113,114,113,111,112,111,116,119,112,115,114,112,115,117,115,114,109,112,117,119,118,116,114,116,114,113,114,114,115,114,110,114,114,114,116,118,115,113,109,117,116,114,115,118,117,114,114,118,115,115,113,114,113,115,118,114,114,115,113,115
118,119,114,115,113,116,116,112,108,114,116,115,118,117,112,112,116,114,114,113,117,117,114,119,117,112,113,116,119,120,115,116,117,112,116,119,118,122,117,113,119,116,118,116,113,115,115,115,115,114,115,112,114,118,116,112,112,113,115,115
115,115,114,112,118,117,117,116,113,116,119,114,112,113,116,118,117,113,110,113,114,111,114,116,119,114,111,117,115,117,114,110,113,115,114,109,115,121,118,115,117,116,115,111,114,113,110,113,111,115,119,116,115,116,114,116,117,116,115,111
112,115,116,118,119,118,114,114,118,116,117,121,115,115,117,110,116,119,116,119,113,115,113,116,118,114,115,112,112,113,112,114,118,120,116,115,112,113,113,113,116,119,115,112,115,119,115,113,112,115,114,114,110,113,112,111,117,118,111,113
112,116,109,110,114,112,113,114,116,113,114,111,116,118,116,117,118,113,118,114,113,110,110,114,109,113,115,112,113,115,113,115,114,114,118,121,119,119,114,113,118,117,119,115,112,114,120,115,116,119,116,115,116,117,116,113,118,116,113,118
111,114,114,114,116,112,117,114,113,111,112,113,110,114,112,118,119,109,115,110,116,116,114,117,116,116,115,123,118,115,114,111,116,113,115,115,116,114,116,119,112,111,112,113,115,117,115,118,112,116,113,111,117,117,114,114,116,114,117,113
117,114,118,118,113,114,111,110,110,116,115,111,116,117,116,110,111,114,112,110,110,115,114,116,114,118,113,111,114,116,114,109,113,114,116,113,109,112,116,111,115,114,112,115,112,113,109,112,113,116,114,117,107,117,112,112,112,117,115,116
113,115,116,114,115,120,116,115,114,117,117,114,114,115,115,111,111,115,115,116,117,114,111,114,115,113,112,113,114,116,116,111,111,114,116,119,113,117,118,113,111,113,112,117,116,118,113,114,113,115,116,116,111,115,113,114,118,115,112,115
114,116,116,114,117,113,111,114,114,113,114,111,116,117,114,115,115,113,112,118,119,119,119,115,116,113,114,117,117,116,117,117,116,115,111,115,116,115,109,112,110,115,112,115,117,112,110,118,116,114,116,117,118,117,119,111,119,114,115,113
115,113,113,114,116,119,117,114,113,112,113,112,117,115,117,116,113,115,112,115,113,112,117,114,115,114,114,115,114,117,114,115,118,116,115,114,116,118,113,113,119,117,115,113,114,116,117,116,117,118,114,114,110,110,110,116,115,113,111,114
113,116,116,119,114,112,117,115,115,114,117,116,114,111,115,115,112,116,119,118,112,112,118,116,115,116,114,113,118,120,113,112,116,114,115,114,115,118,120,118,116,113,116,117,114,114,113,115,115,114,111,113,110,111,115,119,120,115,113,116
116,115,111,113,113,113,113,112,115,113,115,114,115,117,114,115,114,115,110,108,118,117,118,118,115,117,118,116,114,114,119,114,118,116,115,114,116,116,115,116,114,117,118,114,115,115,117,117,114,115,114,111,115,115,115,117,115,116,118,117
116,112,113,115,118,118,116,114,116,115,114,111,112,112,112,110,118,114,114,117,114,108,113,115,117,114,116,114,111,116,106,112,114,116,114,116,118,113,118,114,115,115,117,115,116,116,116,118,114,117,120,119,115,114,119,115,116,119,116,115
116,114,109,115,115,113,116,111,118,118,115,114,119,112,113,113,117,117,119,120,115,116,111,118,116,111,118,119,117,113,118,120,114,113,114,114,121,114,110,111,113,111,114,113,114,117,113,116,113,117,118,116,119,113,118,117,113,117,113,117
115,115,114,116,116,114,116,114,117,115,110,116,113,113,121,115,113,114,111,115,115,111,112,114,119,115,114,113,114,118,118,113,113,116,118,112,109,111,116,119,112,116,119,115,111,114,120,112,114,111,112,113,113,116,113,112,113,112,117,119
116,117,119,120,117,115,114,118,116,112,114,119,113,111,112,116,114,115,118,114,114,115,116,115,116,116,115,116,113,115,112,118,116,116,117,118,115,120,115,117,115,115,117,115,115,112,117,116,114,113,119,112,115,116,117,115,119,114,117,112
116,116,114,112,111,112,118,120,114,114,115,115,113,117,115,112,115,118,113,115,117,115,116,117,114,117,118,113,115,113,113,121,119,113,116,113,115,115,112,114,114,112,113,115,114,118,118,114,117,115,113,118,119,110,115,114,115,119,114,111
113,115,115,115,114,116,117,113,114,118,113,114,115,116,115,115,114,116,119,112,114,117,112,112,116,118,117,117,119,117,116,113,113,115,116,112,113,111,115,118,115,116,116,115,113,113,113,112,111,114,113,115,113,112,118,116,111,111,117,119
112,112,112,116,110,112,115,113,116,117,115,112,110,111,114,115,115,114,115,118,113,114,116,116,110,113,117,114,112,113,113,114,113,117,118,117,117,114,112,113,118,118,113,114,111,112,116,117,115,117,117,114,116,117,118,114,116,114,115,114
115,111,112,114,122,115,108,116,111,117,112,113,116,116,116,112,112,117,116,118,116,120,116,118,111,110,114,112,117,115,114,112,112,115,117,114,114,119,118,111,118,116,117,118,119,113,110,117,111,113,117,114,114,114,114,115,115,116,115,117
118,117,113,113,110,107,115,117,110,114,112,115,115,115,114,117,112,116,120,114,115,113,117,117,113,112,112,117,123,115,120,115,116,111,118,118,118,117,116,114,115,112,116,114,115,116,113,118,115,114,112,114,113,119,116,112,108,115,117,116
116,111,116,116,116,115,113,116,115,111,116,117,114,115,115,116,117,113,112,115,115,117,117,116,112,111,110,115,115,117,111,116,117,117,113,116,109,109,113,114,112,116,118,116,117,123,114,115,115,116,115,113,117,108,114,115,114,117,116,116
117,115,113,116,115,122,112,114,116,116,111,115,112,114,115,117,116,114,114,116,113,113,117,115,116,111,112,124,117,113,113,112,112,115,113,118,114,113,114,113,115,114,116,117,111,110,114,111,116,115,109,110,116,119,115,115,117,119,114,110
115,117,111,116,117,113,117,113,116,120,114,111,118,113,115,116,116,115,114,107,116,113,113,115,118,117,113,116,116,116,116,110,114,116,113,113,112,116,116,112,115,113,113,109,112,117,121,113,116,115,111,115,111,123,119,115,114,113,110,112
115,117,116,116,115,111,112,115,115,116,117,109,115,116,109,114,114,112,116,118,116,116,114,116,113,115,113,115,117,111,119,115,113,113,110,116,111,113,113,113,114,119,117,116,115,115,112,112,115,117,115,115,116,113,117,115,113,110,111,112
114,119,116,121,117,114,115,117,113,112,116,117,117,115,113,112,108,117,116,109,113,117,113,112,111,115,117,114,115,117,114,116,117,109,109,117,117,118,113,113,111,112,115,115,114,114,110,111,118,115,114,115,116,114,115,111,114,114,113,120
115,115,113,115,114,121,114,116,113,115,116,107,115,113,119,116,115,116,113,120,121,116,109,112,117,115,117,117,119,113,111,117,116,114,116,118,113,116,117,112,113,113,116,114,108,114,120,116,115,117,113,112,114,114,114,112,113,116,116,110
113,113,113,117,111,117,115,118,118,118,117,114,110,115,115,115,120,111,111,116,114,116,112,114,119,117,115,112,116,116,117,117,114,121,115,112,119,116,109,112,117,116,115,112,114,117,116,117,113,113,114,115,121,115,113,118,115,117,119,116
112,114,116,110,118,115,114,113,116,115,115,119,112,114,117,114,109,115,114,111,110,111,119,112,114,116,117,110,116,118,116,117,114,119,112,110,117,114,113,115,113,115,115,114,113,117,114,114,115,115,116,115,114,117,112,117,115,114,114,115
114,114,118,116,117,117,111,111,116,116,114,112,116,108,113,109,113,115,113,111,118,115,117,115,115,112,121,115,120,114,114,119,118,116,117,117,118,115,116,115,115,112,114,120,119,116,112,109,115,117,116,117,118,116,109,109,112,112,111,116
113,114,119,117,110,111,115,114,114,110,117,114,114,112,109,111,118,115,119,117,115,112,114,121,115,116,115,116,115,115,114,113,118,119,114,109,118,115,110,116,115,115,114,110,115,116,116,112,114,115,112,110,111,113,114,116,115,117,110,115
115,116,112,116,116,119,115,111,112,115,112,111,113,114,117,118,116,118,110,108,114,116,116,117,109,112,117,115,115,120,118,111,115,122,115,112,108,115,114,111,114,113,121,116,116,108,116,114,113,117,110,113,119,117,114,117,116,115,114,114
112,110,114,116,118,117,112,114,118,117,112,112,118,118,116,116,117,113,116,121,112,113,112,112,116,117,114,115,116,118,114,112,115,115,115,112,114,113,117,116,118,114,119,112,113,112,121,114,115,114,109,116,114,113,114,115,114,112,113,114
116,115,116,117,113,115,113,115,116,113,117,118,112,114,118,116,115,114,112,114,116,114,111,115,119,118,115,114,124,120,112,114,115,114,118,117,116,116,118,116,117,115,117,115,117,116,112,114,115,114,118,113,116,116,111,115,112,112,116,115
115,114,112,115,114,115,114,113,116,116,112,113,111,112,114,117,115,117,117,114,119,121,115,114,116,111,114,115,114,115,118,117,116,114,114,117,117,116,118,114,110,113,113,112,111,114,116,116,116,115,115,121,115,115,115,116,117,117,118,119
111,116,120,115,114,119,111,118,117,114,112,116,118,114,115,117,117,119,114,112,107,112,118,115,119,118,117,117,115,118,116,113,114,112,113,118,119,116,115,115,117,115,113,115,114,113,116,111,114,119,112,110,109,112,113,113,122,117,112,115
117,114,117,114,115,118,113,119,116,114,114,112,114,116,118,115,113,115,109,123,118,116,114,115,115,117,113,115,119,111,112,116,114,113,114,110,114,114,116,115,121,114,115,117,116,110,110,113,115,112,113,111,116,115,117,112,114,113,115,114
115,114,113,119,112,111,117,113,113,112,118,112,116,118,113,110,116,114,120,119,115,115,111,115,115,111,113,114,113,112,116,118,114,113,116,120,112,114,111,116,114,116,110,111,114,121,112,116,119,117,112,114,110,110,114,115,116,116,114,109
115,114,119,114,112,111,112,112,117,118,116,118,117,115,112,113,113,115,119,112,111,115,117,112,113,117,117,111,115,113,116,114,117,112,107,115,121,116,110,116,115,115,113,115,114,111,116,115,116,119,118,114,116,117,114,113,115,119,111,112
115,116,111,113,118,114,109,113,119,115,117,119,113,108,113,117,115,117,116,118,115,118,117,114,116,115,118,117,115,120,113,111,113,115,106,115,116,112,114,109,110,113,112,116,116,115,119,113,111,118,116,115,111,113,118,112,108,112,115,113
115,115,116,119,115,113,116,115,115,113,115,117,113,112,113,116,116,112,114,118,119,116,113,117,116,114,117,115,113,118,116,115,114,120,119,113,118,113,107,112,109,113,116,118,108,115,112,115,111,118,117,120,115,113,112,115,116,113,111,114
114,114,109,113,114,115,116,115,115,115,120,122,115,117,117,112,116,114,116,118,113,118,117,117,117,117,119,119,119,117,114,114,112,115,114,113,116,117,116,121,114,112,115,117,113,114,116,118,116,110,113,115,117,110,111,112,115,118,107,116
116,115,114,115,114,115,112,113,113,114,118,114,115,119,116,112,114,117,116,117,117,115,114,118,119,122,116,110,113,119,117,115,115,112,115,116,111,114,118,115,113,114,118,119,115,114,117,118,113,113,118,116,109,114,115,115,116,114,114,116
113,117,116,113,112,117,117,114,117,115,113,118,113,111,114,115,116,117,118,114,117,117,118,123,119,126,125,123,119,117,113,112,117,115,115,115,113,111,113,112,114,112,113,116,115,115,116,117,113,116,117,117,118,113,118,117,117,117,115,115
115,116,117,113,119,117,113,114,115,118,117,114,115,114,115,115,114,112,118,119,122,122,121,121,119,120,125,121,119,114,117,117,117,122,116,115,114,114,114,114,116,119,113,116,120,113,113,118,119,116,115,113,116,115,116,115,115,117,114,114
113,115,113,113,115,112,116,116,117,114,115,115,121,117,117,112,114,117,119,120,122,123,118,124,124,124,136,123,122,125,122,119,119,118,116,113,109,116,120,117,116,113,114,113,118,116,112,117,115,114,115,113,111,115,119,113,113,117,116,119
111,111,116,116,116,117,115,114,114,120,115,118,121,118,113,110,117,120,117,119,117,116,119,121,123,138,129,134,128,121,120,118,115,114,115,109,115,117,118,113,116,112,115,117,112,114,115,116,115,111,111,114,109,117,115,110,114,118,110,117
116,116,112,114,115,115,115,117,113,116,118,114,115,116,115,112,112,122,116,112,121,114,122,117,123,136,131,133,128,127,123,120,120,111,115,113,117,114,115,116,116,111,113,118,111,110,116,116,112,118,116,113,118,115,113,115,113,111,112,114
115,115,113,114,115,114,118,116,115,113,115,117,112,112,116,116,119,114,117,114,116,118,120,123,117,131,140,133,133,130,125,121,122,117,117,114,115,116,117,120,115,112,115,116,113,115,116,117,114,120,118,111,113,112,115,112,112,112,119,112
114,115,117,113,115,113,114,117,118,115,115,119,116,115,115,112,113,116,118,124,120,124,120,120,130,133,136,136,132,129,126,122,115,116,115,115,113,115,116,115,117,121,116,119,119,114,113,114,113,109,111,120,111,111,112,114,117,111,109,122
117,116,113,114,117,116,116,116,114,115,116,115,116,115,116,120,116,114,111,115,115,113,118,122,135,133,133,134,133,132,124,121,121,118,118,119,115,114,116,115,114,115,110,107,114,113,112,112,114,115,114,114,111,116,119,116,116,114,120,119
114,114,114,108,106,115,118,112,114,112,114,112,112,113,115,115,113,113,118,118,115,119,114,122,128,130,132,126,127,126,126,126,120,118,113,109,115,118,112,111,115,115,112,116,111,116,117,112,113,120,120,117,115,114,119,117,113,115,114,111
114,113,108,112,116,115,119,118,115,115,113,114,113,119,115,110,116,114,116,117,119,121,114,120,126,133,132,134,129,131,127,124,120,120,119,119,115,113,115,115,113,117,116,112,115,113,114,116,113,114,117,116,114,114,112,114,115,117,118,116
115,115,117,115,117,114,115,115,121,114,114,113,117,118,118,115,120,117,116,113,118,116,120,117,123,134,133,131,134,132,126,124,120,119,120,119,118,117,116,118,116,112,117,116,113,114,112,118,117,112,112,111,110,116,112,116,119,110,115,114
114,113,114,115,114,113,114,117,121,121,114,114,116,117,119,116,115,115,108,114,118,121,120,124,126,131,131,140,138,130,130,123,123,120,123,118,118,113,112,116,114,111,115,115,113,116,114,114,115,113,112,117,115,112,117,120,115,116,112,117
113,113,114,117,110,112,113,112,118,115,115,114,113,114,115,116,113,116,117,117,121,116,119,126,125,124,133,131,136,134,134,131,123,122,120,119,116,113,115,115,114,118,112,110,116,116,121,110,115,120,115,114,114,112,116,115,114,115,114,113
112,117,113,113,114,114,113,112,117,115,117,121,119,117,115,117,116,112,116,115,112,118,118,123,127,127,128,127,135,129,128,133,122,117,115,117,121,117,114,115,117,114,115,120,119,116,119,113,114,116,115,112,118,114,117,114,120,115,114,112
114,113,116,115,116,115,116,120,119,114,110,114,115,116,115,113,118,114,114,115,115,122,121,118,123,128,132,137,136,135,129,126,127,121,124,123,118,117,117,117,112,119,118,112,112,112,113,114,110,116,113,112,115,116,111,118,117,115,115,118
122,118,117,110,114,119,116,112,113,114,113,115,117,114,114,112,115,115,117,117,116,116,120,122,120,127,135,127,133,143,135,130,130,121,118,115,117,118,115,118,116,115,118,118,112,114,115,114,116,110,113,113,107,113,112,112,117,118,119,117
113,113,112,118,112,111,113,114,116,114,117,115,115,113,109,114,120,115,116,121,124,117,117,119,121,126,135,133,136,137,132,130,122,118,117,117,115,116,118,117,116,115,112,112,119,112,114,115,112,116,119,114,113,118,118,111,111,112,112,114
109,113,116,114,113,111,115,119,113,118,116,111,114,114,114,114,116,117,115,113,118,118,118,116,128,128,126,134,133,128,128,129,128,124,120,116,115,112,117,116,116,115,114,112,112,116,114,114,114,112,115,118,117,114,115,116,109,109,116,118
113,114,111,113,114,116,116,111,118,112,108,117,112,117,116,114,110,114,113,111,115,118,122,119,124,126,141,140,135,134,128,128,126,120,115,117,122,119,115,114,116,113,115,114,111,119,117,112,119,118,112,117,116,110,114,112,113,115,112,117
115,116,116,114,113,113,113,113,114,108,114,114,116,115,113,113,116,119,114,114,114,118,116,116,123,123,128,132,134,133,129,133,124,119,122,118,118,117,118,115,116,115,115,120,116,117,117,117,113,116,112,115,114,114,113,113,117,111,112,109
115,115,114,117,117,113,112,106,113,113,110,113,116,109,113,114,115,117,116,110,114,122,113,119,118,125,127,131,135,133,137,134,130,126,124,120,116,113,115,117,114,119,114,116,114,112,114,120,110,117,118,112,118,120,116,118,115,123,116,117
110,112,114,115,118,116,116,117,114,112,113,115,114,113,115,118,118,118,120,115,117,119,115,114,119,126,130,132,132,134,138,137,130,120,121,115,115,121,117,113,114,111,114,111,113,110,116,116,112,118,114,111,112,113,118,115,115,112,113,112
111,116,117,119,118,115,115,118,117,110,116,118,114,115,114,112,114,111,115,117,117,118,117,118,122,125,126,127,133,137,134,131,129,125,121,121,112,115,118,115,115,115,118,116,112,117,116,115,115,110,113,114,112,115,111,112,111,113,114,112
115,115,113,113,114,115,116,115,116,120,116,116,117,114,113,114,118,114,117,118,115,118,116,114,124,124,127,134,132,137,137,136,126,119,119,118,118,115,113,111,119,117,118,114,108,114,114,115,116,115,112,119,116,114,114,113,115,118,114,113
116,119,111,111,119,117,113,116,116,118,114,114,112,114,114,114,116,119,111,111,112,117,119,120,123,122,126,135,136,139,139,134,134,122,115,115,114,113,114,115,114,117,114,111,111,113,115,116,119,123,115,112,113,111,115,108,113,121,114,112
116,117,109,118,114,113,116,114,115,110,110,116,113,114,115,115,115,113,117,116,113,115,115,119,117,117,129,135,136,131,132,130,127,124,124,115,115,116,117,117,114,116,119,118,113,115,116,114,111,110,112,113,118,117,111,116,115,118,118,115
114,117,112,118,112,113,116,119,119,111,115,118,112,115,113,110,115,117,117,117,118,121,117,115,117,122,126,134,129,140,139,137,130,125,120,118,117,117,117,115,117,111,115,121,117,115,113,113,116,115,113,116,117,117,110,112,112,112,111,113
111,118,116,116,119,114,113,109,115,115,118,109,116,113,109,112,117,119,113,114,114,118,118,115,116,124,128,138,132,140,136,135,127,124,118,114,118,117,116,112,117,115,115,116,111,111,113,115,120,110,114,116,116,115,118,110,117,118,115,112
114,110,112,112,114,112,112,112,115,113,114,114,116,116,119,115,118,114,114,116,114,112,116,118,121,125,125,134,133,129,133,139,123,120,122,120,120,116,121,115,118,117,115,111,115,115,117,111,116,117,112,114,118,116,116,117,115,111,116,111
113,111,113,114,118,118,117,118,109,112,111,116,112,116,113,112,115,112,108,110,114,119,114,116,122,122,127,134,137,134,139,130,122,117,122,123,118,116,117,113,113,110,115,114,114,120,110,111,116,116,118,114,110,110,109,115,114,114,112,117
116,114,118,118,117,116,111,111,110,118,117,112,113,114,113,115,115,111,117,118,115,114,113,120,114,120,130,132,137,136,136,129,126,120,114,112,116,115,114,115,114,114,115,118,115,120,113,116,119,117,115,114,113,115,118,115,116,115,114,113
112,116,111,114,115,114,113,114,115,115,116,118,117,113,118,113,113,117,112,117,121,120,116,114,115,118,120,122,129,132,128,124,124,123,113,113,115,115,115,116,120,118,116,117,117,117,123,117,119,113,114,117,116,112,113,115,114,114,116,114
117,112,116,116,118,114,116,115,112,112,115,117,113,116,121,117,116,115,116,116,118,118,115,115,118,116,120,121,118,121,124,123,121,120,119,118,115,113,115,114,114,116,116,113,114,114,116,111,113,118,113,111,116,114,112,115,115,115,114,113
115,115,118,115,119,114,112,116,115,114,113,113,116,114,115,116,115,113,118,113,113,112,117,115,116,112,110,114,114,114,119,118,116,119,119,116,116,117,116,110,111,115,114,114,115,117,116,115,114,109,114,117,110,114,117,114,116,115,114,114
115,116,119,119,117,120,114,121,111,114,117,117,117,112,114,111,112,112,112,115,114,116,113,115,112,112,116,114,116,115,115,121,114,115,116,115,116,118,114,113,117,116,114,113,112,116,116,117,115,115,116,113,113,114,113,114,116,116,116,115
118,112,114,117,117,116,113,108,117,114,114,116,113,115,114,116,114,119,114,117,111,115,118,113,114,112,115,113,117,119,116,122,117,114,116,115,115,113,110,114,112,124,116,114,116,115,112,109,116,115,113,116,115,115,114,115,117,115,113,113
112,112,111,112,116,116,115,112,115,116,118,117,117,111,110,111,117,117,119,116,117,112,116,119,118,117,116,118,114,118,113,112,118,118,115,116,118,114,117,116,112,114,115,115,117,118,115,115,118,116,116,117,110,112,116,112,108,110,120,118
115,117,117,111,113,117,116,117,112,115,115,113,115,112,113,117,115,113,115,115,115,115,115,116,114,113,115,119,119,113,115,113,117,114,114,117,112,116,118,116,116,114,110,115,120,116,115,117,113,117,115,117,117,119,114,109,115,122,120,117
110,115,115,114,112,114,114,112,116,114,114,115,114,116,116,113,117,115,112,116,115,116,114,117,118,114,115,114,119,114,112,113,115,116,110,113,114,115,114,117,115,115,112,112,115,115,118,113,116,116,116,116,112,114,114,117,117,110,114,118
116,116,115,118,118,117,113,114,120,115,113,114,115,112,115,119,117,120,116,115,120,116,111,113,113,113,118,117,114,112,114,113,114,115,109,115,118,115,116,117,112,113,119,116,113,113,117,116,118,119,112,112,112,113,115,117,114,118,114,118
114,115,114,115,113,113,114,113,112,114,115,113,116,112,112,116,111,112,115,117,115,115,115,113,114,114,117,116,110,109,116,118,115,114,114,112,115,116,116,112,112,115,111,112,115,116,114,111,109,111,117,117,113,113,114,113,111,111,114,113
113,114,114,114,116,117,111,114,115,116,112,115,110,114,112,117,110,114,120,117,113,113,116,121,115,115,121,116,115,115,113,118,113,112,117,114,112,115,115,115,115,116,112,113,114,118,118,116,116,115,117,115,114,115,111,111,112,113,115,117
116,112,115,108,116,112,114,112,117,117,112,114,112,122,118,113,116,112,117,115,113,115,113,114,116,116,112,113,113,117,112,117,112,113,116,114,114,117,112,118,114,114,117,115,112,112,116,118,117,116,112,116,115,117,113,114,117,114,112,114
114,116,115,111,113,117,115,112,116,117,112,111,114,115,116,116,115,116,112,114,115,114,112,118,116,114,114,111,114,111,115,112,113,118,116,114,114,117,112,117,113,117,118,114,118,117,113,113,113,114,114,111,113,113,115,119,120,117,117,116
110,113,113,115,113,113,115,115,113,114,115,115,111,115,115,117,115,117,114,114,117,116,113,117,107,115,115,118,114,115,117,111,115,114,115,114,113,118,114,117,114,117,111,113,118,112,109,106,111,113,112,119,116,115,116,113,113,111,118,116
115,114,112,113,116,111,110,113,116,112,116,119,116,116,114,119,115,117,115,117,115,115,112,112,115,114,115,114,111,118,114,112,113,114,118,113,118,118,113,113,117,118,111,118,115,111,112,119,114,116,111,118,116,116,114,112,117,115,116,113
116,114,115,114,114,111,112,115,114,115,114,115,113,111,111,115,113,112,115,116,115,111,118,112,116,114,113,114,114,113,114,111,118,110,112,117,114,114,121,115,106,114,116,117,117,117,116,116,113,110,112,115,117,115,113,119,113,115,113,117
115,118,111,115,117,114,112,119,113,115,114,113,115,112,115,118,117,117,114,114,116,113,115,115,115,117,116,117,115,116,117,116,115,119,115,111,116,115,117,113,109,119,119,116,117,114,113,111,113,116,117,116,114,110,115,118,115,117,112,107
117,116,116,116,118,119,112,117,118,109,115,116,113,112,116,115,117,118,114,118,116,114,111,112,113,119,120,114,112,113,115,114,116,113,112,118,118,114,112,116,114,114,110,112,117,114,114,117,114,116,117,113,115,114,116,117,115,114,117,111
112,112,115,114,117,113,115,106,113,117,113,117,115,114,111,116,113,114,112,117,116,114,115,115,112,113,115,113,113,114,115,116,115,115,114,117,116,117,115,115,117,113,113,116,113,112,115,118,118,111,113,115,116,117,115,116,115,117,117,117
115,115,108,117,114,117,119,116,116,117,112,115,116,115,112,116,113,114,116,113,115,118,115,116,117,113,119,116,119,114,117,117,108,115,113,112,118,112,115,110,112,115,116,116,115,113,114,111,113,114,117,117,112,111,112,115,116,117,116,118
111,113,115,115,110,115,119,112,112,114,113,115,114,114,112,114,111,115,116,115,109,116,118,108,118,118,111,114,120,118,115,117,120,114,118,116,113,114,114,111,120,113,114,112,118,114,114,115,115,111,114,115,112,115,113,112,111,112,114,116
117,114,113,115,118,117,112,116,118,113,110,117,111,117,117,120,111,114,110,116,115,117,115,114,115,110,109,117,114,117,114,116,120,114,116,116,113,115,114,110,114,112,111,113,116,114,114,109,117,117,116,115,115,115,116,119,118,113,117,117
112,116,114,115,118,111,113,114,113,114,113,113,107,115,115,110,117,116,115,118,121,116,120,115,116,113,116,112,112,114,109,115,114,115,114,113,113,112,113,114,115,115,116,116,114,114,117,116,114,114,118,111,114,111,114,118,112,120,114,116
113,113,116,114,114,111,114,117,114,116,116,116,111,109,115,116,115,111,112,116,117,113,111,115,115,117,119,118,114,115,116,112,112,110,113,116,114,118,116,119,120,114,118,112,113,117,119,116,114,117,114,116,115,115,116,113,110,107,112,115
109,118,119,115,115,118,115,116,116,117,117,117,115,113,118,114,113,112,110,115,116,116,114,118,112,110,114,115,112,114,117,111,116,118,114,115,116,114,114,120,115,110,116,115,116,119,113,111,114,112,112,115,118,113,114,117,111,115,117,117
115,114,117,116,114,114,116,114,112,111,115,116,114,113,115,118,111,112,113,113,113,117,112,111,118,114,112,111,114,115,113,115,115,116,112,112,114,112,116,114,115,116,115,109,113,114,111,116,114,110,114,114,114,115,114,115,117,119,114,116
118,111,112,116,115,117,113,106,115,112,116,114,113,117,112,107,116,118,115,115,113,114,117,116,116,115,117,118,114,112,113,114,112,115,118,119,115,113,115,116,118,116,112,113,117,117,113,112,114,114,117,114,112,115,113,116,115,116,118,117
110,113,118,118,113,117,118,117,116,116,109,115,117,112,116,117,116,113,115,117,112,118,117,113,116,112,113,118,114,115,115,115,119,118,116,115,113,118,113,112,116,115,119,119,114,113,112,112,113,117,112,113,113,111,114,117,112,111,113,115
112,118,116,115,114,110,113,111,114,117,113,113,114,113,114,114,118,116,112,118,115,115,117,116,119,116,116,114,113,118,113,119,114,116,117,115,117,118,114,113,112,115,117,118,115,116,113,119,115,119,116,111,116,119,115,117,117,114,112,113
114,115,114,113,113,115,112,113,110,113,117,110,114,120,114,120,114,114,118,116,117,114,116,111,115,113,118,114,119,115,114,114,116,115,120,114,114,114,113,115,114,116,116,111,115,113,114,111,112,115,111,115,116,113,112,112,114,115,115,115
114,113,116,116,113,114,110,116,117,112,115,115,109,115,114,119,119,116,112,115,115,114,106,114,119,117,115,113,113,118,117,113,118,110,109,116,114,114,112,115,115,115,116,110,107,118,116,111,116,113,122,113,111,115,109,113,112,114,111,120
110,114,114,116,117,115,114,112,117,113,112,117,114,116,116,114,113,111,117,117,110,114,115,115,115,116,114,115,113,114,117,110,115,116,111,117,115,109,112,117,119,112,113,116,111,116,118,113,113,114,114,112,112,113,116,115,116,116,111,117
116,116,116,117,120,117,116,116,115,114,113,115,118,112,115,115,113,115,118,113,113,112,113,120,116,115,115,117,117,112,113,109,113,118,115,111,115,115,115,115,113,112,113,115,115,110,111,110,112,115,115,119,118,113,117,112,118,117,115,113
112,116,117,115,117,114,113,113,115,118,116,108,112,114,116,112,113,113,113,117,118,118,113,109,111,115,112,113,116,114,111,113,112,113,117,116,117,117,116,113,115,116,115,112,112,115,116,118,115,113,113,112,118,114,117,117,115,111,114,115
112,111,114,110,112,115,118,119,114,113,117,114,114,113,114,119,114,117,117,116,114,117,115,115,117,114,111,116,119,113,111,112,115,116,116,116,118,115,115,113,113,113,113,115,114,114,118,119,119,117,117,108,115,120,112,113,115,114,115,117
118,110,116,113,117,120,112,117,116,116,119,117,113,112,117,114,119,116,117,115,111,117,113,113,117,115,115,111,116,116,116,118,116,116,117,116,113,112,115,120,112,113,118,117,117,114,111,113,119,115,114,112,115,120,114,114,113,119,117,112
113,118,111,115,113,110,115,111,117,114,117,112,114,117,115,111,111,114,112,116,113,114,115,114,113,117,118,114,109,114,113,110,112,116,115,116,111,116,118,114,110,114,116,113,116,113,114,121,117,118,116,115,113,115,117,111,116,113,113,115
113,115,113,114,115,117,119,117,109,119,114,114,117,114,115,116,115,115,115,110,112,116,116,114,119,113,112,114,115,119,117,118,111,118,110,120,112,110,113,111,116,115,114,116,121,115,117,112,112,108,117,113,114,119,116,114,115,114,111,109
115,112,117,115,116,115,111,112,114,120,112,116,121,119,117,116,115,118,118,111,115,118,119,113,110,111,112,115,117,110,119,119,118,113,114,121,113,112,114,115,120,116,116,112,114,113,114,113,116,117,117,111,113,114,113,114,109,117,110,115
116,117,117,117,113,115,117,117,116,111,115,112,120,114,114,116,113,115,121,118,114,115,115,117,116,116,118,115,114,116,113,113,112,119,115,113,117,116,118,114,115,112,109,113,111,114,111,117,117,119,121,115,114,109,115,117,113,117,116,115
112,115,118,116,115,118,116,112,113,114,119,112,110,114,112,112,113,118,118,116,117,117,112,118,116,115,118,115,114,113,115,113,113,117,114,108,112,115,114,116,112,119,119,118,116,115,118,114,112,115,113,110,113,114,116,112,116,116,118,113
117,112,115,115,115,115,117,117,116,113,116,117,113,118,117,113,112,113,113,115,112,114,114,112,118,117,115,117,117,114,112,116,116,118,118,115,114,111,114,116,117,116,116,110,115,116,111,111,116,118,113,113,114,116,115,113,107,113,116,113
117,114,114,112,113,118,112,113,115,114,113,113,115,115,117,113,110,114,114,115,114,111,114,114,111,114,117,116,112,112,114,116,112,116,118,114,112,114,117,117,116,115,113,114,117,116,111,114,112,114,117,116,119,115,110,112,113,114,115,114
110,113,115,114,113,114,114,111,116,115,114,110,111,110,112,112,110,117,112,118,117,118,114,115,114,116,118,114,114,114,121,119,112,114,113,112,115,116,113,115,114,115,114,115,117,115,113,112,114,111,114,118,114,114,115,116,113,109,114,115
