51,60,69
114,112,113,114,116,114,112,119,113,115,116,119,112,110,111,112,112,114,112,113,112,114,115,120,112,112,114,113,113,114,114,116,115,114,109,115,109,117,117,117,114,111,115,116,110,112,114,114,115,113,112,115,112,115,119,119,112,117,116,114
116,110,113,112,115,118,110,112,112,111,115,113,112,112,118,114,115,115,118,113,110,114,114,112,113,115,116,118,111,115,113,118,110,113,106,111,114,116,113,114,113,116,114,112,114,115,117,114,116,114,110,113,117,114,117,116,112,111,112,112
113,113,114,115,114,115,113,116,121,115,114,112,115,118,119,118,117,113,115,114,117,116,116,113,114,113,108,113,116,118,115,118,114,117,109,112,112,118,114,117,113,113,116,116,117,115,113,116,114,115,118,112,119,112,115,113,113,114,115,120
117,112,113,112,111,112,114,114,115,110,116,114,110,113,109,119,114,114,113,111,113,117,115,116,112,113,110,112,112,114,117,118,115,115,116,114,111,114,115,115,110,109,113,111,116,117,120,118,116,117,117,112,115,112,115,113,112,113,111,117
118,110,113,116,117,118,114,112,115,110,116,116,114,119,115,116,114,116,110,112,114,115,119,116,116,116,113,110,113,112,112,114,114,114,115,113,117,114,112,112,115,116,114,115,114,109,113,116,118,115,117,117,117,115,113,113,115,113,108,114
113,115,112,116,114,114,116,119,119,117,118,116,115,115,111,111,114,117,113,113,114,111,115,109,111,110,118,119,113,113,111,113,110,113,113,110,114,113,117,113,116,112,112,113,116,118,114,113,112,115,116,114,115,114,113,116,110,115,113,116
117,119,109,113,115,112,115,114,113,109,110,113,112,118,110,115,111,115,118,120,117,119,113,112,119,113,113,118,111,114,113,117,115,113,115,114,113,114,114,111,117,110,116,111,111,113,115,114,114,115,110,108,114,119,112,115,113,117,111,118
112,115,116,114,112,116,110,111,115,111,113,116,110,116,113,115,111,115,113,111,112,117,115,112,113,110,110,111,114,115,119,114,117,113,120,114,114,120,115,108,111,111,116,118,115,111,111,114,115,113,120,112,109,112,114,110,118,119,113,108
116,116,115,112,110,115,112,115,114,117,115,115,115,116,115,119,120,118,113,112,117,116,116,116,113,109,119,108,113,115,115,117,118,108,112,114,112,115,115,114,115,117,116,115,113,119,117,115,110,110,116,115,114,115,114,112,110,111,109,113
112,109,112,119,114,115,114,111,116,116,115,114,114,108,114,112,115,115,111,115,114,115,115,115,112,113,117,114,113,116,113,111,117,112,117,113,113,118,115,116,117,119,117,115,111,118,113,119,118,116,116,114,116,118,113,120,115,114,118,114
113,114,114,116,117,114,117,114,115,113,118,111,115,115,114,117,119,117,112,112,113,111,111,114,112,117,119,115,115,118,117,112,115,111,117,118,115,114,116,115,113,113,116,115,115,119,109,109,113,113,118,114,111,116,116,115,117,115,110,115
114,118,111,110,113,115,116,114,110,111,115,114,118,112,114,113,112,119,114,111,116,117,112,118,117,110,112,111,116,116,116,116,118,112,111,113,116,115,113,114,111,112,114,113,111,115,114,113,109,108,115,113,114,113,113,108,118,121,114,111
115,117,118,115,113,112,115,120,117,111,117,113,110,111,114,114,112,116,114,115,112,113,113,115,115,113,117,116,111,110,112,115,114,115,113,111,114,119,114,120,117,118,113,114,116,118,116,114,114,116,113,115,117,112,112,111,114,110,114,112
114,114,114,114,117,116,114,112,115,114,115,114,111,114,115,113,111,108,117,115,115,116,114,113,119,117,115,116,116,116,117,115,111,115,115,117,115,116,110,112,115,114,110,115,116,115,114,112,112,117,118,117,112,118,120,111,111,112,116,116
116,115,113,112,115,115,114,114,115,117,113,115,113,112,114,112,119,117,115,116,114,114,113,114,120,115,112,118,115,114,117,116,112,114,112,115,113,112,113,116,115,118,112,117,114,113,118,113,111,114,116,116,114,114,114,116,118,115,112,113
117,115,112,112,114,116,114,115,114,114,115,117,114,109,114,115,112,111,114,114,110,112,118,111,115,116,117,118,118,114,115,115,115,118,113,115,112,121,112,113,113,119,115,115,118,115,119,111,118,116,117,112,113,114,111,113,114,114,114,109
117,118,110,113,119,116,110,113,116,114,114,117,115,113,117,109,114,114,114,114,114,110,111,111,113,115,118,111,115,115,115,117,118,115,116,114,110,119,115,116,117,119,114,114,112,111,111,110,114,113,118,119,112,115,117,114,115,117,116,117
115,122,111,116,114,116,113,119,118,112,110,113,116,113,114,116,120,115,116,118,115,115,115,114,112,110,111,112,113,115,116,111,112,112,113,115,112,113,115,116,112,114,117,115,113,115,116,117,114,112,113,115,111,113,116,113,113,114,114,114
107,107,113,118,116,117,112,116,112,113,114,113,115,112,115,117,115,111,113,117,116,116,115,115,116,116,112,110,112,111,110,113,117,113,115,119,112,116,113,115,109,119,122,116,115,116,115,117,113,112,112,114,115,112,112,116,114,113,117,113
118,113,116,113,113,113,112,115,117,118,116,114,114,112,120,112,110,110,112,114,113,115,115,115,112,116,116,115,113,116,114,114,114,115,113,116,112,113,106,112,117,117,113,111,113,116,118,117,114,111,114,115,113,114,115,113,108,111,113,113
110,112,116,116,110,113,119,115,113,113,112,112,115,112,110,114,115,113,111,111,117,122,114,113,109,116,116,110,114,114,115,115,110,115,115,111,111,116,115,113,113,116,121,116,112,118,111,114,120,109,109,114,113,114,114,112,115,114,113,115
114,114,115,116,110,114,117,115,116,116,120,115,112,114,114,112,117,117,116,114,115,114,113,114,114,113,117,114,116,117,116,114,113,117,119,115,114,116,115,116,114,115,116,114,107,109,112,111,114,116,119,120,117,115,111,113,113,115,116,117
112,121,110,117,116,116,114,114,113,113,111,114,115,116,118,112,110,116,117,115,114,113,114,111,116,116,116,115,109,115,115,118,111,113,114,113,114,117,113,110,107,117,116,116,114,114,113,109,113,116,111,114,115,113,110,112,114,118,116,112
116,116,114,117,114,114,117,117,113,112,116,115,113,109,116,116,111,116,109,114,115,115,115,116,112,115,115,116,112,115,116,119,115,116,117,119,113,113,116,120,116,118,115,116,111,115,118,117,113,110,113,117,117,114,112,114,113,116,113,114
113,109,118,116,115,112,113,113,114,112,112,115,113,113,116,115,116,116,112,116,118,113,112,115,112,117,113,110,115,115,114,111,115,114,113,116,113,114,119,115,115,113,111,113,113,114,119,117,116,117,118,112,113,115,109,112,115,115,115,116
109,108,118,114,115,112,114,112,109,115,116,113,113,117,112,112,116,112,113,114,115,113,114,118,116,113,114,111,115,114,115,108,112,114,111,113,114,114,118,112,112,116,114,113,113,111,116,109,114,116,117,115,108,109,114,117,114,111,108,116
114,113,116,114,117,114,113,114,114,108,115,111,110,112,110,110,116,117,113,112,118,114,115,112,115,112,117,115,117,116,114,115,109,117,117,113,112,116,118,111,111,118,119,115,113,113,115,118,114,112,116,119,116,114,113,114,117,117,115,118
115,115,115,111,113,116,112,115,116,113,116,115,113,113,112,114,114,113,117,114,113,116,114,113,113,113,113,114,112,117,114,115,113,118,118,115,114,115,115,114,116,111,113,115,117,113,112,114,115,115,113,115,117,113,116,114,118,116,120,116
112,116,117,118,115,116,112,115,115,113,115,114,112,117,116,116,113,112,114,116,114,117,113,110,109,114,112,115,118,120,113,113,117,119,117,113,114,113,113,114,116,116,117,115,120,112,108,113,117,119,114,113,115,113,114,116,113,116,119,112
118,115,113,118,116,114,116,118,118,114,110,112,116,118,113,114,119,119,112,109,115,117,119,115,111,114,117,113,114,113,113,116,115,118,116,111,119,113,113,116,115,108,114,113,119,115,115,118,112,111,112,114,114,116,112,112,108,116,114,113
111,112,114,113,114,116,114,112,113,114,113,116,112,110,114,116,112,118,113,112,114,115,110,109,111,113,118,112,116,113,116,116,113,112,117,117,120,112,109,113,112,113,117,110,111,114,115,117,117,115,113,115,118,111,111,115,110,107,109,113
115,116,114,110,112,113,115,114,118,119,113,114,110,112,113,116,115,117,114,115,114,113,114,112,113,118,122,120,116,114,113,112,116,110,116,113,115,117,117,116,115,115,116,117,114,114,118,116,115,112,115,109,113,115,120,116,115,110,116,115
115,116,115,113,111,114,116,116,112,115,113,114,114,117,108,118,118,113,114,115,116,114,114,111,112,113,116,116,114,114,113,114,118,118,113,105,110,117,111,115,116,113,114,111,114,111,113,117,116,113,115,115,115,113,112,111,115,116,114,115
114,114,114,115,116,122,116,118,112,111,114,113,115,115,111,116,112,114,115,116,109,110,115,116,115,110,114,114,117,113,114,115,114,120,115,117,116,113,112,118,118,112,113,112,115,114,113,116,113,113,113,111,113,112,110,115,112,112,106,116
118,114,115,115,112,118,122,115,118,113,112,114,112,116,115,114,117,117,109,113,112,120,113,114,112,111,116,113,115,115,114,114,118,117,109,111,113,112,119,116,117,115,113,116,116,117,114,111,114,116,112,111,115,119,115,116,116,114,112,115
110,114,111,113,111,108,115,113,110,113,115,114,114,118,112,111,114,113,110,115,118,114,111,115,115,111,118,114,113,111,116,114,114,114,117,110,114,117,114,112,111,116,118,115,114,113,110,109,113,114,110,114,114,114,112,110,117,118,118,114
111,115,114,113,115,114,112,120,110,114,115,117,114,111,111,113,116,113,114,115,120,116,120,119,116,112,117,117,119,118,117,113,109,110,117,116,115,119,114,117,114,115,115,113,115,110,112,112,117,116,113,113,115,114,114,113,114,114,114,108
116,115,112,108,111,117,113,117,116,117,118,116,114,115,116,114,113,115,112,113,119,115,115,114,116,116,122,116,115,119,117,117,117,117,116,115,111,112,112,112,116,113,112,115,115,118,117,112,114,112,112,113,115,115,112,113,115,110,114,116
113,118,115,114,112,109,112,113,114,111,114,113,115,112,111,115,120,117,111,117,116,113,115,122,119,122,117,117,122,119,120,117,113,120,116,114,116,115,115,115,114,111,115,116,112,116,115,112,116,114,114,114,113,115,114,119,114,112,116,117
114,112,109,115,116,121,115,112,113,115,118,112,116,114,111,113,118,111,114,121,113,114,113,113,116,122,123,123,121,120,121,117,118,114,114,116,116,116,113,112,113,112,111,107,109,117,118,112,114,115,113,114,116,116,113,114,116,113,115,116
111,116,113,114,111,115,116,115,116,113,113,114,112,111,116,116,117,113,113,114,116,115,114,113,116,119,129,126,124,127,124,121,120,118,120,116,115,113,114,116,116,113,113,112,115,117,115,114,116,118,115,112,115,114,115,113,116,114,114,117
116,119,116,113,117,116,115,114,115,113,110,115,116,117,112,113,116,115,110,113,116,113,115,116,120,124,133,134,133,137,130,127,121,118,116,113,118,116,114,115,115,113,110,116,112,114,120,120,116,112,114,114,116,116,116,111,113,114,114,111
117,112,116,114,114,116,115,113,112,115,114,115,114,115,116,116,112,115,112,116,115,117,121,118,124,128,137,149,157,154,141,134,126,123,120,117,113,114,116,111,114,117,113,116,114,114,116,111,113,112,113,112,111,113,114,116,116,116,114,115
112,113,116,114,114,115,116,117,115,114,116,110,116,113,114,116,117,116,115,119,120,115,119,123,125,133,150,165,162,168,163,150,129,122,118,118,114,118,118,112,115,112,115,113,115,114,115,110,113,116,115,113,114,113,108,115,114,116,111,113
112,113,115,116,116,112,112,112,115,114,118,116,116,112,111,110,116,114,116,115,119,117,119,122,127,147,165,162,166,183,190,173,137,125,114,113,116,116,114,114,114,114,116,114,119,117,113,117,115,111,114,113,115,116,115,116,117,117,111,113
113,116,114,111,114,114,118,114,118,112,115,112,116,117,117,112,113,110,112,117,120,115,122,125,133,155,171,167,165,177,182,181,156,132,125,118,116,118,115,114,116,111,112,114,113,116,115,116,115,116,113,109,114,114,112,113,113,117,115,112
113,113,115,119,113,109,116,115,111,113,117,115,113,115,116,112,116,114,116,119,118,115,121,125,131,157,170,163,161,178,179,181,158,131,123,118,115,116,114,110,115,115,110,115,109,108,115,112,108,113,116,115,116,118,113,111,118,117,114,111
116,114,114,114,110,116,113,117,116,112,118,117,117,118,117,115,117,117,119,118,119,118,119,128,143,164,177,166,167,173,175,179,149,126,120,121,119,112,117,114,116,117,115,113,111,112,110,114,115,114,115,116,116,115,116,113,116,113,112,110
116,111,110,113,113,113,113,117,115,114,120,115,113,113,115,117,118,118,117,114,115,120,126,129,145,166,177,166,166,169,177,180,154,127,122,116,118,116,119,115,117,113,113,110,114,116,113,120,113,113,116,116,111,112,113,109,117,113,114,115
111,112,115,113,115,112,112,113,114,111,109,117,118,116,112,114,116,115,117,120,122,122,124,134,151,168,172,174,172,171,178,176,156,127,123,120,121,124,118,112,114,115,114,111,116,120,117,116,111,114,115,111,110,113,112,112,112,113,114,117
113,114,114,115,115,114,115,108,116,118,117,115,115,118,115,114,117,117,118,121,121,122,123,137,159,178,178,171,169,169,176,172,153,133,125,119,120,114,117,116,114,113,115,114,110,110,113,115,111,115,115,115,116,113,114,117,118,118,114,114
115,115,116,114,111,110,114,115,113,113,111,112,116,116,115,113,119,117,119,120,120,122,127,133,160,177,176,168,173,182,181,173,154,133,121,116,117,122,119,117,118,113,112,112,114,115,113,114,117,119,117,116,116,115,115,114,113,115,116,117
113,112,114,114,112,115,114,115,111,112,111,114,119,114,119,117,116,117,118,120,131,129,133,132,151,165,174,177,176,180,179,176,154,125,125,121,114,114,116,118,120,118,116,112,114,114,116,117,115,115,110,114,117,117,115,122,119,115,109,113
114,114,116,117,117,118,118,116,116,118,118,113,112,114,120,115,115,115,116,121,120,119,131,136,160,172,178,176,175,170,173,164,151,130,129,121,121,117,117,109,115,117,116,112,114,116,113,112,114,114,115,118,115,121,116,112,116,115,113,113
113,109,116,115,118,113,112,115,115,110,114,119,114,118,115,112,117,119,119,117,122,125,128,136,162,175,179,168,176,169,177,160,146,127,125,119,115,119,118,118,113,115,114,115,112,116,117,114,115,113,115,117,110,113,115,116,113,113,116,112
118,113,111,111,111,116,115,115,114,114,110,118,114,109,109,115,118,118,123,123,126,131,133,139,162,174,181,174,174,168,170,164,149,131,129,124,125,123,114,113,115,116,116,114,111,113,114,119,115,113,120,114,114,112,113,118,112,109,113,114
112,111,116,114,112,114,112,115,115,119,109,113,114,113,117,124,118,116,119,121,122,130,130,140,163,179,186,176,175,167,165,160,145,127,127,121,117,116,117,116,119,114,111,114,114,112,113,117,114,115,116,110,114,112,111,117,115,116,117,116
112,111,113,113,117,114,113,116,115,117,115,114,113,121,116,118,112,119,113,124,124,127,130,142,162,178,178,172,174,175,179,162,146,133,127,126,120,118,117,113,115,116,111,114,116,113,113,116,116,114,116,117,116,116,117,115,117,119,113,118
112,111,115,117,115,115,120,113,115,113,116,118,111,120,113,116,115,118,119,131,127,129,134,142,161,175,178,176,175,172,172,164,144,132,128,120,119,123,118,114,115,120,113,109,117,119,115,113,116,112,114,116,116,113,112,116,114,114,116,120
115,117,115,117,114,112,116,115,119,115,115,117,112,114,115,118,115,121,119,118,128,125,132,146,163,176,178,170,173,177,166,163,154,134,126,121,125,123,121,121,113,118,117,114,115,113,116,112,114,113,115,114,113,113,107,116,118,113,114,111
108,113,115,114,115,112,110,113,119,115,111,114,117,115,116,114,117,118,125,122,129,127,129,144,158,180,180,169,166,176,170,161,151,136,131,120,121,113,113,117,111,114,116,113,118,113,115,111,114,116,116,118,115,114,113,116,116,114,111,114
119,117,118,114,117,116,116,115,113,113,121,111,113,116,116,115,118,119,118,118,125,131,136,143,165,185,175,177,172,171,171,161,146,140,132,118,121,121,117,119,113,116,118,114,114,114,116,119,119,117,115,112,114,114,110,113,113,114,113,118
117,115,110,114,114,111,117,114,115,118,121,113,115,119,119,122,116,119,117,121,124,131,136,145,165,178,176,173,166,179,177,168,147,133,131,126,123,121,118,118,114,119,110,111,108,115,114,113,113,119,119,114,116,115,115,111,110,116,115,115
116,115,114,119,115,112,115,116,112,112,113,111,115,116,115,114,115,121,122,132,123,134,135,142,166,174,171,166,162,168,171,169,151,134,124,127,120,117,118,120,121,118,115,114,113,116,111,116,117,119,119,111,115,116,116,116,113,116,114,113
113,114,112,117,116,112,109,114,117,117,119,113,115,115,117,120,118,119,117,122,125,124,134,145,162,172,176,178,171,169,170,168,150,135,125,125,116,115,113,117,115,111,120,118,114,109,113,117,119,117,116,112,113,113,115,120,120,118,117,115
115,117,114,120,111,113,114,113,120,116,119,115,117,114,114,115,118,121,132,124,134,127,131,142,157,175,175,174,169,171,173,159,143,133,129,126,121,120,115,116,113,114,118,113,115,116,118,114,116,118,117,115,114,113,115,112,112,114,115,120
114,118,114,113,114,117,114,116,117,115,117,111,117,114,118,119,116,119,121,122,126,132,131,139,155,169,173,170,167,176,176,160,150,140,128,124,118,118,120,122,119,114,118,115,116,121,117,113,112,115,118,116,114,113,114,113,114,116,115,120
115,115,117,115,112,113,112,122,116,116,117,118,116,110,117,120,117,119,121,123,130,131,132,137,152,165,173,178,172,173,171,168,153,137,127,128,121,118,120,119,116,111,119,119,118,114,116,113,114,113,110,118,120,117,116,112,115,115,117,111
116,114,118,119,113,115,111,118,116,115,114,116,114,113,118,120,115,109,125,124,125,126,132,140,154,176,183,179,176,169,168,156,151,140,130,125,122,118,118,119,116,114,117,113,115,110,120,119,114,115,111,115,111,113,115,114,117,110,117,111
115,114,115,115,112,115,114,119,117,110,113,113,113,116,116,113,118,124,119,123,125,127,129,134,151,173,183,186,179,179,175,163,150,130,126,119,122,121,121,117,118,117,119,113,117,115,115,114,114,116,114,115,113,113,117,110,116,113,115,114
116,116,115,116,116,120,117,115,116,117,115,117,119,116,116,118,114,117,116,121,126,127,131,133,145,165,178,191,175,177,172,166,155,142,131,121,122,120,116,117,120,113,112,117,113,116,115,115,115,114,115,115,111,112,114,109,115,115,117,114
116,115,116,113,116,116,113,113,109,112,111,116,119,115,117,119,121,122,121,125,130,125,125,130,140,160,171,171,174,172,168,170,151,132,129,126,121,120,120,115,114,115,111,114,115,116,108,115,110,113,111,117,117,113,123,115,116,114,115,117
113,114,118,117,117,116,114,115,119,115,112,117,119,113,117,119,121,121,117,120,123,128,137,128,137,160,172,178,179,170,165,161,146,138,133,129,118,120,120,119,119,121,115,115,113,114,113,115,112,115,113,115,112,109,117,108,116,114,113,114
112,115,121,115,111,114,115,111,114,117,116,114,116,118,115,118,118,120,120,119,122,126,132,135,145,156,166,175,174,168,167,162,156,146,128,122,121,121,116,119,115,114,110,112,114,117,118,115,114,114,113,115,115,113,116,113,111,119,117,114
117,118,115,114,114,115,116,112,113,115,117,114,116,119,118,117,119,117,120,118,118,128,129,131,142,152,160,164,165,158,161,160,145,139,126,121,120,123,117,118,114,115,117,116,114,113,112,113,114,113,117,112,113,114,115,114,112,121,116,112
114,118,113,114,119,117,115,118,115,113,117,118,119,117,120,115,115,117,120,125,119,123,123,122,132,139,150,161,161,157,154,155,149,136,124,125,121,114,116,118,115,113,112,113,114,113,111,118,120,114,116,117,117,115,114,115,111,117,114,112
119,117,117,118,117,111,113,118,114,115,119,115,115,120,121,118,124,119,119,126,122,120,126,123,129,139,150,148,152,159,162,152,144,131,125,118,120,123,120,116,115,114,116,117,116,118,117,113,112,115,115,109,113,112,114,117,113,113,112,109
113,113,115,119,119,116,116,116,116,115,114,113,113,115,121,117,115,114,119,127,125,118,127,133,126,133,146,150,160,161,156,145,142,131,126,125,120,122,114,114,115,114,109,111,116,117,115,112,116,113,118,113,114,110,110,115,116,113,113,116
118,120,119,112,115,118,114,116,114,119,116,116,117,112,115,116,114,118,117,117,121,118,123,129,129,129,132,144,142,148,147,140,133,131,122,122,118,122,117,118,117,114,114,112,112,113,114,111,115,112,113,114,117,119,116,113,110,111,114,118
120,117,117,117,121,118,110,121,117,115,114,117,118,115,116,117,115,119,118,116,124,124,121,123,124,127,129,129,136,142,135,131,124,126,121,120,116,114,115,115,117,117,117,115,109,112,117,115,117,115,111,115,118,114,116,111,113,115,113,113
116,114,111,117,116,115,115,116,114,112,114,116,116,112,116,122,118,119,123,119,117,120,117,127,123,123,133,123,127,130,128,127,123,124,123,119,117,116,116,112,114,113,113,112,113,115,114,115,116,114,112,113,114,113,116,115,116,114,110,117
114,115,116,117,120,110,112,112,113,114,115,115,115,113,113,119,112,115,117,118,116,118,119,118,120,122,125,122,128,126,122,122,121,120,113,119,120,115,116,114,115,110,112,117,119,112,111,114,115,116,113,108,109,115,113,114,113,116,110,113
117,121,120,111,116,114,116,114,112,113,112,115,116,116,113,113,116,118,118,124,121,120,124,118,117,117,123,125,123,121,124,126,123,123,118,119,116,113,116,117,116,119,115,112,115,117,116,116,117,120,113,115,119,113,115,116,116,114,110,110
114,113,115,110,115,115,114,114,115,119,116,118,113,114,114,117,118,114,118,117,116,116,118,121,120,120,120,120,126,122,120,119,119,119,120,117,112,114,115,117,118,117,115,112,108,121,116,112,114,120,118,112,112,108,116,114,113,115,118,115
112,111,117,118,118,116,117,118,114,116,116,115,110,116,117,116,114,115,123,118,117,119,116,118,119,123,119,120,119,122,125,121,112,118,115,114,115,114,114,113,116,118,115,118,112,116,117,114,112,113,118,115,115,114,116,111,112,119,117,111
120,116,116,114,116,119,117,117,110,119,119,119,111,117,120,116,115,115,116,111,116,122,124,121,113,121,117,118,116,119,117,119,121,121,115,112,118,115,115,111,111,117,113,114,116,112,116,113,114,115,116,116,113,111,118,113,112,112,114,115
115,119,116,116,113,115,117,118,116,117,114,117,116,118,113,118,116,115,115,118,119,117,117,122,118,123,121,124,118,120,118,118,115,116,115,113,116,116,110,113,115,113,113,113,119,111,113,113,116,112,109,115,117,109,111,115,120,113,117,117
115,115,114,119,117,117,113,116,114,116,114,115,114,114,115,116,118,118,111,116,116,117,120,120,114,117,117,112,115,120,118,119,111,117,111,123,118,117,115,114,119,115,113,116,114,112,112,116,118,117,112,114,115,109,116,116,112,110,113,114
122,116,116,115,115,116,113,115,116,117,117,116,118,120,118,115,114,117,117,116,115,115,117,118,116,113,120,119,114,118,115,119,114,118,116,118,116,115,113,113,115,114,111,112,112,114,114,118,114,115,115,114,115,113,116,114,110,117,114,114
115,116,113,113,115,115,117,116,120,116,115,113,114,114,117,117,115,118,120,117,116,118,117,117,118,115,117,119,117,118,114,116,113,116,113,114,119,117,116,115,113,117,118,113,114,113,112,116,119,115,117,113,112,115,117,116,112,119,110,108
118,121,117,120,114,111,117,112,115,117,114,116,112,118,117,116,118,116,113,111,110,116,115,118,116,117,118,115,114,113,116,116,116,113,117,117,117,115,117,115,115,115,114,112,117,116,115,113,115,111,113,114,121,118,114,111,113,115,117,115
115,119,113,117,117,121,121,120,116,114,112,116,116,114,112,114,117,114,116,118,116,116,116,119,113,113,112,115,119,112,112,114,115,115,116,117,116,115,117,117,114,113,118,115,116,116,114,112,112,115,114,113,119,113,114,117,117,111,112,113
117,116,120,118,118,109,115,115,111,116,117,116,116,116,115,116,116,114,112,112,116,116,118,113,115,113,114,115,116,114,111,120,113,112,113,112,112,115,114,110,113,117,118,114,115,113,116,112,118,118,119,114,111,111,117,115,107,114,118,118
118,116,118,115,117,113,118,118,113,119,118,116,111,115,114,115,116,115,115,112,120,112,116,111,117,115,117,113,113,113,109,111,116,112,116,117,116,112,117,115,113,113,118,116,117,113,116,113,114,112,117,114,115,116,115,110,113,115,115,114
116,116,115,114,118,116,118,122,117,116,118,116,112,116,113,117,117,113,118,111,114,117,116,116,116,117,119,115,117,116,114,113,119,115,115,116,114,111,113,115,113,112,108,115,113,113,114,117,116,113,113,115,119,114,114,110,114,108,116,115
112,117,114,113,115,112,118,114,115,113,116,116,112,112,118,118,117,116,116,115,112,120,114,112,115,113,114,114,114,114,113,114,119,112,110,112,116,114,112,107,110,115,118,117,114,117,113,111,116,119,117,113,115,109,115,118,116,115,120,116
119,120,116,115,117,116,116,114,113,114,118,115,112,114,118,115,113,114,117,121,115,115,112,113,117,114,112,114,118,115,120,114,114,116,115,114,116,116,121,114,115,114,112,108,111,116,115,118,116,115,113,115,115,111,114,115,113,111,113,112
122,116,117,119,115,121,116,113,115,114,117,116,114,116,118,117,111,116,114,115,113,113,113,115,111,111,113,120,115,106,110,115,118,113,116,114,114,113,118,118,114,116,117,112,110,116,115,116,117,115,113,114,116,117,114,116,114,109,109,115
120,117,116,117,121,118,114,113,122,117,118,114,117,115,110,115,116,117,117,120,113,119,113,117,112,119,115,113,113,115,119,118,117,114,117,114,108,109,118,114,112,114,118,118,116,114,112,112,116,111,117,117,116,113,117,112,113,112,112,116
115,120,117,108,116,117,120,116,118,116,116,114,116,115,116,112,116,114,112,113,116,119,118,117,111,111,110,116,119,115,114,112,112,107,111,116,114,110,117,113,114,118,113,113,114,115,116,112,115,111,118,117,115,111,112,114,113,115,113,114
116,116,117,117,111,117,115,114,112,117,115,119,116,113,112,114,112,115,114,109,115,113,115,113,117,111,109,115,121,116,120,109,118,115,113,117,120,112,111,115,110,111,113,115,114,113,111,112,119,114,112,115,116,117,112,114,116,114,110,117
119,115,113,117,114,119,117,118,114,115,119,123,120,117,115,119,112,118,118,116,116,110,111,112,115,119,118,111,116,114,115,111,115,118,113,116,115,114,115,115,116,113,117,112,113,112,113,114,109,117,114,117,109,112,116,112,112,111,112,115
121,119,118,121,117,116,114,118,120,112,124,117,115,109,117,118,117,114,113,114,116,118,112,116,120,120,112,113,117,116,112,113,112,118,111,111,115,111,111,113,119,114,118,111,112,113,111,113,112,117,114,116,115,118,117,116,113,114,115,118
119,114,114,118,118,116,117,115,126,113,118,117,116,117,117,113,117,113,116,120,110,114,116,114,112,113,116,117,111,114,114,115,114,114,114,116,118,117,114,115,114,113,113,115,116,117,110,117,117,116,117,112,111,113,111,114,113,115,111,114
120,116,113,115,122,118,119,113,112,115,113,113,114,118,108,114,116,116,112,119,117,117,114,111,116,113,106,113,113,107,114,115,113,109,109,117,115,112,111,116,112,113,110,115,113,112,112,116,117,115,114,112,111,118,115,116,116,117,114,113
117,120,119,116,120,116,121,121,111,117,121,115,110,112,110,118,115,113,109,111,118,113,117,119,116,115,118,114,119,114,116,115,118,115,110,112,117,115,110,116,117,112,114,117,113,119,116,113,117,114,113,114,112,113,114,116,120,117,115,112
116,118,120,120,119,118,115,113,117,116,113,120,120,117,116,117,115,114,117,112,116,113,117,113,115,113,115,113,113,114,111,109,112,110,122,114,109,114,116,112,114,114,112,113,112,113,113,114,109,117,115,118,115,114,113,112,110,113,117,116
116,121,115,115,115,117,117,116,118,116,116,120,112,114,113,119,117,115,117,115,114,116,114,116,117,111,114,115,109,112,112,113,111,110,112,115,110,116,116,113,115,117,121,118,115,114,111,114,112,112,110,115,110,113,112,119,111,116,113,111
113,116,118,116,122,114,118,119,119,120,117,117,119,117,111,113,115,115,114,112,109,113,116,115,114,111,114,117,118,118,112,118,115,116,118,117,115,115,113,118,119,113,111,114,113,119,119,108,110,116,115,111,117,117,114,117,111,116,113,113
116,113,117,115,118,113,113,115,117,118,119,118,110,114,116,112,115,116,113,115,117,114,114,111,113,117,116,116,108,112,111,108,114,114,117,115,121,118,114,117,113,113,111,114,115,114,110,110,111,116,119,115,112,112,113,118,110,112,117,115
120,117,116,114,117,114,116,113,116,114,112,113,113,115,117,117,114,112,111,121,115,111,111,118,116,113,111,116,116,117,114,109,112,114,114,113,113,116,114,111,110,113,114,111,110,112,110,115,112,110,115,116,115,114,112,116,112,106,117,110
118,118,116,118,120,117,120,113,113,117,113,114,117,118,114,119,118,119,111,123,116,115,116,111,116,117,113,114,115,111,111,116,113,120,111,117,117,114,115,116,115,113,114,111,112,114,118,114,117,118,114,113,115,114,114,118,120,116,118,113
121,117,115,122,120,118,117,117,116,116,114,117,114,117,114,113,116,114,113,113,115,114,115,112,116,115,116,111,113,118,118,116,113,119,115,116,114,111,114,116,112,109,115,111,114,113,112,115,117,110,114,119,119,113,114,116,115,111,114,112
118,120,119,119,112,117,114,117,114,115,113,113,112,113,116,114,116,109,112,109,110,115,115,116,114,112,117,120,117,116,110,112,111,113,117,113,115,115,115,116,118,114,111,118,115,115,112,115,114,112,114,117,116,115,113,112,109,115,110,114
120,113,116,118,118,121,115,115,113,116,116,117,117,114,116,117,110,109,113,115,112,113,113,118,114,112,112,112,108,114,114,112,114,116,115,111,112,115,113,115,115,110,106,114,117,117,114,111,110,114,110,115,116,115,113,116,115,117,112,115
121,115,116,116,116,114,111,112,112,113,117,114,117,116,120,119,119,116,111,115,117,114,112,114,116,117,112,116,118,115,116,116,119,114,114,117,114,116,113,113,117,119,115,111,114,117,117,114,116,117,113,112,115,114,114,114,112,116,116,112
115,119,115,117,113,114,114,117,114,116,120,115,115,109,116,115,114,109,110,115,116,115,113,115,115,115,112,111,116,115,117,112,114,111,112,113,112,115,114,113,114,116,111,115,116,109,116,115,111,114,114,113,116,115,112,114,118,114,118,112
119,116,115,118,116,119,119,121,118,117,114,108,120,112,116,117,118,114,114,110,115,115,114,115,114,117,113,118,114,110,111,112,114,114,115,113,110,114,115,115,111,116,114,114,113,113,114,116,111,106,113,117,116,115,117,112,113,112,111,112
115,119,115,115,117,117,113,110,112,114,115,116,119,118,116,109,113,111,111,112,114,110,109,113,117,119,115,116,113,116,113,113,108,114,110,118,117,114,116,118,112,116,111,117,112,111,110,111,115,113,118,114,114,117,115,111,116,114,115,116
111,115,115,116,117,111,115,111,112,116,116,114,112,113,112,115,117,114,118,113,117,118,111,115,114,112,111,114,111,110,112,114,116,118,111,117,115,112,111,114,115,113,112,117,111,114,110,110,111,112,110,110,112,112,118,113,110,111,118,114
