47,56,65
118,110,114,114,114,109,113,109,115,115,115,117,117,118,118,117,118,118,116,117,111,113,114,119,118,114,117,115,119,117,118,119,116,116,117,114,116,111,111,117,120,113,113,115,119,115,115,113,117,115,113,117,122,114,117,116,118,120,119,122
114,113,117,115,117,116,120,117,115,114,111,115,119,115,119,116,111,111,115,110,114,115,120,118,117,115,117,116,120,116,112,115,117,118,117,113,118,117,119,116,114,116,117,113,118,118,112,114,117,120,118,114,116,119,118,116,124,118,122,123
112,116,117,116,122,118,116,114,116,114,114,114,119,119,114,115,115,116,121,110,114,115,119,117,115,122,116,110,113,113,117,114,113,114,113,114,118,114,117,116,115,116,116,114,112,114,117,122,117,113,114,120,121,117,116,120,116,120,120,123
114,116,116,113,117,114,116,117,116,117,116,112,118,120,118,119,116,117,118,118,116,113,115,116,116,116,111,114,115,113,119,114,113,119,117,114,118,116,115,113,115,114,112,117,117,115,116,113,113,113,114,118,116,117,111,117,109,112,119,124
116,115,114,114,116,112,114,118,113,116,113,115,117,108,118,117,114,115,114,120,116,115,114,118,113,114,117,116,117,113,115,114,110,115,117,111,116,116,114,115,117,117,115,117,114,109,114,119,116,118,117,116,117,121,115,119,125,118,121,118
114,111,112,116,118,115,119,117,116,120,116,110,119,113,113,112,115,117,116,116,111,114,114,118,117,115,116,115,114,117,122,115,111,115,116,114,113,113,113,114,117,121,115,114,117,115,115,117,114,117,116,114,117,116,117,114,120,118,118,118
114,114,113,109,114,113,113,118,118,115,116,107,115,114,113,119,114,114,113,112,118,115,117,114,116,116,114,117,118,114,116,115,111,115,112,113,115,112,114,114,113,115,113,114,115,113,109,117,111,111,117,121,120,117,117,114,117,118,118,116
116,116,115,117,117,113,112,119,116,112,118,117,114,117,111,112,116,110,114,114,118,112,114,115,114,114,116,107,116,112,115,118,120,118,119,116,118,118,114,113,113,116,113,115,114,111,113,123,116,120,118,116,114,114,117,115,116,120,116,114
114,112,112,117,119,113,111,115,115,113,116,120,114,117,113,117,118,114,114,117,114,113,119,113,116,115,118,116,115,113,118,110,117,116,114,116,114,116,112,114,114,112,114,121,118,115,114,118,116,116,114,113,119,119,114,117,119,117,116,121
111,117,113,110,115,115,118,116,115,116,116,116,116,120,109,118,116,118,115,117,112,111,116,114,117,117,113,115,113,111,116,116,120,117,114,118,115,114,115,114,117,114,116,114,116,118,114,112,116,113,117,117,120,116,113,115,113,117,116,121
114,115,114,113,115,120,115,110,113,121,118,118,109,114,112,114,114,112,115,117,112,116,117,117,115,114,113,117,119,119,113,113,112,118,114,114,112,114,119,115,119,111,117,116,113,117,117,114,120,116,120,118,117,113,113,117,118,115,115,117
111,118,113,114,113,118,115,118,113,113,113,118,113,114,117,114,116,114,114,113,114,115,109,115,115,113,114,117,112,117,115,113,113,119,113,117,118,114,115,115,114,109,110,116,115,114,111,113,114,115,114,116,117,115,114,116,124,116,113,118
112,115,116,118,113,115,115,118,114,117,117,114,115,112,114,116,120,120,121,118,116,118,116,116,119,117,111,117,112,114,119,113,118,119,113,111,113,115,110,113,115,113,115,121,119,120,113,118,116,115,115,111,111,113,117,115,116,117,117,110
120,116,108,114,113,115,114,115,117,117,117,111,111,111,114,116,117,114,113,115,120,112,112,111,112,116,117,117,117,113,113,112,113,114,117,115,118,114,116,116,113,111,117,114,110,112,113,112,114,117,119,112,116,115,113,117,113,119,120,115
113,117,116,113,116,117,119,116,111,115,119,117,119,116,113,115,113,114,115,116,122,116,112,116,110,116,116,113,114,116,113,111,113,116,116,111,117,109,113,116,120,113,116,114,118,115,114,112,112,116,116,119,119,118,116,114,114,118,110,109
115,115,111,115,115,115,119,121,113,117,114,115,119,117,110,114,110,117,116,114,119,116,111,117,114,120,120,117,110,113,108,112,111,116,117,116,117,115,112,118,117,114,110,115,123,115,114,113,113,116,117,117,112,114,116,114,116,117,119,119
115,121,119,117,112,115,109,116,112,114,114,119,112,113,115,117,115,118,116,116,118,118,114,116,114,118,116,117,118,119,116,116,121,119,114,111,113,120,110,113,113,115,110,116,114,111,117,112,116,115,114,117,116,115,116,118,116,117,114,115
113,113,116,114,115,115,115,117,116,115,108,112,116,116,115,112,114,118,114,117,112,113,114,119,113,113,116,111,112,113,115,110,115,116,119,119,113,113,112,118,111,115,114,116,117,113,113,113,114,113,114,118,111,114,116,111,113,115,112,119
116,117,117,116,114,114,115,115,112,114,116,116,114,115,114,118,114,115,116,119,120,113,116,114,111,117,118,119,117,114,114,118,115,110,116,117,118,115,113,114,115,116,118,114,116,117,117,119,119,116,112,115,112,117,116,117,116,117,113,114
116,115,115,118,116,118,116,115,120,118,120,115,109,116,117,115,113,116,115,113,116,114,116,114,112,116,113,115,115,118,116,114,115,114,115,114,117,116,117,115,114,114,117,113,113,114,110,115,118,118,117,120,114,113,117,116,114,113,118,117
115,116,114,117,114,107,114,114,115,114,118,114,112,115,118,114,112,115,115,119,115,116,110,118,122,116,113,116,116,117,116,115,114,116,114,113,114,114,119,114,111,114,115,116,115,121,114,114,115,114,116,116,115,117,116,110,115,115,114,115
113,114,112,116,116,113,121,118,110,116,120,116,118,116,112,117,113,117,120,120,114,119,115,112,110,113,118,117,113,113,115,117,113,115,116,113,118,114,118,112,119,114,115,119,116,115,116,121,116,114,115,113,113,115,115,112,113,119,113,108
115,120,115,115,115,114,115,114,114,115,116,118,117,120,112,116,111,112,117,112,115,118,115,118,115,117,112,112,115,114,112,113,118,116,118,118,118,116,113,114,117,116,120,115,113,115,120,120,114,117,114,116,118,115,113,115,115,122,117,116
113,118,117,113,117,115,117,117,113,113,115,117,117,118,115,119,118,115,116,116,115,117,115,114,112,120,120,116,117,120,119,114,112,110,119,115,117,119,115,115,112,115,113,112,116,115,115,114,115,114,117,112,111,117,114,113,109,112,122,120
117,118,116,116,119,115,113,112,110,115,111,114,111,113,114,115,115,115,115,117,117,116,114,119,117,112,112,113,115,115,112,113,116,113,117,113,116,116,116,115,117,115,114,114,111,111,114,118,117,114,117,115,117,119,117,114,118,115,115,114
116,124,113,114,116,114,113,117,113,116,112,122,117,119,116,113,119,116,116,114,121,117,111,114,116,120,114,117,116,116,120,120,117,114,118,110,114,121,119,113,116,116,116,115,115,117,113,114,115,112,116,114,113,117,118,113,116,117,118,119
113,113,114,116,115,110,115,118,113,117,115,116,114,112,114,113,118,113,117,115,110,111,113,117,115,117,116,115,115,117,114,116,119,115,113,119,117,115,116,111,110,117,117,115,116,116,113,114,122,114,117,122,114,118,118,112,111,116,120,119
112,109,115,117,113,114,113,115,117,118,115,112,113,116,117,115,116,115,116,121,117,115,117,114,115,114,112,114,115,115,114,113,120,116,112,119,114,114,117,116,114,113,114,114,118,115,115,112,118,116,110,113,118,118,116,116,117,117,113,109
114,112,117,117,119,121,113,116,115,114,119,118,115,114,111,112,114,117,114,114,115,117,118,116,118,116,114,116,118,114,116,111,114,116,117,115,117,119,113,110,115,118,119,116,118,114,117,115,115,115,113,113,117,117,116,117,115,114,114,115
114,112,111,109,112,118,118,115,106,109,117,120,119,119,115,116,117,118,114,115,116,116,115,115,116,119,117,113,116,111,114,118,116,118,112,116,114,112,113,113,112,111,116,113,112,113,117,117,117,116,116,114,114,112,115,118,119,116,117,116
114,119,111,125,112,112,111,115,115,112,112,115,118,117,117,109,114,113,118,117,114,116,119,114,111,112,117,115,116,116,113,118,115,120,109,119,118,117,117,118,117,113,113,116,116,111,113,115,116,114,117,118,116,112,118,116,119,113,114,114
116,115,111,116,113,116,116,114,111,114,114,112,119,117,117,116,116,116,118,118,115,115,115,121,122,118,118,113,116,117,112,113,116,114,113,112,108,114,116,119,121,117,114,114,116,117,117,116,114,113,111,115,116,114,119,117,113,114,118,114
110,113,116,118,118,118,115,117,114,116,116,113,116,114,115,112,112,118,114,118,118,118,114,119,113,114,117,117,116,118,118,117,118,115,115,118,116,116,114,111,113,116,116,111,111,115,114,117,115,113,113,115,115,119,119,115,114,113,117,115
118,114,116,117,114,114,109,114,118,115,112,116,115,112,115,117,111,120,114,113,111,115,117,115,119,115,116,119,116,112,117,115,117,118,116,116,112,117,116,117,117,119,119,120,117,121,115,118,115,108,111,118,112,112,114,117,114,117,117,116
116,114,110,114,115,117,117,114,113,116,113,115,114,114,114,119,115,114,114,110,117,116,119,116,117,113,113,116,119,116,120,114,117,118,115,113,116,120,115,115,110,114,113,118,113,115,114,114,110,117,119,115,114,116,111,117,111,112,111,113
114,119,119,118,116,111,115,121,114,119,117,119,118,114,115,114,118,115,119,117,118,111,115,115,116,119,120,114,114,113,112,116,116,113,117,118,116,116,114,111,114,114,118,118,119,115,111,119,111,109,116,118,118,116,114,116,117,123,117,115
116,121,119,114,116,112,115,120,117,115,111,117,116,116,116,111,116,115,118,118,120,116,114,119,116,118,115,120,123,118,116,119,118,115,113,112,112,114,120,118,116,111,114,115,120,114,111,115,118,115,116,118,118,115,117,114,114,118,120,122
114,119,117,115,116,112,119,113,112,112,111,112,115,115,114,115,113,115,112,115,117,119,113,117,115,121,125,125,129,122,116,118,117,116,117,113,120,113,115,114,113,120,120,113,113,118,117,119,117,116,115,120,120,120,113,114,115,113,110,114
117,115,114,120,115,114,118,117,121,118,115,117,117,114,113,118,118,120,111,115,119,121,119,119,120,124,129,128,131,131,126,120,119,115,117,116,119,115,118,116,116,119,117,117,114,115,110,113,112,114,115,114,113,117,116,118,120,115,119,116
117,115,116,118,112,112,111,118,118,114,116,112,118,118,112,112,112,116,118,114,113,119,117,117,115,125,135,141,142,142,140,127,123,118,114,117,113,113,116,113,116,114,116,116,116,115,119,113,118,113,117,117,116,118,113,110,116,112,110,113
114,117,118,109,113,117,118,113,116,115,118,116,116,114,117,117,112,113,117,117,114,121,121,118,120,129,140,145,141,137,134,127,122,122,115,120,114,112,113,115,117,113,117,117,119,114,117,110,115,114,115,116,116,118,117,114,113,115,115,116
116,116,117,112,113,114,116,114,113,113,116,116,112,119,118,118,115,113,115,119,117,118,115,122,122,129,136,136,135,135,131,131,119,119,118,117,119,120,117,119,119,115,118,115,118,116,116,115,116,117,113,110,115,107,115,115,117,119,116,116
113,110,111,115,117,116,114,112,111,112,112,115,112,117,115,116,118,118,115,115,118,115,112,121,119,132,144,143,139,142,141,135,123,119,117,118,113,114,114,115,116,116,114,115,116,116,116,115,113,115,118,115,117,111,117,116,116,117,115,119
113,114,117,119,116,112,115,114,117,120,114,115,110,113,113,113,117,115,117,116,117,117,119,119,120,132,140,141,136,137,135,137,128,128,118,119,113,110,113,113,116,116,118,114,112,119,118,112,113,114,113,117,118,119,112,116,116,116,116,118
110,116,116,115,112,115,113,109,114,116,117,114,115,118,120,115,119,113,114,114,117,118,117,116,119,128,132,139,131,131,134,143,124,123,117,118,116,119,119,113,118,118,117,113,115,117,114,116,117,120,116,113,112,119,113,118,119,122,113,115
112,115,116,115,112,115,118,115,119,117,115,111,116,113,114,117,115,116,121,118,115,119,118,124,127,123,130,142,140,133,127,136,130,121,118,123,121,118,117,111,114,114,113,115,122,121,115,120,116,114,112,112,112,117,114,114,114,115,116,119
113,118,117,115,113,116,120,120,118,114,115,121,118,115,106,118,116,118,116,117,118,116,119,122,127,127,134,135,138,139,145,139,124,124,118,117,117,111,114,114,117,117,114,116,116,115,112,119,117,116,114,118,114,114,112,115,114,116,115,111
116,117,114,114,118,117,115,118,111,114,114,113,116,121,114,120,120,120,116,117,123,123,117,115,123,128,134,131,133,136,135,134,129,128,121,118,117,114,115,115,114,114,112,115,114,113,112,113,113,119,114,117,117,113,111,116,114,115,116,113
118,113,114,115,114,115,111,116,112,113,117,113,114,115,118,112,114,118,117,116,119,118,115,114,124,125,134,142,143,143,149,138,130,126,120,119,116,116,116,117,117,118,112,115,119,116,115,118,118,117,114,116,113,112,113,116,114,112,115,117
114,117,115,115,116,121,117,115,115,114,118,117,113,113,118,118,110,114,115,116,120,120,123,122,125,120,132,134,143,142,144,140,133,121,120,122,115,117,117,118,116,116,116,116,117,119,116,114,116,121,118,114,115,115,116,115,112,115,113,115
114,117,118,113,114,112,115,116,117,111,113,114,114,115,114,117,115,120,118,116,117,120,117,119,127,132,137,135,134,142,143,138,130,120,116,115,114,118,116,121,114,113,114,113,115,117,114,112,112,120,116,117,117,111,112,114,113,114,115,118
116,119,116,111,116,113,113,114,112,113,116,113,115,113,113,113,115,115,119,121,117,120,119,119,123,127,137,135,136,141,143,143,137,124,120,115,116,119,113,115,117,116,115,117,114,119,111,117,115,117,114,117,115,117,115,119,110,113,114,118
115,115,111,111,113,114,113,116,116,116,119,118,117,116,116,118,113,114,114,120,120,120,124,122,124,128,133,137,144,141,135,135,131,123,116,118,116,116,115,117,118,118,114,119,114,114,115,125,119,119,118,120,117,119,116,115,114,119,113,114
115,117,116,117,114,114,115,118,122,118,110,116,120,115,115,116,115,116,112,118,120,119,122,122,121,132,134,137,140,143,133,133,127,129,119,122,121,117,117,118,114,113,114,112,110,108,112,117,115,117,114,113,115,117,116,117,117,114,113,112
115,113,113,117,112,112,117,112,113,116,114,119,121,114,118,116,115,119,115,115,119,120,120,123,122,131,136,142,143,139,137,134,129,126,121,121,114,114,115,116,117,114,121,115,116,116,112,116,109,118,119,118,119,118,116,116,115,118,120,113
118,115,116,115,116,114,115,119,114,118,116,113,113,117,118,116,117,117,116,117,120,123,122,122,126,129,133,140,142,141,138,139,133,128,125,119,115,119,115,113,123,116,114,115,117,117,113,113,109,115,115,118,115,117,115,117,118,117,116,114
116,121,120,114,112,116,113,120,117,116,119,116,114,114,114,118,115,119,117,118,119,124,123,119,126,131,137,145,141,142,135,135,132,118,121,121,115,115,115,117,115,116,113,117,116,119,116,118,115,117,116,115,115,115,115,119,112,114,111,117
114,117,118,113,116,115,112,110,117,120,118,119,116,115,116,121,118,116,111,119,115,119,120,123,124,131,135,140,142,146,140,130,134,124,118,119,119,115,117,120,114,116,116,116,114,116,116,117,117,112,117,111,113,111,110,116,117,116,113,119
115,115,117,107,113,119,116,114,115,115,110,112,115,116,116,113,120,114,115,116,118,121,118,122,123,134,137,137,142,144,142,129,129,121,121,114,116,116,114,113,113,113,113,118,122,116,115,113,115,113,117,116,116,114,113,112,113,115,114,116
114,115,114,115,114,116,105,115,115,113,115,115,115,115,120,117,117,111,114,117,115,119,118,118,124,127,137,140,139,139,141,131,130,123,120,121,118,122,115,117,117,116,113,115,116,113,110,114,112,114,117,116,116,121,118,114,114,117,115,115
116,115,112,115,116,116,115,118,115,111,113,115,119,119,118,118,115,119,114,120,122,124,124,124,127,126,137,137,133,138,144,132,128,123,115,120,120,118,116,116,116,112,114,122,112,114,112,116,112,114,116,118,114,110,118,116,114,117,116,117
116,117,116,118,115,115,115,118,119,116,116,117,113,114,118,120,115,120,115,118,123,122,120,125,129,132,141,139,134,137,138,131,127,124,121,117,121,118,117,117,119,114,113,118,115,118,112,115,116,118,117,115,121,116,117,117,113,117,118,118
114,119,116,114,114,115,117,115,114,117,113,118,120,113,113,118,119,118,118,119,122,120,119,118,128,137,143,139,142,140,138,134,126,123,123,115,115,116,115,115,116,117,117,118,112,114,115,113,110,113,120,116,118,111,115,111,118,120,117,115
109,116,114,116,118,116,116,115,112,114,111,116,116,118,117,119,112,114,119,117,119,120,126,122,126,128,147,142,144,140,136,126,122,124,121,118,119,118,114,114,112,114,116,117,112,114,113,118,117,114,114,116,119,116,119,116,115,115,116,116
116,118,115,114,116,117,116,115,113,114,115,116,112,117,118,116,113,119,121,114,125,120,126,127,128,125,133,135,142,140,132,127,123,122,118,118,116,119,115,116,115,116,110,113,115,116,115,118,115,114,115,117,113,113,115,115,114,118,120,115
109,118,116,117,116,116,116,117,116,112,118,115,116,113,117,117,117,120,122,117,122,113,118,117,128,136,138,136,131,132,128,127,121,119,121,120,112,115,116,115,116,119,115,116,118,117,118,118,112,113,116,112,114,117,118,112,116,120,118,115
113,114,110,115,115,114,115,119,118,113,120,115,111,111,114,116,117,120,118,113,120,125,121,122,130,137,130,130,128,132,128,121,125,120,118,119,119,117,117,116,116,118,121,119,121,121,116,111,115,115,116,112,115,117,116,114,112,121,113,116
117,121,119,117,117,113,115,120,120,115,116,117,118,119,120,114,118,122,120,119,115,118,116,121,128,134,133,132,133,132,129,122,125,118,123,116,117,114,115,119,114,111,118,114,116,116,109,112,118,111,116,118,114,116,114,119,112,115,119,116
115,116,112,117,119,118,118,113,118,119,115,117,114,112,119,117,119,118,114,116,117,122,119,128,129,126,135,132,135,132,130,127,126,122,123,117,118,119,111,115,113,113,114,112,116,114,117,119,117,117,114,116,111,112,113,117,116,112,117,114
117,118,111,114,114,118,115,116,114,117,116,115,113,114,116,120,119,114,117,123,124,124,121,127,129,129,133,131,134,136,127,121,118,118,118,125,118,115,116,119,116,114,115,114,116,115,116,115,116,120,111,111,111,118,118,116,120,116,114,114
118,117,113,117,114,120,120,115,117,117,117,115,117,118,119,112,118,116,113,116,116,118,122,125,128,128,136,139,135,132,128,123,122,119,116,119,116,117,117,115,117,115,115,113,117,117,116,116,111,115,116,115,112,112,115,112,111,115,115,114
116,116,116,115,112,113,117,112,116,114,117,118,119,118,119,119,120,115,122,116,116,120,122,123,132,134,134,131,131,124,127,124,122,120,122,121,117,116,114,115,117,112,114,114,114,117,115,115,118,120,118,115,115,112,113,114,115,117,114,114
115,115,116,116,117,117,122,115,114,119,112,113,112,118,114,118,118,116,118,116,116,113,115,125,130,134,134,125,128,130,124,124,126,119,120,120,119,115,115,116,114,110,119,116,116,113,108,113,118,114,115,117,117,114,116,114,117,116,114,112
113,116,121,121,114,115,112,116,112,116,112,114,113,116,112,114,116,116,119,118,119,117,121,123,126,130,129,130,131,129,124,117,117,120,122,115,113,115,116,118,118,114,119,118,113,111,109,114,118,116,116,114,114,114,115,118,120,117,114,114
113,115,118,121,114,116,113,119,117,115,119,113,117,116,118,122,119,117,121,116,118,120,121,123,127,129,132,131,130,128,128,122,122,125,121,119,118,119,118,113,117,115,114,116,114,117,117,117,117,119,115,111,112,113,116,116,114,114,116,120
115,120,118,116,116,119,117,113,114,113,114,111,116,114,118,121,114,116,116,122,121,120,116,125,131,124,130,127,128,126,125,119,118,120,113,119,115,115,116,116,122,116,118,118,117,118,115,116,116,116,116,116,115,117,117,119,116,117,115,119
115,114,114,114,118,121,119,117,114,118,115,116,116,114,113,114,116,120,118,118,118,118,118,121,123,120,126,130,126,129,126,121,117,123,114,116,117,119,114,113,120,114,116,114,114,116,115,115,114,115,113,117,112,112,112,115,115,117,117,110
110,111,114,115,116,113,114,112,112,116,115,121,118,114,119,121,120,116,118,116,121,120,116,120,123,126,125,128,128,126,121,121,120,122,118,114,116,118,117,114,112,114,115,116,116,115,115,117,115,115,117,117,115,109,118,118,115,114,117,115
115,120,119,115,115,114,115,117,115,114,114,114,114,115,119,119,117,119,113,114,116,120,119,122,120,121,124,117,116,123,120,119,121,117,120,118,116,119,117,120,113,114,113,112,118,117,117,115,113,113,111,113,115,113,114,116,117,117,114,120
112,117,115,115,116,117,115,116,116,119,116,119,119,117,113,115,118,122,116,114,119,123,118,117,118,116,119,119,118,122,121,118,118,117,116,118,112,116,115,117,117,113,119,112,118,117,113,115,117,121,115,118,116,116,115,114,111,115,112,115
111,112,115,119,113,115,112,113,114,116,116,114,115,115,116,114,110,115,121,122,114,114,115,117,121,125,119,115,119,117,119,119,114,116,116,117,109,116,116,116,113,108,118,117,113,115,114,115,115,115,115,115,115,113,115,117,116,117,113,113
114,116,113,117,117,118,117,117,120,112,117,116,115,117,113,119,118,118,115,119,115,121,114,118,115,111,118,117,119,115,116,121,118,116,114,115,119,119,116,119,114,112,119,116,115,120,114,111,113,116,121,116,117,119,114,117,117,116,115,113
114,116,115,117,117,115,116,115,118,115,115,115,111,116,112,118,117,119,118,116,114,121,120,118,120,115,119,115,115,119,121,119,117,117,112,120,122,120,118,119,117,116,116,115,113,119,118,116,115,113,119,116,116,115,109,115,118,116,118,117
114,113,117,118,117,116,114,112,109,110,111,121,117,115,114,110,114,118,116,117,118,117,122,113,113,118,115,122,118,119,118,117,117,116,113,118,116,115,113,112,113,116,116,121,118,116,114,115,115,114,113,110,114,117,117,117,115,115,113,115
114,114,115,119,117,114,116,116,118,112,114,119,118,117,118,113,116,117,116,115,112,114,120,116,110,117,111,114,114,115,117,118,117,117,117,114,117,116,118,117,114,115,112,111,115,118,112,118,114,115,115,115,113,118,116,117,113,115,115,114
115,112,113,112,117,122,114,113,113,113,112,117,121,115,115,117,119,112,113,112,115,114,115,118,114,117,121,119,119,118,117,109,114,116,115,116,118,118,117,114,118,118,114,117,116,112,115,117,117,113,116,112,113,114,114,119,116,112,114,114
116,111,119,113,116,120,113,118,118,117,113,117,113,113,112,118,117,117,118,118,120,114,115,115,110,111,116,116,116,116,117,117,118,117,120,119,115,117,118,113,117,115,116,117,118,114,114,114,116,110,115,111,115,115,112,111,115,118,114,114
122,117,118,112,115,117,115,110,115,117,113,116,114,115,113,116,112,113,118,113,119,120,117,118,113,114,116,114,115,113,109,111,119,116,117,112,113,110,119,114,114,113,119,118,114,113,116,117,115,113,116,117,112,113,115,117,115,118,109,115
119,118,117,113,115,115,115,113,117,121,113,110,116,116,119,117,117,119,123,113,115,110,117,119,118,117,116,115,117,118,119,112,117,118,111,113,120,113,111,113,120,115,117,114,114,117,117,116,117,119,118,121,115,116,113,118,115,116,114,114
115,112,114,115,115,114,113,114,114,115,117,114,115,117,120,117,113,116,118,116,123,120,117,113,120,119,116,115,118,117,114,115,115,117,113,116,116,118,115,115,117,117,115,112,118,115,116,115,114,111,112,111,114,119,113,114,113,115,115,120
116,119,116,111,111,114,113,122,114,114,115,115,113,113,111,116,110,117,119,111,111,112,115,117,118,116,116,114,113,117,119,119,114,112,119,117,110,117,120,116,113,115,115,114,117,118,118,113,115,122,118,115,113,115,116,115,117,113,116,118
118,116,120,118,116,117,112,119,113,113,110,115,116,119,115,117,117,114,118,113,116,113,115,117,117,113,115,113,116,115,114,116,117,116,118,114,114,116,117,116,114,117,115,117,112,113,120,116,115,116,116,115,112,114,117,116,115,111,116,118
117,114,118,113,113,117,113,113,116,109,113,112,111,114,117,115,115,111,115,114,116,117,113,114,116,116,118,110,112,115,113,115,115,115,117,116,117,110,115,115,112,116,116,117,113,115,119,115,114,115,116,115,115,115,116,119,117,113,118,113
120,114,114,110,113,115,119,111,118,114,120,117,115,117,116,117,118,121,118,118,117,115,115,115,115,117,116,115,115,120,117,115,116,114,117,115,115,111,115,114,114,117,113,120,121,117,118,117,116,115,115,112,116,119,116,116,117,107,113,113
115,113,118,115,117,114,113,114,116,117,116,118,115,116,113,114,116,118,115,114,111,111,114,117,114,120,115,111,116,116,116,116,120,119,119,114,118,115,115,119,114,116,114,116,118,110,119,115,115,117,115,116,115,117,117,117,118,115,118,114
117,119,114,113,114,119,116,116,115,119,115,115,117,118,116,108,111,116,116,120,118,117,115,115,111,115,115,113,117,112,114,111,111,113,118,112,109,116,111,113,112,113,115,114,114,112,117,111,114,117,112,115,118,117,112,112,117,119,115,113
115,118,108,117,115,109,117,117,115,114,114,117,116,114,116,117,115,115,113,113,115,114,117,116,113,116,114,114,115,116,115,114,116,117,117,116,114,117,114,114,116,116,117,119,120,112,116,117,117,118,116,116,119,116,112,119,115,117,116,117
114,116,115,114,117,117,116,112,112,115,117,118,118,119,113,113,111,119,114,117,119,117,117,113,113,118,114,118,116,116,112,110,116,114,114,121,120,114,119,119,115,113,116,119,122,114,113,116,120,121,118,112,115,118,114,115,114,114,117,114
117,113,117,119,118,118,114,117,113,116,115,114,109,116,115,116,113,115,111,111,111,114,121,115,115,114,113,112,110,115,117,116,116,112,117,115,118,114,119,117,117,118,111,113,115,112,117,111,114,117,116,113,117,122,118,114,117,116,118,115
116,115,115,117,116,119,113,116,110,115,116,113,112,114,116,116,114,119,112,118,117,116,114,117,116,112,116,112,113,117,121,117,119,119,118,108,115,114,114,116,111,114,107,112,116,115,115,111,121,114,115,115,116,120,120,115,116,116,115,113
119,117,115,113,115,119,115,115,113,115,116,114,116,115,115,114,116,115,110,115,114,115,109,111,114,117,117,116,117,114,117,118,115,114,118,115,113,118,112,116,114,116,121,114,116,113,111,114,123,115,117,115,115,113,109,118,118,115,114,114
118,117,112,111,115,119,117,114,115,114,115,118,113,115,115,112,116,113,120,115,114,114,118,119,114,113,119,118,118,113,112,117,115,119,115,114,115,122,112,118,121,113,113,113,123,115,119,116,115,119,117,117,117,120,117,120,116,113,119,112
115,109,112,118,112,112,116,119,116,115,114,118,114,114,115,116,121,113,116,109,114,117,115,116,115,114,117,114,118,113,115,115,113,117,114,115,116,113,113,117,115,115,117,111,117,117,116,112,111,113,116,119,114,112,112,115,117,116,118,117
118,113,117,123,113,113,110,115,116,117,120,116,115,119,116,114,113,112,113,114,114,116,114,117,119,115,115,110,114,114,116,116,113,113,115,112,116,116,115,119,117,115,115,113,115,116,118,114,117,117,114,117,116,119,114,114,115,117,116,119
119,114,115,113,113,114,120,117,118,114,116,114,110,114,115,119,114,116,118,118,118,115,118,116,119,115,114,114,116,116,115,121,118,112,117,115,116,114,113,115,117,118,121,114,109,114,114,115,116,121,115,120,115,120,118,115,117,115,115,120
116,110,120,115,115,112,115,115,120,113,107,115,118,112,111,117,116,116,116,112,117,115,120,115,115,115,115,119,118,116,115,120,117,115,119,116,115,115,116,114,113,115,121,116,117,118,113,120,114,112,115,120,115,116,114,114,117,115,118,117
114,115,117,110,115,120,117,116,113,116,118,116,113,116,117,116,112,110,112,117,119,119,112,114,115,116,121,113,112,113,117,115,114,119,118,115,113,116,114,117,118,115,119,118,116,117,118,121,114,115,114,115,117,119,115,116,115,120,117,113
118,114,119,118,114,115,112,111,112,116,115,114,116,122,118,117,117,117,113,115,114,115,113,113,116,113,117,110,113,114,114,119,117,122,115,119,118,118,115,119,121,120,117,113,112,117,119,116,110,117,114,113,120,124,113,115,113,112,115,117
115,110,112,114,116,116,115,118,114,111,117,116,115,118,111,115,116,118,112,111,115,115,114,114,118,114,118,115,114,116,115,114,114,116,114,116,115,115,115,119,113,114,115,118,116,120,114,121,114,117,118,115,117,118,118,121,116,117,117,118
115,115,114,117,116,111,116,117,115,111,117,117,115,115,113,113,115,117,115,115,112,118,117,115,115,118,117,117,121,115,115,111,113,111,115,113,116,114,115,120,119,114,114,118,116,115,111,119,121,115,115,118,113,113,114,119,115,116,115,116
113,117,113,118,118,116,113,111,114,114,111,115,114,113,118,113,110,113,117,118,110,118,117,118,114,117,119,112,117,117,116,113,120,112,116,112,116,114,117,111,113,116,121,121,115,113,114,116,118,119,115,117,112,114,117,115,113,116,117,114
112,114,114,115,111,118,114,116,114,117,115,114,114,112,116,115,118,118,113,116,115,118,119,116,117,116,117,112,116,117,112,112,118,115,117,118,116,116,116,112,112,114,113,116,117,115,109,116,111,112,110,120,119,117,113,112,115,113,116,114
119,118,118,119,116,116,115,115,113,116,119,116,112,115,111,114,116,118,117,116,116,115,121,116,116,111,114,115,112,120,123,114,116,113,117,117,116,121,116,116,117,114,119,119,115,116,113,116,115,115,113,120,121,117,116,120,115,113,120,119
115,116,121,116,119,115,117,116,119,117,112,118,115,121,116,115,111,115,115,115,117,113,114,112,116,118,115,116,118,116,116,115,114,111,111,114,114,115,120,114,114,115,116,118,116,117,117,118,119,115,116,116,118,113,117,117,112,115,116,120
113,114,115,115,120,114,116,114,112,115,112,115,117,115,116,118,117,117,115,114,115,114,112,115,114,115,114,112,114,113,118,118,115,113,117,119,121,113,115,118,112,115,116,120,117,114,114,117,118,120,124,118,120,117,112,120,118,115,113,117
116,110,110,113,117,113,115,114,117,119,119,116,117,113,119,122,116,112,113,114,114,118,115,112,113,119,116,111,113,117,115,113,115,115,112,113,115,115,114,123,117,115,116,117,117,119,114,118,114,119,118,116,115,114,112,118,116,116,116,113
116,115,112,111,113,118,117,112,112,114,113,116,116,117,120,113,115,116,117,117,114,113,115,114,115,114,113,118,115,115,117,118,115,115,115,117,115,116,120,114,116,117,118,114,113,115,114,119,113,120,118,115,118,120,114,116,116,114,119,111
109,114,117,113,115,119,117,115,113,114,117,116,116,110,116,112,116,114,115,116,115,115,115,115,114,114,115,116,115,113,116,112,115,118,115,115,122,116,118,114,117,111,112,117,116,114,113,114,113,116,116,116,119,119,114,116,118,119,118,117
113,113,115,114,112,111,118,116,114,115,113,114,121,118,119,113,113,114,114,119,117,115,114,116,114,113,113,116,117,115,119,118,118,115,114,110,119,118,110,112,117,123,116,112,114,116,118,117,116,117,117,113,111,115,114,119,118,119,117,117
114,113,115,117,118,113,115,113,119,116,112,117,114,118,116,113,113,118,115,118,116,120,120,114,117,115,114,117,115,114,114,116,120,113,116,119,117,117,113,116,118,119,117,116,117,118,118,116,112,114,118,116,115,121,114,118,113,113,118,115
