54,60,66
116,119,113,116,114,116,111,119,116,116,115,115,113,114,115,116,114,112,116,120,115,115,118,114,114,116,116,115,116,116,114,118,116,114,118,114,116,115,117,114,114,113,116,115,113,115,116,116,118,116,114,114,116,113,114,115,116,112,113,117
115,115,117,112,115,116,114,114,114,116,119,116,118,112,112,116,115,116,114,112,114,116,117,118,118,112,114,116,114,114,116,114,115,116,117,118,114,114,115,114,117,117,117,116,116,115,112,109,110,113,117,113,111,112,114,115,116,114,120,121
117,115,111,111,114,113,115,118,119,116,112,111,115,113,112,118,116,112,113,112,110,112,115,115,113,117,114,112,113,110,111,115,120,114,114,116,112,112,115,115,113,117,117,116,116,113,115,117,116,115,114,115,117,112,116,118,116,119,121,116
116,115,116,116,116,113,115,116,116,114,116,118,114,116,116,112,114,115,115,118,115,116,123,117,112,116,114,113,112,114,114,117,114,111,118,123,118,114,111,116,120,115,114,111,112,117,115,113,115,116,117,118,114,111,114,114,116,117,118,113
113,115,116,117,112,113,116,114,118,114,119,116,115,120,116,111,111,115,114,113,113,117,113,112,120,116,113,118,115,115,116,114,115,114,115,112,111,121,116,109,115,115,116,112,116,121,115,115,119,118,108,111,116,114,115,115,116,117,118,115
118,116,117,118,114,118,114,113,110,115,116,116,116,113,115,115,114,118,114,118,120,116,120,116,117,116,117,114,117,119,113,113,114,118,116,115,117,113,119,117,113,115,119,115,115,115,114,109,113,115,114,115,116,116,114,113,113,116,117,116
112,112,114,115,117,117,116,118,117,113,111,115,116,114,119,116,118,113,117,118,117,114,112,113,116,115,120,113,113,120,112,112,110,119,114,116,122,117,118,112,111,118,114,117,114,111,115,113,113,117,113,115,112,114,112,115,114,119,111,115
110,113,112,112,112,109,117,114,116,116,114,116,115,119,120,114,110,114,115,115,117,118,116,114,112,115,114,116,112,113,117,115,116,111,114,116,113,120,113,119,116,113,115,118,114,113,117,118,109,114,115,114,113,113,114,114,118,115,113,111
115,114,121,113,116,113,116,114,113,117,116,112,111,116,115,114,112,115,113,117,112,111,116,115,117,113,118,114,114,113,120,119,115,118,122,116,114,115,106,112,117,112,117,116,116,114,115,113,116,117,111,113,111,117,113,116,115,113,117,112
113,114,116,116,114,112,113,106,113,114,114,115,116,116,115,112,120,115,114,116,116,116,117,115,117,112,118,118,117,116,115,119,120,115,114,113,112,114,112,118,118,116,117,117,116,122,113,113,115,109,121,115,115,114,111,114,111,114,116,118
113,121,115,116,112,120,115,112,115,106,117,114,115,117,115,115,111,112,118,115,119,115,110,116,114,117,110,117,118,120,113,117,114,113,111,111,113,110,117,119,112,114,119,117,117,110,122,121,118,116,112,120,119,114,114,111,116,113,116,114
116,114,112,113,110,115,111,113,119,114,113,113,117,119,120,119,113,115,118,115,113,114,118,109,111,110,114,116,114,117,118,116,112,109,118,116,117,114,114,112,112,115,114,114,117,115,116,115,117,119,114,118,113,114,119,116,118,116,118,113
117,113,114,113,112,112,111,115,111,120,114,117,117,115,118,115,118,111,111,113,115,113,118,115,119,118,117,112,115,111,117,115,112,117,114,117,116,118,112,116,116,115,112,117,116,115,114,113,119,111,117,119,111,112,114,115,115,115,116,117
113,114,120,117,113,114,118,118,112,110,115,110,120,114,110,114,116,115,110,113,114,113,114,116,112,118,112,112,116,117,117,115,116,115,120,116,115,121,113,112,113,116,113,114,114,115,116,117,115,114,117,110,113,114,115,112,112,117,118,113
114,113,115,116,118,112,117,111,115,116,112,113,120,115,120,115,114,114,120,114,114,114,107,114,118,110,113,115,118,121,114,120,121,116,116,111,118,116,116,119,115,114,115,114,116,114,114,112,111,115,117,117,113,119,118,112,112,117,116,116
114,111,115,118,114,112,115,107,109,115,116,117,114,112,122,116,112,118,116,116,118,119,118,115,118,115,114,119,116,117,113,111,112,116,116,115,114,114,119,116,114,114,118,117,116,116,117,117,120,113,114,116,113,117,116,115,117,116,113,116
113,114,115,120,118,116,116,113,117,118,115,110,113,114,115,114,115,112,109,118,115,113,112,113,116,114,117,118,114,115,118,114,112,111,109,116,118,116,119,118,116,114,115,114,116,117,111,116,115,114,113,110,116,117,112,113,118,119,114,114
117,116,117,111,108,109,109,118,117,113,112,113,116,116,114,112,118,115,112,117,120,119,116,115,118,117,112,112,116,115,116,117,114,115,117,118,116,118,112,112,119,116,116,116,117,114,110,111,118,123,117,116,116,118,120,116,116,114,114,119
118,115,116,113,115,114,111,114,115,114,115,118,116,114,115,112,112,114,118,115,113,115,115,116,119,114,113,116,114,113,116,117,112,115,119,114,114,114,111,114,116,116,117,113,113,114,113,112,114,118,119,116,112,111,114,114,115,116,114,117
115,115,115,119,117,117,116,112,115,117,114,112,113,114,118,117,113,115,119,119,113,117,113,116,116,112,114,116,117,115,116,115,116,120,113,115,120,115,118,120,115,113,113,111,113,117,114,115,114,116,111,111,115,116,112,119,113,115,119,116
114,116,116,117,115,118,120,116,114,114,117,117,109,116,115,115,119,116,117,114,111,120,113,108,111,114,117,116,112,115,118,112,115,114,116,116,114,109,113,117,119,115,113,118,113,120,119,117,117,113,119,117,113,112,119,111,114,112,115,115
115,115,117,114,112,117,115,118,117,115,114,114,115,115,111,114,117,112,116,112,112,113,116,114,119,115,112,117,113,115,118,116,116,116,112,111,115,118,113,114,116,118,115,114,112,112,114,115,116,118,113,117,114,111,118,116,112,114,116,118
116,113,115,119,117,113,114,116,115,120,115,120,117,114,112,116,118,114,117,112,116,110,117,120,111,118,115,114,115,117,113,117,114,114,120,116,116,113,114,119,113,117,113,113,116,114,115,120,118,114,114,113,116,115,115,120,117,111,115,116
116,111,115,112,114,113,114,113,115,110,113,112,115,115,114,116,114,112,119,114,114,114,112,112,122,115,115,114,112,116,114,118,116,113,111,116,113,112,116,112,117,114,113,115,117,118,117,114,115,116,112,118,115,118,116,115,114,116,112,120
116,116,114,117,113,113,113,113,109,113,113,115,111,115,117,113,116,114,115,116,117,118,120,118,113,116,115,115,114,113,118,116,116,118,116,116,111,119,112,116,115,116,111,114,112,117,114,112,116,117,115,115,119,118,113,115,113,118,113,117
115,112,118,118,117,115,112,117,119,119,112,113,115,114,116,114,116,114,114,120,118,119,110,115,116,110,116,117,117,112,114,116,114,116,113,121,116,114,116,118,115,119,114,114,116,113,116,117,117,115,118,112,112,114,116,115,114,112,116,110
113,114,117,113,115,113,113,114,113,114,120,112,111,118,119,115,111,116,115,115,115,117,112,116,115,115,112,112,113,119,113,117,114,119,115,119,115,119,116,115,119,116,116,115,117,114,118,113,110,113,111,114,115,111,114,117,115,112,118,116
113,119,115,116,115,113,118,117,116,119,111,117,117,116,117,116,113,115,115,113,114,116,117,115,114,112,116,114,116,119,116,114,118,117,108,114,118,114,116,123,114,119,112,115,108,113,110,115,114,115,120,118,114,115,118,114,117,117,115,114
118,111,114,117,116,116,117,114,116,116,114,120,118,114,115,119,115,115,116,116,114,118,114,115,111,113,116,116,116,113,116,118,113,117,112,116,113,113,117,118,119,115,110,117,112,108,116,121,114,119,115,115,113,115,113,113,114,117,114,113
114,116,116,118,118,117,112,113,113,113,115,114,111,115,120,117,114,112,119,118,114,119,112,112,116,112,112,115,118,111,112,113,115,121,116,115,117,115,113,110,115,111,114,115,117,116,118,114,115,118,117,114,116,115,114,116,114,118,117,115
114,116,115,111,112,116,119,112,113,116,114,116,116,119,118,113,112,116,118,112,115,122,116,117,115,113,115,115,117,115,113,116,123,118,115,115,117,118,117,115,110,115,118,113,115,114,117,119,119,116,113,116,114,116,118,117,115,118,117,114
117,116,113,112,119,117,113,116,112,113,118,116,116,120,118,110,113,116,116,119,120,114,116,117,113,117,114,112,114,116,115,115,115,116,111,118,120,120,120,111,115,119,119,118,119,115,114,113,114,117,110,108,115,115,117,114,112,113,115,114
112,113,114,118,117,117,117,116,120,117,114,116,114,113,113,116,118,116,118,116,113,115,116,118,121,115,118,123,115,114,117,111,112,116,115,116,116,114,111,119,117,117,117,116,118,114,114,114,114,117,118,116,118,115,115,115,114,112,113,114
117,114,114,113,116,116,115,114,113,111,116,116,114,110,116,119,115,118,118,113,119,116,116,117,114,113,119,120,115,115,119,113,115,115,115,111,115,114,115,120,119,116,116,117,116,114,113,112,114,112,115,118,112,115,111,116,118,113,114,114
120,118,119,113,115,114,118,119,116,113,113,115,115,116,115,113,113,121,115,109,119,113,112,112,113,116,112,114,115,115,116,118,120,111,115,115,115,112,112,114,111,115,114,117,115,116,115,117,114,120,118,116,113,116,119,116,115,116,115,116
114,117,117,118,115,115,120,111,112,113,119,114,114,116,111,116,116,115,116,122,115,113,113,112,116,116,114,115,114,116,118,119,116,118,120,115,112,117,119,109,112,117,116,116,114,117,115,115,114,117,115,113,117,114,118,115,120,124,114,117
115,116,115,112,114,121,112,114,115,118,116,117,114,115,116,114,118,111,113,118,115,114,115,116,112,118,118,114,115,117,112,113,115,120,119,118,116,119,113,118,119,116,116,117,113,116,120,116,121,114,116,113,109,114,114,115,115,113,112,114
117,113,113,115,114,112,117,116,116,117,115,115,113,113,116,114,116,115,115,114,115,110,114,114,116,117,113,116,118,113,113,113,115,115,117,109,116,112,110,115,109,112,116,116,113,114,114,118,120,118,115,115,118,113,113,112,116,108,119,115
116,115,112,115,114,112,112,117,115,115,117,112,116,112,112,116,116,114,115,116,117,119,115,112,115,115,110,114,114,115,116,115,119,118,114,116,116,112,116,114,110,114,116,115,121,114,115,118,117,113,117,114,118,118,113,114,115,116,118,118
120,116,118,113,115,118,111,110,119,113,115,115,117,118,114,112,113,117,115,115,119,115,115,116,110,117,115,117,115,118,117,113,116,115,117,117,118,107,120,114,118,114,118,116,115,117,113,115,113,113,112,114,114,120,114,116,115,117,112,116
121,115,118,112,114,113,116,116,107,112,118,118,112,115,117,116,117,113,116,114,108,113,114,115,118,117,115,116,119,114,115,118,117,116,116,121,111,114,117,113,115,110,119,116,113,114,118,113,117,114,109,115,116,118,112,114,115,115,116,117
114,116,114,114,114,110,116,114,111,117,112,112,111,117,118,112,113,114,115,109,116,114,120,112,112,116,120,114,115,116,111,117,111,116,112,114,117,114,112,113,116,117,117,117,118,113,113,112,108,116,117,113,114,117,116,115,113,113,118,112
116,115,117,114,117,112,113,116,112,115,117,118,116,116,114,111,112,116,116,116,119,112,113,113,122,120,114,111,116,113,114,115,115,117,115,110,115,120,111,115,118,116,118,118,117,118,114,114,119,118,114,117,122,112,117,116,118,119,116,114
116,110,115,117,115,116,116,115,118,118,117,116,120,114,113,116,119,112,112,119,113,119,120,121,113,113,114,113,115,113,117,119,116,114,117,119,118,111,120,121,115,115,120,115,115,117,118,119,118,111,115,118,121,115,117,114,115,117,114,116
113,114,116,115,117,118,115,115,112,119,116,112,113,114,115,113,115,118,113,117,113,114,116,112,115,115,118,118,114,118,118,119,119,117,114,116,122,116,116,118,114,117,113,111,116,116,116,115,109,112,114,115,114,110,118,116,111,114,113,117
115,116,115,115,116,114,120,120,118,117,117,117,117,112,113,115,112,116,116,115,114,117,114,113,120,118,116,116,119,117,116,119,118,121,119,118,115,114,114,116,114,114,117,118,117,117,114,117,122,114,114,113,112,114,116,116,113,117,116,114
116,114,117,117,119,115,119,114,116,115,115,117,112,113,118,114,113,114,115,121,120,114,116,120,112,112,114,111,115,118,118,119,115,113,116,117,115,114,113,117,112,115,118,117,117,119,120,117,117,116,111,113,116,114,117,115,119,116,115,111
114,116,115,114,114,117,112,111,118,114,113,116,113,114,117,114,118,114,113,111,114,119,111,110,115,116,118,118,113,118,122,119,118,117,113,115,117,118,115,117,114,114,115,112,117,114,115,114,115,114,108,115,116,118,112,110,120,116,118,116
115,115,115,115,117,117,116,117,112,114,115,108,114,117,115,118,118,116,114,120,117,115,121,118,119,122,120,122,126,128,122,120,123,117,121,117,118,116,115,117,114,114,115,118,114,112,112,111,118,114,115,121,117,109,117,116,112,115,117,117
116,113,117,115,116,109,112,115,111,115,115,119,117,113,116,117,114,113,117,117,116,115,117,123,118,111,119,125,139,140,130,131,128,119,116,113,113,115,115,118,120,117,114,116,109,115,116,114,116,116,116,114,117,119,116,115,115,114,112,117
114,116,113,116,116,114,110,118,117,114,115,115,114,117,116,112,117,112,116,119,112,117,114,113,114,121,131,139,145,145,143,142,133,124,121,114,118,116,114,120,117,110,114,115,119,115,114,116,116,118,120,115,114,117,113,116,116,114,118,116
114,116,116,115,120,119,118,113,116,115,117,115,115,121,118,114,117,117,115,118,117,117,114,124,117,119,134,153,151,147,156,150,132,134,117,118,113,116,123,116,113,112,114,109,121,118,111,112,116,115,115,118,114,109,111,117,115,114,117,113
113,118,116,114,112,114,113,120,111,115,113,112,119,112,115,117,119,117,114,113,116,119,119,117,119,134,143,161,147,147,154,151,136,133,122,119,115,115,113,114,116,115,117,113,116,116,112,116,118,115,113,117,116,116,112,114,116,115,116,116
115,117,112,116,112,114,118,116,111,117,112,119,117,113,113,112,117,112,111,114,116,115,119,124,121,132,154,165,157,156,153,149,141,125,118,117,114,116,117,117,116,116,117,121,116,114,115,118,114,115,116,114,112,113,119,119,119,113,116,117
115,116,113,113,119,113,121,112,114,113,121,121,113,116,115,112,113,116,117,114,117,121,115,115,123,143,155,159,157,158,157,154,141,131,122,123,116,113,114,120,115,117,115,115,116,118,117,113,119,117,115,117,113,115,115,118,118,112,110,110
112,117,115,117,113,116,115,115,111,116,119,114,113,116,112,116,116,117,114,114,115,120,117,121,128,145,157,154,155,148,151,153,146,135,118,114,117,113,116,118,113,115,115,116,114,117,110,116,116,114,120,115,115,114,113,115,116,114,113,114
112,116,117,116,120,114,110,113,113,118,116,112,116,119,116,113,113,117,119,120,117,116,118,124,132,143,151,147,157,151,151,149,143,132,117,122,114,115,117,121,117,115,117,117,113,117,116,114,117,114,111,116,118,117,112,114,118,118,115,113
113,116,117,115,111,118,113,114,115,113,115,120,118,116,117,115,115,117,118,120,118,116,119,120,131,134,147,154,144,149,153,157,150,131,125,123,118,112,113,120,115,116,113,113,114,112,113,117,116,113,116,114,112,116,113,112,114,115,115,115
115,116,116,112,114,115,116,114,117,114,114,114,114,114,115,119,123,117,115,114,120,118,114,120,130,133,141,146,152,149,154,162,148,132,123,117,119,118,114,116,118,117,113,118,118,109,112,118,113,113,119,117,118,115,115,113,115,118,118,119
115,118,118,115,112,116,117,115,115,116,115,111,114,117,111,114,120,115,114,114,114,116,116,117,123,139,146,147,150,150,159,165,152,129,119,118,116,114,114,114,117,118,115,113,115,116,113,110,113,117,111,115,116,115,114,111,112,114,115,115
115,118,117,117,116,114,114,113,118,118,117,119,116,117,114,111,115,117,117,119,113,116,121,121,125,136,149,158,154,149,161,159,140,126,121,122,118,119,121,116,113,114,117,112,114,115,113,117,114,109,116,115,111,121,113,114,122,116,116,119
120,116,117,116,116,120,118,121,118,115,117,114,113,116,120,116,113,117,120,117,113,117,117,122,127,134,155,162,149,153,157,147,135,125,123,118,115,115,111,114,117,112,113,115,118,115,114,114,113,114,113,116,119,113,115,115,118,119,116,116
118,114,113,116,115,119,118,112,112,114,117,113,113,115,111,116,119,114,115,119,116,121,118,118,128,144,158,162,158,156,156,147,133,124,124,119,120,119,117,117,119,124,114,114,116,114,120,114,119,118,115,119,115,116,115,118,112,114,117,115
118,114,112,116,113,112,115,113,112,116,118,116,115,116,111,115,118,114,116,118,120,122,115,117,125,138,157,160,162,159,153,148,132,125,119,118,115,114,114,111,115,117,116,117,114,115,116,117,118,113,119,120,117,112,109,117,118,114,117,113
119,114,117,114,115,118,117,115,114,118,113,123,117,112,119,114,114,114,112,116,119,124,118,123,131,136,151,155,151,160,156,152,141,129,118,121,116,119,118,115,111,115,114,117,115,114,113,115,118,117,114,117,112,116,121,116,115,115,116,115
115,112,115,110,114,115,117,115,112,116,112,115,115,114,117,117,116,113,114,119,116,108,116,116,123,142,154,154,161,155,157,160,149,132,120,113,110,115,117,115,118,118,116,114,117,115,114,114,120,112,115,117,113,125,115,118,114,113,114,119
112,116,116,112,111,113,113,116,119,118,117,112,114,114,120,116,117,113,115,118,118,114,119,120,128,140,157,160,158,153,149,156,143,127,124,119,119,113,113,117,114,115,112,115,117,118,114,116,117,110,112,109,116,114,116,112,117,114,115,114
117,108,115,119,118,114,116,111,117,114,120,115,112,114,118,118,114,119,117,116,114,118,118,119,129,141,145,161,157,159,154,157,134,129,118,115,118,115,118,118,119,114,112,111,116,117,115,118,117,116,112,116,109,120,117,118,121,118,117,112
124,113,111,115,117,117,112,117,121,117,117,116,117,115,115,116,117,112,114,117,111,121,117,120,125,135,148,153,150,152,166,150,136,123,121,120,112,117,123,113,119,115,114,116,116,118,111,112,116,117,120,115,115,114,113,116,121,113,118,116
119,120,114,115,117,115,112,117,117,117,113,115,120,114,119,112,117,118,113,113,117,117,115,119,126,133,145,149,141,150,164,150,133,124,123,120,125,118,113,115,112,112,114,117,115,112,115,117,112,112,116,118,115,116,114,116,109,118,118,115
113,115,113,121,116,112,113,112,113,113,115,118,117,113,112,117,116,119,118,116,115,114,117,119,123,127,133,140,141,155,154,140,128,118,123,112,108,115,115,118,115,110,117,113,119,116,115,116,116,117,114,113,115,115,117,116,115,117,115,116
115,118,121,117,112,119,119,113,118,119,114,114,118,116,114,113,112,114,115,112,116,117,116,113,122,126,134,132,137,144,139,129,127,119,118,116,116,119,117,112,110,115,117,113,117,116,116,117,114,113,118,118,116,117,116,113,119,117,117,118
118,115,119,119,115,120,112,111,115,116,116,117,115,115,116,116,110,114,119,114,116,115,119,118,120,124,125,127,130,133,125,127,122,116,115,112,113,114,116,112,118,119,116,115,112,111,115,114,117,116,116,116,112,116,114,115,117,111,112,112
121,116,116,114,111,114,119,117,113,114,115,115,118,114,111,110,115,114,113,117,112,113,115,114,116,119,123,127,127,122,122,121,115,114,115,114,114,116,112,112,116,117,116,112,113,112,115,115,114,116,116,115,115,113,115,115,117,117,112,116
116,116,115,113,117,114,116,120,120,113,114,115,114,113,116,110,114,115,111,112,112,116,119,120,120,125,118,115,118,117,119,119,116,115,116,115,112,115,118,118,116,115,113,115,116,114,116,119,117,113,115,116,111,111,116,113,115,119,115,115
110,111,113,114,114,115,114,111,112,117,114,116,117,114,114,120,118,113,117,116,116,117,115,114,116,114,115,117,116,115,113,112,116,121,116,115,118,115,111,114,114,116,117,118,115,116,116,118,116,114,115,114,115,113,114,122,119,112,112,113
111,116,120,117,112,111,115,116,116,117,113,114,117,116,114,119,118,118,116,114,115,114,116,116,115,118,117,114,115,114,109,113,117,113,120,116,112,119,118,117,112,115,115,114,112,114,111,110,115,116,114,113,115,115,118,117,117,114,110,118
115,116,116,117,118,114,110,114,117,119,114,116,118,116,117,117,116,115,112,114,115,113,115,119,114,115,116,117,115,120,116,113,119,111,116,113,115,114,115,115,117,120,120,116,118,114,114,115,116,119,117,118,113,114,113,111,114,120,117,116
118,116,116,116,116,114,121,120,116,116,115,117,115,115,113,114,117,112,115,113,115,118,117,118,116,116,119,119,112,117,118,116,114,118,120,112,115,114,117,114,119,120,119,120,119,114,115,117,115,117,121,116,117,116,118,115,113,114,115,115
118,120,115,114,118,119,117,115,118,115,114,111,119,114,112,113,114,116,118,111,116,118,119,113,116,115,113,117,121,112,106,115,116,116,118,116,116,117,117,114,111,116,113,116,112,118,114,117,117,115,112,115,115,114,111,113,116,112,115,120
111,116,113,116,115,117,115,119,115,113,111,123,118,116,116,115,118,117,116,116,115,120,117,113,119,116,111,114,117,118,113,115,112,120,119,119,115,121,114,114,115,113,113,113,112,113,119,117,118,117,110,114,116,117,117,113,111,113,116,114
116,116,114,116,113,110,115,116,120,116,113,112,112,113,116,116,115,118,114,114,119,120,115,115,113,115,114,113,116,115,116,117,113,113,117,113,113,119,109,115,114,117,118,113,114,114,113,116,115,120,116,112,119,115,116,116,116,117,114,114
120,112,115,112,118,120,110,117,116,117,114,112,112,115,111,118,113,117,116,117,118,118,119,120,118,116,115,117,115,112,116,113,113,115,111,112,115,116,119,114,116,116,114,114,116,121,112,116,114,112,112,116,112,114,119,117,113,114,116,116
116,117,117,121,115,117,115,114,114,117,117,112,115,116,122,120,120,114,116,116,117,118,119,117,111,112,118,116,115,115,114,111,114,116,115,118,118,114,112,113,112,114,116,114,114,115,119,117,116,113,114,115,115,115,116,120,111,117,119,113
114,118,116,119,111,112,115,117,118,116,113,118,118,117,124,122,115,118,116,113,117,115,114,114,117,116,113,115,116,116,116,111,117,116,118,117,115,114,113,115,120,117,118,115,112,116,112,115,118,110,114,116,118,123,119,118,114,111,116,117
115,113,115,113,118,114,117,115,116,114,123,121,120,124,122,123,121,118,116,117,115,117,115,111,114,117,113,112,112,117,118,114,117,116,116,114,112,112,119,113,115,115,116,116,117,119,113,113,115,112,115,119,118,113,115,118,115,113,117,116
116,115,113,119,116,111,116,122,119,113,121,125,126,129,119,121,125,117,115,116,115,115,112,115,116,116,117,114,116,114,115,115,116,118,115,112,117,122,112,115,110,110,112,115,116,113,116,117,116,113,115,112,114,118,117,115,116,119,120,115
115,113,116,118,118,118,117,115,117,122,126,134,130,122,122,125,118,119,119,117,118,119,119,116,116,117,116,120,114,117,116,115,115,115,120,122,113,115,117,114,114,115,117,116,113,114,117,116,114,118,117,111,109,116,115,114,117,115,114,116
114,116,120,117,116,119,113,113,124,124,128,132,129,131,133,130,126,121,117,116,118,119,114,113,117,113,115,117,115,116,115,114,113,119,121,114,115,116,114,117,120,117,115,115,115,113,115,117,116,113,112,117,118,115,110,113,114,111,114,112
118,118,119,117,118,119,120,122,128,131,130,129,131,131,133,127,123,121,115,114,113,112,113,115,113,113,115,113,114,113,113,118,119,114,114,115,115,114,115,120,117,115,112,112,112,112,113,114,114,112,116,113,115,121,120,116,115,115,114,112
118,117,121,118,118,121,127,132,124,125,133,129,126,129,129,127,120,116,119,114,114,119,116,114,111,115,115,116,117,112,114,116,119,118,116,116,114,115,115,113,115,113,114,119,116,115,120,116,115,118,118,113,110,113,115,118,115,115,112,112
116,117,114,118,123,123,131,137,136,135,130,122,127,137,127,124,125,117,118,117,114,110,118,117,111,110,116,118,112,117,119,114,112,118,117,114,115,114,114,116,113,115,117,114,117,112,111,118,115,114,116,115,116,114,112,116,115,113,116,118
119,121,119,122,131,136,135,127,127,129,133,131,130,132,126,114,122,117,115,114,112,116,115,116,116,116,118,116,119,116,116,114,114,112,112,118,116,115,113,111,117,117,114,116,114,113,110,112,114,119,113,115,120,111,113,120,113,113,115,118
124,119,123,134,137,135,131,129,130,126,128,125,120,122,122,121,116,114,118,114,115,114,115,117,116,119,116,116,119,111,118,115,117,114,113,117,113,114,114,117,114,113,112,117,116,113,116,113,117,115,112,117,112,115,114,112,107,115,114,115
121,124,127,134,129,130,128,127,131,133,128,125,126,120,119,121,117,118,117,116,116,117,117,113,113,117,116,114,115,119,116,111,115,116,112,115,114,114,120,114,113,113,115,113,116,114,116,118,115,114,114,115,116,110,121,115,114,115,121,118
126,131,135,134,131,133,132,135,134,127,128,123,113,119,117,115,112,118,117,119,117,107,117,113,112,109,109,114,114,116,119,115,117,117,117,121,116,111,114,113,120,114,118,114,115,112,116,122,114,112,115,118,116,117,113,119,118,114,116,117
129,136,131,135,133,127,129,128,126,123,118,118,117,114,115,117,109,112,115,115,119,114,120,109,114,113,113,118,116,118,119,118,112,112,113,118,123,118,111,113,114,114,114,111,118,110,112,113,114,113,118,115,116,119,113,113,113,117,114,116
130,132,130,134,133,137,132,129,126,120,122,118,115,112,110,117,117,119,114,114,117,116,118,119,116,113,112,114,114,120,121,110,116,117,115,115,113,113,118,116,114,120,116,117,116,113,117,111,115,115,113,110,117,116,116,111,113,115,113,116
129,132,134,133,137,134,134,118,119,119,118,112,117,119,118,113,117,116,113,118,117,116,108,113,113,117,117,114,115,114,113,114,118,118,116,124,117,117,117,115,114,116,115,114,117,118,116,115,115,116,111,117,115,109,118,112,113,113,118,114
129,132,131,132,132,128,125,123,113,115,115,114,112,118,118,113,113,112,111,118,115,113,115,119,115,116,112,114,112,115,113,115,116,115,116,113,117,115,114,117,110,114,117,108,113,115,113,118,118,118,116,112,113,118,116,121,117,110,117,114
131,131,133,132,130,119,115,115,122,119,117,117,118,118,114,114,116,116,113,113,114,118,118,119,117,115,116,116,116,118,113,112,117,112,117,119,113,115,118,115,113,116,117,120,113,112,116,112,115,114,114,122,118,114,118,117,116,113,119,117
131,128,129,123,124,118,118,121,114,118,119,116,116,115,116,114,117,116,111,111,118,119,115,111,111,111,115,116,115,119,112,110,114,112,115,118,115,115,118,118,116,116,114,117,116,117,116,110,113,116,112,111,108,114,114,110,117,119,114,116
129,128,125,122,123,120,118,114,115,117,114,117,114,115,115,113,112,111,116,116,115,115,110,116,114,117,118,117,114,113,119,112,113,114,116,118,117,115,115,117,114,110,112,112,115,117,116,114,116,115,113,116,115,112,114,116,116,117,115,114
125,124,122,122,118,114,113,115,115,113,113,112,115,112,116,120,112,111,115,117,114,114,116,114,117,118,116,119,116,115,114,112,115,118,112,115,115,112,116,113,115,119,117,113,115,114,113,113,112,112,115,116,114,114,116,114,117,119,116,115
122,125,118,115,112,112,118,121,115,112,116,113,115,119,116,115,116,115,114,117,120,114,113,116,114,113,117,115,119,119,114,118,115,117,112,112,117,116,120,119,114,117,115,117,116,112,112,116,117,117,114,113,119,117,115,118,113,114,112,117
118,113,112,115,117,113,114,114,115,110,117,121,115,113,113,114,116,117,118,121,122,116,118,115,116,114,114,117,114,111,118,119,115,114,113,113,115,117,119,117,116,114,111,116,118,116,120,115,113,116,118,115,114,118,114,115,114,111,113,117
114,116,115,118,117,118,116,113,117,117,116,108,113,114,109,114,113,117,115,115,114,115,119,114,114,115,113,114,115,113,118,112,116,115,113,116,118,111,112,114,114,115,111,113,115,116,118,117,114,111,116,117,114,110,112,116,114,115,114,113
113,116,119,117,115,113,114,117,111,118,112,109,110,117,117,116,110,115,115,114,116,116,111,116,114,118,110,114,116,116,117,120,117,117,119,114,115,112,115,119,113,115,114,112,117,116,113,116,112,117,120,117,117,116,116,119,116,116,118,116
116,117,116,116,116,118,113,116,114,118,117,116,116,117,111,112,115,113,114,116,120,122,116,107,115,112,113,120,115,119,116,115,114,115,116,115,115,115,113,118,119,111,116,111,116,114,113,117,113,117,112,115,122,120,115,115,111,114,114,123
113,117,113,114,114,114,113,112,117,121,114,112,121,112,114,113,114,115,115,117,117,114,115,114,117,113,112,115,114,116,112,113,114,115,112,118,119,117,119,115,114,115,118,117,118,114,111,112,117,115,116,115,113,116,117,120,112,114,112,118
118,112,116,117,109,111,113,115,114,113,118,119,114,112,112,112,110,115,115,119,116,115,114,119,115,116,115,116,114,118,114,117,114,117,113,119,118,117,110,118,114,113,109,117,118,112,115,115,111,119,114,112,113,114,108,111,115,119,113,111
112,113,119,115,111,116,114,113,115,114,119,116,112,117,119,110,119,114,113,116,116,119,120,115,115,116,116,114,111,119,119,116,114,110,116,115,117,118,114,114,111,117,116,113,115,111,115,116,114,120,113,116,116,115,118,116,117,117,116,113
114,115,118,110,117,116,114,122,114,112,113,119,115,111,115,116,113,116,112,116,115,112,118,114,110,120,113,117,113,113,115,114,120,117,113,115,120,114,112,117,115,115,118,116,115,115,115,113,113,115,116,111,112,117,112,110,113,116,115,118
114,114,114,113,117,113,116,111,112,119,115,113,118,123,110,113,108,115,116,118,116,118,109,112,112,116,114,122,118,120,114,113,116,115,117,113,113,115,119,118,113,115,118,118,109,116,117,117,112,113,115,117,116,117,117,113,117,117,112,121
114,116,112,117,115,115,116,114,115,113,118,115,120,118,118,116,115,118,119,117,115,121,113,112,114,116,113,116,117,121,117,117,115,110,118,115,111,113,112,115,115,115,113,110,113,114,115,116,112,112,113,115,117,119,119,111,118,114,114,115
116,117,117,118,114,115,117,116,111,113,116,110,113,118,118,115,113,113,112,113,116,113,114,116,116,119,114,117,117,114,113,118,113,111,114,115,115,111,114,115,111,117,117,112,116,115,113,116,118,112,114,118,117,115,113,115,112,116,119,116
116,112,111,116,116,115,116,114,117,119,115,108,112,113,113,115,115,114,117,118,115,115,118,114,113,112,112,116,114,115,115,115,112,112,117,117,117,111,113,120,119,114,114,119,117,116,117,115,117,114,117,116,113,112,113,117,118,118,113,118
115,117,114,115,114,114,115,111,112,114,113,117,114,115,118,114,114,118,117,114,116,117,114,114,116,114,115,115,115,118,114,112,115,115,114,112,116,118,112,110,117,113,114,119,117,113,116,121,119,112,114,118,114,112,115,111,115,116,115,115
111,116,118,113,112,111,116,118,114,115,113,113,118,110,112,116,116,115,107,109,115,120,117,116,113,110,115,114,116,117,111,113,116,113,114,113,114,112,113,119,119,117,116,114,118,112,115,114,112,114,116,114,111,117,118,113,114,115,114,114
116,114,109,115,116,113,114,115,117,120,121,112,114,118,117,113,117,114,111,116,112,115,118,115,116,110,113,118,115,116,115,114,117,113,117,116,116,114,114,118,115,111,113,118,115,119,117,112,113,110,111,116,112,112,115,114,116,111,113,114
