51,61,71
113,115,113,112,115,111,109,116,119,112,112,116,113,113,117,112,114,114,115,112,114,114,114,115,116,115,113,115,112,115,117,117,109,116,117,112,115,112,111,113,118,116,111,113,112,118,114,115,117,115,113,109,116,116,119,116,115,111,113,114
112,119,114,114,116,111,115,115,112,115,111,118,119,115,110,111,113,112,114,115,113,115,113,116,112,114,111,116,113,111,113,113,115,111,116,113,109,115,113,114,111,113,115,114,115,110,112,113,112,115,114,119,113,111,112,110,115,113,113,111
114,113,112,113,110,112,118,115,115,113,113,114,118,111,115,116,110,116,113,114,114,111,116,112,115,111,113,114,117,113,116,115,118,112,116,115,114,116,115,116,111,114,120,113,115,115,115,110,112,112,112,115,111,113,110,114,116,113,112,114
112,113,118,113,115,122,117,113,115,115,110,114,115,116,110,116,114,112,114,114,115,114,117,115,112,110,112,117,118,115,116,115,111,116,110,115,111,112,114,115,116,113,114,115,112,111,115,119,112,116,119,115,110,112,111,115,113,114,114,114
115,116,114,111,110,111,107,110,112,112,115,109,111,120,114,112,116,112,113,116,109,115,115,115,112,112,115,113,116,114,110,114,111,115,110,116,110,113,108,116,118,113,118,114,113,113,115,112,115,112,113,117,118,117,115,108,119,118,118,117
112,115,109,117,119,112,114,115,113,112,112,114,117,110,110,116,113,115,110,113,111,114,112,116,115,117,111,115,111,114,115,117,113,118,119,112,111,113,113,117,110,117,114,114,112,114,115,116,115,117,116,109,114,115,113,114,116,118,111,117
111,114,112,118,107,117,114,120,115,109,117,113,113,113,115,117,113,116,116,115,115,112,113,117,113,114,116,112,111,116,118,117,115,115,117,118,111,116,114,116,114,112,113,118,116,116,110,113,115,114,115,112,113,116,110,117,114,112,114,114
115,118,114,111,113,118,117,114,111,111,115,109,115,112,113,115,113,115,118,116,116,116,117,115,115,113,114,114,111,115,115,112,116,117,109,110,115,121,114,114,116,115,113,114,116,114,115,117,115,113,111,114,113,111,110,116,118,118,118,113
116,118,112,113,115,117,112,113,117,112,113,115,115,116,115,116,111,111,116,114,114,114,114,116,116,111,110,111,119,115,112,117,114,117,111,110,115,113,117,114,117,119,113,113,118,113,113,117,111,108,116,114,114,112,113,117,116,114,113,117
118,117,111,114,115,113,115,116,113,113,111,115,117,108,108,110,112,113,112,111,113,109,113,116,112,116,113,113,115,116,113,113,116,114,114,117,117,111,112,113,113,115,116,115,112,114,115,111,117,121,116,113,116,114,118,117,113,111,115,116
116,114,114,113,115,111,113,114,112,117,111,114,111,115,117,114,113,114,114,114,116,116,113,117,113,112,114,111,114,116,111,113,117,116,115,117,116,114,113,115,113,111,119,116,112,119,116,115,113,112,115,112,114,119,116,112,112,114,114,117
114,112,112,112,117,116,113,114,110,112,115,109,110,114,115,114,111,115,115,115,115,112,108,112,116,117,114,115,115,112,115,114,114,113,109,111,112,111,116,117,118,115,109,113,121,116,110,114,117,115,113,112,114,115,113,116,115,112,114,116
113,113,111,111,116,114,117,116,115,114,115,114,111,113,115,113,111,114,114,114,112,110,113,112,113,115,114,112,115,118,114,116,114,109,114,113,114,115,112,114,112,112,113,111,114,114,112,116,120,114,112,114,114,114,115,116,116,114,112,110
115,119,116,112,110,114,115,116,115,113,117,116,116,113,111,114,113,114,114,113,115,113,117,114,110,110,116,115,112,111,114,117,111,115,117,115,114,113,113,115,113,110,110,113,114,117,113,111,114,113,116,117,115,116,116,115,114,114,114,110
116,112,113,116,119,114,111,117,116,111,115,113,114,112,112,117,118,115,114,114,117,115,110,113,115,114,111,115,116,114,113,113,116,112,112,116,114,110,115,116,114,113,118,118,112,112,109,114,113,113,115,116,114,118,117,117,113,113,119,113
114,111,119,115,115,117,119,116,115,110,116,116,113,114,117,117,115,115,112,115,114,115,113,112,108,115,114,115,115,116,118,116,114,110,116,114,114,112,113,115,114,115,116,116,114,115,112,114,113,114,114,121,116,115,114,115,114,112,111,115
110,111,118,114,113,114,113,110,111,119,117,114,115,116,115,115,111,116,114,110,114,114,114,109,117,115,117,117,112,113,119,116,109,115,119,115,114,115,112,112,115,115,110,114,112,115,119,113,115,116,113,114,116,121,112,109,113,118,115,116
112,111,112,113,116,121,116,114,111,115,110,114,115,117,115,113,115,114,116,113,116,111,114,117,112,114,112,115,117,116,112,116,116,113,117,118,113,113,113,112,114,113,111,114,114,120,117,120,109,113,114,113,112,115,116,117,113,116,115,114
116,117,116,116,116,112,113,110,117,115,114,111,115,115,114,109,116,116,113,113,111,114,117,113,109,115,117,113,115,109,113,108,116,113,116,112,114,110,114,113,114,113,116,113,118,117,116,115,114,114,114,116,113,114,117,114,112,115,114,114
115,116,115,112,112,113,116,113,115,114,112,115,117,114,114,116,115,116,113,114,116,118,117,112,112,117,113,108,107,112,113,117,116,112,114,107,112,111,111,110,114,114,116,110,108,116,112,113,119,116,117,112,114,117,117,110,112,119,121,117
118,115,117,113,110,114,120,111,110,115,118,111,119,117,118,112,114,114,115,113,116,116,115,115,112,115,109,118,117,114,115,111,116,118,113,115,111,114,113,106,113,112,117,112,114,115,117,115,114,116,111,117,119,116,114,115,113,118,113,112
115,116,118,114,113,112,108,115,114,114,111,113,108,109,110,113,113,116,115,113,110,112,114,120,113,113,111,114,108,123,117,113,111,108,117,114,115,113,118,110,114,110,112,118,109,117,117,112,115,116,117,114,112,114,114,116,109,118,111,113
111,112,114,112,116,110,113,110,112,111,109,113,113,116,114,110,117,114,110,114,113,112,109,111,111,108,109,114,116,115,108,114,116,114,114,114,113,115,113,116,111,113,121,117,113,115,114,117,115,116,113,114,112,115,117,116,119,113,116,116
112,113,113,117,115,116,117,111,113,111,118,111,114,114,116,115,114,117,109,114,114,114,115,113,112,112,111,111,117,118,118,115,118,114,116,113,113,111,112,112,112,115,119,108,118,115,117,117,115,118,113,114,111,118,116,116,114,117,115,116
116,117,115,119,113,116,115,115,114,108,115,105,110,112,114,114,109,114,116,117,115,117,116,109,114,111,113,112,113,112,112,110,119,113,112,113,114,110,109,110,116,114,110,114,111,116,119,111,110,115,115,115,113,112,114,116,110,112,113,119
118,114,112,110,118,119,114,116,115,114,116,121,114,113,114,111,111,112,113,109,116,115,113,113,111,119,115,114,110,113,116,106,110,114,115,117,115,112,109,114,113,113,113,113,119,115,117,113,114,118,112,113,113,116,118,115,114,110,115,115
115,112,111,114,116,113,112,118,114,115,115,112,116,119,114,117,115,112,113,110,117,119,115,116,110,111,113,116,113,112,116,117,118,110,110,117,118,114,115,117,112,117,114,112,112,112,118,113,115,117,121,117,113,112,115,116,114,117,115,114
113,112,112,117,111,114,116,113,111,113,111,111,115,113,116,114,114,111,112,112,116,119,117,113,116,114,111,119,114,110,116,114,112,111,116,117,115,119,116,113,115,115,111,111,113,116,114,107,111,114,115,115,118,113,115,116,115,115,114,120
110,115,116,117,112,113,116,114,116,113,112,115,109,115,119,113,115,116,114,112,114,115,117,117,117,114,114,113,116,116,114,111,110,120,116,115,114,114,113,113,115,117,117,117,117,115,112,114,114,113,112,112,114,115,115,113,112,113,115,114
112,115,114,113,112,113,118,121,111,112,114,115,112,107,114,116,116,116,115,112,111,115,113,117,122,115,113,118,115,115,115,114,115,114,115,117,118,111,113,113,112,115,114,114,117,117,114,117,116,113,113,112,113,113,113,111,111,116,115,115
114,115,114,116,115,111,114,112,112,115,116,115,114,117,112,109,114,113,116,112,113,115,114,115,115,115,116,117,114,112,111,109,112,111,113,114,114,117,114,114,114,111,112,111,112,118,119,114,116,120,118,114,110,113,115,113,113,112,114,115
114,113,117,120,116,110,111,109,115,115,112,110,111,114,109,113,114,114,114,113,115,112,114,117,114,108,111,116,113,113,116,116,115,114,116,117,110,112,114,115,119,115,116,121,115,113,116,119,116,113,117,114,114,115,111,111,116,113,112,116
116,114,112,112,114,113,115,112,110,115,115,113,111,109,111,113,115,117,111,113,113,112,116,115,118,120,115,114,113,112,111,112,113,118,120,118,111,114,117,115,117,114,112,112,115,115,115,114,111,115,120,115,113,117,116,115,117,117,114,113
112,114,113,115,116,117,116,118,117,115,114,112,117,117,118,117,114,113,117,117,115,115,116,120,115,112,116,115,113,115,120,117,117,116,111,111,116,117,114,114,115,113,111,116,115,117,114,110,112,116,117,114,111,115,115,116,114,116,116,114
115,117,119,117,111,110,114,109,114,116,114,112,114,115,113,116,113,114,119,118,113,114,111,115,112,113,113,114,117,116,118,114,112,111,113,111,114,113,117,113,113,116,115,114,114,113,113,120,115,116,115,116,112,111,114,116,113,118,114,117
117,115,113,113,110,111,114,112,115,113,110,116,115,111,113,115,116,114,113,116,113,115,116,110,113,116,115,114,112,115,108,112,116,114,112,116,114,113,116,116,112,112,114,111,114,113,110,114,115,116,114,114,113,115,113,115,114,114,113,115
113,114,113,116,114,109,112,116,109,113,116,115,114,114,116,114,112,115,111,112,116,115,113,116,116,110,115,115,121,113,117,117,116,117,117,113,118,112,113,115,112,114,114,115,115,112,116,117,114,116,113,114,114,111,117,113,112,114,112,114
112,118,115,120,117,114,112,115,117,114,114,112,119,114,116,114,113,116,116,111,114,114,113,116,116,117,112,113,112,114,113,115,115,116,112,114,116,111,116,112,112,115,114,118,112,115,116,116,115,114,116,117,109,117,118,114,116,114,113,110
113,113,112,115,114,115,115,109,120,117,113,111,115,114,117,117,119,111,115,117,115,116,113,116,110,113,113,109,114,119,119,114,112,120,113,113,116,115,115,113,115,113,113,116,118,121,111,115,113,116,109,117,114,116,109,117,112,112,114,115
115,114,112,113,115,107,117,116,109,114,111,114,112,113,111,114,121,114,111,116,111,118,117,116,115,113,115,123,114,115,115,118,112,111,117,118,111,114,116,115,117,116,111,115,113,112,116,107,110,113,115,108,118,110,110,114,115,118,113,116
113,116,111,115,113,121,114,112,116,113,118,114,116,116,122,113,113,113,112,110,109,114,117,115,111,113,113,111,123,118,118,115,119,113,116,116,117,116,112,112,113,117,116,115,114,110,115,114,115,114,113,111,115,118,114,115,119,116,118,112
116,114,116,114,115,113,113,113,112,116,109,113,111,112,113,118,114,115,115,112,116,116,116,116,119,118,113,113,114,120,123,121,121,113,113,115,119,113,114,114,112,111,117,113,119,115,114,116,115,112,115,113,112,114,112,114,112,113,116,110
116,117,117,113,113,113,117,111,119,112,115,115,114,117,113,114,115,113,117,109,114,115,119,111,116,113,117,116,128,125,124,126,124,123,113,116,114,114,115,114,114,115,117,111,120,115,108,114,113,115,114,116,116,118,116,114,113,117,111,112
118,113,115,111,114,112,115,117,113,118,116,112,115,113,114,115,112,117,117,116,110,115,115,109,115,119,124,129,133,129,126,124,122,119,116,115,112,116,112,113,116,120,114,118,116,113,111,112,111,117,112,112,113,113,114,113,118,114,112,113
121,110,113,114,115,108,110,115,112,114,116,115,115,118,113,112,118,119,112,117,113,117,115,113,113,117,123,127,122,129,128,119,118,118,116,118,111,112,114,112,113,108,112,116,111,110,111,113,116,113,116,112,116,109,111,115,114,114,113,113
114,113,111,116,116,111,115,113,112,117,115,116,114,116,115,116,114,112,111,113,114,116,112,116,119,120,122,132,130,131,127,123,128,120,117,116,113,113,119,112,113,113,112,114,118,117,109,114,117,113,114,118,112,118,118,115,114,116,116,114
115,115,113,116,117,114,114,117,112,108,113,115,119,111,110,119,112,110,113,115,115,115,115,123,116,118,125,122,120,123,130,126,120,116,115,115,112,115,116,118,113,112,115,113,117,114,113,112,114,114,114,113,113,115,116,113,115,114,115,116
116,114,116,117,113,114,114,110,115,111,111,116,114,115,114,111,112,112,113,114,111,115,112,113,123,125,126,127,129,133,133,124,119,120,110,115,117,111,111,113,115,116,113,114,112,117,115,110,108,115,114,107,114,110,112,117,114,115,113,117
114,113,114,120,116,115,110,112,119,115,118,113,112,113,117,113,113,117,114,114,112,111,115,116,118,122,124,125,123,128,132,131,122,117,113,115,118,110,112,110,113,116,111,113,113,116,114,115,114,112,113,116,117,113,116,116,115,114,113,113
115,115,115,116,117,115,114,113,112,119,114,110,116,115,114,115,118,118,114,113,115,115,114,117,117,118,121,127,130,130,128,125,123,115,114,117,114,114,115,118,113,111,114,111,111,111,115,114,111,118,116,117,113,112,117,116,114,110,115,116
116,113,113,113,114,112,112,114,112,114,112,112,111,117,117,112,116,115,116,113,113,118,115,115,117,117,123,128,127,129,130,128,121,116,119,117,115,113,115,118,114,112,116,119,112,113,114,108,115,117,109,113,118,116,116,115,114,115,119,118
114,116,112,113,114,112,115,118,114,116,115,112,114,115,115,115,113,113,113,118,116,112,116,114,115,123,129,128,128,132,132,127,119,120,116,112,114,115,117,112,115,114,115,118,114,113,113,110,116,115,110,115,111,115,115,109,115,118,115,112
114,114,112,112,112,114,114,114,114,111,113,115,114,114,115,114,116,112,111,116,112,115,116,116,118,123,129,130,130,129,133,126,117,120,117,113,112,113,114,116,115,115,117,116,111,113,113,116,115,116,114,112,113,116,113,115,116,114,113,114
117,113,114,115,112,114,114,111,116,114,117,119,115,117,112,112,115,114,114,114,117,117,115,117,122,124,127,130,132,128,124,123,119,118,120,113,112,116,113,115,115,110,114,117,115,117,116,116,113,115,112,114,113,109,112,112,112,114,120,115
110,116,118,113,116,114,118,117,114,113,115,111,111,112,110,113,110,112,115,115,118,117,112,112,118,122,126,122,123,128,129,123,118,117,115,113,116,115,115,112,112,115,114,108,118,119,110,114,118,109,112,113,111,109,116,113,111,116,115,117
115,115,115,114,112,114,111,116,113,115,114,111,116,113,115,116,117,111,118,113,110,115,120,118,125,122,124,129,132,138,129,125,119,115,117,119,116,111,117,115,114,117,115,108,113,116,116,117,114,113,114,117,115,113,116,115,112,112,109,116
118,114,113,115,112,116,113,111,113,113,111,119,115,116,113,116,116,114,115,114,117,113,118,115,116,131,136,131,131,126,129,127,115,117,122,116,113,115,118,115,116,112,115,115,118,112,115,112,114,112,113,112,116,116,117,113,110,115,116,109
114,115,117,115,116,111,116,111,110,105,114,111,111,111,115,115,118,110,110,111,114,118,118,118,122,124,128,131,132,129,138,125,115,117,115,116,115,116,117,114,116,113,114,115,112,111,114,112,113,111,114,116,116,114,115,116,114,121,115,112
112,114,117,113,113,115,111,113,114,114,117,113,109,111,115,115,116,112,115,116,114,112,116,118,124,132,133,128,135,131,139,127,118,121,116,113,116,112,117,115,113,116,112,118,113,114,115,119,110,110,112,121,115,115,116,116,116,114,108,112
107,110,114,110,113,112,111,116,118,115,112,110,115,117,108,117,116,112,119,115,118,110,116,121,119,130,132,137,143,137,132,122,121,117,113,117,117,111,113,110,116,114,115,112,113,111,117,111,117,118,110,103,113,114,113,112,111,112,112,113
113,119,111,112,118,111,115,115,115,114,116,115,114,112,113,115,116,115,111,112,112,117,117,119,125,130,131,136,137,133,140,129,119,117,117,115,117,114,112,114,116,116,113,115,114,117,111,116,110,114,116,115,120,116,120,110,111,112,116,119
113,116,117,115,116,113,115,111,113,110,116,117,120,113,114,113,111,116,113,117,117,115,115,116,125,131,134,140,137,132,137,128,120,116,114,111,114,109,116,119,113,116,116,111,114,117,116,119,110,118,113,112,113,115,111,115,115,114,116,117
113,114,115,115,115,118,115,112,111,114,115,110,118,117,116,116,114,115,121,117,114,114,117,120,121,130,135,135,134,133,129,127,120,119,115,111,118,116,114,114,114,112,116,113,114,109,118,110,116,117,119,119,115,114,109,117,115,114,116,117
116,116,113,116,115,117,111,112,111,119,112,114,112,114,114,115,111,110,119,116,112,115,115,115,122,125,130,127,128,132,133,119,116,116,118,120,115,115,112,112,111,114,114,105,113,118,113,114,116,114,114,117,118,112,113,114,114,111,115,111
115,111,116,115,118,111,115,113,114,110,114,109,117,116,113,111,113,111,113,116,117,115,116,121,121,122,124,132,130,128,124,126,120,112,116,120,114,107,114,119,116,109,113,114,117,116,109,114,115,111,115,116,113,114,114,108,110,117,113,112
111,114,116,110,114,115,116,116,113,119,115,112,118,117,114,112,114,115,112,112,116,113,111,118,118,124,128,123,129,133,133,124,125,119,120,118,115,116,115,118,117,113,118,116,110,115,114,111,105,111,115,108,114,113,114,114,113,113,109,114
117,115,115,115,114,115,109,112,112,112,115,117,110,110,116,112,114,116,115,114,117,116,115,114,118,123,122,126,127,129,127,134,126,117,121,112,116,119,118,113,112,116,113,116,116,115,114,113,116,113,113,114,116,115,115,115,111,111,114,112
119,116,112,116,117,113,115,115,116,113,110,112,115,114,113,115,117,115,115,116,114,114,115,116,119,119,125,128,132,129,127,127,118,119,118,117,116,111,114,114,115,109,112,115,113,114,117,117,112,113,115,114,114,113,113,111,110,114,114,117
112,113,115,117,118,112,112,117,114,110,114,115,110,112,110,113,117,116,116,113,113,113,110,112,119,120,122,126,126,129,132,127,121,116,112,115,115,112,115,114,115,114,114,113,113,114,116,111,111,117,115,112,116,119,116,111,114,117,113,115
110,111,115,110,113,114,117,115,109,113,120,115,113,113,110,112,109,111,116,115,117,116,115,119,117,117,127,124,125,131,123,124,126,117,116,116,112,113,115,116,118,116,112,113,117,113,111,118,118,116,116,114,114,112,111,114,116,116,113,116
112,116,113,113,114,112,114,116,118,117,115,115,117,114,113,113,110,112,113,112,114,114,115,115,117,125,128,132,128,124,130,126,119,117,115,114,114,114,112,114,115,114,115,113,114,118,118,111,112,118,117,114,116,111,111,117,112,113,113,114
115,117,111,111,113,116,116,113,114,116,113,113,112,111,116,114,114,118,114,113,116,112,113,119,123,125,127,126,125,126,124,116,120,119,113,111,118,116,115,112,110,114,115,115,115,116,115,117,119,111,109,114,117,114,112,112,113,115,113,113
112,115,113,111,111,112,115,117,113,114,114,116,116,115,111,109,111,113,116,118,115,114,113,119,118,115,123,125,125,123,125,124,122,117,116,118,117,114,113,111,112,112,112,115,109,112,117,115,115,110,117,115,117,116,114,114,118,114,113,114
113,115,117,117,113,112,119,113,112,117,118,112,110,114,113,114,114,117,114,112,117,113,114,116,116,125,123,129,128,126,124,121,120,117,117,113,114,115,112,115,114,112,118,118,113,115,117,115,115,112,105,115,115,114,110,114,117,117,118,116
117,115,116,115,114,116,111,110,114,114,110,111,111,119,118,112,116,117,112,111,118,110,117,121,118,125,126,122,132,126,125,123,116,116,117,113,114,117,117,115,116,111,116,118,116,117,114,116,112,111,112,112,112,111,114,117,113,116,117,118
115,115,114,116,114,116,115,113,112,111,116,120,115,115,112,112,117,116,114,116,110,118,113,121,127,120,123,121,121,123,122,124,115,115,115,116,116,113,118,111,109,114,112,110,119,116,111,113,119,113,118,116,118,112,112,114,113,111,112,115
111,111,116,112,114,115,114,110,115,114,110,115,117,105,110,114,109,113,115,111,114,115,112,117,125,131,127,127,128,127,124,120,115,113,113,114,111,112,114,114,111,120,115,113,113,116,114,114,114,117,112,117,113,115,109,115,116,113,111,111
110,114,111,111,115,114,113,118,116,112,114,116,111,114,115,115,111,112,110,112,117,116,111,121,121,124,127,129,131,128,121,115,114,116,113,117,114,118,116,115,116,115,115,115,120,113,112,118,115,112,116,115,114,113,113,111,114,113,114,117
115,114,112,115,112,115,113,110,114,112,116,116,110,116,109,114,120,111,108,115,114,115,114,123,122,128,138,136,134,121,116,115,113,111,114,114,117,110,115,118,110,111,112,114,114,114,114,114,119,114,107,108,117,112,115,112,112,113,113,117
115,116,116,115,115,119,113,114,120,122,111,117,117,112,114,115,114,115,114,111,115,108,113,115,119,128,132,129,121,119,119,115,119,113,114,110,118,112,116,121,116,115,112,115,115,114,116,122,116,116,117,108,113,118,114,116,112,112,113,110
110,119,113,119,116,115,110,114,113,118,116,109,111,114,117,118,111,113,116,117,111,115,118,113,119,124,122,125,117,121,116,111,112,118,116,115,112,115,116,117,116,116,112,110,114,117,113,115,114,116,111,114,118,108,111,115,114,116,117,114
113,115,118,115,115,112,115,117,118,114,112,113,119,112,110,113,113,115,112,114,117,114,118,120,115,120,114,118,118,121,118,117,123,117,112,115,115,115,117,115,115,115,116,114,110,116,114,115,110,115,113,113,117,119,111,114,118,112,115,114
114,115,113,109,115,112,112,114,113,115,120,119,111,113,117,109,112,119,110,110,117,115,112,117,114,114,116,117,113,115,116,116,113,114,115,115,113,112,120,115,116,112,112,109,115,112,111,114,114,115,109,112,111,114,111,110,116,113,111,114
112,114,108,113,112,113,111,112,116,112,110,111,114,114,117,111,114,116,115,116,112,115,116,115,113,116,119,115,110,116,112,111,113,114,115,115,112,111,111,114,110,114,108,109,118,117,113,115,115,110,114,111,108,118,116,112,112,114,116,112
117,117,117,110,113,115,113,115,112,113,113,108,116,113,113,114,106,112,121,114,116,116,110,112,115,115,113,118,113,114,117,116,112,113,117,109,117,117,114,110,114,117,114,112,112,118,117,113,110,114,114,112,116,117,123,117,113,113,115,115
115,114,119,114,112,115,115,113,109,116,117,118,116,112,115,112,111,116,115,115,114,116,112,109,117,118,114,112,115,116,114,116,116,113,113,118,114,112,118,114,115,112,113,120,115,112,112,112,118,116,109,112,113,108,112,110,112,113,115,117
111,112,114,115,113,118,112,107,116,115,112,113,116,114,115,115,118,111,109,116,114,113,119,113,111,114,112,112,114,114,117,112,116,117,111,114,112,112,111,115,115,111,112,118,117,113,111,113,119,112,108,112,112,119,118,113,115,116,118,116
118,118,112,110,115,115,114,117,115,114,111,114,115,115,114,117,116,112,112,113,113,113,115,111,112,115,112,110,112,114,110,111,113,116,119,113,112,111,114,113,112,116,118,112,114,118,116,117,113,111,113,112,109,111,115,115,116,114,115,117
117,117,112,116,114,108,113,116,110,112,117,114,116,115,111,116,115,111,114,115,113,115,111,111,114,115,114,109,111,117,114,113,119,115,110,113,112,114,115,112,111,117,118,114,113,113,111,115,118,115,114,112,112,111,110,111,113,110,112,112
112,115,113,115,115,110,111,113,119,114,113,117,117,116,115,115,113,114,116,117,116,115,118,120,114,116,115,113,117,112,112,114,113,113,119,118,115,116,116,113,114,116,116,117,113,112,116,109,110,111,115,113,116,113,113,121,115,111,111,110
117,115,113,114,115,114,114,118,112,111,114,111,113,113,117,117,113,119,119,114,114,110,111,114,116,116,117,117,117,121,116,113,114,118,117,111,113,115,120,114,110,112,118,112,111,115,115,113,115,115,113,118,119,117,114,115,117,116,114,113
115,115,115,112,111,116,118,117,118,116,113,113,114,116,114,112,113,113,113,112,115,115,112,113,113,119,115,115,116,117,120,118,116,113,111,117,113,112,116,114,110,111,112,120,115,109,116,114,111,118,116,115,114,110,113,114,110,113,113,114
116,111,113,118,110,111,114,114,114,113,115,115,115,113,117,120,112,116,110,108,111,113,116,119,116,116,115,112,113,117,115,114,113,112,114,115,111,108,115,110,111,115,112,115,114,115,115,113,115,117,113,113,116,116,119,119,114,113,111,111
110,114,114,113,112,114,113,114,113,115,115,116,116,112,114,116,114,116,115,115,113,111,115,115,117,114,115,115,116,109,114,113,115,120,111,110,113,111,111,110,112,118,114,109,112,116,114,115,116,112,112,118,116,112,116,111,114,116,119,111
112,115,118,109,117,109,111,112,110,112,111,112,110,112,115,114,115,108,117,115,115,118,112,114,116,115,114,115,115,114,114,118,114,111,114,114,113,118,117,116,112,114,114,113,111,117,114,112,118,116,115,113,118,113,116,114,112,117,113,116
116,111,113,113,113,113,115,115,117,115,116,118,115,115,111,115,116,112,111,114,113,116,115,111,111,116,118,115,117,114,111,110,118,116,116,116,117,117,117,112,115,112,118,112,112,115,114,113,110,114,110,110,115,117,112,117,108,115,111,116
116,114,113,114,111,111,112,117,108,118,119,110,114,117,112,115,115,116,116,118,118,112,117,111,112,118,109,113,112,113,116,110,116,115,114,117,113,117,115,113,114,115,113,114,115,111,114,111,114,111,113,115,114,115,114,114,114,113,112,117
116,117,116,114,117,112,112,120,113,111,116,112,115,118,116,117,115,117,115,114,117,113,107,111,116,116,113,112,115,112,114,116,116,111,114,111,111,115,115,112,111,116,117,112,115,110,111,114,111,117,116,114,113,115,110,115,116,117,111,119
117,113,117,109,116,115,118,113,113,111,117,112,114,112,115,114,115,114,112,110,113,113,110,119,113,113,116,119,112,110,113,117,112,115,109,114,112,114,114,112,113,116,119,115,110,112,114,116,116,118,121,114,110,112,111,110,111,118,118,116
119,116,116,112,112,115,117,113,117,113,114,112,112,112,111,111,115,113,116,113,114,110,118,118,115,111,121,113,106,117,115,108,112,118,118,120,115,115,114,114,116,117,114,118,113,111,120,114,114,120,116,116,115,116,118,116,120,115,116,117
111,116,114,116,112,113,118,113,115,116,112,111,113,117,116,111,116,111,114,112,115,115,114,112,112,116,116,108,115,111,112,114,120,114,113,111,111,118,110,114,115,116,117,114,110,113,115,115,110,112,109,114,118,115,113,119,115,113,112,115
113,109,117,113,112,116,116,114,112,115,109,114,113,115,116,112,113,113,114,111,116,115,114,118,116,116,112,113,111,110,120,114,107,115,112,111,112,112,115,115,113,113,116,116,116,116,112,118,111,116,117,112,114,111,111,114,117,115,112,111
116,115,113,115,117,116,112,116,115,113,113,112,117,111,114,114,119,117,114,114,113,111,113,117,119,114,114,117,114,116,110,111,110,109,116,114,116,115,114,113,116,117,117,117,116,114,115,112,114,114,115,113,115,115,113,112,118,118,114,115
111,119,115,114,114,114,113,116,117,114,113,119,119,114,115,115,114,113,116,115,116,117,112,113,111,114,111,114,117,114,114,113,109,113,118,115,116,117,111,113,120,120,115,123,120,115,119,113,113,113,117,115,113,113,115,114,109,114,112,114
114,115,116,114,110,115,113,109,110,114,114,117,114,116,118,108,111,111,115,113,109,116,116,114,111,112,115,115,115,111,111,115,113,113,115,119,117,108,113,116,116,124,122,122,117,115,116,115,114,113,112,114,114,112,119,115,113,118,115,116
112,111,111,118,112,112,114,114,116,115,114,117,119,119,114,114,114,113,111,110,113,114,112,112,113,117,118,115,111,117,112,110,116,113,111,109,111,114,115,121,119,130,130,121,122,118,115,118,117,113,115,115,116,116,111,111,115,113,115,113
117,111,108,113,117,114,114,114,113,118,114,112,114,114,112,111,110,111,112,116,117,116,112,113,115,115,116,108,113,115,112,116,118,119,116,116,116,114,119,125,129,130,128,123,126,121,118,117,114,113,113,111,109,115,112,110,111,114,117,115
115,114,114,114,111,112,112,110,112,114,115,113,110,113,115,116,116,113,112,118,114,113,115,115,114,115,111,114,115,111,115,114,113,115,112,115,112,119,125,129,133,128,126,126,126,124,119,118,119,116,113,111,115,114,116,112,109,118,117,117
111,113,117,115,111,113,113,113,114,114,115,114,117,116,114,116,113,117,118,111,110,112,115,118,115,112,113,117,116,113,117,119,114,116,115,111,116,122,121,125,130,131,134,133,129,126,120,117,110,115,119,115,117,111,113,117,115,116,115,114
117,118,110,112,116,114,115,115,112,114,114,116,113,113,116,115,114,114,115,113,110,109,114,117,115,114,112,118,119,109,110,112,117,119,117,115,116,117,117,122,126,131,131,129,134,126,118,121,119,117,117,117,109,114,118,115,113,115,116,115
110,113,110,113,117,118,117,110,110,114,112,112,117,113,111,111,113,112,113,115,113,115,115,113,113,116,110,112,111,117,118,117,112,111,113,114,117,119,118,125,127,133,131,130,133,131,127,119,120,113,115,112,116,119,116,112,111,113,114,113
113,113,115,116,114,112,115,116,116,115,113,114,113,105,115,116,117,120,115,112,110,115,112,115,112,112,118,115,111,117,109,114,116,115,113,112,119,118,122,123,123,129,137,138,131,125,123,121,120,121,116,116,112,116,116,115,117,112,115,117
110,115,117,114,116,113,114,117,118,116,111,111,114,119,120,112,113,110,113,110,112,118,117,116,115,114,116,115,118,117,116,115,112,115,115,117,118,115,121,123,119,127,126,126,133,128,125,124,119,121,121,113,114,114,112,110,115,115,116,118
115,115,114,111,110,113,112,117,112,110,111,110,110,115,114,112,110,114,118,117,111,117,113,112,119,113,113,114,110,112,114,116,115,114,113,114,114,118,122,123,121,126,126,127,133,132,125,126,117,112,116,117,114,111,117,113,113,116,112,114
117,114,113,113,116,115,114,110,114,123,119,113,113,112,117,113,113,114,120,116,111,116,106,109,111,118,113,107,114,115,111,116,111,118,117,115,113,114,121,120,118,120,123,133,131,135,127,131,125,119,118,115,113,113,114,114,114,111,111,113
113,112,114,111,119,113,114,117,118,120,115,118,116,113,109,118,113,114,117,112,116,114,114,113,111,113,115,115,115,113,116,109,113,116,111,111,113,111,118,117,119,121,129,130,133,129,130,129,131,121,116,116,118,116,111,112,119,117,113,113
115,114,118,118,115,110,114,119,112,116,117,113,111,112,116,114,112,113,115,117,114,108,118,119,115,115,116,114,118,110,116,114,115,118,115,111,111,118,117,116,117,123,125,131,134,129,133,130,128,125,114,122,113,114,118,119,116,116,113,109
117,109,117,119,111,115,110,115,111,106,115,117,110,113,113,109,111,116,112,117,113,115,117,114,117,115,116,113,111,116,111,114,110,110,113,116,116,115,114,115,113,121,119,126,129,130,136,135,133,124,122,112,116,117,116,115,117,115,111,115
113,115,110,112,108,114,114,114,115,113,108,118,113,117,108,121,111,116,114,116,115,114,113,114,118,115,116,114,110,111,111,120,116,115,111,120,116,115,115,117,116,118,120,119,125,131,127,140,129,125,128,117,115,118,113,111,118,117,117,119
110,118,114,114,117,116,117,113,114,110,117,115,116,114,117,115,114,113,115,116,112,110,111,116,111,111,115,114,112,116,116,117,114,115,115,113,114,117,118,114,114,116,118,121,121,130,125,131,130,129,123,122,119,115,113,112,113,116,116,113
