49,60,71
118,117,117,119,113,114,112,116,117,118,107,119,115,116,113,116,114,110,117,118,115,111,114,114,113,116,120,114,118,118,111,115,114,117,114,110,113,115,114,117,117,112,114,117,114,116,116,116,111,113,116,115,111,116,116,119,113,115,114,118
116,116,112,112,114,116,115,115,116,117,112,117,114,116,116,111,114,114,115,113,110,112,115,115,116,118,111,110,116,117,117,118,113,117,115,116,114,116,112,116,117,115,114,119,115,113,115,115,114,118,115,117,112,117,111,118,115,115,110,114
117,118,111,114,120,118,116,118,118,115,108,114,117,115,115,113,112,115,115,118,118,116,116,115,115,117,115,113,116,111,115,117,115,118,114,116,115,117,117,117,113,119,111,112,114,116,118,114,116,117,113,114,110,118,112,114,112,116,111,115
119,118,116,114,115,116,118,117,112,122,118,114,113,111,114,119,117,120,118,114,114,111,111,114,118,112,117,111,115,117,117,117,115,112,118,120,114,111,112,116,111,116,110,113,114,116,117,115,115,115,117,112,115,113,114,118,115,119,114,118
114,115,116,110,114,114,114,121,117,113,112,111,119,117,115,118,115,119,118,109,112,114,114,115,118,110,117,115,113,114,116,114,112,118,118,114,115,113,118,117,114,118,110,113,114,115,113,115,118,114,119,115,121,111,116,115,113,115,108,118
117,114,114,110,118,119,112,115,119,114,116,116,116,117,115,117,110,115,113,107,111,115,115,113,115,113,115,116,117,115,115,113,112,124,114,112,112,113,117,115,112,112,113,118,114,117,112,111,116,114,119,115,112,115,116,111,112,114,112,115
113,114,116,115,115,112,110,112,112,112,115,113,111,117,114,116,112,113,112,116,113,116,115,116,114,110,114,115,117,113,113,116,113,118,115,113,112,118,113,114,114,117,118,116,113,117,117,113,119,114,117,117,112,111,112,113,115,112,116,116
115,113,117,117,115,115,117,119,118,115,116,120,115,114,113,117,114,117,113,115,111,120,116,114,114,112,115,112,119,117,118,117,114,116,117,111,116,119,110,112,110,114,113,117,115,108,115,115,114,110,113,110,110,116,115,115,118,112,121,114
112,109,119,113,116,116,113,118,116,114,112,118,117,120,114,117,113,115,113,115,112,121,118,113,113,112,115,113,113,112,116,114,116,118,117,110,111,113,114,118,118,117,113,117,115,109,116,115,115,115,112,112,113,117,114,113,117,116,119,115
112,112,119,114,120,113,113,113,115,118,112,113,119,118,112,115,115,119,116,116,113,116,111,115,117,116,116,115,110,118,118,116,112,112,114,109,111,114,114,119,116,117,114,115,114,114,115,112,111,116,117,118,118,116,116,115,115,112,112,116
117,113,118,115,115,110,114,111,111,113,115,117,115,116,115,113,115,113,112,114,114,122,117,120,116,115,114,114,115,119,114,116,117,116,117,116,116,119,117,115,113,113,112,118,113,113,113,112,110,113,116,114,114,117,115,115,114,114,116,119
117,113,116,113,116,114,116,111,111,116,111,117,115,116,117,116,114,110,118,118,115,114,112,120,110,112,115,115,114,115,118,115,116,116,111,115,115,115,114,110,113,117,112,113,113,115,116,117,111,113,116,115,113,116,113,119,115,108,111,119
114,115,118,115,114,114,116,114,110,115,113,118,118,113,112,116,115,112,116,119,114,115,116,115,113,117,119,114,118,115,115,111,114,119,111,112,111,116,121,118,114,114,115,115,117,116,115,118,114,113,111,114,114,114,115,120,115,112,113,114
114,116,114,116,116,118,118,117,111,115,115,113,116,115,113,117,115,112,112,118,115,117,117,110,113,117,114,112,118,113,112,117,119,118,111,118,117,119,116,112,116,114,112,114,113,114,114,116,114,115,112,115,114,112,114,115,114,115,118,117
112,115,114,117,115,116,112,115,113,117,114,114,114,115,112,115,116,116,114,115,115,115,116,113,118,120,115,117,119,111,111,115,117,115,115,116,114,115,114,111,116,113,113,118,116,116,114,115,118,115,111,115,116,116,113,116,115,113,118,115
118,121,117,113,115,117,113,114,115,113,113,113,111,117,115,113,119,118,115,113,111,116,114,113,116,120,116,118,116,111,110,114,115,111,112,114,116,118,116,115,114,108,112,113,115,113,113,112,117,117,113,115,113,119,116,120,117,113,111,105
117,116,112,112,114,117,114,115,115,114,115,113,115,116,119,116,121,114,113,115,115,121,117,115,114,117,114,115,112,110,111,113,115,114,118,116,114,116,111,117,115,118,115,113,113,115,114,115,116,118,114,116,112,117,115,116,110,111,115,116
116,118,118,116,117,119,115,115,114,117,117,115,115,112,114,112,112,112,117,117,114,114,114,109,111,115,113,115,118,117,117,116,114,115,111,114,115,117,116,120,113,113,111,116,112,118,118,117,115,119,116,118,115,120,116,119,116,117,115,116
114,117,115,114,115,119,114,115,116,116,113,114,118,115,116,116,115,116,118,116,111,112,115,113,112,114,114,113,115,117,118,116,119,118,115,116,117,113,115,116,107,114,114,117,115,118,110,114,115,115,112,117,111,114,114,117,116,115,112,115
115,118,112,112,113,116,113,115,119,119,118,115,118,115,117,110,115,117,115,113,108,111,114,116,113,114,118,116,120,117,117,110,119,112,119,115,115,118,113,115,112,116,112,115,111,115,114,115,113,115,109,110,114,116,115,116,115,115,116,117
115,115,115,113,117,118,115,117,117,115,114,114,115,112,117,112,114,109,113,118,118,115,117,117,112,115,117,112,116,116,116,117,118,110,115,111,111,118,114,118,116,118,116,119,117,114,113,113,116,117,115,117,115,113,116,115,114,118,119,118
117,114,116,114,119,118,112,115,113,117,114,112,115,116,119,112,118,114,114,113,115,112,114,116,115,117,119,113,114,112,116,115,113,113,113,117,115,118,114,116,111,114,112,111,113,114,114,116,117,116,115,115,115,116,112,112,113,117,116,114
117,115,116,113,115,119,114,115,109,115,116,119,118,117,119,113,116,112,117,117,118,119,116,114,114,113,117,113,116,114,121,115,116,120,114,115,112,117,116,114,113,114,114,117,111,114,115,110,111,116,117,113,112,117,111,118,113,115,115,113
118,115,111,111,114,118,121,120,111,119,110,111,116,114,118,114,116,117,118,111,110,115,110,116,115,110,116,115,116,114,115,113,116,115,113,115,116,113,111,109,114,113,115,116,110,116,118,113,118,117,119,118,113,117,114,114,111,116,117,116
117,115,118,115,120,116,113,113,110,114,110,114,113,113,119,114,115,114,118,115,113,118,114,117,118,114,114,114,115,115,115,108,115,112,115,118,115,109,118,121,117,117,118,116,110,114,116,115,115,113,113,111,113,119,115,114,118,118,111,112
115,114,118,115,122,114,113,115,115,114,115,120,116,114,115,114,118,113,115,112,110,115,119,114,114,117,117,113,114,115,116,110,118,117,115,110,115,118,116,117,113,116,114,116,110,113,119,119,114,114,117,117,116,116,112,111,119,118,110,113
115,115,120,117,114,109,115,114,117,117,117,116,118,115,112,115,116,116,113,111,117,112,113,112,117,115,115,119,116,115,119,117,117,115,113,110,113,116,115,113,110,112,111,118,115,114,115,110,108,117,119,113,115,116,118,115,113,115,117,119
111,115,114,114,115,110,121,112,112,112,115,114,119,114,113,113,114,115,112,112,119,116,110,114,117,113,114,118,111,114,114,113,114,115,111,112,117,115,110,118,115,114,114,118,118,118,117,116,113,114,116,113,110,112,114,117,113,112,111,115
116,115,117,115,114,114,117,114,114,117,117,114,118,116,120,116,120,116,114,116,121,117,108,116,116,112,116,119,109,113,113,111,119,119,120,118,117,117,109,120,115,115,115,117,115,107,110,113,112,111,115,118,113,117,116,116,113,115,116,115
113,108,114,117,115,118,114,116,115,111,111,107,114,114,117,111,115,112,112,114,116,115,110,117,116,111,115,118,114,116,114,116,115,112,115,115,111,118,113,118,114,120,114,117,120,112,115,112,115,118,118,119,114,118,119,113,113,115,118,113
119,117,113,113,114,116,114,112,116,112,122,117,121,118,114,108,115,121,118,119,119,115,115,114,115,114,114,113,114,114,114,122,118,118,114,114,111,114,112,117,111,116,116,117,115,112,109,114,114,115,114,117,111,112,118,112,118,113,117,114
113,111,113,117,119,118,120,116,115,114,116,112,117,119,111,114,119,118,113,117,118,115,116,113,111,114,113,115,120,119,113,116,115,118,114,114,117,113,114,114,113,118,115,115,116,117,116,120,115,112,116,118,113,114,119,109,115,113,113,112
120,113,112,117,114,113,113,114,113,117,118,114,116,113,111,119,117,114,116,116,112,116,119,115,111,116,119,116,114,111,112,113,115,120,109,113,117,113,114,113,115,116,115,113,115,114,116,115,116,117,118,115,114,115,114,108,115,117,115,113
110,115,118,115,116,119,114,113,119,112,112,113,117,114,116,113,116,115,114,114,115,116,114,112,111,116,116,114,111,115,119,111,116,115,112,117,117,113,118,115,114,118,120,115,116,114,116,117,116,112,115,114,116,115,116,114,113,117,117,115
107,119,115,114,117,112,115,114,117,108,111,119,116,115,116,112,117,112,113,116,114,116,115,115,114,116,115,115,111,114,113,114,119,117,119,113,113,113,114,113,113,114,115,115,119,117,113,120,118,112,118,117,114,109,118,121,114,116,117,114
114,120,113,119,117,116,119,115,112,114,117,114,113,116,118,116,117,114,116,117,111,118,118,114,115,114,116,115,115,117,116,118,112,117,116,110,114,115,114,116,115,113,116,113,112,111,114,119,110,113,118,114,112,114,119,116,113,112,115,115
114,118,113,114,110,117,115,116,113,112,115,112,117,119,116,114,117,116,115,117,114,113,115,113,115,113,116,117,120,119,113,118,113,118,111,107,117,117,117,117,116,113,118,113,117,115,118,118,111,116,114,114,117,119,117,114,115,113,115,115
115,114,110,112,112,115,115,118,115,114,116,115,113,114,114,117,117,116,113,113,117,112,117,116,115,114,115,117,112,115,114,114,107,114,116,116,118,113,115,114,116,114,118,110,117,111,112,117,112,117,113,113,114,113,116,112,116,114,118,117
114,110,117,117,115,114,117,117,112,117,116,116,115,121,114,114,116,116,117,118,117,114,115,116,117,119,119,117,115,118,118,117,115,117,113,115,117,116,116,115,115,113,117,113,116,110,113,116,110,118,117,115,114,114,116,112,116,114,117,116
113,113,120,115,111,118,116,115,112,118,112,109,115,115,117,121,114,117,111,117,115,115,117,115,117,114,115,113,125,124,126,124,118,117,116,117,112,115,116,118,115,112,113,116,119,111,117,118,113,117,117,117,120,116,113,112,118,110,115,112
112,114,112,115,116,117,111,113,115,116,110,112,124,111,112,115,113,119,113,120,114,112,114,114,115,114,123,129,136,137,142,136,129,123,121,122,115,117,121,114,113,116,115,114,109,109,115,116,113,112,116,114,115,113,114,115,114,115,116,111
120,117,111,117,119,111,116,119,117,117,112,117,119,113,114,117,119,115,112,116,113,113,112,116,114,116,119,131,146,147,153,154,139,121,118,123,120,112,115,111,117,119,114,113,112,116,114,118,118,115,117,112,112,112,116,120,114,119,115,112
115,112,112,116,119,115,115,112,111,119,118,117,114,118,118,113,117,114,112,118,114,113,116,121,117,119,125,136,152,152,157,160,150,127,119,114,117,112,116,117,113,113,113,117,114,114,114,116,114,112,114,114,116,116,117,120,114,113,109,112
114,114,110,114,114,113,115,112,112,114,114,116,111,115,117,116,116,115,111,110,111,116,118,117,116,117,126,137,142,137,139,147,149,123,125,116,117,118,115,115,114,119,118,117,114,114,116,116,111,112,113,111,117,116,115,113,114,112,117,114
120,122,114,115,114,117,120,114,114,114,115,114,112,116,114,116,110,112,116,115,118,117,114,115,117,117,127,136,136,140,144,145,143,129,127,118,113,116,114,114,116,118,116,115,117,113,115,117,112,117,118,113,117,114,114,112,119,116,117,115
116,118,113,113,114,115,115,117,118,112,114,118,117,114,113,120,116,113,114,115,117,116,114,119,119,117,127,138,139,144,144,149,136,124,118,115,118,115,117,118,115,113,119,118,117,117,116,116,110,114,116,111,113,117,116,111,116,117,116,114
116,117,112,116,116,115,114,116,118,114,111,120,117,112,112,119,117,115,117,115,115,118,113,121,123,125,135,144,136,138,139,149,141,126,118,118,120,112,115,117,116,118,115,114,111,114,114,113,115,115,116,117,115,114,114,113,117,116,113,111
120,121,115,116,116,114,113,111,116,114,114,121,115,114,112,114,116,116,119,116,115,119,113,119,121,124,133,142,142,147,147,146,142,130,121,124,123,115,118,116,111,118,112,114,115,112,113,113,112,117,116,114,114,114,116,119,118,117,114,117
114,114,115,114,119,115,113,115,117,115,116,117,112,113,114,117,116,113,113,113,112,119,120,118,121,123,135,142,140,141,138,141,137,124,116,117,119,116,117,112,117,115,113,114,114,115,114,117,115,117,115,118,115,118,115,116,114,114,115,119
115,115,119,115,113,114,114,117,116,118,117,118,114,114,113,117,116,116,118,120,113,111,114,116,123,124,139,139,139,142,141,147,137,124,119,116,116,116,117,114,116,111,113,116,118,117,117,117,115,116,113,115,113,121,118,118,119,119,118,117
115,115,115,113,110,116,115,110,113,117,112,116,116,115,114,115,116,116,113,115,118,115,117,117,120,129,145,142,142,146,148,151,134,120,118,117,113,114,117,115,115,114,121,120,118,115,118,115,111,113,112,115,116,114,113,117,112,114,118,115
112,115,116,118,117,115,112,113,114,112,113,113,117,110,115,114,117,117,114,114,117,116,113,115,117,128,151,147,140,145,138,142,136,124,118,120,116,112,121,120,117,111,122,117,114,110,111,113,115,113,114,115,114,114,115,117,112,116,116,111
116,112,118,118,112,113,114,116,113,111,116,110,117,111,113,112,113,116,115,116,117,121,120,121,120,128,149,149,139,146,147,150,140,126,122,120,116,117,119,108,114,110,113,113,116,114,117,114,115,114,114,116,112,115,115,115,113,116,116,112
115,112,115,115,109,115,116,117,115,112,115,115,115,115,112,113,117,119,119,119,116,114,118,119,119,127,140,138,135,145,158,156,133,121,119,115,118,120,110,110,115,114,112,114,120,115,115,112,114,117,116,114,116,115,114,116,117,118,118,115
113,114,110,115,112,116,112,113,111,113,114,120,115,116,115,119,119,112,116,117,117,116,117,120,121,132,146,142,144,142,148,157,130,123,123,118,117,121,114,117,115,113,116,116,115,113,114,112,112,116,114,109,114,115,115,117,116,116,116,116
114,114,110,114,118,115,114,117,115,116,110,116,115,114,114,112,115,114,116,113,116,117,116,122,122,132,149,147,149,140,143,152,126,124,122,115,113,120,119,118,116,112,116,116,117,116,117,114,115,116,115,115,113,118,118,117,114,119,114,116
115,112,112,115,116,113,114,116,116,118,116,117,116,116,118,117,118,115,114,113,121,118,115,122,121,136,150,148,148,141,140,141,127,124,118,117,117,117,117,117,118,113,111,115,116,115,116,114,115,117,117,118,118,118,116,116,115,117,112,114
115,113,117,116,112,116,113,116,118,116,115,118,116,116,117,115,113,114,118,117,121,116,114,117,122,132,145,145,143,145,140,136,124,122,115,121,121,119,121,117,117,112,115,118,115,116,114,115,117,116,113,113,117,114,117,118,115,113,109,113
116,111,118,117,116,116,114,118,113,116,114,116,116,114,114,115,115,118,117,113,117,121,120,123,125,135,153,148,142,143,145,138,129,121,118,117,116,112,117,112,114,119,119,117,115,114,115,117,119,113,117,113,116,115,117,116,113,115,110,118
119,112,116,112,114,110,114,116,111,116,112,116,114,115,114,118,112,120,117,116,117,117,114,116,119,138,155,145,144,141,144,132,122,120,119,113,119,117,116,118,113,116,116,115,119,116,117,117,116,112,121,116,119,115,115,113,110,117,114,118
116,114,120,113,116,117,119,116,114,116,118,119,114,119,114,117,109,111,114,118,117,114,115,121,125,136,147,143,147,150,148,132,123,119,120,114,119,117,112,114,117,120,117,111,111,119,117,116,116,115,123,117,116,113,117,116,113,114,117,118
116,116,112,111,116,116,114,111,112,114,116,118,114,112,115,115,113,117,111,115,116,116,115,123,127,137,146,142,142,149,150,143,128,117,120,111,117,115,115,115,118,122,114,116,115,120,112,116,112,111,116,111,116,113,118,118,115,112,114,115
110,115,117,114,114,119,119,115,118,117,117,117,116,112,117,114,114,120,119,118,115,117,115,120,127,145,146,147,143,149,149,141,123,117,119,115,119,119,117,114,117,122,112,116,116,116,114,116,114,119,122,117,114,110,113,114,114,119,118,116
116,115,115,115,117,119,115,116,115,111,115,113,118,114,115,116,118,118,118,114,111,116,119,120,123,144,148,147,143,147,152,137,124,120,117,115,119,118,114,113,114,118,113,116,114,114,112,113,114,116,115,112,109,115,115,118,113,120,115,112
114,115,114,114,117,111,110,112,115,113,118,114,115,111,114,118,118,113,117,114,115,119,120,120,119,139,148,138,142,145,149,137,125,122,114,116,119,116,116,118,112,115,114,118,116,117,111,112,112,117,120,117,114,114,113,116,108,115,115,116
111,110,111,114,118,118,119,117,116,112,112,117,120,111,115,121,117,112,118,108,118,119,115,117,123,147,150,140,146,149,156,141,127,125,117,118,117,113,114,116,115,116,110,117,109,115,116,119,114,117,116,117,116,111,115,116,115,115,113,115
114,114,112,113,112,118,116,118,116,112,108,113,115,112,115,118,114,109,116,117,119,113,115,120,127,145,148,142,152,144,148,141,127,121,115,115,116,115,117,117,117,114,113,119,114,122,116,116,114,118,115,116,116,115,115,115,119,116,116,116
115,116,116,118,113,113,113,115,116,115,113,113,114,119,114,115,117,118,116,115,118,112,116,117,124,139,145,135,141,143,147,146,125,123,120,121,123,116,116,116,113,114,115,113,116,121,115,115,114,116,117,114,111,115,114,116,111,113,115,115
116,117,114,114,114,115,117,114,117,117,116,120,117,116,113,118,115,118,117,115,115,116,120,113,124,143,143,134,139,144,148,144,122,123,121,120,118,114,110,118,115,116,117,115,115,118,117,114,113,117,119,110,109,118,116,119,112,112,116,115
114,118,116,112,116,112,112,114,116,111,114,113,117,116,113,116,113,117,115,118,115,118,121,120,124,139,136,135,138,141,145,145,128,120,117,119,117,121,116,115,121,119,117,119,113,116,117,115,114,114,118,113,117,119,115,123,119,111,112,115
113,118,118,113,116,117,118,116,116,116,122,111,114,116,114,116,113,119,112,113,114,115,114,118,121,135,138,133,133,141,153,144,130,121,117,116,117,117,114,110,121,119,111,114,112,115,116,116,116,114,114,112,119,119,115,112,114,116,115,120
112,116,115,112,112,115,115,113,111,110,118,113,117,120,118,118,117,119,115,115,114,117,116,117,122,132,143,140,143,140,144,141,128,121,118,117,117,119,114,115,117,118,117,117,115,116,114,114,114,119,116,110,113,114,114,112,115,116,112,116
112,116,114,113,114,117,115,114,119,113,114,111,115,115,112,111,115,116,114,115,116,118,122,116,121,131,149,146,143,135,138,144,126,121,120,120,117,120,117,116,113,113,118,116,111,114,114,120,115,116,113,112,112,114,116,112,117,118,119,115
111,115,114,114,112,116,114,113,121,113,115,117,115,111,115,117,116,117,114,116,119,116,120,117,120,127,149,153,148,144,136,133,129,128,121,121,118,120,116,117,118,111,114,116,114,119,116,117,115,119,109,116,113,116,119,112,117,115,115,116
109,117,113,114,117,115,113,115,116,112,114,117,117,118,116,120,117,115,110,111,119,115,113,111,119,126,146,153,145,136,142,143,137,126,121,122,112,113,112,115,113,110,116,119,116,115,111,116,113,115,112,114,111,114,117,113,115,114,115,115
112,115,113,109,117,116,119,122,115,114,113,116,114,115,115,117,111,115,115,116,118,108,117,118,124,125,138,148,145,138,144,145,141,125,116,118,115,116,112,118,112,117,118,117,113,110,111,118,117,115,112,114,117,114,112,115,119,119,114,114
112,112,116,111,116,115,114,115,109,114,115,117,116,115,116,114,113,114,111,114,121,110,117,116,121,121,134,145,143,140,146,142,141,127,123,124,118,115,116,115,117,123,116,115,117,118,118,116,115,115,112,116,114,114,112,119,116,113,116,119
115,117,117,113,116,116,116,118,114,114,116,118,115,112,112,113,115,118,112,113,119,114,118,116,117,122,124,136,144,143,149,141,139,134,128,119,114,115,117,117,123,116,113,117,114,113,111,112,115,115,112,117,113,115,115,116,117,115,116,116
115,113,112,116,123,118,117,117,114,116,115,112,113,114,117,116,114,115,114,116,112,120,117,113,114,124,123,136,151,146,146,148,145,132,125,120,116,112,115,117,115,111,116,121,113,114,115,116,116,114,113,117,121,115,114,111,113,119,116,112
117,119,111,113,115,111,113,115,115,118,113,111,113,113,117,111,112,115,111,119,114,120,118,115,113,125,126,138,147,143,156,158,147,133,122,118,114,114,116,119,116,113,114,113,117,117,113,119,117,111,115,116,118,108,114,116,115,119,113,117
114,117,111,115,114,117,115,114,113,119,113,113,112,112,117,113,116,115,114,119,111,117,120,120,117,120,114,127,141,144,159,153,141,131,122,119,118,119,118,117,110,114,119,122,118,115,109,114,113,112,113,113,115,116,120,120,116,115,114,117
117,117,113,122,118,114,114,119,113,116,115,117,117,116,115,116,118,114,114,116,114,117,113,114,119,113,113,122,134,138,146,142,133,128,122,118,119,117,120,117,115,121,113,113,102,109,115,116,116,114,114,118,118,116,111,115,113,114,116,116
112,113,113,117,113,117,117,115,111,115,118,121,114,116,115,115,115,114,115,115,115,115,112,112,116,116,118,120,123,127,130,132,124,123,119,114,115,113,116,108,115,114,111,116,115,119,118,117,113,112,116,115,117,113,112,117,115,116,118,116
114,116,115,116,114,117,115,113,120,115,111,120,113,117,117,115,115,115,114,111,117,115,117,117,116,119,121,117,114,120,124,122,120,115,115,116,115,115,116,115,122,117,117,116,113,117,116,119,120,116,115,111,115,115,118,119,116,117,116,113
115,114,115,118,115,115,118,114,117,115,115,122,115,110,112,118,117,115,114,116,116,110,117,117,115,118,117,117,119,114,117,118,120,113,113,113,113,112,117,118,113,113,118,116,113,117,114,111,114,111,113,110,117,115,114,116,118,114,114,115
114,111,115,117,116,117,119,113,114,114,115,113,113,118,112,118,114,114,118,118,114,110,115,119,117,118,116,111,117,115,117,115,121,117,116,116,120,118,121,121,116,111,116,118,115,113,117,116,117,116,116,116,119,119,115,113,116,112,112,120
112,111,115,117,117,116,113,114,117,118,115,114,115,119,112,113,114,113,115,112,112,115,114,117,115,112,117,114,115,117,115,117,116,113,111,115,113,116,117,109,114,112,113,117,116,117,117,117,116,116,114,112,111,120,116,115,118,115,114,116
117,114,112,111,112,118,114,115,116,116,115,111,113,117,116,112,112,113,118,117,114,116,112,111,113,111,115,113,116,119,121,118,118,120,116,118,114,113,120,117,117,122,118,120,116,114,114,113,110,115,117,114,114,115,115,115,116,117,119,115
119,120,114,116,115,118,114,112,117,116,116,110,116,114,115,114,117,116,119,115,113,116,116,113,116,114,117,117,116,111,114,114,114,116,110,116,118,109,113,117,114,116,117,118,117,117,117,115,111,117,114,113,115,113,118,113,114,114,116,112
114,113,115,119,113,117,116,114,115,111,115,115,118,113,116,114,117,118,116,116,119,116,115,118,117,112,111,115,116,116,116,120,115,119,116,117,117,109,114,117,121,114,115,115,116,116,112,115,113,118,111,120,121,115,113,112,115,114,112,111
117,120,112,115,110,113,112,114,110,113,119,113,117,115,115,116,113,117,116,113,117,112,115,119,112,112,112,113,113,115,115,116,112,118,114,110,119,113,119,115,114,113,125,118,117,117,117,118,110,115,112,116,113,112,114,117,117,116,111,113
118,115,109,119,121,116,112,114,114,117,119,111,114,112,111,116,117,120,112,110,120,115,118,120,115,112,116,115,117,113,112,115,114,116,112,113,118,112,114,112,116,114,119,115,115,112,115,114,115,119,112,113,119,118,118,118,113,116,111,114
120,115,117,116,111,113,113,117,114,112,114,114,117,113,117,118,116,115,111,115,119,114,116,108,110,112,118,115,116,114,112,119,116,114,115,119,119,115,113,113,115,116,119,115,115,112,115,117,115,116,118,114,117,114,114,114,113,116,115,118
118,115,118,119,111,118,115,114,115,117,116,115,115,117,119,115,114,115,116,114,116,111,117,109,118,116,113,113,116,116,116,113,113,118,117,116,109,112,116,118,115,111,111,113,118,116,111,110,113,114,116,115,115,112,118,115,112,116,112,114
117,115,113,115,114,116,116,115,112,116,110,113,115,118,116,114,118,114,117,116,116,110,114,117,120,112,111,117,118,115,117,114,118,116,114,118,117,118,113,116,118,114,112,112,110,112,114,118,119,115,114,114,115,114,118,110,111,116,116,117
116,112,112,115,116,112,112,114,113,118,114,115,109,115,118,114,117,115,116,117,113,116,115,114,111,115,119,117,115,109,113,117,119,113,113,113,118,116,116,119,117,114,115,113,114,117,116,119,115,115,115,119,114,110,113,114,115,115,111,114
115,112,116,115,120,115,115,122,123,114,114,114,113,120,119,117,115,119,115,117,118,119,112,113,117,117,116,114,119,116,118,115,116,116,118,116,117,118,116,114,112,114,112,113,116,115,114,113,115,112,108,116,112,114,118,116,114,113,113,114
115,113,114,112,115,115,115,115,114,111,116,113,115,123,116,117,112,117,113,116,117,112,114,117,118,117,118,116,116,111,120,117,112,114,118,113,112,113,114,116,117,119,114,114,116,116,119,119,119,114,112,119,114,118,119,117,115,115,115,116
113,114,115,110,112,115,113,114,117,112,114,115,116,118,113,118,113,112,114,115,118,112,113,113,117,113,112,113,115,114,113,110,109,113,116,115,116,116,118,117,115,111,114,118,118,117,113,114,114,113,113,118,115,113,116,116,111,110,113,111
112,118,119,114,115,112,109,115,120,115,118,121,116,114,117,118,116,113,115,109,114,115,116,119,121,116,112,115,114,115,116,111,115,114,114,115,114,113,111,113,117,119,114,118,114,115,115,115,118,114,116,114,116,116,116,118,112,113,119,112
113,113,114,116,120,118,115,115,114,110,115,116,116,113,116,115,111,108,113,115,115,113,114,115,119,113,111,116,117,112,115,116,117,112,112,116,118,119,112,117,114,115,114,119,113,114,111,111,117,116,116,114,119,115,110,112,118,119,114,108
115,118,115,117,113,115,115,112,120,115,114,111,113,111,115,121,112,113,117,118,115,113,113,114,119,114,112,115,117,116,118,115,115,121,117,115,111,118,117,118,119,120,116,114,117,114,113,114,118,119,114,115,118,115,116,115,116,112,110,113
112,114,114,115,115,120,116,112,118,113,115,115,114,116,118,118,112,122,118,115,114,113,119,121,117,111,109,114,116,118,115,114,113,114,111,112,113,118,119,112,115,115,117,114,119,117,120,118,116,116,114,116,116,114,114,115,116,116,118,113
114,116,115,117,110,114,110,112,118,113,114,115,115,116,113,113,113,115,110,114,114,110,116,118,114,114,116,115,114,115,111,116,118,118,114,113,117,114,114,111,115,114,113,111,117,112,114,114,113,113,117,115,115,117,116,117,116,109,115,113
110,114,112,114,115,121,112,111,119,118,117,116,116,111,114,115,120,118,113,113,113,114,115,114,117,116,114,113,112,114,111,117,111,113,114,116,119,114,117,114,114,111,113,119,120,114,115,114,116,113,118,114,112,114,112,118,113,110,119,117
114,116,114,109,116,120,117,118,115,113,116,114,112,113,117,114,113,116,114,114,116,117,118,119,116,114,117,119,112,115,113,117,110,115,115,114,113,111,119,114,114,115,113,119,109,109,111,114,116,111,120,117,114,114,110,117,114,117,114,114
115,110,115,117,115,115,113,116,112,114,113,110,110,120,115,117,114,116,117,112,115,114,115,114,116,116,121,123,117,116,113,114,113,115,113,117,113,116,117,117,120,116,107,116,113,112,113,114,116,111,115,117,116,117,111,115,118,120,114,112
112,111,115,119,114,117,113,113,116,116,113,116,113,117,112,116,117,117,118,115,117,115,115,116,115,115,116,114,116,118,116,115,114,116,114,110,110,115,113,115,120,115,111,115,115,113,118,115,113,112,115,117,114,115,113,112,118,118,120,114
114,114,114,115,113,116,117,112,111,113,115,118,113,119,115,117,116,114,115,117,116,112,113,118,117,118,114,112,114,114,112,115,116,115,116,113,115,115,114,115,117,111,114,111,117,118,118,117,117,114,114,114,117,116,119,112,112,114,115,114
114,114,116,116,115,111,114,115,115,117,116,114,114,116,113,117,113,118,118,118,117,114,114,113,118,119,116,115,115,110,111,111,115,115,117,114,111,114,113,113,114,116,117,112,114,113,109,113,114,114,116,112,113,111,114,114,118,117,112,115
116,112,116,116,114,113,116,116,115,118,118,118,119,120,112,120,112,114,115,114,111,116,115,115,117,115,116,119,115,113,118,112,115,117,114,113,114,115,114,116,116,115,117,117,113,112,115,117,117,113,112,116,115,114,119,115,113,115,115,115
114,116,114,117,116,109,116,114,112,115,114,115,111,117,116,118,110,116,112,118,111,114,117,116,114,115,116,116,110,113,117,114,111,112,110,115,118,117,120,116,117,117,117,116,118,116,117,113,117,116,111,116,112,115,120,114,114,117,114,111
114,115,112,115,117,114,114,113,115,119,117,116,112,116,114,113,116,116,113,118,113,117,119,114,116,120,115,112,116,116,116,116,114,119,116,114,113,111,118,112,115,113,111,111,114,116,116,112,113,115,110,112,115,118,119,112,118,114,112,110
112,118,114,115,117,115,114,114,111,116,119,116,113,118,118,115,117,116,116,115,114,117,122,117,111,113,112,112,117,115,113,119,115,118,116,116,113,112,115,114,120,114,114,118,115,114,110,113,112,116,116,117,116,111,113,113,116,111,112,111
113,117,113,114,117,117,115,112,113,115,115,115,114,113,113,112,114,116,114,115,116,111,114,116,112,114,113,111,114,118,115,118,110,115,122,117,112,114,114,117,115,115,116,119,115,116,109,115,117,118,114,108,113,113,114,115,116,118,114,113
119,115,109,115,118,119,114,113,114,117,116,118,116,115,112,113,114,115,110,112,116,112,117,118,115,115,114,112,114,115,112,112,108,115,117,110,111,112,114,116,114,119,112,112,115,115,109,117,115,114,115,112,114,115,116,119,116,114,113,115
114,112,115,117,112,116,113,118,118,117,111,120,115,114,115,118,115,113,115,116,115,107,118,117,117,117,117,115,115,115,116,113,115,118,117,113,116,112,116,120,116,115,112,114,118,118,113,117,113,112,113,114,115,117,115,116,111,110,112,116
119,117,115,116,118,120,111,115,110,115,112,116,108,114,111,118,115,111,113,113,116,114,118,114,118,115,113,115,113,110,114,113,118,113,120,115,115,118,113,114,115,114,119,114,113,116,113,117,112,117,115,117,119,117,113,118,119,118,114,118
117,115,114,118,116,113,110,115,114,118,116,115,118,122,119,118,111,113,116,117,117,116,115,111,117,114,113,116,116,115,115,113,112,106,117,118,112,113,113,113,117,115,118,112,115,120,114,119,117,115,110,114,116,115,112,115,117,119,110,114
114,116,118,117,118,115,111,116,117,112,113,114,118,114,116,117,117,123,119,116,113,112,110,111,115,113,116,116,116,114,114,120,114,118,114,115,114,111,116,112,112,113,114,108,110,115,114,113,113,116,115,117,113,115,117,116,116,118,110,114
