51,61,71
112,113,118,111,112,115,115,121,118,121,115,116,112,118,119,118,112,114,119,119,115,115,112,118,113,115,118,115,114,121,113,109,115,115,119,115,112,118,119,119,117,117,113,119,118,117,115,120,118,113,118,113,115,118,118,113,115,111,117,115
119,121,117,111,115,117,116,118,112,117,114,115,112,117,115,118,120,115,119,115,113,117,111,118,114,117,115,118,115,118,116,113,116,112,117,120,119,121,121,113,114,116,113,115,115,114,113,118,114,115,123,113,116,119,116,113,115,115,116,113
109,116,113,110,115,113,113,113,116,116,117,118,113,113,116,115,112,111,116,116,118,117,114,118,117,118,112,113,113,118,118,113,115,117,121,117,111,114,116,112,116,117,119,118,117,117,115,115,116,114,116,117,119,119,113,115,118,117,116,116
114,113,116,118,118,114,117,112,115,114,116,115,115,111,115,116,115,119,118,114,116,116,115,115,117,119,113,115,122,118,113,108,112,109,116,117,113,116,116,116,115,116,121,121,117,119,114,114,118,115,115,121,110,113,114,119,118,114,117,114
118,118,117,115,115,115,122,118,116,120,115,111,115,117,118,114,113,118,118,115,111,116,120,116,116,118,116,116,112,113,115,115,120,116,115,115,118,120,119,121,116,114,113,114,116,115,112,116,115,114,118,120,111,116,118,118,114,118,120,111
114,116,120,114,118,114,113,112,113,115,114,116,117,117,120,119,115,113,117,121,111,113,116,113,116,112,117,120,117,113,115,117,119,114,116,114,117,118,119,117,114,116,114,119,118,115,116,120,116,115,119,112,115,120,117,115,116,119,116,112
112,118,122,111,111,111,111,115,115,110,116,115,114,112,114,113,115,117,120,116,116,120,117,119,116,114,117,114,118,118,117,115,116,112,118,115,120,114,114,113,113,117,111,114,110,116,119,116,115,118,119,117,119,117,115,116,117,116,116,117
110,116,117,115,115,123,114,116,118,117,124,117,117,116,120,114,116,116,116,114,116,117,111,115,114,121,118,116,114,115,119,120,116,112,115,111,112,114,117,115,113,118,117,118,112,118,115,114,115,117,114,119,119,121,120,117,114,115,117,116
113,120,114,116,114,118,112,114,116,112,117,116,113,113,113,112,118,117,115,116,113,118,113,114,116,119,114,114,114,117,119,117,114,113,119,120,117,117,116,116,114,120,116,116,114,115,111,118,112,116,116,115,113,115,117,117,116,119,118,111
115,117,111,113,112,120,114,115,114,111,117,118,112,115,115,119,119,114,117,119,118,119,115,115,119,119,116,115,116,118,118,117,119,119,119,112,115,112,116,118,116,115,117,115,113,116,114,116,114,117,118,118,119,111,114,116,117,119,115,114
115,116,116,116,113,117,114,110,115,114,119,116,116,116,114,116,113,108,113,111,113,114,112,113,119,116,119,112,116,117,112,114,116,115,116,112,116,116,115,115,118,116,117,117,115,116,113,110,116,117,114,115,116,111,122,119,117,118,115,116
117,115,115,112,114,117,115,114,120,115,114,112,116,113,116,117,115,115,114,114,117,115,112,112,123,117,113,110,118,112,116,118,113,114,115,113,115,113,116,114,116,117,115,116,116,116,116,114,116,116,114,115,116,118,115,112,112,119,116,116
117,115,115,111,116,115,114,113,116,117,121,113,114,113,117,117,114,112,113,117,118,112,113,112,118,115,117,110,120,117,114,119,116,116,115,115,116,114,122,116,119,113,112,116,117,113,115,114,116,117,115,117,118,117,117,120,119,120,118,116
115,116,115,116,121,113,113,116,119,116,123,115,115,112,114,112,106,115,120,114,115,112,117,117,115,111,117,113,117,118,116,120,118,117,116,116,116,115,119,114,117,115,113,113,116,116,116,121,116,116,112,113,115,110,114,109,113,115,115,113
114,114,116,110,117,114,119,116,118,113,115,115,118,112,117,116,117,117,112,110,117,115,116,115,115,111,116,115,116,116,116,119,113,116,112,112,114,115,115,113,115,117,115,118,122,115,112,116,110,115,112,113,113,115,118,117,115,117,114,115
117,116,116,115,120,114,117,119,115,110,117,118,117,117,116,115,119,112,115,118,116,113,114,116,118,114,113,113,113,118,117,114,111,118,114,117,115,112,114,116,116,114,109,117,119,115,118,114,112,118,119,120,114,117,114,116,114,115,113,115
117,113,114,117,115,116,108,116,115,116,116,113,116,117,112,113,120,119,113,114,117,116,116,119,116,118,118,117,115,115,118,115,115,114,112,115,114,114,120,113,113,114,113,120,115,114,117,112,116,116,118,119,114,118,116,116,120,113,112,117
118,117,118,124,117,117,115,117,113,117,114,114,116,116,115,116,113,109,112,116,119,116,115,117,116,119,116,112,116,116,117,115,117,114,115,114,115,117,120,114,112,116,113,114,113,112,119,115,116,112,112,110,111,113,118,113,116,115,118,114
112,114,112,116,114,111,114,118,116,116,111,119,115,116,116,117,113,117,119,117,118,115,115,115,113,113,113,113,119,118,117,118,120,116,113,115,116,119,118,115,115,118,115,114,118,118,123,118,114,115,117,117,112,114,115,113,115,113,117,117
113,117,114,117,117,116,117,112,114,118,112,115,115,116,115,116,112,116,117,117,114,122,120,112,115,116,115,117,119,115,114,114,118,114,116,120,115,115,115,118,116,115,113,114,115,113,116,118,114,120,117,116,118,120,116,116,118,115,115,117
114,117,114,115,114,115,117,114,113,116,114,113,122,118,113,115,113,115,109,115,112,116,116,113,119,117,117,116,112,112,109,113,123,115,115,114,114,117,114,118,113,112,116,118,114,114,116,117,112,117,112,113,120,114,115,118,118,117,114,117
110,117,114,117,119,119,115,116,114,119,116,112,117,110,116,116,118,120,112,117,122,113,114,116,121,118,116,117,115,117,110,111,118,111,117,117,115,116,115,119,118,117,118,117,114,114,116,117,115,116,114,116,116,116,117,118,114,109,111,117
111,119,118,113,115,117,116,116,112,119,117,119,119,114,119,116,115,119,117,117,121,116,118,117,112,117,118,118,121,121,120,114,117,117,118,111,113,114,116,114,114,113,117,112,112,116,116,112,112,112,114,114,114,119,113,118,115,116,119,117
116,114,114,111,114,116,117,121,114,116,113,114,114,117,116,116,115,113,115,116,112,118,113,114,112,116,114,119,119,117,116,116,118,116,119,115,116,113,115,113,117,116,116,113,112,118,114,111,112,114,114,113,117,118,115,119,110,116,115,116
115,112,120,117,117,118,118,119,117,115,120,118,115,112,113,115,117,118,116,114,111,116,113,118,116,113,114,119,116,114,115,114,113,113,112,114,120,115,118,115,118,116,116,118,115,117,116,118,117,116,117,118,116,114,117,117,116,118,118,114
117,114,119,113,117,116,114,111,114,113,116,113,115,112,115,115,115,117,114,116,115,114,114,117,116,113,117,115,116,113,114,111,115,121,118,115,116,114,117,116,118,113,114,117,117,115,116,120,115,114,118,116,112,116,116,111,114,113,118,113
116,117,118,115,117,113,116,114,113,112,116,109,110,113,118,115,116,116,116,113,108,115,117,116,114,114,121,119,114,115,120,115,117,117,114,113,113,115,114,116,116,113,112,116,113,115,114,116,109,112,116,116,117,115,116,115,117,113,116,118
111,117,118,121,121,121,118,117,116,115,117,117,119,121,116,111,112,112,116,113,114,118,120,121,113,114,114,111,113,116,116,114,118,116,112,111,117,120,118,118,115,117,114,116,116,123,118,117,111,112,116,114,119,111,114,119,120,116,112,116
112,114,111,113,110,113,115,116,118,113,120,117,115,118,116,114,115,114,111,112,117,119,114,118,112,115,116,118,119,113,113,113,114,120,118,114,116,118,118,117,116,112,118,117,111,114,119,124,119,117,121,117,119,111,115,115,116,114,113,123
111,116,116,119,113,114,113,116,118,113,117,118,113,107,113,116,120,121,112,117,117,116,113,117,116,119,117,118,115,115,115,119,113,117,116,112,110,116,118,115,115,114,114,113,112,115,113,115,115,112,115,114,119,116,118,117,119,115,115,115
117,119,117,121,111,112,110,116,114,115,114,118,117,117,118,113,115,117,114,116,117,113,115,117,116,117,114,115,112,118,110,117,117,119,112,119,119,113,115,112,114,115,110,114,113,116,113,115,116,113,118,116,116,118,118,116,114,113,117,115
112,116,115,118,118,115,113,116,114,112,109,116,114,116,116,117,117,118,119,120,116,112,116,113,115,113,114,116,115,117,113,119,111,115,115,118,118,115,115,110,118,121,114,118,116,121,114,114,114,115,115,110,115,114,113,117,119,114,113,116
117,120,111,113,116,112,117,117,116,115,117,116,115,117,116,119,115,115,113,117,115,110,115,116,117,115,118,116,114,114,115,120,115,116,117,116,112,113,118,115,117,118,112,118,119,121,114,112,113,117,116,118,118,118,114,114,115,111,116,119
118,116,114,116,114,111,117,117,113,116,118,114,117,118,117,115,112,117,117,116,116,113,116,119,118,120,118,113,115,118,117,115,113,115,114,112,112,118,117,115,115,116,114,115,118,117,115,117,118,117,113,121,118,115,114,114,116,112,117,116
117,117,116,115,116,118,118,113,113,115,117,116,115,115,115,114,113,117,116,116,116,115,119,115,117,119,114,115,114,116,117,116,115,115,115,118,111,117,115,115,116,121,115,114,114,114,115,118,118,120,117,118,115,115,116,115,117,116,114,111
114,119,115,114,112,113,115,117,121,115,114,116,120,120,111,112,116,116,115,117,113,113,119,116,125,118,114,117,111,114,115,114,113,110,114,117,116,120,111,116,116,115,113,119,111,113,116,115,115,114,115,119,117,112,111,112,110,110,112,116
112,116,115,119,116,115,116,114,112,110,116,115,118,114,113,120,118,117,116,115,119,119,120,117,119,117,118,118,118,119,115,115,118,112,120,115,118,116,113,116,114,114,112,114,113,116,113,110,116,115,113,115,113,114,116,115,115,121,123,113
115,117,114,113,117,115,113,113,117,118,119,111,114,115,116,115,116,113,113,114,114,112,117,120,121,120,115,115,121,117,117,116,119,114,114,117,119,113,116,115,114,114,117,117,117,118,117,114,117,112,119,119,117,117,116,117,110,116,116,111
118,119,117,113,118,117,120,117,123,116,116,117,114,117,116,114,118,113,114,115,114,117,117,118,123,122,120,124,123,119,122,116,117,119,115,117,114,112,119,111,114,116,119,116,118,113,116,114,119,117,119,114,115,117,115,114,114,115,116,116
117,118,116,117,117,107,115,116,119,116,115,121,113,115,111,113,117,114,118,117,117,115,119,119,121,120,125,123,120,120,125,119,119,118,118,119,117,113,118,115,116,114,112,116,121,118,121,115,112,110,115,114,112,113,117,116,116,110,113,112
116,113,110,116,118,115,114,116,117,119,115,113,110,116,117,118,119,117,118,118,119,115,118,121,122,122,129,127,128,129,126,123,121,119,119,117,119,118,117,115,116,117,115,120,116,113,110,116,119,112,118,118,115,112,116,115,116,113,117,118
114,115,112,115,115,115,112,113,115,114,112,118,116,116,114,112,112,115,116,117,117,119,118,123,125,127,128,132,130,135,129,125,119,119,119,119,120,115,114,113,117,120,116,117,113,113,115,116,117,114,118,119,116,114,117,115,115,115,112,117
115,119,112,117,116,117,117,118,119,115,113,114,117,117,113,117,116,115,119,116,114,116,119,126,129,127,124,132,130,137,128,128,126,126,118,119,116,117,118,113,116,116,114,114,115,112,113,112,111,111,115,117,111,114,116,113,113,119,111,114
119,116,113,121,119,114,113,112,117,116,115,116,119,119,118,120,119,119,119,117,117,112,118,127,128,128,132,131,132,138,131,129,124,119,116,118,118,115,116,117,117,116,116,114,114,115,115,118,116,115,116,117,113,115,114,113,114,118,116,115
115,116,113,116,113,112,116,113,116,117,110,116,119,114,113,116,117,116,117,114,118,115,118,121,122,124,133,134,134,132,130,126,129,123,119,115,117,112,110,114,117,117,118,118,113,117,114,118,116,112,112,118,115,111,114,115,112,116,117,114
118,117,112,116,113,116,111,115,118,120,113,119,119,116,122,116,120,113,117,115,118,117,119,124,124,125,128,128,135,134,130,130,127,121,122,115,118,113,113,115,124,118,117,117,115,116,115,117,111,118,115,116,117,118,119,116,115,120,117,116
118,117,112,115,116,122,114,119,117,116,114,119,118,110,114,111,117,118,119,119,117,114,120,130,132,129,127,134,138,130,126,125,125,124,121,113,115,114,119,117,118,116,113,114,118,118,115,117,111,119,118,115,113,115,118,111,114,121,114,115
114,115,114,114,114,117,114,117,118,118,114,114,115,116,120,114,120,122,113,115,113,116,121,124,126,129,128,133,142,134,132,128,124,122,120,116,116,116,114,117,115,118,112,113,112,115,120,118,111,120,114,114,117,116,118,113,113,110,113,116
115,114,116,112,113,116,114,114,112,116,118,119,115,113,117,112,113,111,113,115,112,116,119,123,134,129,131,136,141,136,132,129,128,125,119,115,115,115,113,119,115,116,112,112,115,116,119,115,112,119,116,114,115,113,109,113,119,115,117,116
119,117,118,115,115,117,119,119,112,117,119,116,114,116,119,117,116,117,117,115,116,123,120,125,131,126,133,138,139,137,136,131,133,119,116,115,112,116,119,115,114,116,116,115,117,116,119,114,114,117,112,115,115,113,115,116,117,116,116,117
119,117,118,117,114,115,113,118,115,117,117,116,119,116,113,116,117,120,119,113,114,119,117,124,129,124,133,138,139,133,132,129,129,118,121,118,116,114,113,111,117,116,116,116,114,111,115,111,113,111,110,114,110,112,116,114,117,117,116,115
119,118,115,116,115,115,114,118,115,118,117,113,112,112,114,114,112,117,113,114,120,115,114,117,125,128,131,138,142,135,128,126,131,123,116,114,114,115,118,112,113,116,118,118,113,118,116,113,116,114,115,119,113,121,116,116,113,113,117,115
116,118,119,119,121,117,116,119,118,118,116,117,119,116,116,117,115,119,112,115,124,117,118,119,127,131,133,139,141,133,133,132,129,122,118,124,112,113,118,110,113,113,111,117,112,116,111,117,114,115,114,117,115,118,112,121,117,116,116,115
119,109,114,111,113,108,114,114,115,110,111,117,118,119,117,120,115,114,116,117,115,116,121,124,133,130,134,136,141,137,135,137,128,123,117,116,116,120,120,115,119,117,115,115,112,116,114,117,112,115,113,114,115,118,117,114,113,111,115,118
119,113,120,118,117,112,119,117,117,119,115,119,115,115,114,119,115,119,118,119,115,120,115,124,134,129,134,137,138,141,134,131,125,119,118,119,118,110,116,119,116,118,117,119,114,114,116,115,112,118,113,115,115,113,119,117,119,112,115,112
118,113,115,117,115,115,116,114,114,118,115,115,117,121,115,112,111,115,114,115,113,119,117,125,124,129,136,138,137,137,135,133,128,119,116,119,118,117,122,120,113,114,113,117,114,114,116,118,113,111,115,117,119,120,117,114,114,115,119,114
113,114,117,119,117,116,112,116,114,118,118,115,116,120,117,117,116,115,114,117,120,117,120,129,130,136,136,139,135,135,131,131,125,121,115,116,117,116,109,112,116,117,116,117,112,114,119,116,116,116,116,115,114,116,119,120,114,116,116,114
118,114,113,112,111,118,120,120,116,119,119,119,118,119,118,117,117,116,121,116,119,119,122,122,130,137,133,141,142,141,134,138,128,122,118,115,117,114,117,116,119,115,114,114,116,121,117,110,117,116,118,111,113,117,112,116,115,116,120,116
116,113,118,110,111,111,114,113,113,116,116,115,115,116,117,115,118,114,120,117,117,118,118,120,130,138,138,143,140,141,135,134,127,122,122,115,116,109,117,117,116,114,119,114,114,116,115,115,121,115,117,114,118,121,111,115,114,113,115,112
117,119,118,116,117,115,116,116,117,120,116,115,115,116,118,115,113,115,122,117,122,121,122,119,130,136,140,150,147,143,137,135,130,122,121,117,119,120,117,117,116,115,118,114,115,116,119,117,115,114,118,114,114,117,118,119,118,113,117,116
117,112,109,115,114,114,115,117,113,120,117,117,113,112,116,121,118,118,117,116,117,117,120,118,131,136,144,150,154,152,148,140,132,125,122,118,114,113,113,114,115,118,116,114,112,117,115,113,114,115,114,114,114,117,118,114,116,117,121,119
116,115,118,117,117,119,121,117,114,116,113,114,115,118,115,117,116,118,117,116,119,120,117,119,126,138,153,151,154,154,148,140,131,121,116,118,116,117,117,115,115,118,115,111,110,114,115,112,113,119,117,113,114,116,113,113,118,117,115,115
115,114,117,115,112,115,115,118,120,120,118,118,117,118,109,114,115,114,115,118,116,118,119,124,130,143,147,152,157,157,146,135,133,121,117,115,111,115,116,114,113,119,119,115,114,114,117,115,112,114,115,111,114,117,111,114,117,115,117,117
117,115,121,116,115,119,114,118,116,113,116,119,110,115,113,120,118,116,113,117,116,118,118,128,130,141,145,153,154,152,148,134,130,121,119,116,117,115,117,115,115,117,114,113,115,110,111,117,115,113,112,115,117,118,114,117,115,116,117,117
115,114,124,113,114,115,116,116,116,115,113,118,114,117,113,116,111,116,121,120,121,123,117,123,131,138,139,148,151,146,145,135,124,118,119,116,122,117,117,114,117,120,119,115,115,115,114,124,117,113,111,114,114,119,116,115,110,117,116,118
117,114,118,114,118,116,118,116,118,119,118,122,119,119,118,121,115,114,119,117,114,116,119,119,130,137,143,146,144,141,142,134,125,119,117,112,117,116,115,115,114,113,120,118,116,117,114,117,111,109,110,115,115,116,112,115,115,118,117,113
118,122,120,119,118,116,118,115,118,117,116,115,115,115,115,121,118,116,119,118,114,115,119,120,131,136,139,142,149,148,142,133,125,119,120,121,118,119,114,113,112,113,114,114,113,112,110,115,119,119,118,116,113,116,116,116,117,118,120,117
116,119,116,117,116,118,118,117,114,114,115,115,113,115,118,117,116,117,112,114,119,119,116,119,126,138,141,140,141,141,135,131,123,121,116,117,113,114,114,118,116,117,112,113,114,114,116,119,115,118,114,116,115,113,113,113,118,116,114,119
112,116,114,116,114,112,107,113,114,111,113,121,115,114,115,112,111,114,113,120,117,114,113,119,130,141,142,138,132,134,138,130,121,119,115,115,116,115,117,119,115,119,116,118,121,114,115,115,114,116,117,121,115,116,117,112,112,111,110,119
115,115,112,117,117,117,118,117,117,119,121,119,114,117,118,117,116,117,114,118,115,121,119,123,132,135,138,128,138,137,139,132,127,122,123,115,115,117,120,119,112,116,119,119,119,114,115,115,114,114,113,115,114,115,112,114,120,114,113,119
115,118,113,114,114,113,113,117,114,115,112,114,117,120,115,117,117,115,119,118,111,116,117,118,128,135,137,128,138,141,141,132,126,119,119,119,119,116,116,117,114,114,114,115,116,111,115,115,117,119,115,114,116,118,117,115,117,116,120,122
114,116,111,118,114,117,117,118,115,116,113,122,117,117,120,122,121,118,121,116,114,119,121,122,128,136,137,138,138,148,143,132,128,122,115,119,117,114,118,120,117,116,119,114,116,113,116,111,116,116,115,117,119,113,120,116,115,117,119,119
115,121,112,118,113,122,118,117,115,118,116,122,118,114,112,114,119,118,123,115,114,117,122,126,127,139,139,141,138,143,137,129,126,121,112,116,115,114,116,118,115,114,118,118,113,112,116,115,119,113,118,114,117,114,117,115,112,113,114,112
117,113,111,116,108,115,116,115,114,117,116,115,114,115,118,116,118,116,117,114,116,115,116,121,126,139,139,137,139,142,142,132,123,122,115,123,119,115,112,111,112,116,115,118,115,114,116,115,118,114,118,114,121,116,116,113,116,115,115,115
116,111,115,114,111,114,119,116,119,117,116,114,116,113,118,116,116,112,117,118,117,121,114,118,127,140,145,136,135,141,143,132,123,120,115,119,116,114,115,118,116,114,113,113,114,118,117,113,111,113,116,110,119,115,114,111,116,112,111,112
117,116,121,116,110,113,117,114,116,118,115,118,121,114,118,116,120,115,113,116,114,116,115,125,130,138,142,133,134,140,139,126,125,117,121,120,116,114,116,112,118,114,116,115,114,117,115,112,115,117,115,110,120,114,116,114,118,114,113,113
112,112,117,115,118,116,114,116,114,118,114,118,120,116,117,116,118,118,114,117,117,116,121,125,131,138,139,138,138,134,139,128,125,115,118,119,116,117,120,112,113,115,118,117,118,117,119,117,114,119,116,116,118,115,120,115,117,115,117,116
117,118,117,115,116,111,116,114,111,115,114,117,121,115,112,114,116,119,119,118,119,116,122,121,129,137,138,139,137,137,139,126,126,117,118,117,112,114,112,114,117,116,113,114,118,115,115,114,116,117,113,116,114,114,115,112,114,114,113,114
114,114,114,115,117,113,119,113,114,117,115,113,116,114,114,114,111,118,115,113,116,118,122,123,128,138,138,136,138,146,142,127,122,114,113,117,113,120,115,117,121,118,119,116,119,118,116,116,119,117,111,114,114,117,114,115,112,115,114,120
116,116,117,117,116,113,119,111,115,117,117,114,121,121,115,113,115,119,114,118,113,115,116,120,125,141,141,139,142,143,132,131,122,115,113,119,115,116,115,117,119,118,119,116,112,117,113,116,112,112,115,116,119,121,112,119,117,118,113,115
117,115,113,114,113,119,120,116,119,117,117,116,116,116,116,118,119,117,112,117,116,118,118,122,126,136,137,145,145,144,135,129,119,119,117,118,116,115,114,115,114,117,113,117,115,114,114,116,115,116,114,113,115,116,107,113,113,119,120,117
117,117,119,115,116,119,114,120,118,113,112,111,111,117,116,118,118,114,117,119,117,115,117,123,124,128,132,145,147,140,131,127,116,113,112,114,119,119,115,114,114,120,117,115,115,114,117,115,117,117,111,116,109,113,116,116,116,117,109,114
117,115,112,113,118,117,111,114,110,114,119,118,119,118,115,115,117,113,113,111,117,114,116,116,123,129,134,139,138,131,129,125,117,116,116,112,115,117,114,115,116,115,117,116,115,116,115,112,116,120,115,121,117,117,119,115,115,118,114,115
115,118,118,116,116,113,118,116,118,117,112,113,117,114,114,114,119,118,117,114,121,118,119,121,122,118,125,124,129,128,126,118,115,115,115,117,114,115,116,114,119,120,116,115,113,116,119,117,117,116,114,113,115,116,116,112,109,117,116,113
119,118,117,114,118,113,118,118,122,114,113,113,114,115,116,116,112,117,118,116,119,116,114,120,115,115,122,122,124,119,116,115,119,117,114,118,113,113,115,116,111,118,112,117,115,115,113,114,119,116,115,114,116,111,114,121,116,121,117,113
113,117,117,119,122,115,114,111,114,111,114,115,112,117,114,113,112,118,122,118,115,119,122,121,111,116,113,122,123,123,120,122,116,115,120,120,114,114,114,119,114,116,112,116,109,117,120,118,118,116,115,113,118,115,117,116,113,118,118,118
115,113,108,113,119,115,113,115,119,118,115,119,115,115,114,110,115,115,116,115,115,115,115,120,115,119,115,117,109,119,117,120,114,113,115,112,111,113,118,118,119,120,117,116,114,112,113,115,115,113,113,114,114,116,116,116,115,112,115,113
111,115,116,119,117,116,117,117,120,118,116,120,117,115,119,121,119,113,115,111,110,113,119,119,113,115,122,120,114,114,112,115,115,120,118,116,119,119,119,113,115,111,114,110,118,113,115,118,117,114,116,116,118,122,117,116,119,115,115,112
120,116,113,115,114,116,114,114,116,115,115,118,114,113,115,119,117,115,118,119,115,116,119,117,114,111,114,115,116,113,118,117,117,120,122,119,117,117,111,113,120,115,117,116,116,112,117,114,117,116,117,114,114,118,114,115,116,117,117,112
119,116,116,115,111,117,117,116,116,115,110,114,114,117,116,114,115,116,117,113,114,113,112,112,115,115,117,119,115,114,116,115,120,118,114,110,116,119,115,114,113,113,117,116,116,114,115,119,119,115,116,116,113,116,116,121,114,113,119,117
116,115,113,114,112,119,117,118,118,117,116,116,115,117,117,113,113,113,115,114,118,118,116,117,119,115,113,117,118,117,114,111,115,119,119,114,114,113,118,118,109,115,115,114,112,114,115,119,115,116,117,112,110,114,113,115,116,113,116,114
116,118,117,119,115,122,113,114,111,109,112,111,117,116,117,114,113,113,114,113,117,119,114,112,114,114,112,113,115,111,117,118,115,117,117,116,121,116,115,118,116,121,115,120,114,116,115,114,114,116,114,118,115,120,115,116,120,115,117,118
116,115,110,113,115,116,113,112,113,119,117,114,117,113,113,116,115,118,117,117,117,114,112,112,112,118,118,116,118,117,118,116,117,119,115,113,117,115,116,117,118,119,116,118,114,120,115,114,112,114,113,119,110,117,111,116,117,110,112,120
120,118,117,119,117,112,115,116,118,119,117,115,119,115,113,120,114,119,117,114,113,116,115,120,117,116,111,113,116,117,114,115,116,116,114,114,116,115,117,116,113,109,114,116,114,117,116,120,122,119,115,116,111,116,115,116,118,116,119,118
116,112,116,122,116,112,117,118,116,115,114,117,118,108,113,117,113,116,116,115,114,117,117,116,113,114,112,117,110,111,120,117,115,114,114,116,116,116,117,116,113,115,118,117,116,114,113,110,116,115,115,119,120,119,119,117,113,115,115,113
120,118,111,117,118,113,116,116,116,116,116,118,118,115,121,117,117,116,115,115,114,114,116,116,119,119,117,117,115,117,115,107,110,116,116,118,117,118,117,115,111,113,116,113,115,116,115,110,115,115,111,114,119,112,116,116,118,121,116,116
119,109,109,116,119,114,119,118,115,113,115,118,116,114,114,115,117,116,116,116,112,114,115,114,120,115,117,111,114,116,113,115,119,121,114,115,118,118,117,121,115,112,117,114,118,117,115,114,113,111,113,118,117,110,116,114,118,115,114,117
117,116,116,117,119,109,111,112,120,117,116,115,115,114,115,118,110,109,114,116,114,112,118,113,116,114,113,114,118,118,115,116,115,115,113,117,117,114,114,117,113,114,120,117,116,113,110,119,116,118,114,118,116,110,116,109,115,108,110,112
117,119,114,113,115,117,120,118,116,115,117,116,121,114,112,119,116,116,115,114,116,115,119,112,115,116,116,119,119,115,112,115,115,117,114,113,112,114,112,112,115,115,116,115,114,115,118,119,112,111,111,115,114,116,117,114,117,112,115,117
119,116,116,120,116,116,116,118,117,116,114,117,120,118,118,121,116,114,117,116,113,118,122,116,112,110,112,117,120,117,116,118,116,114,113,115,113,118,116,117,117,112,117,119,116,114,117,110,115,114,116,118,116,117,117,114,112,114,115,117
118,112,114,115,115,115,114,113,114,117,115,111,112,113,114,117,116,114,115,112,113,116,117,116,114,114,114,113,112,111,115,115,117,118,118,117,114,119,116,118,114,118,115,115,115,115,115,113,118,117,119,118,111,116,116,116,118,117,114,117
117,115,113,114,117,116,119,116,116,116,114,116,117,118,117,116,116,119,118,113,118,117,115,114,118,120,118,113,115,114,116,111,112,116,116,116,118,116,117,119,112,113,111,112,114,120,118,120,118,115,115,114,112,119,117,114,114,113,114,117
118,116,113,117,119,116,118,116,114,114,116,119,116,114,116,116,116,116,118,116,116,113,118,117,119,114,115,113,114,110,117,118,116,115,112,112,114,112,111,113,114,118,118,116,115,117,118,116,113,111,112,118,118,116,113,117,110,114,116,117
116,113,114,113,110,111,113,111,113,116,116,118,119,111,118,116,115,112,116,116,117,117,117,113,114,113,116,119,117,112,114,119,118,119,113,115,120,119,118,116,112,115,117,116,117,115,115,113,116,115,116,117,117,116,113,116,110,116,115,115
111,114,117,116,113,116,118,116,116,115,118,120,121,114,115,114,114,114,116,113,112,118,114,112,114,117,117,114,115,113,113,121,116,115,112,115,120,113,114,116,118,112,114,114,115,115,115,113,119,115,114,116,115,115,117,116,114,117,115,118
112,119,118,113,116,116,116,115,117,114,114,111,115,113,117,116,114,115,119,121,112,116,116,116,115,117,117,114,117,118,122,119,119,118,114,117,117,113,119,116,118,118,116,116,114,115,117,113,114,112,116,117,120,117,119,117,118,120,119,117
115,116,117,111,116,115,118,115,115,119,114,111,117,115,116,117,115,116,113,113,115,117,112,118,113,115,120,120,117,116,115,114,117,115,111,119,117,116,118,112,110,114,111,114,115,116,113,112,116,116,121,112,112,113,116,117,115,116,117,118
111,112,116,112,115,113,114,116,118,118,114,119,119,121,114,112,115,115,115,115,115,117,113,117,114,117,113,112,112,117,115,115,112,115,115,119,118,117,116,117,115,117,114,115,116,116,115,116,118,119,117,111,115,117,115,117,121,117,118,116
113,117,114,116,116,116,113,114,112,113,113,117,112,115,114,117,118,113,116,116,118,121,117,114,113,116,113,116,116,119,115,115,115,114,116,116,115,113,112,114,115,116,115,110,116,117,117,118,113,110,112,114,116,116,114,111,117,116,116,113
115,114,111,116,120,118,115,113,116,120,118,117,115,112,114,117,111,114,118,120,117,116,115,117,120,116,113,115,116,113,113,116,115,114,118,116,115,118,118,113,113,115,118,115,123,117,116,115,112,115,118,114,112,116,117,114,120,116,118,117
117,119,118,121,117,113,116,116,118,118,115,112,118,115,117,116,113,114,112,115,111,115,116,115,114,115,118,114,114,118,119,116,111,111,121,115,117,116,112,113,119,119,114,112,113,113,115,115,117,115,117,114,117,118,119,117,120,117,117,115
116,117,112,116,115,118,116,113,116,116,115,111,115,113,118,114,116,115,121,116,115,117,114,112,114,116,115,116,114,112,117,115,115,114,117,111,117,121,115,119,117,116,116,113,115,116,113,110,113,114,114,112,115,113,114,117,115,115,113,113
112,117,115,116,116,115,115,113,118,114,115,117,115,118,116,116,120,112,120,114,119,116,119,114,116,117,113,111,114,117,120,112,114,118,116,115,119,118,112,112,112,115,117,117,114,113,111,114,115,115,114,117,114,119,122,116,116,116,112,117
120,118,115,118,117,109,117,115,117,115,116,120,109,114,113,116,116,116,118,112,119,114,113,113,116,114,115,111,118,115,112,111,114,114,112,114,116,112,118,120,116,116,114,120,113,119,115,115,114,114,119,120,113,117,111,110,116,117,114,119
113,113,116,118,119,112,116,114,114,115,113,117,115,115,113,118,114,111,113,121,117,109,114,122,119,115,115,116,123,117,118,117,119,118,113,112,115,114,119,114,116,119,116,121,112,116,114,118,116,116,119,113,115,124,118,114,115,115,114,117
115,117,114,111,116,109,119,119,119,115,113,113,112,117,118,114,112,119,115,117,114,114,116,117,114,119,118,115,115,113,115,114,116,116,116,115,117,117,122,114,118,113,115,120,116,119,113,119,116,118,119,114,114,121,118,117,116,115,116,116
114,114,113,116,120,113,115,107,115,114,118,116,115,114,115,115,116,119,117,118,115,115,113,115,111,116,111,121,118,115,114,116,116,116,116,114,115,115,117,116,117,111,117,115,114,117,117,119,115,116,115,115,110,115,113,115,114,110,113,116
116,119,114,115,118,114,120,119,116,115,118,115,117,113,115,119,116,113,116,119,116,113,114,118,113,114,112,116,108,112,117,121,117,119,117,117,115,115,114,115,114,114,116,114,114,112,113,112,108,113,112,122,117,116,117,117,116,112,114,119
118,120,111,114,113,115,116,118,117,118,119,116,116,119,116,118,116,114,118,118,115,114,117,116,117,116,118,114,113,113,114,118,117,116,111,115,115,114,119,120,113,108,113,115,118,114,116,116,115,115,115,118,108,116,118,113,114,117,117,116
112,111,113,117,114,122,113,117,116,119,112,114,114,117,114,121,114,118,119,118,118,116,116,115,113,116,117,112,113,117,114,114,110,111,115,116,117,114,118,114,115,118,117,115,120,115,114,111,117,117,116,116,109,117,113,112,121,121,114,111
