44,52,60
121,116,110,117,118,117,122,116,110,117,119,114,117,117,120,116,118,113,116,119,113,117,113,117,119,113,120,120,118,111,112,114,116,116,115,119,111,113,116,116,114,114,115,116,115,113,119,117,113,117,112,117,113,118,113,114,116,114,120,112
118,118,115,118,122,116,122,118,115,119,116,115,119,115,121,112,111,112,116,115,117,113,114,111,111,116,115,114,119,116,120,117,114,119,114,115,115,118,114,113,116,113,114,120,115,112,114,114,119,115,115,118,111,114,116,117,111,118,114,112
119,116,118,114,121,118,113,118,120,114,115,114,116,115,116,117,117,119,120,117,113,117,113,115,115,118,107,113,124,118,113,116,111,115,115,116,119,116,113,115,118,117,116,118,118,116,114,113,110,115,120,117,115,114,115,115,113,116,112,111
118,115,116,115,121,119,117,120,116,112,113,117,119,115,117,119,117,119,120,120,114,115,119,120,117,118,114,109,115,117,117,112,119,115,110,116,113,112,112,112,118,119,113,115,116,118,116,117,114,114,118,116,115,114,111,113,117,116,116,114
123,120,113,125,120,125,118,116,115,117,118,118,118,119,119,122,117,117,115,117,117,116,118,119,119,114,115,114,116,118,118,117,119,116,111,113,116,112,117,115,109,115,116,112,117,120,113,119,114,112,115,112,116,114,114,113,116,115,114,114
119,117,118,122,121,120,126,119,115,113,118,116,112,123,116,116,116,115,115,118,117,120,117,119,117,118,116,117,111,116,117,116,114,118,119,114,118,115,119,112,111,118,118,114,118,117,113,117,113,112,115,113,122,119,112,113,117,117,110,114
119,123,119,117,123,120,121,122,121,119,115,116,119,121,116,121,114,113,116,116,119,117,117,116,115,118,116,116,113,120,117,115,115,116,115,115,114,112,114,115,117,115,116,119,115,117,117,110,114,113,115,114,113,115,111,115,116,111,115,116
117,120,121,122,122,120,117,117,121,116,118,118,115,121,117,119,120,115,116,113,118,117,120,115,109,120,119,117,114,114,120,116,112,114,120,117,113,115,112,114,113,114,118,115,110,112,115,116,117,117,114,115,112,116,113,111,115,116,116,115
117,122,118,122,122,119,122,116,122,117,118,125,117,118,118,114,120,119,118,113,117,119,116,121,117,121,114,112,116,120,118,113,113,111,115,116,117,114,114,117,113,112,115,117,115,116,111,117,113,115,114,119,115,112,118,110,109,116,117,115
120,118,125,122,119,119,117,118,122,119,114,120,115,118,121,118,118,120,117,118,115,118,116,117,116,117,113,110,114,116,119,115,116,116,115,117,116,113,114,114,117,114,118,116,116,116,112,116,114,115,115,118,116,114,121,111,115,112,113,117
117,121,119,122,119,119,115,118,120,120,120,117,122,125,116,114,116,117,117,118,120,118,119,110,114,117,119,115,115,114,120,113,115,113,112,117,116,115,120,116,117,117,116,113,114,118,115,115,113,117,115,117,114,110,116,116,117,117,115,117
117,122,117,116,121,124,117,117,121,118,119,118,123,119,116,116,118,120,121,116,118,120,113,115,115,116,121,115,117,114,116,115,118,114,115,116,119,112,115,120,115,116,118,119,116,118,112,114,116,115,113,116,118,114,119,117,116,120,114,112
111,119,121,117,118,119,119,117,122,118,118,119,118,119,115,116,120,118,111,115,115,119,116,120,125,116,115,120,114,120,116,115,116,119,116,114,119,111,113,118,116,115,114,118,113,113,114,113,113,115,116,111,113,114,116,113,118,113,110,115
119,114,118,121,115,118,121,120,121,117,119,120,116,121,118,116,119,119,117,114,115,118,120,118,120,115,113,120,114,113,113,114,118,118,118,114,117,114,121,113,113,116,115,116,118,114,120,113,111,116,118,113,114,117,115,113,114,114,115,114
118,118,118,122,120,120,120,118,120,121,119,125,118,118,121,117,118,120,122,117,118,114,117,120,118,117,115,117,120,117,117,114,113,115,115,115,119,118,116,117,113,117,118,116,112,115,119,115,114,115,115,115,114,118,112,120,112,114,115,112
117,120,120,118,116,117,117,120,120,118,116,120,119,122,118,122,114,113,117,120,120,115,117,117,115,117,118,117,118,118,118,116,118,118,118,118,115,114,114,118,117,113,114,118,113,115,116,112,114,114,115,117,116,116,118,116,109,113,112,116
117,113,118,120,119,118,117,119,119,123,122,118,120,119,118,120,110,117,117,119,120,114,118,112,118,117,116,114,116,119,115,113,114,118,117,116,112,114,114,116,119,116,120,120,112,111,113,116,114,115,115,116,115,115,119,117,116,118,113,117
118,116,119,114,117,118,115,113,122,123,118,121,119,119,116,117,118,121,117,114,118,116,119,118,117,121,117,113,120,113,118,116,110,122,116,119,112,118,117,113,118,115,118,116,111,122,117,115,119,118,115,114,116,111,114,115,117,111,116,115
117,120,119,112,122,119,117,115,124,125,120,120,117,125,122,114,120,118,118,119,123,120,113,109,117,120,120,117,121,115,116,116,115,110,113,119,118,110,115,116,115,114,117,115,112,117,115,119,108,118,118,107,113,116,115,113,114,114,115,112
118,117,118,116,121,116,119,122,119,125,120,115,116,123,121,116,118,119,121,119,117,123,116,118,118,118,122,117,120,117,113,116,116,114,112,113,116,113,117,119,114,115,117,114,116,116,112,116,109,117,115,120,116,119,116,114,117,115,112,117
118,118,118,119,118,115,115,119,122,121,119,120,120,119,122,117,116,117,120,120,116,122,112,121,116,117,116,122,118,117,115,114,114,113,118,116,115,117,119,117,118,112,117,115,116,120,116,116,111,115,116,114,118,119,115,113,115,112,114,116
117,119,115,119,122,115,118,116,119,122,117,119,119,120,124,118,120,121,120,120,118,114,119,119,120,117,113,119,120,118,118,119,119,118,118,121,113,116,114,112,114,116,115,115,116,122,115,117,114,121,111,110,117,113,115,118,113,112,115,112
115,124,115,118,114,118,123,117,122,120,119,119,116,115,119,120,120,120,119,121,116,114,118,118,118,119,117,119,119,113,118,120,122,117,112,116,118,114,118,114,119,118,113,116,116,115,117,113,114,112,114,115,116,113,118,114,112,114,117,115
111,118,117,114,118,114,117,116,117,116,119,118,120,115,118,121,121,116,117,118,117,119,116,117,121,123,119,112,114,119,120,116,117,118,115,115,120,118,117,114,116,113,116,113,116,118,113,114,114,115,116,113,117,118,117,118,113,116,113,117
120,119,119,116,120,113,119,119,119,121,116,119,118,116,121,123,121,119,117,120,119,118,122,118,121,120,114,117,118,117,118,118,117,118,113,114,119,118,116,113,114,116,116,117,117,113,111,113,115,113,115,114,114,116,110,116,119,112,111,111
120,118,114,114,116,118,120,117,119,116,119,122,117,118,121,122,116,121,113,122,118,119,124,116,116,114,115,116,114,120,116,118,119,109,109,114,120,116,117,115,116,118,114,117,113,115,114,116,115,115,117,112,115,114,113,117,123,116,115,116
118,115,116,119,119,114,119,116,114,112,116,116,114,116,117,120,118,123,120,117,119,116,119,116,116,120,111,122,119,120,111,116,118,116,117,119,118,115,118,116,114,115,113,115,117,117,111,117,116,111,114,114,115,117,118,116,116,120,114,110
119,118,120,115,116,112,113,112,114,118,115,117,116,117,117,121,121,116,113,116,126,120,115,115,120,124,117,115,116,114,115,118,123,118,115,116,117,116,114,112,116,119,115,113,118,114,114,116,116,116,118,117,114,113,117,116,116,115,112,115
120,115,113,117,113,120,118,114,121,120,117,116,112,117,122,115,117,121,119,123,120,118,118,121,116,113,116,118,116,117,116,115,118,115,113,111,115,119,114,115,114,115,117,114,112,115,121,117,112,117,112,121,113,108,115,114,113,114,114,117
118,114,113,123,116,117,123,113,116,117,111,117,118,115,117,120,121,120,119,120,116,120,122,118,117,121,118,122,113,117,119,114,115,116,113,121,112,114,116,116,112,116,116,117,118,115,117,117,118,121,116,116,112,111,114,118,114,113,117,118
117,115,120,117,116,116,119,112,117,116,113,117,116,118,117,119,116,117,118,119,124,116,122,119,122,122,118,119,112,114,120,118,113,121,113,115,114,120,114,116,111,113,113,115,119,114,113,116,120,114,111,115,117,117,117,116,112,113,120,119
110,115,117,117,119,112,115,119,118,118,119,114,119,117,114,117,119,117,120,116,117,116,118,118,119,120,114,115,117,115,118,117,117,120,115,116,120,121,113,119,117,114,119,112,113,115,113,113,114,111,116,120,116,116,117,114,111,115,117,116
115,120,118,116,111,111,117,120,123,116,116,117,117,112,117,115,120,117,120,118,114,116,121,118,119,119,117,120,118,116,118,112,111,114,114,116,115,118,117,115,111,118,117,114,117,112,113,117,115,122,116,118,112,116,115,116,114,114,115,114
119,114,112,116,120,115,118,119,120,113,114,122,115,114,114,115,121,119,115,118,120,117,123,117,119,118,116,114,119,116,121,118,113,120,115,117,118,117,115,114,120,120,113,116,113,114,115,117,114,119,113,114,111,113,117,112,115,114,112,115
116,112,113,118,123,117,117,116,116,116,112,115,119,119,115,118,119,112,116,120,122,114,116,119,117,120,124,122,122,123,122,116,120,119,117,117,113,115,116,119,112,111,114,117,116,112,114,116,115,117,114,115,116,117,118,114,114,115,111,118
115,112,119,116,117,117,118,113,118,116,113,115,121,118,114,111,115,119,119,119,111,117,122,118,115,119,118,126,122,126,128,119,121,114,116,119,114,117,117,111,106,116,117,116,112,113,114,117,116,119,114,114,119,117,112,114,115,114,111,117
111,113,116,116,113,117,116,114,115,119,117,120,118,117,118,114,113,118,121,120,116,120,121,116,120,123,123,130,129,131,137,128,123,119,113,119,121,118,118,113,110,114,115,111,119,112,116,117,118,118,112,118,117,116,116,111,114,116,113,114
116,117,117,116,117,118,113,116,117,120,113,114,120,118,118,115,120,120,120,118,118,120,118,116,119,131,133,125,132,137,142,142,128,125,126,116,118,118,116,115,119,115,114,112,116,119,120,115,116,118,109,116,114,115,118,112,112,110,115,111
114,117,117,113,117,118,119,113,112,114,118,120,114,117,117,114,118,117,118,118,114,115,117,122,119,121,125,132,133,141,144,146,137,125,129,120,115,118,116,113,116,113,116,117,116,116,118,117,114,116,117,117,116,111,114,113,116,113,118,114
110,116,115,113,114,114,115,116,119,118,117,119,115,115,117,117,115,116,116,119,117,119,113,123,127,124,123,137,136,136,145,149,144,132,129,123,116,119,119,117,113,116,116,113,117,121,110,114,112,111,116,116,117,120,111,113,119,112,114,112
111,119,111,119,116,113,115,111,118,119,113,113,119,117,116,117,114,116,116,117,116,120,116,117,124,122,123,135,141,138,147,141,147,142,128,125,124,118,119,115,116,118,113,118,108,117,111,112,113,116,113,114,113,115,112,111,117,119,120,115
117,117,110,116,117,113,114,117,115,118,114,115,112,117,117,116,116,117,115,118,115,114,119,120,118,118,129,134,140,141,142,143,146,144,134,120,117,117,115,115,118,118,118,114,119,111,114,113,117,111,115,116,120,113,113,111,117,116,113,116
120,118,114,111,118,116,113,114,116,115,112,117,117,114,112,118,114,117,114,119,119,117,114,120,116,122,131,136,143,142,140,149,148,144,134,130,125,120,120,116,116,122,119,115,116,114,108,117,116,115,116,111,110,113,119,110,115,121,115,116
111,113,115,111,116,117,116,122,117,116,118,116,114,117,114,119,118,114,113,118,117,113,118,120,118,118,124,137,141,139,148,151,147,146,135,132,124,121,116,110,116,117,114,112,111,114,115,114,116,112,111,114,113,119,114,114,113,112,120,115
117,119,117,115,114,118,118,118,116,115,117,117,112,119,118,114,112,112,116,118,115,117,117,117,118,116,125,134,138,142,143,147,148,147,137,133,125,123,115,114,118,112,115,111,112,119,120,115,112,113,117,117,118,116,111,114,118,118,113,112
115,116,117,115,116,112,111,117,114,116,113,116,115,113,114,117,119,116,115,115,118,116,119,120,120,121,121,130,138,146,143,151,154,139,139,128,129,116,118,117,116,115,116,113,118,116,115,113,115,116,116,112,117,121,113,117,118,114,115,114
113,116,121,117,114,114,116,121,114,117,115,115,119,119,117,114,119,115,120,117,113,120,123,115,114,122,121,125,132,134,146,150,147,142,146,132,127,120,125,125,117,116,116,116,117,117,115,117,115,117,114,114,112,114,117,117,113,113,117,112
118,116,116,113,116,115,119,117,115,115,113,114,115,116,118,120,114,117,118,119,112,119,117,113,115,121,125,125,137,137,141,147,151,153,142,137,131,123,118,119,118,116,113,115,117,114,114,116,109,113,114,115,119,115,113,111,118,112,112,113
114,116,119,119,117,108,116,119,113,116,113,115,112,114,119,120,113,117,116,117,111,118,117,112,118,117,122,128,136,144,140,145,152,152,148,134,130,123,122,118,116,115,114,115,114,115,118,115,118,120,116,114,115,115,118,116,116,119,112,116
115,113,112,116,114,113,118,115,111,119,114,116,117,117,117,116,115,115,115,115,116,121,118,115,115,121,123,127,135,134,148,146,153,152,143,137,129,122,114,117,113,113,115,118,116,120,117,113,117,117,115,118,117,114,116,115,107,113,115,113
110,112,112,113,120,116,115,113,111,120,111,117,114,114,118,118,114,117,118,114,116,117,116,119,120,119,125,128,135,138,148,146,146,154,144,137,133,127,121,115,116,117,119,118,110,117,114,116,110,118,112,115,112,110,109,115,116,114,113,115
114,118,113,113,114,115,114,115,115,118,116,119,115,116,114,114,115,116,120,111,113,117,118,114,116,119,128,127,132,142,143,141,152,154,142,136,133,121,119,117,114,113,119,117,115,113,114,112,114,114,117,120,113,114,111,119,114,112,113,117
119,114,111,115,112,114,115,115,112,115,115,117,118,116,113,116,117,112,116,121,115,116,120,120,117,120,123,129,136,142,140,140,151,147,141,131,124,122,123,119,109,112,116,116,115,115,118,114,118,114,116,115,118,116,114,113,112,112,116,113
112,114,123,118,114,118,113,115,111,113,119,118,115,117,116,112,114,117,111,117,121,117,121,115,119,114,120,132,135,141,141,145,156,144,139,137,124,123,114,120,113,118,114,116,118,116,119,119,114,116,114,111,111,116,112,116,116,116,117,113
113,120,115,114,110,114,113,116,115,118,116,110,113,117,118,115,113,115,116,118,116,117,117,116,120,119,120,129,135,138,145,145,145,139,142,136,122,130,119,116,115,118,117,117,116,113,118,116,112,119,111,114,116,115,113,122,121,112,112,116
116,114,111,115,114,114,113,110,118,113,120,115,116,114,121,115,112,119,118,116,115,119,120,110,114,123,119,126,141,143,144,146,147,147,138,129,122,124,115,116,117,117,115,116,117,111,114,113,119,116,113,109,111,113,115,116,111,109,112,114
115,113,115,114,117,115,118,111,115,116,117,113,111,112,115,114,116,115,110,116,116,116,119,114,117,119,121,125,139,146,149,151,148,136,132,129,127,125,116,118,116,114,118,113,116,116,118,110,117,114,112,117,109,120,119,114,114,116,113,114
113,113,113,113,113,118,117,113,112,115,116,115,111,115,119,114,116,114,118,115,122,114,115,112,122,117,120,126,134,142,146,146,149,144,133,128,121,121,120,114,115,116,118,122,116,115,113,112,116,116,110,113,110,119,120,113,117,114,119,113
113,113,118,116,112,115,117,114,114,115,114,116,113,116,120,118,119,115,113,117,115,116,116,113,119,113,123,129,138,142,142,145,151,145,136,132,126,122,113,117,114,118,114,115,116,114,113,112,117,115,113,116,114,113,117,115,116,115,117,114
115,114,120,113,113,113,117,116,112,116,114,114,114,116,116,118,114,116,114,117,117,118,116,116,119,116,122,129,141,140,145,152,140,147,144,126,129,121,115,119,114,114,117,115,117,115,116,117,115,116,114,114,116,114,114,115,114,115,113,110
116,110,112,113,106,113,119,119,110,116,115,113,113,115,114,112,115,115,115,117,117,116,115,111,115,117,124,134,143,143,145,153,153,143,139,125,125,123,116,116,118,117,113,113,115,118,121,115,116,115,114,112,115,112,113,115,112,115,114,113
117,118,114,116,116,113,113,119,114,116,114,114,114,115,117,114,116,112,116,114,112,115,118,111,115,118,123,126,138,144,147,147,150,145,136,129,122,116,114,115,113,117,114,111,117,116,113,110,118,115,112,110,120,113,115,119,112,117,112,115
123,119,118,114,117,116,115,115,116,118,112,113,116,115,109,113,118,120,119,119,116,116,110,117,119,116,118,128,132,141,146,147,142,145,133,134,127,119,117,114,113,116,115,115,114,112,110,115,117,116,115,116,113,111,114,116,115,116,111,117
118,112,122,112,115,106,116,118,116,118,114,114,118,115,115,115,116,113,111,115,114,116,119,119,113,119,117,125,139,137,144,140,148,148,134,136,126,114,117,115,116,115,119,112,115,116,110,116,112,111,116,110,114,117,115,111,114,117,117,115
115,112,117,113,114,114,115,117,112,116,112,114,116,114,118,117,112,115,111,115,116,118,115,111,110,119,121,121,135,136,141,144,145,147,138,131,122,122,124,114,113,113,113,111,118,118,115,117,115,110,110,116,118,112,115,114,114,120,118,109
113,114,114,113,115,119,114,115,116,116,114,114,113,114,112,115,113,115,119,118,113,118,117,119,116,114,122,119,129,140,143,147,150,139,136,133,126,121,118,114,114,117,115,115,114,115,113,110,114,113,114,117,113,114,113,111,116,116,117,112
113,115,115,114,116,116,114,114,116,113,111,114,116,113,113,116,113,117,117,115,118,115,116,114,118,113,122,122,132,142,151,147,137,140,135,128,121,117,116,116,116,113,112,118,120,114,115,112,111,117,117,112,114,117,111,110,117,111,116,112
115,117,115,114,115,113,113,115,113,114,114,117,117,118,113,112,109,115,119,116,117,116,118,119,116,115,118,115,126,137,150,146,147,141,131,128,125,119,116,118,115,118,115,115,116,113,112,117,112,114,116,116,114,117,116,115,116,111,112,116
117,111,112,110,114,117,114,115,117,121,115,119,114,115,110,113,115,114,117,117,116,118,116,118,112,116,118,116,121,123,136,138,136,136,133,127,116,119,117,115,112,113,114,114,118,118,114,116,112,114,113,115,114,114,114,114,113,112,116,118
116,112,116,114,117,114,114,120,115,111,116,118,108,115,114,114,117,117,120,117,116,117,116,113,119,118,117,116,120,117,121,130,130,129,124,125,117,118,113,113,116,116,114,115,118,116,116,113,113,115,114,116,116,109,119,120,114,112,116,111
119,115,114,116,110,112,116,116,117,119,116,116,111,116,112,117,118,111,118,114,117,118,109,115,118,114,115,117,114,120,118,127,127,126,125,123,119,118,116,112,114,114,113,117,119,113,113,117,114,112,116,117,115,121,116,118,116,114,111,117
119,116,113,116,116,113,114,115,112,113,117,114,110,113,115,118,113,112,113,115,118,116,116,111,115,114,114,115,111,118,120,114,119,125,123,116,120,116,116,116,111,116,117,118,114,115,116,115,115,116,116,115,115,115,112,113,111,116,114,115
115,118,115,116,116,113,114,111,113,116,116,117,117,112,113,116,113,113,117,118,118,112,109,113,118,112,114,116,115,113,118,116,115,113,114,121,113,116,114,121,116,115,112,115,115,117,114,116,115,110,113,115,111,107,116,113,112,120,115,115
119,119,111,121,116,112,116,116,118,113,114,115,116,116,114,117,112,111,115,118,119,117,117,117,117,118,117,119,115,113,112,116,118,116,115,116,113,115,111,115,118,112,112,114,119,113,112,115,112,115,115,117,115,111,111,118,116,117,114,108
116,115,112,118,115,119,112,113,126,113,113,115,113,116,112,115,120,119,116,116,115,115,114,116,116,117,113,111,116,114,115,115,115,114,116,113,113,116,113,113,115,114,117,114,118,119,116,114,114,120,115,116,112,109,116,113,118,112,115,110
113,114,115,118,116,113,109,115,115,115,116,116,114,117,113,114,116,114,117,112,109,115,113,119,113,110,116,118,114,109,113,115,113,113,118,120,117,116,113,116,117,113,117,115,117,114,114,117,113,115,115,117,110,112,115,115,116,116,120,114
113,112,118,120,112,112,114,114,116,118,116,115,121,115,113,115,119,112,116,117,116,112,115,113,117,116,113,117,113,111,117,118,117,112,115,117,114,114,114,113,117,117,118,115,112,110,115,118,112,116,116,119,112,109,111,116,113,118,111,111
114,113,114,119,115,114,117,114,118,111,110,114,111,111,115,116,115,109,113,120,119,116,115,116,118,116,110,109,118,115,117,117,111,114,116,114,119,112,114,113,114,117,111,120,117,115,116,120,114,119,114,114,115,118,118,117,113,113,113,114
116,116,112,115,116,115,116,111,111,111,111,116,114,112,115,115,112,115,115,118,116,113,109,114,114,115,113,114,120,117,110,114,115,119,116,117,113,111,117,114,108,114,111,118,114,118,114,113,112,116,110,112,115,118,111,115,113,114,113,113
113,116,115,113,114,116,112,115,113,117,116,114,116,116,114,115,112,115,115,115,111,115,117,116,114,116,111,119,115,113,115,116,115,118,117,115,113,116,114,109,113,120,114,111,115,115,117,111,110,111,115,109,115,115,116,113,114,116,117,118
110,115,114,112,113,116,113,115,113,113,114,115,113,117,115,111,113,121,112,115,115,111,119,112,118,118,111,119,117,116,115,117,118,119,113,114,119,116,115,114,116,116,112,113,115,113,117,112,111,116,115,111,117,114,107,110,116,116,117,115
117,117,114,113,116,114,112,115,119,115,115,116,114,114,115,113,114,114,115,116,115,113,117,115,116,111,116,117,115,116,114,119,116,113,113,113,118,113,117,112,114,115,113,118,117,114,116,115,115,112,114,115,110,113,113,115,114,111,113,112
119,118,113,116,117,109,118,115,111,114,114,118,116,115,114,111,116,119,116,112,114,113,113,114,111,117,120,115,112,122,113,114,111,113,114,112,119,110,118,112,111,114,115,113,109,113,115,112,114,115,115,117,113,111,115,114,111,116,117,113
117,115,116,119,115,116,117,117,115,112,110,118,118,118,114,113,120,118,112,113,114,113,110,112,115,117,112,111,114,117,117,116,113,114,115,110,114,114,114,113,110,119,113,112,114,113,117,114,110,116,113,113,115,112,117,117,114,111,114,113
119,116,120,116,115,117,109,116,116,113,115,117,115,118,114,114,112,118,112,113,115,114,114,113,113,112,114,115,115,116,116,113,116,115,120,117,114,115,114,118,114,116,111,115,112,109,118,118,122,113,115,115,113,114,118,119,110,109,114,113
117,119,115,112,112,113,114,114,113,115,114,115,113,114,113,112,110,110,110,114,112,106,114,112,112,120,112,120,115,115,112,111,119,114,116,113,113,115,118,118,115,115,116,110,114,118,118,118,117,115,116,112,117,118,112,114,111,113,116,113
117,117,116,113,112,116,117,115,111,113,113,116,112,111,117,117,114,114,116,113,112,113,114,114,117,118,116,114,110,117,118,110,116,111,120,116,111,115,112,115,117,115,115,116,119,118,111,111,116,111,112,113,115,116,111,112,112,113,116,114
111,116,112,117,113,114,111,115,114,112,118,115,114,116,114,115,110,112,118,111,110,113,114,116,117,118,110,112,116,113,113,114,116,114,110,117,114,118,116,114,113,115,116,112,109,118,115,115,115,115,114,112,117,110,116,113,110,113,116,116
111,115,117,114,115,117,123,115,113,113,113,115,116,115,112,117,114,115,116,114,114,110,115,118,116,116,116,115,114,116,113,112,112,113,115,119,117,114,116,116,109,109,114,117,115,114,115,113,116,115,116,115,111,117,116,115,116,113,106,114
113,114,119,117,117,114,118,118,114,113,109,116,114,116,118,115,115,116,115,113,115,114,119,113,117,115,114,109,116,114,113,112,112,113,113,117,114,112,117,117,112,111,114,112,112,115,119,114,114,112,113,114,114,113,113,116,112,112,114,114
112,116,117,116,112,113,113,120,113,113,115,115,113,117,117,115,117,113,114,111,113,116,117,115,112,115,116,113,117,114,119,112,111,111,112,115,117,113,112,114,113,113,116,114,115,117,115,114,113,112,113,113,113,110,116,115,115,117,120,117
109,114,114,117,107,114,116,118,111,118,117,112,112,114,114,116,113,114,117,112,111,114,114,116,116,115,119,117,115,117,116,116,116,116,114,112,115,120,115,114,112,119,114,116,114,113,118,114,114,113,118,115,114,112,118,116,114,112,113,116
111,116,115,117,110,117,120,111,111,114,113,114,119,115,114,116,111,111,116,113,116,116,114,118,117,113,114,111,112,117,114,113,112,114,114,110,115,115,113,113,114,122,113,118,113,115,116,113,114,109,117,109,109,115,115,115,113,117,114,114
111,112,118,116,113,111,112,109,113,111,115,118,116,114,115,117,112,111,114,115,115,113,114,113,112,116,114,114,115,118,111,113,114,116,119,113,116,117,113,114,114,116,115,115,112,112,113,117,117,113,112,111,116,110,111,119,116,119,112,115
110,111,115,119,119,114,110,116,116,116,119,114,112,119,115,116,114,115,111,116,113,113,117,114,115,118,111,113,114,113,113,119,112,114,118,113,114,118,116,116,115,113,113,117,115,115,112,115,117,113,115,116,108,113,111,114,114,117,115,116
116,116,115,120,113,116,114,113,115,112,114,111,116,117,113,115,117,115,114,116,116,115,113,111,117,115,111,112,116,111,112,110,113,115,116,114,118,111,118,116,118,115,111,110,115,120,118,113,108,113,117,118,114,113,113,115,117,114,117,115
116,109,118,109,111,120,115,115,119,112,115,115,117,115,114,113,117,119,118,115,113,113,113,115,115,120,117,111,117,117,115,109,118,118,116,116,120,114,116,114,113,114,119,115,116,108,114,112,114,118,117,116,113,115,118,112,114,115,117,113
112,114,109,112,117,110,117,117,111,113,115,115,116,114,117,112,114,115,110,115,115,115,110,116,117,115,116,113,114,111,113,116,118,113,114,112,113,117,114,116,114,113,110,112,115,111,110,114,118,116,110,120,112,109,115,115,113,113,120,112
113,111,111,116,112,117,120,117,112,114,115,120,113,112,115,113,116,112,110,116,112,113,116,116,111,111,116,114,114,114,112,115,113,115,112,112,115,112,114,116,115,118,115,113,117,115,113,116,115,114,115,120,114,113,112,116,114,115,115,114
118,114,110,115,116,116,119,116,114,115,115,116,113,117,113,110,114,114,118,116,115,115,116,113,118,115,119,113,113,116,115,119,112,114,113,113,116,114,116,112,114,114,115,110,117,116,111,111,117,112,112,115,113,116,113,112,111,116,111,116
111,115,114,116,114,116,116,111,109,114,120,114,117,113,114,114,113,118,118,113,119,115,116,117,113,114,116,115,114,114,115,118,113,112,111,118,115,119,117,112,116,117,112,110,117,114,113,117,114,110,112,117,117,116,112,112,115,116,113,115
117,113,115,109,112,114,117,113,114,114,116,116,116,117,118,115,115,116,116,115,114,113,115,118,117,119,111,112,114,114,116,114,112,113,114,113,113,112,109,118,116,115,115,115,117,113,114,114,116,117,116,108,114,119,113,114,116,116,113,113
119,110,113,106,120,112,113,116,114,114,110,112,111,115,121,113,118,114,116,108,112,119,112,117,114,117,114,110,114,111,118,115,118,117,115,111,113,111,117,116,116,117,114,113,120,113,114,119,118,116,112,113,114,114,113,113,110,113,119,113
115,116,115,111,112,115,113,117,113,112,116,111,117,111,116,115,112,111,121,112,114,119,115,111,115,114,115,115,117,115,115,119,116,120,114,113,120,117,110,113,120,112,113,117,115,116,116,113,110,115,112,111,116,118,116,111,114,116,114,114
112,116,116,111,113,118,112,114,116,114,120,117,115,115,116,119,111,115,117,118,116,114,115,110,110,116,116,114,115,118,112,117,117,123,111,116,115,118,113,115,114,112,113,116,113,118,116,114,112,110,110,115,114,116,116,114,117,111,111,118
114,114,119,115,113,112,113,113,113,112,118,114,113,113,115,120,113,114,117,115,115,114,119,116,111,112,117,114,111,112,115,115,117,113,115,114,118,114,113,114,114,115,114,117,114,117,115,115,116,114,117,116,113,113,119,118,114,110,112,117
113,114,118,112,116,115,119,116,114,116,110,113,115,116,117,117,120,115,116,110,117,115,115,116,112,114,114,119,117,112,116,114,110,114,115,114,117,113,112,117,119,115,113,119,115,114,113,118,116,116,113,114,115,117,111,119,112,114,116,115
112,111,117,112,111,114,113,117,110,120,116,115,115,113,113,111,119,112,111,112,117,112,115,117,113,118,111,110,115,115,113,116,112,112,116,116,111,116,119,113,109,112,112,111,113,114,116,121,112,117,120,114,114,117,114,116,117,114,116,111
110,115,118,117,113,113,112,117,115,117,114,113,117,111,118,111,111,118,117,114,116,115,117,114,114,116,116,113,118,113,117,116,111,114,115,114,114,117,114,114,114,113,112,114,115,110,107,117,116,117,118,116,116,116,115,112,118,113,116,116
115,118,113,116,112,115,112,114,116,112,113,114,116,114,113,113,113,115,114,115,117,114,113,114,116,118,115,115,110,112,119,111,114,113,113,118,110,117,112,113,116,116,117,117,114,117,114,117,114,119,116,111,113,113,115,115,118,117,115,110
111,116,109,112,118,115,115,110,113,116,112,112,113,114,110,119,118,118,112,111,115,115,119,113,114,114,113,120,116,112,119,112,115,116,117,116,115,116,112,115,112,116,118,114,115,115,112,114,113,110,117,110,114,119,114,115,117,113,117,114
115,118,115,112,113,111,117,114,116,110,113,114,110,112,111,117,112,111,115,114,116,114,108,111,111,111,115,115,112,115,114,111,113,112,114,115,111,115,119,119,115,116,120,116,112,115,118,115,114,111,112,111,117,115,113,120,117,116,109,114
114,118,110,112,117,113,112,113,111,109,115,112,113,111,116,112,115,114,114,116,113,113,112,120,112,120,110,110,117,117,112,114,114,116,114,114,117,111,112,116,119,112,118,116,112,110,112,116,120,119,113,115,107,116,117,118,111,117,114,108
114,118,110,112,116,117,114,113,115,116,112,115,118,116,112,114,117,116,114,116,116,113,118,119,114,119,117,108,112,112,114,114,120,119,114,112,112,115,117,115,115,113,114,114,114,117,112,116,118,114,113,113,111,116,113,114,112,115,116,112
113,116,112,115,114,117,118,115,117,116,112,114,111,115,113,114,115,113,114,116,120,111,115,115,114,112,114,115,112,114,118,111,113,112,113,114,113,110,113,115,115,111,114,119,112,115,119,118,117,115,114,113,114,110,110,114,116,113,114,117
114,110,113,114,116,111,116,109,117,115,113,112,117,115,115,113,111,114,118,117,114,115,113,112,117,116,115,116,118,116,114,115,112,111,115,114,113,108,116,115,112,116,114,112,116,118,111,119,116,111,114,118,115,110,117,116,113,114,117,112
113,115,117,116,115,113,112,113,116,113,114,116,114,114,118,115,110,115,115,116,108,116,116,115,117,114,114,112,112,113,112,112,111,112,118,111,114,115,114,116,116,118,114,113,116,115,117,116,114,120,119,119,112,116,113,115,115,115,116,113
117,119,115,111,113,116,119,118,115,116,112,112,120,116,114,112,116,117,113,113,109,111,115,117,112,114,115,118,112,114,114,112,116,116,114,112,112,113,112,114,109,113,116,114,112,119,116,114,114,111,112,109,117,116,120,113,115,113,114,116
114,116,117,112,113,113,116,113,110,112,116,115,112,111,114,113,114,115,111,116,114,117,118,112,109,111,116,114,114,115,114,113,116,120,115,120,116,111,117,120,112,113,112,115,114,114,115,113,110,113,117,115,117,116,115,114,115,113,114,115
115,115,111,113,115,118,115,114,117,118,116,112,109,115,115,115,115,118,111,116,115,112,117,113,113,113,116,117,116,115,115,118,114,115,114,114,116,115,116,113,109,120,113,115,115,116,115,111,114,114,112,112,109,115,119,116,115,115,113,115
