48,60,72
114,109,113,116,113,112,114,116,108,113,114,114,112,111,111,115,117,117,114,114,115,114,116,113,114,116,114,112,112,112,113,109,112,114,108,110,108,116,114,109,112,116,112,111,111,114,109,113,116,114,110,113,115,117,114,115,115,110,113,109
112,110,116,114,111,114,113,108,110,115,114,113,109,114,116,115,114,114,111,113,117,111,113,115,117,114,113,111,111,113,116,115,113,112,113,116,111,115,112,111,114,114,115,115,115,111,108,114,116,113,111,114,113,115,116,114,112,111,114,115
117,114,112,110,111,115,115,119,114,110,113,115,117,118,113,112,111,112,115,110,117,114,112,112,111,112,115,115,114,116,117,120,116,115,123,113,119,110,114,113,114,114,109,109,113,114,113,115,113,115,116,110,112,112,113,110,111,111,111,116
118,113,112,116,110,110,111,112,111,113,111,112,115,115,115,111,110,116,111,116,108,117,114,117,111,115,116,113,113,114,111,112,114,119,113,114,110,109,112,115,112,112,114,116,114,112,116,114,112,114,115,116,111,111,112,111,117,111,112,113
113,114,116,115,117,113,115,114,114,112,118,119,114,118,112,112,112,116,114,114,113,113,111,110,112,114,108,111,114,116,116,108,111,116,113,113,113,118,114,114,116,115,112,114,110,116,114,114,115,113,115,117,115,116,119,118,114,111,116,116
118,115,119,113,115,114,115,113,112,110,115,116,112,113,116,117,117,116,111,114,113,111,113,115,115,118,115,112,114,113,113,113,112,111,116,110,115,114,112,112,115,113,115,111,114,117,113,117,115,116,112,108,113,115,115,114,113,112,112,114
113,110,111,113,113,119,118,115,112,111,115,116,118,111,112,114,114,113,113,111,111,116,113,112,116,115,113,112,117,115,114,117,116,110,112,109,111,112,114,115,119,114,120,110,110,113,116,113,113,115,115,115,111,114,115,109,111,107,114,116
112,110,112,115,115,115,112,115,113,111,113,112,115,111,116,113,112,110,112,114,115,111,112,112,110,116,115,116,115,116,110,111,113,111,117,116,107,112,115,118,109,111,114,112,114,117,112,109,116,114,111,116,111,113,116,113,109,114,118,112
114,113,110,110,114,110,111,114,112,115,115,109,111,120,114,112,111,113,116,114,112,115,114,110,118,114,111,117,112,115,113,112,113,119,113,113,117,116,114,114,115,114,113,116,114,112,109,114,116,113,116,112,112,115,112,112,112,112,113,118
113,110,109,113,113,115,117,107,115,112,114,114,115,109,111,116,112,110,116,114,113,113,116,113,114,112,111,112,112,109,113,114,114,115,111,107,113,118,113,114,116,114,114,116,112,114,111,111,112,110,108,117,117,112,114,114,117,111,110,113
113,112,110,116,116,110,116,111,113,116,109,112,110,111,113,111,118,114,111,111,114,113,112,116,113,114,117,111,114,113,112,111,113,117,117,116,116,112,111,108,114,116,113,113,113,112,111,113,116,111,118,111,112,113,113,114,112,111,115,112
114,112,116,117,116,112,112,112,114,116,114,116,114,116,114,113,116,115,115,118,115,114,113,114,114,119,114,110,117,120,113,106,112,112,114,113,109,114,114,112,118,113,110,111,117,117,113,114,113,115,117,114,112,116,114,118,116,116,116,114
116,116,116,115,113,113,109,111,113,114,114,113,116,114,109,108,114,112,111,114,114,115,116,114,113,116,111,116,116,114,114,115,120,110,117,113,114,115,116,116,115,110,110,114,113,115,112,116,113,113,115,113,113,110,113,114,113,115,114,112
116,113,115,113,113,114,112,113,110,114,117,118,113,113,114,113,113,115,117,111,113,114,117,114,116,115,118,112,113,112,115,112,113,115,114,110,118,116,114,118,111,115,117,116,112,113,119,117,115,113,112,111,110,113,115,109,114,114,112,110
112,110,115,117,117,114,115,116,115,115,114,111,114,115,110,116,116,114,115,114,116,111,111,111,115,108,115,112,115,113,108,112,111,114,118,110,111,114,113,113,116,117,109,114,116,111,112,111,113,115,109,114,118,118,116,117,115,111,112,112
111,112,110,115,113,113,116,116,114,113,112,114,111,110,115,111,108,114,113,114,112,116,113,111,115,113,112,112,114,113,112,114,112,115,114,111,113,113,114,112,114,111,112,115,117,116,118,114,111,109,111,117,109,110,116,114,108,113,113,113
120,113,110,113,110,117,112,109,112,109,114,116,114,110,111,118,114,115,114,114,116,112,114,113,111,109,114,111,111,111,110,114,109,112,116,110,115,115,112,113,116,113,114,116,111,113,115,115,110,112,114,117,112,108,112,115,116,110,113,112
113,111,110,110,114,115,115,112,112,112,117,114,118,116,113,114,115,119,114,110,112,106,114,111,113,110,114,111,112,118,113,113,118,112,114,116,113,112,116,111,108,112,109,110,114,116,114,115,113,115,118,114,113,119,114,115,111,114,117,113
116,118,113,114,115,115,115,114,116,116,110,114,119,112,114,108,116,117,116,117,116,114,112,113,115,116,119,111,114,113,114,112,112,113,113,110,108,107,114,109,111,113,115,113,114,115,112,114,115,111,113,114,114,116,116,112,109,116,118,115
117,115,113,115,116,115,114,116,114,111,112,116,117,109,115,110,116,110,113,109,111,118,113,117,118,112,113,113,116,116,116,117,116,113,115,115,116,111,110,110,110,116,118,117,113,112,113,111,112,116,114,115,115,114,112,112,110,112,107,114
110,113,114,111,116,110,113,112,110,110,110,114,113,112,119,112,112,110,115,118,115,105,109,114,113,116,113,112,114,115,115,114,115,115,112,113,115,117,116,117,114,115,115,117,117,112,116,115,112,117,110,113,114,112,112,115,114,113,117,115
112,116,111,112,111,116,115,109,116,114,118,115,109,106,109,114,114,112,115,117,114,110,114,114,111,115,116,115,113,110,108,115,117,112,107,117,114,111,111,112,112,114,110,116,114,114,113,115,113,115,112,114,120,114,112,109,114,112,110,112
115,112,106,109,112,114,115,113,113,115,118,113,114,114,110,114,112,113,117,116,113,118,119,115,115,112,112,111,112,112,115,113,109,114,114,107,114,118,111,114,113,116,112,117,112,113,117,113,110,114,117,113,111,119,113,114,112,116,117,115
120,114,113,119,118,114,116,113,110,114,118,117,113,111,114,113,108,114,115,112,114,110,115,117,112,113,113,113,112,114,111,112,113,111,117,117,114,112,114,116,114,111,113,113,117,117,117,118,118,112,114,113,112,116,112,113,112,113,111,113
116,116,118,116,111,116,108,111,110,110,114,112,118,112,116,114,115,115,115,117,108,116,116,115,114,114,114,113,117,114,114,115,112,114,114,115,118,112,112,118,114,110,117,114,114,116,115,113,113,114,111,109,110,110,115,109,109,114,114,112
114,110,109,111,116,115,110,116,112,112,123,109,113,117,109,118,115,114,114,116,113,111,116,112,114,113,117,112,112,117,113,110,117,111,112,108,110,111,113,117,114,113,115,115,114,114,108,117,113,115,111,111,115,113,117,111,112,116,116,114
118,114,111,112,113,116,115,115,116,114,113,112,112,114,112,114,111,111,118,118,113,112,114,112,115,116,115,113,112,113,114,117,114,113,114,115,112,113,116,111,114,114,117,116,110,116,112,114,115,112,114,115,112,116,109,114,112,120,110,116
115,114,117,116,117,110,111,112,115,113,110,114,114,112,115,118,112,111,116,115,115,119,116,113,112,110,112,114,119,112,112,110,115,121,111,115,116,113,112,113,112,110,112,111,114,116,122,114,109,115,114,118,117,112,116,116,115,114,114,117
118,113,111,114,114,113,116,111,111,112,116,114,116,114,112,116,111,112,113,112,107,113,113,112,113,114,115,114,114,113,118,117,114,109,114,114,113,111,115,115,108,112,111,112,112,120,117,114,117,118,115,111,114,115,113,114,114,110,112,112
116,116,114,112,107,114,118,114,110,115,112,110,116,114,113,108,115,118,114,112,113,114,114,115,114,119,113,120,112,117,116,110,116,110,114,111,114,117,119,114,112,112,114,116,112,113,112,116,111,116,115,111,118,114,112,112,112,115,116,113
114,115,113,115,111,117,114,114,116,111,111,113,116,113,116,114,116,108,113,112,111,114,113,113,115,114,115,116,112,114,111,117,122,116,116,114,116,115,112,114,114,111,114,114,112,106,115,116,110,114,108,109,111,113,113,113,113,113,115,115
114,117,114,116,114,112,114,112,114,114,111,113,110,116,114,114,113,109,115,115,114,114,115,114,116,116,120,117,115,118,117,117,109,111,117,115,117,114,115,115,117,117,111,121,115,113,117,109,112,111,111,116,111,111,114,111,116,118,109,110
112,115,112,111,115,115,115,110,108,112,115,116,114,114,111,111,113,116,113,113,112,113,116,116,113,112,116,122,116,122,115,111,116,119,118,115,113,111,113,111,118,118,117,117,111,119,116,113,115,114,116,115,115,111,116,111,111,119,115,116
114,115,113,110,112,114,115,112,113,116,110,115,116,115,113,106,113,115,113,113,114,119,113,121,116,119,118,114,115,120,116,116,114,115,116,117,117,115,114,113,112,116,115,114,113,112,114,119,116,118,113,114,115,116,115,115,116,114,116,112
114,114,114,116,113,111,115,113,114,115,111,114,114,113,114,114,114,114,118,114,112,110,112,110,115,125,119,122,113,118,118,120,120,119,116,118,115,115,113,112,111,112,112,117,117,112,114,118,114,113,115,114,113,116,115,115,114,115,113,109
114,111,112,115,117,116,116,115,118,116,111,114,114,114,110,115,113,111,112,112,113,112,113,117,118,118,117,125,123,121,119,118,120,112,114,117,113,115,114,113,115,113,116,118,113,116,111,113,113,114,114,111,112,112,113,110,112,115,115,117
114,118,114,114,111,112,112,112,110,117,115,116,117,115,115,114,109,110,111,112,114,112,114,118,120,120,123,123,128,131,129,121,121,117,120,112,113,113,113,113,117,116,116,107,110,116,115,112,114,114,114,111,114,114,117,110,116,118,117,115
112,114,115,116,116,115,115,112,114,116,112,115,115,110,113,112,114,115,113,115,116,118,114,111,120,120,124,131,127,135,135,126,121,114,118,112,111,109,116,114,115,113,113,116,118,112,117,115,117,115,109,112,112,116,117,114,112,115,115,111
116,112,113,114,113,112,116,113,110,119,118,113,110,108,114,113,113,117,111,114,116,114,114,115,123,127,129,133,126,134,134,134,115,116,113,115,117,115,116,114,115,111,115,110,114,115,113,116,112,116,115,113,112,112,107,113,113,113,110,109
111,109,113,113,111,115,111,114,115,116,112,117,110,112,117,116,116,115,113,111,113,113,117,118,116,123,133,130,135,132,137,131,124,119,118,118,118,115,114,115,115,115,112,116,115,109,112,111,114,117,114,110,113,118,118,116,115,116,115,116
117,119,116,119,116,113,113,120,114,115,111,113,113,109,112,115,113,115,110,109,111,116,109,112,122,123,125,131,136,136,140,133,119,114,115,117,116,116,115,117,113,115,118,116,110,113,111,114,115,108,113,113,114,114,113,114,117,117,114,111
118,110,113,112,113,112,112,109,111,113,112,110,113,116,111,113,117,117,116,115,112,115,120,121,121,127,134,134,135,132,133,134,125,118,119,116,115,115,113,112,114,115,114,114,117,116,114,113,112,112,114,115,114,113,113,110,117,118,115,116
115,115,115,110,110,116,119,115,115,113,116,114,115,114,112,115,114,113,113,116,116,114,115,114,115,122,132,136,135,124,132,134,121,123,122,115,116,113,116,119,117,109,115,113,114,112,112,114,116,110,112,116,114,113,112,112,113,112,114,108
114,117,112,114,115,115,116,112,115,115,116,115,114,113,115,118,115,113,114,115,115,112,114,116,118,120,137,138,135,132,138,135,126,122,115,114,112,112,114,115,115,109,115,111,114,111,109,115,115,115,110,114,114,118,116,111,110,114,114,114
109,110,111,117,118,116,113,114,112,114,115,117,116,117,116,111,115,116,114,115,116,116,112,114,118,129,132,135,139,138,140,133,131,122,115,116,114,116,117,117,115,112,112,111,115,111,113,111,108,115,116,114,116,117,113,111,113,116,116,114
112,110,113,119,115,112,109,111,115,112,114,113,117,118,110,110,113,117,111,117,117,117,117,116,115,130,133,140,139,136,133,135,130,117,117,115,116,112,114,116,114,114,114,113,114,111,114,115,120,117,115,116,112,114,115,112,114,109,117,108
115,114,116,109,114,109,116,113,115,113,118,114,112,114,110,115,113,109,112,114,113,112,115,110,121,125,134,141,143,142,138,134,124,124,122,119,117,118,120,115,117,117,113,107,111,117,116,114,111,111,111,113,112,111,111,112,116,111,117,117
116,117,114,112,112,112,108,121,112,113,115,117,113,116,115,118,115,113,111,110,114,115,112,114,120,124,134,139,141,142,139,136,131,128,115,119,116,116,112,111,113,111,113,114,110,112,112,114,108,116,114,112,112,115,114,109,114,118,109,112
110,114,116,116,112,116,112,115,115,113,114,117,113,115,110,113,112,114,117,114,115,114,114,116,113,118,131,142,139,135,136,139,136,130,128,117,117,119,119,111,117,111,112,120,118,112,112,111,112,117,117,108,115,110,113,116,113,115,113,114
114,111,115,113,111,112,114,111,110,113,114,112,113,111,112,109,112,113,118,117,113,110,112,117,121,119,129,139,136,136,138,141,135,120,123,114,116,119,115,119,120,112,113,117,112,113,112,115,122,117,113,113,115,113,115,107,115,115,113,108
116,111,111,116,113,113,116,117,114,118,114,112,114,111,115,113,115,117,117,114,116,113,117,116,114,120,128,140,138,140,140,135,126,131,119,120,120,114,113,115,110,114,117,115,115,115,113,114,119,115,113,115,108,114,115,116,119,112,118,117
111,112,119,116,117,116,119,110,108,114,115,115,119,118,113,117,119,112,110,118,118,116,116,116,115,114,123,134,135,137,134,131,134,135,122,118,117,113,117,119,114,115,116,114,107,115,117,116,115,110,120,110,108,112,113,115,112,116,118,109
113,115,111,111,116,115,115,113,112,113,115,113,116,112,111,117,115,113,115,115,113,113,114,114,115,119,121,130,138,134,133,135,134,128,124,117,119,114,115,113,112,115,111,115,115,114,111,116,113,117,114,110,115,111,112,120,113,113,115,111
111,113,116,116,113,113,115,114,111,113,110,113,110,112,118,115,113,115,113,115,115,112,112,112,115,120,118,129,134,135,133,135,134,130,130,121,116,116,117,117,114,114,111,114,117,114,113,115,113,114,109,113,116,117,113,115,114,112,112,113
109,112,117,112,112,110,115,115,115,111,113,116,112,115,116,117,116,112,116,116,114,115,115,107,117,117,122,128,127,132,140,137,130,131,129,124,118,120,118,114,114,113,114,112,109,113,115,115,114,114,110,115,113,114,116,115,116,116,113,112
114,114,111,113,115,115,117,113,114,114,114,114,113,115,108,113,114,109,115,114,121,116,116,113,117,118,131,126,132,132,134,135,135,130,132,119,119,120,110,115,115,114,114,112,114,114,115,116,115,114,116,117,113,113,113,115,112,112,111,111
112,115,119,111,112,115,113,112,118,115,109,113,115,110,115,114,115,114,118,114,120,113,112,119,115,119,121,128,135,140,136,138,142,139,127,117,118,117,116,115,113,114,114,112,111,113,112,109,113,116,117,114,113,114,114,112,113,115,114,111
114,111,114,110,118,111,111,114,115,114,115,117,113,116,112,110,114,115,113,114,115,115,115,114,112,115,116,130,139,138,136,140,143,142,129,123,116,114,117,117,113,114,116,115,115,112,114,116,114,117,116,114,114,110,115,112,114,113,115,115
120,112,117,116,117,114,113,113,112,111,113,118,116,114,114,110,111,115,112,109,113,114,114,117,118,114,120,127,127,136,140,139,145,141,134,122,115,115,116,120,114,116,115,115,114,109,114,119,116,116,118,114,112,111,114,114,113,115,117,114
112,112,117,112,110,112,117,116,116,113,109,114,117,118,119,116,116,113,114,114,118,109,113,119,116,119,122,124,132,148,147,147,150,145,139,120,120,119,119,118,120,111,117,113,116,113,110,113,113,116,112,108,112,113,111,110,113,115,116,116
106,114,116,110,111,115,118,112,117,116,114,112,110,112,115,114,113,112,113,115,118,113,113,113,107,115,115,125,133,141,143,158,157,148,131,120,120,120,121,123,118,117,116,111,112,117,117,116,117,115,113,115,115,113,113,117,115,113,115,116
113,115,113,114,109,116,112,107,116,116,113,113,116,113,113,111,113,114,115,111,110,119,118,115,118,117,116,119,127,144,152,158,159,153,139,128,121,118,117,117,116,114,111,115,114,114,115,117,113,114,117,115,111,112,114,113,114,116,114,113
113,116,110,112,117,109,112,113,114,115,114,120,115,115,116,112,114,113,113,114,112,111,116,117,119,119,119,120,125,141,153,155,157,151,144,130,115,117,116,115,111,114,115,115,114,113,110,117,108,111,109,114,117,111,110,114,107,113,112,116
110,117,112,114,114,109,113,113,120,113,112,111,111,113,113,115,114,112,112,112,117,116,113,115,114,117,119,127,134,140,144,148,151,149,136,124,122,120,117,113,117,114,120,117,115,117,118,109,113,115,112,117,110,114,112,109,112,115,112,112
113,111,113,115,113,112,114,119,118,112,109,108,115,116,116,117,116,115,115,117,118,122,116,112,113,114,117,132,136,144,146,144,143,145,135,125,119,115,115,115,113,119,118,119,120,117,117,113,115,118,116,111,109,111,116,117,114,112,111,110
115,117,115,114,117,111,112,112,110,117,114,113,115,113,113,114,109,113,112,120,114,113,118,113,115,121,114,127,138,145,142,145,142,136,135,124,123,119,113,117,116,113,115,115,114,112,113,116,114,118,118,116,112,107,112,119,120,114,115,115
114,115,114,114,111,117,115,110,107,109,111,114,108,111,112,113,114,114,113,113,114,116,114,116,109,117,122,122,140,143,140,138,140,137,130,125,114,115,119,120,120,114,111,113,116,115,114,116,115,109,113,116,113,115,113,114,107,108,115,111
114,114,113,110,113,116,117,116,118,112,110,113,114,116,111,114,110,112,113,109,112,116,115,115,117,118,116,129,141,146,148,147,141,138,129,120,121,118,115,113,116,116,113,112,118,114,109,114,113,112,115,111,116,114,110,111,113,114,117,110
110,114,112,115,115,111,110,110,114,112,115,111,115,116,116,114,112,115,115,113,111,111,116,113,116,117,118,128,140,147,148,145,138,134,133,121,120,113,115,112,111,109,109,117,114,115,117,114,111,118,112,116,107,116,114,115,107,116,114,112
110,112,109,112,115,115,110,112,114,113,116,110,111,117,113,113,119,115,111,113,116,116,112,115,120,115,121,126,134,132,137,136,139,136,130,117,121,118,114,113,117,114,115,116,112,114,111,109,113,114,115,117,114,113,114,107,111,118,111,112
120,111,113,114,113,111,113,117,115,114,115,110,111,112,112,114,116,111,110,114,115,114,114,117,112,119,119,122,132,138,136,141,142,141,130,121,123,120,114,113,115,115,116,111,112,115,116,113,115,112,114,112,114,115,112,110,115,115,117,119
115,113,117,113,116,113,115,117,114,110,114,113,116,114,115,112,115,109,116,107,115,113,117,118,119,114,119,126,131,130,134,136,139,134,127,126,123,122,114,114,117,116,114,113,117,117,111,114,116,113,114,112,115,115,114,115,116,114,108,114
112,110,113,114,115,114,110,114,111,114,116,114,113,116,113,109,110,113,111,112,115,113,116,115,117,117,115,132,134,140,140,144,147,136,130,124,114,114,114,116,112,113,113,111,115,115,113,114,112,113,111,114,117,111,112,111,113,113,109,111
109,114,113,111,108,111,113,116,114,117,118,110,113,114,114,114,112,113,114,116,113,114,117,115,118,119,123,132,134,140,136,138,141,136,128,120,116,115,115,118,114,113,114,110,112,116,109,114,112,115,114,115,113,112,116,114,110,115,118,113
115,114,112,113,112,111,115,113,112,109,115,114,115,111,112,116,115,112,115,113,114,117,118,113,117,120,127,126,132,135,130,135,135,134,125,122,116,116,119,116,112,113,114,116,116,116,115,115,116,115,114,113,116,112,117,112,111,110,112,113
114,114,108,114,116,117,116,110,114,115,113,114,116,113,112,113,109,112,110,114,108,114,114,115,113,120,127,130,127,132,139,143,138,130,125,120,115,118,116,115,115,116,115,115,115,110,115,116,111,115,115,111,112,114,116,113,114,116,111,112
112,113,113,120,115,116,111,112,116,118,117,112,113,119,111,118,113,112,108,117,116,115,111,114,116,122,128,129,127,134,138,138,136,125,126,118,117,115,116,114,116,114,117,118,114,110,112,113,111,113,114,117,115,114,118,119,113,113,116,118
112,113,113,114,115,114,116,113,112,109,111,114,117,113,113,116,115,114,114,115,113,111,114,113,115,122,125,130,135,140,135,135,130,130,125,119,117,116,117,115,115,115,114,114,116,115,116,114,112,112,112,114,116,111,113,112,112,109,113,112
116,112,116,112,115,112,113,111,111,112,111,113,113,112,114,114,112,113,114,115,111,111,117,117,119,121,122,131,138,138,142,141,132,132,123,120,119,112,113,115,111,112,114,115,115,116,123,111,113,112,111,116,118,114,115,113,108,112,112,115
112,112,117,115,107,111,115,118,114,112,110,116,114,111,113,115,114,112,111,116,115,118,117,115,115,116,127,133,136,138,140,136,131,125,122,116,115,109,111,110,115,108,115,114,114,116,114,113,116,113,110,117,110,117,115,116,116,113,112,117
111,115,114,115,115,115,115,112,113,116,115,111,112,113,117,117,115,114,113,116,114,109,112,119,117,119,119,126,135,135,135,140,130,127,124,116,119,118,113,108,113,115,118,117,111,117,115,114,116,109,114,113,112,116,116,114,113,113,116,113
113,114,115,116,114,108,111,111,113,113,117,121,117,119,112,114,108,111,114,112,112,116,116,116,116,117,129,132,136,135,140,130,124,121,122,117,112,114,117,112,112,112,111,120,117,113,114,114,114,114,116,113,111,110,120,118,111,114,111,112
114,114,112,116,116,111,114,114,114,113,112,114,114,119,116,116,113,116,113,112,118,110,115,112,114,114,127,124,130,136,133,130,124,115,113,118,116,113,114,113,116,112,113,113,113,111,114,114,114,113,117,110,107,109,115,114,114,111,113,114
115,116,115,112,114,109,112,113,112,116,117,110,111,109,113,113,113,112,118,115,117,117,117,113,116,114,119,129,132,137,135,129,125,124,117,116,114,115,112,114,119,119,114,113,109,112,116,117,116,113,113,114,118,115,113,109,110,112,111,111
115,114,118,113,119,112,116,114,111,112,109,116,115,114,113,112,111,111,115,114,115,112,110,116,119,120,125,128,133,133,128,120,124,119,119,114,117,117,118,117,113,112,117,121,112,120,113,112,110,115,110,112,111,115,115,117,109,117,115,116
113,115,116,114,113,115,115,113,113,111,113,112,111,115,113,114,111,114,114,112,115,115,110,114,113,115,120,129,130,132,128,121,118,117,116,116,118,112,114,112,112,112,111,113,110,114,109,113,117,117,111,113,110,109,113,110,110,111,110,112
112,111,111,115,113,108,114,117,115,113,110,114,113,111,111,114,115,115,113,117,116,112,111,115,111,114,115,117,113,128,123,123,122,118,116,120,119,111,113,115,113,114,112,113,112,109,113,113,112,117,114,112,112,114,115,112,115,116,115,110
113,112,112,114,109,109,115,116,113,110,116,111,111,116,113,109,113,112,116,116,113,115,114,115,116,114,120,116,121,119,118,119,115,113,115,116,114,117,116,116,114,116,115,117,114,112,115,112,114,114,112,108,110,115,113,114,116,115,117,116
115,114,112,115,109,118,110,114,113,112,117,110,114,115,114,114,113,111,118,115,114,114,114,114,116,116,119,114,110,115,121,115,115,117,115,116,115,113,115,115,114,111,112,114,115,113,114,115,114,116,112,111,116,111,112,114,113,115,112,111
114,114,114,110,114,118,111,115,112,118,116,112,113,114,114,114,115,120,117,117,115,111,113,113,111,114,117,118,116,116,117,113,116,115,118,118,116,112,113,109,115,114,110,118,115,111,111,114,110,115,117,116,112,119,114,117,115,120,111,118
115,113,115,114,117,115,112,116,112,111,113,120,118,110,114,112,113,114,111,114,114,110,108,113,111,115,116,114,114,119,113,117,116,114,115,114,111,110,114,116,113,116,113,115,112,111,118,114,113,110,110,114,111,116,116,111,116,115,113,114
112,118,114,114,117,111,112,118,115,118,112,114,117,114,116,113,115,113,117,114,110,110,113,111,116,113,111,116,118,120,116,117,112,116,114,110,113,113,113,117,115,115,117,114,112,113,117,114,114,117,114,113,113,109,113,118,118,116,110,110
113,112,116,115,115,115,114,114,113,117,114,113,111,117,113,114,117,113,113,115,111,117,115,115,120,117,120,114,112,116,115,114,116,112,114,117,116,112,114,114,113,116,112,113,114,118,113,109,114,113,111,111,112,114,117,115,111,109,113,118
118,117,116,116,115,113,115,114,114,112,109,110,112,117,114,113,113,112,118,114,115,112,115,116,117,114,118,112,112,117,110,111,114,115,114,113,112,111,111,113,116,113,114,115,112,113,112,117,117,116,110,113,110,115,115,112,115,115,109,110
114,110,110,112,114,116,107,111,115,116,117,114,111,112,112,116,113,108,115,114,116,115,115,110,112,111,108,112,114,112,113,109,112,116,114,113,114,115,115,115,115,109,115,117,112,108,110,114,114,114,111,116,111,116,112,115,114,114,112,115
113,111,111,113,113,115,113,116,116,111,115,112,112,116,113,115,111,116,116,113,113,109,110,112,117,116,114,115,119,114,115,118,117,119,114,119,115,115,109,117,110,112,113,113,111,113,118,113,111,107,113,114,114,114,111,114,114,114,115,111
113,112,111,114,114,112,111,112,111,110,114,112,112,115,114,114,111,114,115,114,116,117,115,114,115,117,114,113,111,113,112,114,113,109,115,115,107,112,114,114,114,115,114,108,114,112,116,116,114,115,116,110,114,116,115,111,115,113,111,115
116,110,111,114,115,116,113,110,112,109,113,115,115,117,113,116,116,116,114,112,110,112,114,115,112,119,114,114,111,114,115,109,114,112,114,111,115,114,111,113,111,111,118,113,113,115,116,117,114,116,114,111,113,115,115,112,112,110,112,115
112,115,114,116,115,119,118,110,117,114,116,114,114,109,110,116,110,114,112,114,112,114,116,114,113,114,114,120,113,111,110,115,113,115,116,114,116,112,114,117,111,109,112,112,114,113,115,115,116,112,111,114,114,113,114,115,114,114,115,117
112,114,118,115,108,110,116,116,114,117,114,114,111,114,114,115,114,115,114,112,118,117,116,112,109,110,114,113,112,115,113,118,115,117,118,117,118,120,117,111,116,115,111,116,113,112,117,110,115,115,114,113,117,112,116,114,114,116,112,109
117,113,109,113,113,114,115,115,106,114,114,113,111,112,113,112,112,115,116,111,112,113,117,114,115,112,116,116,116,112,113,115,109,112,109,113,116,113,115,114,114,116,115,111,113,113,113,114,113,114,110,114,115,109,116,116,109,115,114,116
111,113,117,111,111,116,114,109,111,115,114,115,114,116,113,108,109,112,115,117,111,111,109,113,117,111,114,110,109,113,114,119,111,112,114,110,111,112,114,113,111,114,114,114,107,116,115,114,117,110,115,114,115,113,112,116,116,114,111,108
111,115,112,111,113,112,110,110,113,113,112,115,115,112,114,115,111,113,113,112,109,115,119,114,118,111,109,117,112,115,113,117,114,116,116,114,115,114,115,110,113,116,113,113,115,114,115,108,113,119,119,115,111,112,117,114,111,112,113,113
111,114,114,114,115,113,112,113,117,110,112,113,113,119,117,111,117,114,110,115,110,115,113,117,116,112,111,113,116,115,119,116,111,110,110,114,117,117,114,112,116,117,114,115,114,116,115,110,110,110,110,112,112,113,113,118,114,114,115,109
112,113,112,115,116,111,112,110,114,110,110,116,115,114,117,109,114,119,118,110,113,114,114,115,111,114,115,111,116,115,113,112,109,118,120,113,113,112,112,111,113,116,115,113,114,112,113,115,112,114,114,119,114,113,113,114,111,114,115,117
115,115,112,109,113,113,111,114,116,108,112,113,113,114,112,113,114,110,114,119,114,109,114,113,111,117,116,112,114,109,115,116,112,113,111,115,118,108,113,112,115,112,112,114,112,113,110,117,114,119,112,120,114,114,116,110,113,113,113,117
115,112,112,116,115,114,112,113,111,112,114,112,113,113,113,113,115,113,116,113,110,115,112,112,113,117,112,111,113,115,111,115,116,116,117,114,116,113,116,113,108,111,111,117,115,121,113,110,115,115,112,110,114,111,107,113,114,114,114,113
116,117,114,115,114,114,113,115,114,114,114,111,113,111,114,114,112,113,116,111,109,114,114,118,114,114,113,118,113,113,114,115,109,112,114,115,114,113,113,118,112,117,117,116,114,113,116,108,111,111,111,114,114,109,113,115,114,116,115,115
116,115,112,117,114,114,115,111,110,116,115,108,109,118,116,117,114,114,107,113,114,111,113,120,117,112,116,115,114,114,115,115,113,116,117,111,114,110,111,114,113,115,112,113,116,114,114,114,113,114,117,119,112,109,111,110,111,113,112,112
116,114,114,110,110,114,112,114,109,112,112,113,109,116,115,113,113,112,114,110,112,114,108,112,114,114,116,112,115,115,114,112,113,112,110,115,114,108,112,113,113,112,113,115,114,109,112,115,115,111,113,113,113,113,113,113,110,117,115,114
113,112,114,109,118,112,113,113,115,117,116,115,114,116,115,114,112,113,114,115,114,113,109,113,117,118,113,115,118,116,115,111,110,113,113,113,115,113,114,115,119,112,119,113,112,112,109,113,113,112,117,111,119,113,113,115,112,114,112,115
113,113,110,116,116,111,117,111,113,113,110,114,115,111,112,112,111,112,112,111,112,115,110,108,119,115,108,112,110,112,115,116,114,111,114,108,115,114,115,115,115,111,113,113,119,112,109,111,108,112,110,115,115,111,113,113,113,116,114,112
111,114,115,111,111,117,114,111,114,111,110,114,115,117,112,112,111,108,118,115,116,117,119,116,117,112,112,114,115,114,118,119,111,106,114,116,111,111,112,112,113,114,108,112,114,113,112,116,118,114,109,112,110,110,113,116,116,118,117,114
106,110,117,111,111,112,110,110,111,116,115,113,115,111,114,111,116,115,110,111,109,115,114,112,109,112,118,115,112,112,112,117,112,114,113,115,114,112,111,114,115,118,110,110,111,117,115,113,118,117,110,112,113,111,113,109,113,116,112,110
113,113,109,115,113,112,117,111,115,110,113,111,115,112,116,111,113,117,113,112,112,116,111,114,114,110,113,115,110,112,112,115,113,111,112,112,115,116,117,114,114,111,114,117,113,117,115,114,112,117,116,116,112,110,112,116,115,110,113,115
116,116,115,109,113,116,117,113,113,113,114,116,113,115,113,113,116,112,112,116,113,113,111,113,113,117,113,113,114,115,110,113,113,115,113,118,114,112,115,116,113,109,117,117,108,114,111,116,111,113,119,114,115,116,113,113,116,109,110,117
114,114,119,119,112,113,113,111,115,115,112,116,117,116,112,114,117,114,113,110,113,115,113,112,112,113,110,115,115,111,115,113,116,114,113,116,113,112,110,106,113,117,110,112,116,111,112,111,115,110,108,116,111,116,117,116,110,112,116,114
112,114,113,111,110,113,116,113,112,115,114,113,114,113,113,113,110,113,116,113,114,113,116,117,117,115,110,112,109,109,115,111,111,115,110,112,116,111,114,114,112,112,115,113,116,115,118,110,114,115,112,111,112,116,114,114,114,114,115,112
117,114,114,114,112,111,117,113,114,113,110,114,112,120,114,113,112,116,112,115,112,114,110,113,111,116,114,113,116,118,116,112,111,115,112,106,114,116,115,111,109,112,117,114,112,111,114,114,111,113,113,110,113,117,112,112,115,112,112,108
111,112,114,111,113,110,114,115,117,112,114,115,120,118,115,114,119,116,117,111,113,118,117,112,112,111,114,112,114,109,112,116,121,117,114,117,118,117,117,108,109,116,117,111,112,111,113,111,112,114,115,116,114,114,114,115,107,113,111,109
