47,57,67
113,116,115,108,114,120,115,116,113,116,117,115,115,113,117,117,118,116,112,112,108,110,120,115,113,116,112,115,118,116,118,114,116,118,117,113,119,117,117,115,116,115,120,115,115,117,114,117,117,114,116,113,117,114,115,117,113,118,115,121
114,112,119,114,115,119,119,114,113,115,117,115,120,117,117,115,114,114,112,117,118,112,113,117,111,115,117,116,122,115,117,113,114,118,118,115,120,116,117,116,119,114,116,114,116,116,115,115,113,113,117,114,121,111,119,115,112,117,112,114
116,110,116,116,116,116,113,116,117,113,117,114,117,115,115,113,115,114,113,112,117,115,113,116,113,115,118,114,111,115,118,117,116,116,117,114,117,116,120,112,112,115,115,113,116,122,116,117,112,113,113,114,117,115,117,113,115,120,115,115
115,112,113,116,116,120,115,115,113,114,112,112,112,114,114,109,119,112,115,113,115,114,117,116,116,117,119,117,113,119,118,113,115,119,118,116,112,113,118,118,115,113,119,113,113,119,113,118,115,118,117,115,110,115,118,114,115,117,115,115
114,118,116,115,116,116,117,118,114,116,111,116,119,116,113,114,120,114,113,112,114,113,112,118,117,110,116,114,116,115,112,114,113,120,116,117,117,116,113,119,119,108,112,114,118,116,115,116,113,117,118,113,118,118,118,116,116,112,112,110
118,114,115,117,115,115,113,114,116,118,110,116,117,120,117,114,116,113,119,116,116,114,114,112,116,110,118,115,114,117,112,113,113,117,114,118,117,112,112,119,119,115,111,114,110,115,114,114,111,116,119,116,116,112,112,117,112,113,115,118
118,111,114,116,117,120,115,115,115,115,116,119,114,117,118,117,117,115,121,117,118,113,116,111,115,112,110,115,114,118,117,116,117,116,113,116,116,114,115,112,109,115,113,119,118,121,118,112,112,118,114,115,121,114,117,115,116,119,113,118
123,113,116,117,113,112,112,112,113,118,112,113,116,114,116,118,115,118,118,114,116,114,119,113,114,116,116,117,115,115,116,114,112,117,119,119,115,117,116,116,107,112,113,112,112,117,119,116,117,114,112,113,114,112,112,111,114,115,114,114
114,116,117,119,114,114,120,117,111,116,114,113,115,113,113,113,116,116,118,118,114,110,113,119,119,116,116,113,116,114,115,117,116,114,111,111,114,115,114,112,116,115,117,117,117,116,116,115,116,117,118,113,114,114,114,117,116,118,120,114
113,115,115,115,114,116,116,117,110,113,118,117,114,114,118,110,112,114,112,115,116,112,111,118,112,111,114,117,116,108,116,115,116,112,115,115,115,118,118,109,121,113,118,119,119,114,117,117,113,112,115,115,111,112,113,118,119,114,114,117
115,120,119,118,116,112,116,119,114,112,119,118,114,113,119,116,115,114,111,120,114,116,119,116,117,117,113,115,116,112,113,112,113,114,114,108,114,118,117,114,116,112,119,117,114,119,117,110,116,114,118,116,115,119,111,112,114,116,111,116
110,118,115,116,122,114,114,116,120,115,115,119,120,114,111,115,114,112,115,119,111,116,117,112,114,117,115,113,116,112,116,117,117,115,117,117,114,113,118,117,115,109,118,121,115,115,112,114,115,111,119,115,115,113,114,118,113,116,117,119
112,123,114,113,116,111,113,112,119,116,109,111,108,115,115,117,115,115,118,114,114,117,118,112,116,120,115,111,114,112,117,118,116,114,113,112,119,118,117,114,112,113,113,115,117,120,119,115,116,115,119,113,117,112,116,114,116,117,115,116
113,114,112,120,116,110,114,117,117,116,119,113,112,117,117,119,113,109,120,111,113,116,116,113,113,114,114,119,119,114,114,115,114,120,121,116,115,111,117,120,118,113,116,114,112,119,116,114,118,114,111,112,116,115,118,117,111,110,113,117
121,114,112,115,118,117,115,115,114,114,116,115,117,116,119,117,116,112,114,113,117,117,118,117,117,114,113,116,117,115,117,116,112,115,116,115,116,115,117,111,120,111,114,118,112,115,114,115,116,116,117,115,113,115,116,115,113,116,115,114
119,117,118,114,115,117,119,117,115,113,120,116,118,116,117,114,115,115,114,112,116,119,117,110,118,113,114,117,114,112,116,116,112,117,117,111,115,116,116,115,119,116,116,121,115,116,116,118,111,117,121,117,116,114,111,115,114,115,114,118
116,113,116,111,118,112,110,120,117,112,117,115,115,118,118,119,114,114,115,112,116,116,112,110,116,114,114,114,114,116,116,117,116,117,118,112,113,115,118,112,118,116,113,120,113,112,118,117,113,112,116,118,112,120,118,116,112,115,112,114
112,114,110,113,115,115,111,110,116,117,118,117,117,115,113,114,117,117,114,113,119,116,115,114,117,115,115,115,114,116,116,116,116,118,117,117,119,112,118,112,111,114,115,117,114,113,119,112,116,116,115,117,110,114,114,116,113,116,116,116
115,119,118,116,112,114,119,114,117,113,115,116,118,119,112,111,118,114,113,118,122,116,116,116,118,114,116,116,117,119,115,111,115,118,117,116,122,117,115,114,114,116,116,111,117,115,118,113,114,117,115,115,116,114,112,119,114,113,114,115
117,113,117,115,119,116,113,113,117,117,118,117,115,118,117,115,116,115,109,116,116,120,118,121,116,114,117,114,116,115,119,112,114,114,112,114,111,117,111,114,119,116,114,113,115,112,113,112,116,115,115,121,110,116,111,110,112,116,117,119
119,116,113,111,112,110,114,117,117,115,115,117,118,114,116,116,113,115,117,119,109,114,115,116,116,118,120,117,113,116,119,115,117,118,117,119,114,123,112,112,113,113,113,118,117,119,117,114,116,118,114,118,112,119,116,116,116,114,114,115
117,118,114,115,119,114,114,113,114,115,114,120,121,116,115,115,114,116,113,110,118,115,113,115,120,110,113,116,114,117,113,115,117,116,115,112,113,117,118,120,115,115,119,116,114,119,118,114,113,118,112,111,117,113,112,117,118,115,116,113
114,114,116,116,115,118,117,114,115,114,110,116,118,117,113,115,116,118,115,112,115,111,110,113,124,110,114,113,114,120,117,117,118,114,115,117,116,116,120,116,116,117,118,114,113,118,117,114,113,118,116,111,115,111,112,110,114,118,119,112
116,112,110,117,119,120,116,112,115,114,116,114,113,114,115,114,114,116,114,116,116,115,115,112,115,115,117,115,111,115,116,115,121,117,111,114,117,113,116,112,118,118,110,112,114,116,113,111,115,115,115,117,117,116,116,116,120,115,117,114
118,117,113,115,116,115,115,116,116,114,115,115,112,117,114,115,113,116,116,115,117,118,116,114,113,112,112,118,109,111,119,118,118,119,112,112,116,113,116,113,116,115,113,112,116,114,114,113,117,118,116,117,115,114,116,115,116,115,116,117
113,120,117,112,116,116,112,121,119,112,115,118,110,117,115,116,116,114,113,116,120,116,119,113,118,117,114,117,113,115,116,113,112,119,114,118,118,115,112,114,114,118,119,119,115,112,118,112,116,118,116,112,113,117,114,113,118,116,116,116
116,117,115,114,113,119,114,112,117,115,116,119,119,117,114,115,118,116,115,117,116,114,117,113,117,110,111,119,112,113,119,115,111,119,114,114,115,116,117,116,115,118,112,117,117,113,116,114,117,119,118,113,116,119,111,110,115,117,116,112
116,115,118,119,113,116,119,121,116,114,115,115,115,119,120,117,116,115,114,115,118,116,113,114,115,116,110,119,112,109,115,118,115,113,115,114,112,114,116,112,115,112,114,116,116,116,115,118,117,118,110,113,119,119,116,114,114,119,113,112
115,117,114,113,114,114,113,112,115,118,112,116,115,116,116,115,115,115,111,115,114,115,117,111,109,117,115,119,118,115,114,114,114,116,119,118,119,115,117,119,116,111,113,116,115,119,117,118,107,117,113,116,117,117,119,114,111,117,114,113
118,120,116,118,114,117,116,114,115,114,113,116,117,118,115,118,111,111,119,119,115,117,118,116,116,119,118,116,113,114,119,117,113,117,118,116,116,117,115,119,114,111,115,116,116,119,116,116,107,114,115,116,115,117,116,115,114,111,115,113
116,118,117,116,119,124,114,113,118,115,113,117,114,119,110,114,121,118,118,113,112,118,116,119,118,119,116,115,117,115,117,117,116,121,111,111,109,115,119,113,113,113,118,118,118,119,118,117,112,112,114,115,117,118,114,116,117,113,119,119
115,114,116,113,115,115,117,115,111,117,118,119,115,115,114,117,111,117,117,114,114,118,117,118,119,115,112,117,114,114,115,118,116,119,114,115,117,109,110,112,118,115,115,114,114,117,113,116,118,115,117,115,112,116,116,114,118,113,116,123
118,116,114,116,117,113,115,118,115,114,119,117,115,114,116,119,114,115,117,115,112,113,119,117,117,120,116,117,113,117,119,120,115,116,114,113,119,117,117,116,117,116,111,113,115,117,114,113,116,118,114,115,118,116,115,111,114,117,117,117
116,116,116,111,109,113,113,120,123,115,119,116,115,113,113,114,115,116,115,118,121,118,122,120,115,122,118,120,122,118,114,115,117,120,115,113,120,115,115,115,113,114,114,118,115,115,115,113,114,114,117,118,118,118,113,114,118,111,113,117
114,114,118,114,116,116,116,118,116,117,118,118,114,116,116,114,112,119,117,116,121,119,123,129,128,129,121,120,124,123,117,111,115,117,110,114,118,112,114,115,117,118,115,116,118,120,117,117,117,117,113,116,111,118,117,116,117,115,116,119
115,117,116,115,115,115,117,114,115,118,111,122,108,113,112,116,121,120,116,115,120,122,126,128,132,134,130,127,120,121,121,119,119,114,117,113,116,119,119,116,114,113,115,117,114,116,116,119,115,122,115,119,115,115,118,114,113,114,115,114
115,118,116,118,115,113,115,113,115,116,115,115,115,115,115,121,118,113,115,119,123,125,118,125,133,130,125,128,118,119,122,121,117,109,117,113,115,117,117,119,116,113,117,114,113,119,116,119,114,115,110,112,115,116,113,114,116,113,115,115
117,119,119,119,118,118,118,116,116,115,116,115,123,116,118,118,115,117,118,117,120,126,121,132,133,134,126,129,125,122,121,118,113,113,120,115,112,113,117,120,114,117,119,114,114,117,115,116,113,115,115,118,114,119,115,114,112,114,117,115
116,116,112,113,115,116,115,118,117,113,113,115,111,117,117,115,116,119,122,120,122,127,128,132,133,133,129,124,126,123,116,114,114,117,122,116,112,110,118,117,113,118,117,116,113,113,115,113,117,115,114,116,112,113,117,112,114,114,116,115
114,112,117,117,113,112,112,115,112,114,119,115,110,121,113,117,118,116,121,119,127,126,129,130,135,131,133,132,131,123,119,117,113,117,119,110,112,114,113,114,114,117,116,119,118,108,117,114,117,115,114,116,115,115,116,113,118,116,115,114
120,114,119,115,114,115,116,111,113,116,112,110,116,114,113,114,116,118,120,121,123,126,132,131,132,129,138,136,127,121,118,120,117,117,116,116,119,114,114,113,113,115,115,116,116,113,115,110,110,111,121,115,110,114,117,115,113,119,118,112
115,116,116,115,114,112,115,113,115,113,114,111,114,114,117,117,115,114,115,122,121,121,128,136,131,136,133,132,126,123,115,116,116,117,113,113,116,114,114,115,116,113,114,118,115,117,114,116,117,109,117,117,117,119,118,117,113,118,118,115
115,116,117,115,114,119,117,117,120,115,117,116,115,118,113,116,120,116,122,122,122,124,128,135,129,135,128,132,126,124,115,117,117,116,117,117,115,114,117,116,119,112,117,117,111,115,115,118,118,118,120,109,111,117,115,111,116,119,114,116
115,116,115,118,116,113,112,115,116,114,115,116,111,114,118,116,113,114,119,122,126,122,133,137,136,136,128,129,127,121,118,118,116,116,116,116,115,113,113,116,119,115,116,118,115,112,114,116,118,115,116,114,116,115,119,114,116,113,115,114
116,114,114,116,117,117,114,113,114,111,113,122,114,115,115,115,123,118,112,118,126,125,136,130,132,133,127,132,127,115,120,112,113,116,122,119,116,115,114,113,116,112,111,118,117,116,114,111,116,118,116,116,116,114,122,114,122,114,116,115
116,114,118,118,115,114,118,116,116,113,112,116,113,116,118,116,121,118,117,122,124,127,133,132,139,135,127,129,126,120,122,114,114,115,116,116,116,115,117,113,113,114,114,118,115,115,115,115,113,114,115,114,111,108,120,112,111,114,112,114
114,114,114,120,120,117,120,115,117,110,113,114,118,117,114,119,118,119,123,119,123,124,130,134,132,137,133,131,124,120,122,116,117,118,112,119,115,114,117,114,113,116,116,119,113,115,115,113,116,114,117,118,117,114,114,114,115,120,114,113
116,121,115,119,111,112,116,118,114,114,117,115,110,113,114,116,123,116,118,124,122,128,134,136,137,138,130,129,124,118,114,119,116,116,115,113,113,115,116,116,116,117,111,115,113,117,118,111,114,110,116,115,112,115,113,117,117,118,122,115
113,114,117,120,117,113,113,115,115,115,109,119,109,110,116,110,118,113,115,122,119,124,125,132,131,133,135,126,119,121,117,119,118,112,112,115,116,119,112,112,117,114,114,115,114,113,120,113,114,113,118,113,114,118,112,114,117,113,113,117
120,116,116,116,118,112,113,115,116,116,114,119,110,111,114,117,118,116,119,119,129,133,133,131,133,132,135,131,126,126,119,115,117,117,118,117,113,115,117,115,121,113,118,115,119,112,113,114,114,113,119,121,114,115,115,110,115,120,113,120
111,117,114,114,118,117,114,118,116,111,115,117,109,119,115,114,112,115,121,117,119,131,139,135,136,136,137,130,124,122,118,115,117,114,118,120,117,115,115,117,118,109,117,117,115,118,119,114,110,113,115,117,116,112,113,119,117,114,113,120
113,117,117,118,117,119,114,116,118,114,116,115,114,119,116,116,115,118,124,118,122,129,137,136,134,141,146,134,125,120,118,115,119,116,116,116,116,117,115,117,114,111,114,116,115,114,116,117,117,120,112,112,116,114,114,116,113,118,111,113
115,119,120,121,114,112,115,116,116,120,117,111,114,115,112,118,116,115,118,122,121,121,133,140,136,141,140,132,131,122,119,118,120,118,113,116,117,115,119,115,117,117,115,117,116,113,114,115,117,116,112,113,117,114,113,118,117,118,115,114
116,114,115,119,116,111,112,112,113,114,119,118,119,117,116,115,112,118,120,123,127,128,129,141,145,146,137,135,133,120,113,117,121,117,110,118,114,114,120,113,114,115,115,116,117,117,117,115,118,115,115,114,117,113,113,115,118,117,118,112
115,115,116,116,112,118,118,117,120,115,117,116,115,117,120,114,116,116,116,119,121,130,131,139,145,142,142,145,138,118,121,119,113,121,118,115,115,120,120,116,114,115,118,114,112,116,114,113,115,117,116,113,113,114,116,111,113,114,119,113
118,115,113,115,112,110,115,118,117,115,112,116,114,122,116,114,114,113,116,119,121,129,136,143,145,143,145,140,133,115,118,116,113,116,118,114,120,115,111,117,113,116,117,114,114,111,115,115,116,118,110,114,123,116,117,113,114,116,116,113
113,115,115,113,117,117,114,112,114,116,113,117,113,118,112,114,114,116,120,122,123,124,139,146,150,152,145,137,130,125,120,114,119,117,122,111,116,120,114,116,113,117,121,114,119,113,116,114,116,113,116,114,117,118,115,114,117,114,117,115
114,114,117,115,111,119,116,116,114,110,112,114,116,118,114,117,119,118,121,114,121,126,137,142,156,155,153,140,131,125,121,122,116,115,117,114,115,118,112,119,113,118,122,115,116,116,113,119,115,111,118,115,116,113,120,114,118,114,114,115
114,118,113,116,114,115,111,115,120,118,117,118,117,117,119,119,120,117,120,118,124,127,131,136,142,143,143,136,134,128,119,123,115,121,118,115,115,116,112,115,109,118,117,115,116,117,112,115,113,114,118,109,110,110,113,112,118,114,113,116
117,119,116,115,119,115,117,113,117,115,116,116,114,113,116,115,116,115,118,116,121,126,128,138,136,141,137,136,137,136,119,120,118,122,114,114,117,114,117,112,116,117,117,117,111,116,116,110,116,113,114,115,117,117,114,116,118,114,116,117
114,110,117,115,118,116,115,113,117,113,112,111,110,113,116,112,117,119,119,117,121,122,124,131,136,136,139,137,131,131,124,123,127,118,115,119,119,115,119,113,115,116,114,117,115,113,116,116,118,118,114,117,116,118,114,120,116,112,113,114
115,107,114,114,113,117,116,117,117,112,115,117,121,118,116,115,117,117,118,114,121,124,129,128,136,131,135,135,140,138,122,115,113,114,111,119,115,110,115,117,112,118,116,118,114,115,117,115,111,120,111,117,116,116,112,114,115,117,120,114
112,114,118,118,113,114,114,114,115,114,115,113,117,115,115,116,118,120,119,119,120,124,124,129,136,140,140,138,134,135,126,124,120,122,114,115,113,114,117,116,122,117,113,120,115,121,118,114,116,120,115,116,115,113,112,115,112,116,113,114
112,118,109,115,117,118,119,117,115,115,117,114,117,114,117,112,114,115,119,122,118,121,126,129,131,133,134,134,137,133,126,124,120,116,118,114,116,120,114,113,119,114,116,114,113,118,119,117,118,113,113,115,114,109,109,117,114,111,113,114
119,114,113,120,119,113,118,115,113,109,113,114,111,114,117,120,120,110,117,122,122,119,122,120,126,130,133,138,135,129,128,123,123,120,122,116,119,115,115,122,122,119,117,113,119,118,119,109,116,114,115,120,113,117,112,117,118,113,122,118
117,113,115,111,113,115,115,114,118,115,117,115,114,116,112,116,119,115,112,115,124,122,120,125,130,129,134,140,135,132,130,122,123,120,121,118,113,113,115,117,111,114,117,113,119,116,113,113,119,116,114,116,112,118,113,116,115,115,115,114
118,116,118,114,114,116,115,116,112,118,114,114,118,117,113,113,114,119,118,118,120,117,121,118,126,130,139,138,131,133,129,133,125,121,115,121,117,114,109,117,116,120,115,113,121,116,110,116,114,114,117,115,118,119,114,113,112,115,115,117
116,113,115,115,118,115,117,116,113,115,110,115,115,115,112,112,117,118,115,116,119,120,124,124,123,127,134,134,136,139,126,134,125,123,122,118,119,117,110,115,113,110,115,111,116,117,121,118,112,113,116,111,114,117,116,115,114,113,114,115
118,114,113,117,119,114,117,116,114,117,118,119,112,122,115,112,115,116,118,118,116,117,123,126,119,129,134,133,135,134,129,127,126,123,123,114,121,122,115,120,116,112,116,112,116,115,117,117,113,112,118,116,115,115,112,113,112,113,112,120
115,113,110,113,118,115,115,116,112,115,116,118,113,112,116,116,121,119,116,115,122,120,117,121,125,128,128,133,132,133,132,124,122,121,124,114,118,122,118,113,110,121,119,112,113,114,118,117,117,115,113,116,116,115,113,120,115,117,114,116
117,114,112,115,116,116,122,117,118,115,115,116,116,116,120,114,111,119,117,116,119,115,119,124,127,126,126,140,132,127,129,129,127,119,117,118,115,116,117,120,112,116,112,114,118,113,114,118,116,118,118,114,114,116,116,114,113,114,118,117
115,116,114,115,113,115,115,109,113,113,116,118,116,115,114,114,115,118,115,117,120,119,118,124,117,123,129,131,132,134,128,125,129,125,120,117,114,114,118,116,114,118,119,113,118,120,115,112,109,113,114,113,115,114,117,115,117,114,110,118
116,120,116,114,117,114,112,114,115,117,112,116,113,114,115,113,116,111,116,114,117,120,114,123,124,119,125,125,129,126,126,126,120,122,124,120,115,112,122,119,114,117,115,112,111,111,114,114,115,113,117,116,114,117,112,112,120,120,109,116
118,117,116,114,117,116,112,118,116,118,115,112,115,120,119,117,112,111,117,115,119,120,115,121,120,124,128,124,132,133,129,132,129,127,124,121,115,116,122,118,116,118,113,115,115,117,117,113,117,116,117,115,117,117,117,115,115,118,114,116
116,120,111,111,117,116,113,123,111,114,121,120,114,119,121,117,116,118,117,114,119,119,121,126,123,127,122,126,133,127,127,129,122,125,120,121,114,117,112,114,118,115,114,113,114,113,118,111,113,115,115,115,116,116,119,117,114,114,115,115
110,117,117,114,108,113,111,117,116,117,115,116,118,114,113,113,115,117,116,114,108,114,121,119,119,120,120,127,132,129,131,124,124,126,118,116,115,118,111,117,117,114,116,115,113,114,118,113,112,116,113,112,117,121,118,116,114,115,114,113
116,115,116,116,111,114,116,115,112,118,113,113,121,116,113,119,116,119,117,117,120,119,125,117,121,125,118,124,126,124,123,124,121,126,120,113,117,122,114,115,117,119,116,113,114,118,113,111,109,119,120,113,110,114,116,116,112,115,118,117
115,119,113,115,114,116,115,111,117,119,111,114,113,114,117,117,117,119,116,116,121,111,120,119,122,124,120,120,123,126,126,129,124,119,116,118,119,116,115,114,112,115,115,117,115,113,115,118,119,115,117,115,112,116,114,118,112,111,112,121
119,120,114,121,116,112,116,112,115,116,113,117,113,112,112,116,119,115,116,115,120,121,117,116,121,120,121,122,124,128,124,121,121,124,123,115,115,115,124,114,117,117,112,116,115,112,113,113,113,114,114,113,111,115,116,116,113,113,114,119
119,115,113,115,115,109,116,113,118,117,118,115,120,120,112,113,114,112,120,116,116,118,118,120,116,118,122,123,123,126,124,124,119,119,119,116,120,114,118,111,117,119,112,115,115,118,117,113,114,117,114,115,115,114,115,114,116,119,113,117
116,117,114,115,119,116,116,113,118,116,115,110,112,118,113,109,116,113,117,114,117,118,120,119,116,121,115,117,124,126,127,116,118,116,115,112,115,117,114,115,116,113,112,113,114,117,118,115,116,112,113,116,119,115,112,112,112,118,115,117
110,114,113,115,114,118,119,114,115,117,114,117,113,120,118,115,120,117,116,118,117,113,118,117,118,121,123,114,119,121,121,118,122,120,117,116,119,119,112,116,119,117,119,113,116,114,115,112,116,114,115,116,116,118,115,112,116,119,116,117
115,113,114,115,115,115,120,118,112,114,115,117,116,121,116,115,112,115,116,115,116,115,116,120,126,117,121,122,117,121,117,117,114,117,110,117,115,114,115,117,117,114,116,112,116,114,117,115,115,116,115,114,114,119,117,114,114,113,117,118
119,112,117,116,116,114,113,116,118,118,116,118,116,115,115,116,115,116,116,116,115,118,115,114,119,116,118,121,117,116,118,120,118,121,118,114,112,118,113,113,114,112,112,116,115,117,117,116,116,113,112,114,115,113,120,120,114,117,118,116
115,117,120,115,112,114,115,114,116,112,115,116,116,117,116,113,117,113,115,116,110,116,119,113,117,116,120,114,116,115,118,119,116,116,119,114,114,118,112,112,114,114,119,118,119,116,116,114,115,112,112,114,118,114,117,113,111,115,115,115
117,115,118,119,116,115,116,116,113,111,120,119,115,119,117,112,114,112,111,123,112,112,117,112,112,115,119,118,121,120,116,114,118,116,113,112,116,118,115,114,115,107,122,116,113,113,115,117,114,109,114,113,114,112,117,112,112,115,115,113
113,113,109,117,116,115,117,115,116,110,117,121,114,118,119,114,116,119,112,118,115,118,122,116,114,118,120,120,114,120,120,117,117,117,115,119,112,112,118,116,117,112,112,114,113,118,115,112,118,113,116,117,114,112,114,116,117,117,114,114
115,118,114,116,115,116,119,115,118,113,111,117,119,117,115,111,114,114,114,117,115,113,117,114,117,116,111,113,118,116,116,118,111,117,113,121,118,115,116,114,114,114,116,117,115,117,117,115,111,117,115,115,118,120,114,109,115,116,114,112
111,111,111,114,117,118,116,112,114,117,112,117,119,116,113,119,114,113,117,115,118,115,114,112,116,115,112,115,118,114,116,115,118,119,112,117,117,115,119,115,117,112,115,112,115,114,115,118,114,117,118,114,115,113,117,113,117,113,113,111
118,113,115,112,114,115,115,117,117,118,114,114,118,116,113,118,115,118,118,114,118,114,114,118,116,111,116,116,114,114,122,115,115,118,112,114,122,109,117,119,115,115,115,121,117,116,114,117,119,114,115,112,114,113,119,116,115,113,116,115
117,118,116,112,115,116,112,113,115,114,116,112,116,117,113,111,114,113,116,115,116,116,112,115,119,115,120,116,113,108,117,119,109,114,116,114,116,114,116,112,118,120,108,117,114,118,111,111,113,114,113,115,116,114,113,116,115,120,116,114
118,117,116,118,115,116,118,112,113,115,114,113,115,115,119,120,115,109,115,117,116,116,113,120,121,113,115,114,117,114,116,118,111,116,116,113,110,117,124,110,113,119,117,117,114,117,117,117,115,115,111,120,116,116,113,115,111,116,113,112
117,116,116,114,114,114,119,116,116,117,117,112,114,111,113,114,115,114,116,115,118,118,113,115,114,115,113,115,114,116,117,117,113,117,113,112,117,115,113,114,119,113,117,114,117,113,118,113,114,116,117,119,113,112,118,114,113,119,112,116
112,113,114,116,112,112,115,115,115,113,116,112,119,114,115,114,118,114,112,116,120,112,115,116,116,117,116,116,117,113,114,118,114,117,117,116,120,118,113,117,119,115,124,108,114,112,115,113,114,118,120,119,108,113,115,111,114,115,114,113
119,117,114,115,113,114,113,114,114,109,122,115,118,115,114,115,117,113,113,115,116,118,121,109,115,117,114,109,112,110,113,117,114,112,115,118,116,118,119,117,112,115,117,111,115,113,112,112,113,118,115,114,111,115,114,117,117,114,113,115
121,115,116,116,115,117,115,117,119,116,119,118,115,113,117,117,116,111,116,116,115,117,116,111,113,112,117,118,114,118,115,114,118,114,114,114,114,115,115,117,112,115,113,117,118,111,115,114,115,118,115,114,114,114,116,114,118,117,109,115
119,110,115,110,116,118,112,114,117,116,114,109,117,117,115,117,115,111,115,113,113,120,115,112,111,112,114,117,117,118,114,115,117,115,117,114,116,117,113,116,115,117,115,114,115,115,114,116,117,113,114,116,109,115,118,114,116,113,111,118
116,117,118,115,116,115,117,113,115,118,117,108,115,113,112,116,114,114,116,117,112,121,117,114,111,117,119,116,116,111,114,113,116,115,116,116,116,112,112,117,119,115,118,112,118,117,114,115,115,113,112,118,120,117,111,109,114,116,111,114
117,116,112,118,113,112,118,117,116,116,116,113,114,114,112,112,116,115,115,116,111,117,114,116,115,110,111,116,120,113,113,111,117,113,111,117,117,116,118,117,116,113,117,114,117,108,113,113,116,116,114,114,114,114,114,113,114,116,113,116
113,111,112,114,113,116,114,113,120,114,113,117,117,116,115,111,117,116,118,116,115,113,114,117,119,117,112,115,114,114,115,115,113,112,115,115,111,118,121,119,116,115,112,121,119,120,119,115,116,111,113,114,118,117,118,118,117,115,112,118
113,115,115,114,117,118,119,111,119,115,111,118,119,115,113,113,120,113,118,117,114,112,112,114,114,114,116,116,115,115,115,120,112,117,119,111,112,117,114,113,116,117,109,115,114,116,117,113,114,113,117,115,115,115,112,118,116,113,112,121
118,115,114,116,111,114,118,114,116,116,115,117,117,116,106,109,120,115,112,113,112,114,113,117,115,115,116,114,115,114,118,116,114,115,114,117,116,112,110,116,117,112,115,117,117,116,117,113,117,118,120,111,112,117,114,114,115,117,111,117
115,116,120,118,112,112,113,114,111,115,111,115,117,121,113,117,117,110,114,113,111,120,117,112,114,114,116,114,111,112,115,110,114,117,111,120,117,116,112,114,119,114,113,117,119,115,112,114,114,113,116,117,112,111,115,114,112,118,121,116
116,116,116,111,117,119,119,118,114,116,112,117,116,113,113,119,119,112,115,117,118,115,117,117,115,112,117,112,112,116,113,117,117,115,112,118,115,117,118,114,119,114,114,116,113,116,115,114,113,115,114,114,115,115,112,112,120,114,114,110
118,114,118,111,115,116,116,118,118,121,114,116,116,113,117,118,114,117,117,115,116,113,113,115,117,115,113,114,115,117,114,115,114,112,113,117,116,113,118,112,116,113,115,113,112,114,117,116,109,116,120,113,117,118,116,112,115,119,114,111
110,111,118,117,116,116,115,119,115,117,115,115,118,118,115,112,115,115,111,114,118,112,113,116,115,113,113,114,112,117,116,115,113,115,117,113,116,114,116,117,115,117,116,114,114,112,115,120,114,114,116,116,115,114,116,117,113,121,113,117
114,112,113,113,117,112,113,116,115,116,117,115,114,115,118,116,116,114,114,113,116,117,118,116,114,116,116,110,117,122,117,121,116,116,114,112,116,110,115,119,113,113,116,116,115,117,116,116,111,115,112,119,116,117,118,118,111,117,115,116
120,115,115,115,118,120,115,114,121,117,117,113,114,114,115,115,118,118,115,118,114,112,117,121,112,114,117,110,113,109,111,115,115,115,115,115,118,118,113,115,115,111,116,115,113,119,114,115,110,115,114,115,113,118,113,117,114,112,111,120
116,117,116,113,115,118,113,117,116,114,116,119,120,114,115,115,112,113,115,117,113,114,113,117,115,115,112,114,116,119,118,114,114,113,115,114,115,118,113,115,113,117,121,117,112,115,115,117,117,113,114,113,115,116,115,117,116,114,113,117
117,118,115,113,115,118,114,114,120,120,115,115,117,119,116,114,112,112,115,114,110,114,119,118,111,116,119,116,116,115,114,116,115,114,117,116,113,115,113,119,115,112,114,116,114,116,117,119,114,112,116,110,118,115,111,112,117,115,118,116
114,118,117,114,117,119,120,113,114,116,118,120,113,112,113,116,116,116,115,116,114,115,113,113,111,112,116,116,115,118,119,117,114,115,114,117,111,112,116,118,118,112,113,117,114,112,116,113,113,114,116,117,120,115,111,118,117,116,113,115
117,116,114,111,118,118,112,116,112,111,112,113,117,117,116,119,112,120,116,113,113,115,115,116,113,115,110,117,118,115,114,113,117,120,116,116,113,113,113,116,113,114,118,118,115,111,117,115,115,114,111,113,114,114,114,117,110,114,118,115
117,118,113,112,115,116,115,116,112,110,114,114,117,116,112,118,115,113,112,113,118,115,110,116,116,119,111,111,116,114,118,115,113,112,119,113,113,113,112,118,111,111,112,109,116,118,114,117,114,115,109,114,114,112,115,115,115,115,110,112
113,112,113,115,113,116,117,114,117,115,115,115,115,116,116,111,114,117,118,115,120,117,113,111,113,114,112,114,115,114,117,116,112,114,117,115,116,113,116,119,119,111,117,115,114,115,110,115,111,117,115,114,117,119,113,115,117,117,115,113
113,116,113,114,116,118,117,115,113,115,117,117,116,110,114,117,118,113,116,115,111,113,113,114,118,122,115,115,116,117,113,115,114,113,115,117,120,116,113,112,115,114,118,119,114,114,116,119,117,116,114,115,114,117,115,116,113,114,112,113
113,116,114,116,116,118,114,114,118,113,118,113,112,117,117,117,117,115,120,115,116,117,116,116,117,115,114,116,118,115,114,114,115,112,118,116,109,118,118,116,119,116,117,115,112,114,113,115,115,115,117,115,112,115,114,116,119,119,118,118
120,117,115,114,113,117,120,116,117,114,119,114,113,115,121,116,117,116,115,112,114,116,115,114,122,113,110,114,118,115,117,117,114,114,120,114,107,117,112,115,117,117,119,116,116,115,115,115,113,112,112,119,115,116,113,111,114,113,114,115
116,115,117,114,115,110,115,112,113,111,112,116,122,108,115,116,117,116,114,117,117,114,114,114,119,117,114,115,110,113,114,118,115,112,117,115,116,116,116,120,119,117,113,117,120,116,119,116,113,121,111,117,115,114,116,115,119,115,115,120
115,117,113,114,121,113,121,116,117,114,115,115,119,117,116,116,114,119,115,114,118,116,113,117,112,110,118,117,112,119,114,121,118,116,119,111,111,111,112,113,115,117,114,117,118,117,120,117,111,118,115,111,113,113,115,110,117,116,115,115
116,113,116,115,117,119,111,112,118,114,114,115,116,116,112,114,117,113,115,120,119,113,114,120,123,107,120,114,112,115,112,114,119,120,117,119,115,115,112,119,114,116,115,117,116,113,114,118,114,115,116,116,115,112,116,112,115,115,114,115
