50,60,70
115,112,112,119,116,112,115,114,115,117,111,115,121,114,113,112,115,111,115,117,113,116,117,112,117,120,112,114,114,113,117,116,116,115,111,120,115,112,118,122,116,115,114,113,113,117,118,115,117,114,114,117,120,112,117,112,115,113,114,113
116,113,114,116,112,116,118,117,113,116,112,111,113,115,111,111,114,114,115,112,114,117,119,114,110,114,113,115,115,115,114,115,120,119,117,112,115,117,117,116,113,113,114,115,118,109,117,113,120,110,115,115,112,113,116,114,107,111,112,116
118,115,114,107,116,119,120,113,111,115,120,113,116,112,115,112,117,117,117,115,114,114,118,120,116,114,113,113,119,116,114,115,114,107,121,114,111,121,116,115,122,118,113,118,113,115,115,114,115,116,115,114,115,117,114,113,115,116,114,116
120,117,115,117,118,113,112,113,115,112,119,110,116,114,113,112,114,119,112,111,118,116,114,113,112,116,115,122,118,109,112,114,115,112,109,114,115,115,111,116,114,111,117,114,112,115,117,117,108,115,111,111,115,117,111,113,117,116,116,116
116,115,113,118,115,115,107,115,116,111,114,121,117,118,117,116,110,114,116,112,118,112,115,110,111,117,119,117,116,117,118,114,118,115,117,118,119,116,113,115,115,120,115,111,114,112,112,117,115,112,114,113,114,118,117,118,116,116,114,113
117,116,115,111,117,111,112,116,114,114,117,111,115,114,114,117,119,111,116,116,116,112,114,117,116,114,115,114,114,117,115,114,112,111,115,115,117,119,116,119,120,110,114,114,114,117,111,110,116,115,117,118,117,115,112,120,117,114,110,116
115,114,116,115,116,117,118,118,114,116,114,115,112,113,111,113,117,116,118,114,113,114,113,113,117,116,119,115,110,113,111,111,118,122,117,115,115,112,113,115,113,114,117,113,116,115,120,112,116,117,116,118,115,111,118,116,116,112,116,112
119,112,109,111,111,113,118,114,116,115,110,113,116,117,109,110,117,116,114,114,115,115,116,115,111,115,117,115,116,111,118,114,118,115,118,114,112,111,116,112,113,115,117,116,115,116,116,114,116,114,120,116,116,108,113,115,120,114,117,115
116,116,113,115,122,120,117,113,118,117,116,116,115,114,116,116,114,111,110,115,115,113,113,115,112,115,113,115,116,112,114,114,113,119,119,118,119,117,113,109,121,114,115,113,114,117,114,115,110,119,115,113,113,115,108,113,112,116,113,114
110,112,112,114,115,113,118,114,114,117,117,117,117,117,117,117,113,117,117,114,115,116,115,111,119,110,116,121,116,117,115,113,111,119,113,115,116,115,113,116,112,113,117,113,115,116,114,116,117,117,114,117,116,115,119,115,109,109,113,115
118,117,115,113,114,111,112,114,115,119,112,113,117,114,114,115,111,116,117,116,107,117,114,114,115,114,115,117,114,117,117,114,119,112,110,114,113,115,116,120,114,116,114,117,123,116,112,119,116,114,116,114,119,117,111,114,116,114,115,115
115,116,112,114,116,118,112,117,117,118,115,114,119,112,108,119,116,114,117,112,115,118,116,117,115,115,114,115,116,115,114,116,108,113,112,115,115,112,113,115,111,120,113,114,118,115,111,113,115,118,112,114,116,113,115,120,118,112,118,117
112,115,112,117,112,116,114,120,115,114,116,113,116,115,118,115,113,116,115,112,113,118,120,116,112,113,111,115,116,110,113,117,116,117,117,116,116,115,116,116,115,111,113,116,113,112,115,115,111,112,118,120,112,115,115,115,117,117,117,116
114,118,113,118,115,113,111,115,114,111,115,114,114,115,113,114,115,117,118,113,113,113,111,114,114,112,114,115,116,114,112,117,114,113,114,113,117,116,117,113,114,118,115,114,117,113,114,115,111,111,114,115,112,120,115,115,116,114,110,117
114,116,112,114,116,113,112,115,116,109,112,113,112,113,114,118,115,116,114,114,115,114,115,111,117,115,111,116,119,114,115,117,113,114,115,116,119,115,110,118,114,115,114,118,113,115,114,114,110,117,115,116,115,118,115,113,115,115,113,112
112,114,115,113,110,114,116,115,116,117,114,115,114,112,114,116,116,116,115,115,113,116,113,115,117,112,111,118,114,115,115,111,116,117,114,119,116,115,113,115,119,110,115,117,113,110,118,110,116,112,116,114,112,113,116,115,113,115,120,113
119,118,111,113,114,112,119,117,111,116,113,119,118,115,114,113,113,117,113,108,116,114,113,116,114,116,116,108,114,117,111,112,116,109,115,115,113,115,120,111,112,119,115,113,114,114,113,110,119,114,116,112,110,115,116,114,114,114,113,113
116,119,116,116,116,120,118,111,113,114,115,112,114,111,115,119,111,114,112,115,114,115,117,113,111,118,118,117,115,117,115,115,116,116,115,115,110,117,118,115,116,110,114,119,115,118,112,117,114,110,113,115,115,118,116,113,117,116,113,114
116,110,117,116,113,111,111,117,115,115,118,120,115,113,116,114,115,117,115,115,113,114,114,115,119,114,115,115,114,113,114,117,114,118,117,111,115,114,115,112,113,119,120,118,116,115,112,114,114,114,117,114,115,115,116,117,108,113,115,112
115,115,116,117,118,117,111,118,117,115,114,116,114,112,110,112,113,115,114,119,119,116,113,116,119,114,116,112,117,115,113,117,117,112,114,116,116,114,114,118,114,114,115,114,116,114,114,120,116,114,117,112,110,112,116,117,118,118,116,114
114,114,118,115,114,114,114,114,112,111,114,114,114,115,115,113,114,116,120,118,113,117,118,116,111,112,116,115,115,113,113,115,114,114,114,116,118,116,117,115,113,114,113,116,113,116,113,113,118,115,114,114,114,118,113,109,117,114,111,114
112,112,120,115,113,114,116,113,113,112,113,116,117,117,119,116,115,117,117,115,113,113,114,115,112,116,115,112,112,114,116,116,114,115,115,120,115,114,118,113,115,120,111,113,111,117,114,111,111,114,113,114,117,118,115,111,112,115,116,112
117,115,117,116,118,118,115,118,114,114,119,116,109,114,115,115,116,115,113,112,111,114,111,119,114,117,119,115,108,116,117,116,114,113,118,117,113,117,116,113,114,108,115,113,115,116,111,120,110,121,115,117,116,109,114,119,114,111,111,118
115,118,115,111,114,113,111,112,114,120,116,113,114,116,119,113,115,117,118,118,115,113,116,115,116,118,117,109,118,118,111,116,118,116,113,115,123,117,114,117,114,119,111,118,117,118,111,117,114,113,116,115,114,115,117,117,116,118,111,117
107,117,112,114,121,114,116,110,120,120,116,111,116,115,114,115,110,113,116,114,117,116,114,113,119,119,114,119,117,119,116,115,118,116,119,113,116,116,116,112,116,113,112,115,111,117,116,113,115,112,112,117,116,113,113,115,115,117,118,114
114,116,113,115,116,111,114,115,117,115,111,112,112,112,115,121,114,117,117,116,114,117,115,118,116,115,114,112,114,113,117,114,113,113,115,110,119,116,115,116,117,118,118,115,115,116,115,115,118,117,115,114,116,113,118,118,112,114,116,116
115,114,115,115,115,120,118,118,117,118,112,115,117,112,115,117,119,117,118,115,111,118,116,116,110,119,112,112,116,119,115,114,113,113,108,113,115,115,114,114,115,113,116,115,114,115,114,116,117,118,113,111,112,113,117,118,115,114,116,116
115,112,113,112,116,119,114,117,113,114,116,117,119,115,115,113,115,114,116,112,116,116,116,115,114,116,113,115,115,111,113,116,117,115,117,120,116,117,116,112,119,115,109,113,116,116,117,114,111,112,114,115,114,115,114,118,114,113,112,117
117,116,117,114,116,116,117,120,112,114,111,111,116,118,117,114,114,113,116,116,112,112,112,114,117,114,118,114,111,114,114,112,115,118,115,108,113,118,113,113,114,116,118,120,117,117,114,115,115,114,112,116,116,115,117,114,116,116,114,116
113,114,115,116,115,116,116,117,115,116,113,115,114,119,117,117,116,115,116,115,117,112,115,118,116,116,115,113,119,116,115,116,115,116,115,117,116,118,114,116,112,117,112,116,112,114,113,112,117,120,117,113,111,116,119,112,118,112,113,111
113,113,112,112,113,113,117,112,113,116,116,116,113,114,111,117,117,113,121,119,118,118,116,115,115,118,116,117,116,116,117,116,116,114,111,110,118,114,116,116,117,118,118,122,114,113,117,113,114,115,115,115,110,117,119,116,111,114,115,117
117,117,115,110,116,113,114,111,116,115,115,115,117,115,116,110,111,114,118,109,113,113,114,110,114,116,117,114,113,112,117,117,115,114,116,116,114,115,113,119,120,110,119,109,114,116,119,118,117,107,111,116,118,114,111,119,117,113,118,114
119,117,117,117,117,108,112,109,114,116,115,118,113,116,119,116,114,118,115,118,118,117,114,114,115,117,119,117,117,122,118,116,116,118,121,116,113,113,112,113,114,115,114,113,114,114,114,117,113,117,113,113,115,113,114,114,113,116,119,109
117,118,117,114,117,108,115,116,117,115,113,116,118,114,116,116,121,118,113,117,115,110,116,118,115,119,116,114,117,115,114,115,114,111,114,118,115,113,115,111,116,118,116,119,116,114,113,107,112,117,113,115,115,117,118,118,119,115,112,112
116,113,116,115,113,113,116,113,113,114,118,114,113,118,118,119,112,110,116,120,115,114,113,116,117,116,114,114,114,114,117,119,113,117,119,116,114,115,116,117,115,115,112,115,116,113,115,118,115,113,115,111,115,117,113,115,113,112,117,118
119,115,113,114,111,115,117,118,116,114,117,113,115,114,114,115,111,115,117,117,120,120,118,116,113,116,117,117,117,117,118,116,113,115,115,111,112,114,115,117,116,111,113,115,114,110,113,113,114,116,114,116,113,114,116,118,114,117,112,120
114,114,113,111,115,117,110,112,116,115,116,115,115,112,114,116,116,117,114,113,111,111,116,114,114,115,115,123,122,116,117,118,119,120,116,120,117,113,117,116,116,116,116,117,112,115,119,113,114,115,115,118,112,115,111,117,115,110,110,114
118,116,116,117,115,115,114,114,112,115,121,116,111,114,115,113,113,118,119,115,110,114,121,112,116,123,126,129,127,123,122,117,116,113,112,120,117,116,112,118,117,115,116,114,110,117,117,117,114,115,115,111,116,121,114,118,110,114,114,113
116,116,116,113,113,113,122,116,114,113,121,118,114,114,110,120,113,115,116,116,112,117,114,118,117,119,124,130,129,136,123,124,121,116,121,117,115,116,115,117,112,118,117,117,115,116,112,114,115,119,114,117,116,116,116,117,115,115,112,117
113,114,113,115,117,112,118,112,115,116,114,118,114,113,113,111,115,117,110,116,114,117,116,116,117,119,125,131,130,128,125,130,123,116,119,120,114,117,115,114,111,114,114,114,115,115,113,116,110,115,116,118,115,114,117,112,113,112,112,115
115,114,115,114,116,116,118,112,119,116,112,116,115,117,114,113,111,112,114,118,122,124,116,120,120,126,127,135,132,135,126,124,123,118,120,116,118,117,114,111,115,115,115,118,114,113,115,116,115,117,116,114,114,116,116,115,113,115,116,110
118,114,122,113,111,116,116,114,116,110,113,119,108,112,115,113,112,113,112,112,116,113,113,116,123,121,126,132,132,131,133,133,121,118,120,120,119,114,115,114,114,116,116,118,118,112,115,116,114,115,109,109,115,113,114,115,114,112,115,119
111,112,115,114,116,112,113,115,114,116,116,114,115,114,112,116,115,117,114,114,118,121,116,118,122,120,125,133,134,128,134,130,123,122,120,118,117,113,113,116,117,116,111,111,113,111,118,118,111,112,116,117,118,115,114,113,115,114,119,113
115,112,114,116,119,117,116,113,111,117,119,116,121,117,113,116,115,114,119,119,115,115,118,119,121,125,128,131,131,137,128,127,128,122,123,123,115,114,119,112,116,119,115,118,118,119,117,116,121,113,120,117,117,120,116,113,112,119,116,111
111,112,112,116,114,111,113,114,115,117,112,115,115,113,116,114,113,118,113,116,119,111,116,118,119,123,128,135,131,135,133,129,126,116,120,116,120,116,117,112,118,113,109,111,116,116,114,115,117,112,119,113,116,118,114,117,118,114,109,113
124,115,112,112,114,117,116,111,114,116,114,118,116,113,115,117,116,114,112,113,110,116,118,117,122,129,133,134,124,134,144,126,125,118,121,115,118,118,114,117,117,121,116,118,119,114,114,114,114,118,114,116,117,111,115,116,111,116,114,113
115,115,118,116,114,114,115,114,115,112,113,119,118,115,121,112,117,110,113,118,114,117,113,121,119,131,134,134,133,135,137,131,126,120,122,118,118,113,118,116,115,116,117,111,110,114,116,112,114,113,111,112,113,110,116,117,115,115,117,112
117,117,114,116,117,114,113,113,114,114,111,114,113,115,114,113,113,116,115,115,111,112,114,116,119,126,131,140,136,131,136,128,124,123,122,117,120,121,111,114,112,116,115,118,116,111,114,116,116,118,117,112,112,116,117,116,122,118,112,113
109,112,110,116,116,111,117,111,113,115,116,115,116,119,117,118,118,117,114,117,114,121,122,122,123,124,138,136,131,132,139,137,128,124,124,117,110,112,116,115,111,116,108,116,116,112,117,118,115,116,115,113,116,118,115,118,114,115,116,115
115,114,110,114,112,114,116,114,115,115,114,114,118,115,111,116,121,115,112,117,115,114,115,121,120,127,139,139,137,137,146,137,127,124,118,118,116,114,120,117,112,117,114,115,117,118,114,116,117,116,118,118,119,118,112,116,117,114,116,108
115,118,114,110,113,117,116,115,116,115,113,116,122,114,114,117,113,111,116,120,117,121,122,118,116,128,135,138,136,133,141,136,132,123,120,119,118,118,116,118,118,121,117,119,119,123,116,114,115,115,117,116,115,116,115,115,114,113,114,116
115,113,111,115,114,117,116,114,114,116,115,116,118,119,115,116,114,118,116,119,117,111,117,117,120,125,137,136,142,139,138,133,130,125,126,121,119,118,113,114,115,118,115,113,113,113,116,114,112,115,114,120,115,115,109,113,119,111,115,114
111,114,117,114,111,115,111,114,111,118,116,115,115,119,117,114,110,121,118,117,115,116,118,122,120,123,139,132,134,130,132,137,125,127,119,119,114,119,118,117,110,116,113,113,117,114,117,115,114,111,119,118,109,111,112,115,113,113,115,117
115,118,121,119,114,117,116,116,116,118,115,113,117,116,113,111,116,115,115,117,116,115,122,118,119,125,129,141,136,135,133,127,132,125,117,119,118,113,114,117,115,116,114,115,116,116,116,115,110,113,118,113,115,113,114,115,116,117,112,113
118,115,110,116,116,111,116,115,111,116,113,112,117,117,114,117,114,116,112,116,117,115,118,117,123,123,124,137,133,140,134,130,129,123,124,122,115,114,115,112,114,117,113,116,111,113,117,114,113,115,113,112,115,114,115,115,115,116,116,114
114,115,115,114,117,117,114,116,118,113,115,115,117,117,115,119,114,115,118,115,118,118,119,117,117,120,130,133,135,137,132,134,134,126,121,114,112,120,117,114,115,115,113,114,113,117,119,118,118,116,116,117,115,115,117,114,118,115,115,113
121,119,116,116,117,118,119,115,112,111,116,120,115,116,120,117,114,115,118,117,117,116,116,121,116,121,129,127,134,140,138,138,135,132,124,115,118,122,118,115,113,109,111,112,115,112,112,117,117,114,115,113,111,113,116,113,114,113,118,113
113,112,114,117,112,114,116,114,117,112,115,117,117,119,115,115,115,116,117,118,116,115,115,118,119,124,131,135,136,140,139,135,135,133,127,121,122,115,114,113,114,116,109,114,114,119,114,117,115,114,113,117,116,112,113,114,116,111,117,115
113,113,113,113,115,117,117,116,113,116,111,110,115,111,109,117,117,117,112,115,117,117,118,114,113,120,129,132,140,147,146,141,144,133,127,123,113,120,119,116,117,112,118,118,116,116,116,118,113,115,111,114,112,114,116,115,111,113,120,116
114,113,114,114,118,115,115,117,117,115,113,114,115,112,112,112,115,115,112,114,117,116,117,119,115,121,120,126,135,146,146,149,151,139,124,119,116,117,115,114,117,116,115,114,119,113,116,112,110,116,114,112,113,118,117,115,113,111,114,112
115,118,114,114,114,114,116,113,115,121,115,115,114,113,116,114,120,114,116,113,118,116,114,113,113,119,122,130,135,143,151,156,147,132,127,118,123,120,111,115,113,120,119,116,114,115,111,111,114,113,118,117,122,113,115,113,113,113,113,115
115,119,112,115,114,118,112,116,114,114,116,113,115,115,116,114,113,112,115,117,113,117,114,114,116,121,125,131,136,149,150,157,144,131,125,120,121,116,117,118,115,115,117,117,119,116,112,116,116,113,112,113,115,112,115,116,116,114,117,121
115,116,110,115,118,112,117,113,117,113,114,114,118,114,114,116,116,116,117,121,113,117,114,112,112,119,120,127,147,151,148,139,140,134,120,118,118,117,115,115,112,114,116,117,111,117,120,116,115,117,114,115,117,117,119,117,115,116,121,118
113,115,115,116,115,111,115,116,108,111,118,115,114,116,114,115,117,116,118,115,119,117,118,119,114,115,120,130,141,147,149,142,136,131,129,118,118,119,114,113,117,119,114,117,114,116,112,112,114,113,115,119,112,113,118,115,110,113,115,116
117,110,117,115,113,116,112,110,115,116,117,118,118,117,115,117,116,111,113,115,116,115,117,116,121,120,120,132,144,150,145,136,132,133,127,123,118,115,116,116,117,118,113,119,118,114,112,113,117,116,117,114,114,112,113,113,114,118,114,113
115,121,119,113,115,118,116,115,118,114,112,116,118,114,114,117,113,111,117,117,116,117,111,112,120,120,123,130,136,134,131,131,133,132,119,122,117,119,112,117,115,117,116,113,118,118,120,112,116,117,119,113,115,112,110,114,112,118,114,111
113,119,115,117,117,113,113,115,116,111,117,112,111,113,114,114,116,121,120,116,117,115,118,113,112,116,124,132,130,135,136,130,129,132,125,115,114,115,115,117,113,113,115,115,110,113,117,115,118,120,118,117,117,116,117,116,113,113,115,112
121,114,113,118,112,114,117,117,116,113,110,111,115,113,111,122,117,119,122,117,113,123,123,121,116,120,121,130,135,136,142,140,132,126,123,121,115,117,118,119,113,117,113,118,116,111,119,117,117,117,117,115,111,115,112,113,117,116,114,117
115,113,118,116,112,116,119,115,114,117,117,118,119,116,119,115,121,117,117,114,116,118,117,116,116,121,122,127,131,135,139,134,132,121,125,121,117,116,118,113,115,118,115,116,114,118,117,117,116,111,116,114,115,118,112,114,115,114,114,116
115,117,117,114,118,115,115,121,120,114,113,116,118,121,115,115,118,116,114,113,119,117,118,113,117,121,123,129,134,135,134,135,132,129,125,119,116,115,114,111,115,111,114,116,114,115,115,114,115,117,118,116,111,111,116,118,115,112,116,113
114,113,113,116,115,116,116,117,109,113,116,114,116,115,115,119,117,116,114,114,115,116,117,117,117,125,129,133,131,127,131,141,138,128,121,119,116,118,110,112,116,115,118,119,114,118,116,109,113,115,118,115,110,117,113,114,115,115,116,115
114,114,117,115,116,114,112,117,116,123,116,111,117,115,113,112,118,119,115,112,114,117,114,116,120,123,129,131,133,136,133,131,132,128,121,119,117,112,116,120,117,116,117,116,115,115,111,119,119,116,118,114,115,108,108,117,115,116,119,114
120,115,111,111,117,114,112,114,120,117,112,113,116,119,116,117,117,114,116,114,119,117,114,120,118,122,127,134,139,135,135,128,127,128,123,116,112,116,119,116,115,112,113,113,116,114,114,115,116,111,116,113,112,117,116,116,117,114,116,115
112,111,113,113,114,116,117,114,114,112,117,119,118,118,116,115,120,119,115,114,115,115,121,125,120,124,129,143,141,138,130,131,131,127,121,116,116,117,118,113,118,117,114,113,116,113,119,114,113,113,109,120,115,117,117,112,115,115,112,117
113,113,117,119,115,115,118,121,114,119,117,114,114,115,112,118,116,118,111,112,115,118,117,117,123,122,130,143,140,134,131,137,128,120,121,115,117,110,113,110,113,119,113,114,116,119,116,115,113,118,120,115,111,116,112,111,115,114,113,111
117,115,110,116,117,113,113,118,114,115,108,111,113,114,110,114,118,111,118,113,117,117,116,114,118,127,137,134,135,133,140,136,124,120,116,117,115,116,115,116,113,115,110,114,117,115,110,115,118,115,113,120,118,111,113,114,116,116,118,116
117,116,114,117,114,113,114,114,112,118,112,111,118,114,111,115,112,116,113,117,115,110,118,113,119,127,133,138,138,134,140,135,128,125,118,117,118,117,111,115,119,113,115,119,117,118,117,113,113,115,115,114,113,116,114,111,116,118,115,115
113,114,118,112,115,117,119,117,113,113,108,119,115,112,117,112,118,117,117,118,117,118,119,117,120,129,131,138,141,135,132,131,131,120,116,116,115,115,115,120,116,109,118,117,115,119,115,116,114,113,116,113,116,115,115,111,117,118,115,121
114,118,110,113,116,120,118,115,115,114,113,115,114,115,116,114,117,114,118,115,113,116,115,116,114,121,125,131,135,135,134,132,126,120,113,115,116,115,114,114,111,114,116,111,117,115,117,116,118,117,116,115,116,111,111,114,115,110,118,116
117,113,117,120,116,119,117,111,111,115,117,115,114,114,114,117,120,117,115,113,114,119,119,118,124,127,126,133,133,138,137,136,128,120,121,119,117,115,114,116,116,115,119,114,115,115,119,113,116,117,115,113,118,110,112,118,112,113,114,114
115,115,117,114,115,115,117,115,113,114,115,115,115,116,112,118,117,116,115,115,114,118,113,115,122,123,123,124,132,139,135,133,124,120,122,122,123,111,117,115,113,112,113,117,116,116,112,110,116,117,113,117,116,115,113,117,118,111,113,114
110,116,111,114,119,114,115,120,115,117,115,114,117,118,113,113,114,111,111,121,114,116,114,121,115,122,119,124,131,136,132,126,123,124,114,120,114,115,112,113,118,115,109,114,116,114,116,117,116,117,114,115,110,117,118,114,114,113,114,116
116,115,116,115,111,116,115,116,116,117,117,116,119,112,116,114,113,118,118,116,116,115,113,120,124,124,121,125,132,127,125,123,116,119,116,117,112,117,116,115,115,113,114,111,114,110,114,119,120,118,115,117,115,113,112,115,112,115,115,110
117,114,118,110,111,119,115,116,115,115,125,116,115,114,114,120,115,117,118,111,114,115,116,111,121,120,121,123,128,126,119,122,125,118,118,114,116,113,116,113,117,118,113,116,116,113,117,116,113,115,116,114,117,115,115,115,115,114,111,115
105,113,116,111,118,119,113,111,118,119,117,115,114,116,113,113,116,119,114,113,114,111,118,111,110,120,121,118,123,121,119,123,118,120,117,114,118,119,115,109,116,114,112,117,116,115,119,115,109,115,117,113,112,107,117,121,118,115,112,113
116,118,117,118,112,113,115,113,113,114,116,115,115,115,115,114,116,115,116,116,116,115,116,116,113,114,118,119,120,121,117,111,113,115,114,115,118,115,110,117,117,112,114,115,113,112,112,111,114,113,113,114,109,113,114,113,114,113,112,116
115,118,117,111,115,118,115,116,111,114,117,114,114,114,116,116,113,115,115,113,114,117,117,114,114,115,116,118,118,116,119,119,116,117,117,114,112,114,114,119,117,113,115,113,111,111,115,113,116,116,116,114,113,117,114,112,118,110,116,116
113,113,116,115,112,114,117,112,113,114,117,116,114,115,115,116,119,116,117,116,112,113,110,117,116,113,119,114,116,113,113,117,117,117,116,115,111,110,110,114,117,117,118,113,113,114,112,117,113,119,114,111,118,116,116,118,119,113,114,120
114,117,116,116,119,113,114,113,114,116,110,111,112,113,117,116,118,114,119,116,113,111,113,115,115,121,115,116,115,115,119,112,113,114,114,115,121,116,114,112,115,114,116,119,116,114,119,113,113,114,116,120,113,116,115,114,114,117,115,108
112,114,116,113,111,118,112,113,113,116,121,114,115,114,116,114,113,118,114,111,117,112,114,115,111,113,117,120,115,115,113,112,118,117,116,110,116,118,118,121,111,113,113,118,115,116,111,112,120,114,118,112,113,112,116,114,113,116,117,113
118,120,119,115,115,119,115,115,115,114,115,119,119,114,113,115,112,115,119,119,117,112,115,117,121,119,114,114,118,118,115,119,114,113,119,114,112,110,115,111,113,116,117,118,119,121,118,118,115,115,115,111,114,115,114,110,112,117,115,113
112,119,115,115,119,115,112,112,116,118,114,117,115,109,111,113,114,122,119,113,113,115,114,114,110,115,115,113,114,116,119,114,116,117,117,117,117,117,114,116,116,114,118,119,117,114,112,115,111,114,116,116,111,115,118,114,113,117,115,112
115,117,116,116,115,114,115,116,122,116,114,112,114,114,117,117,117,115,114,114,115,117,117,116,116,114,114,116,115,113,113,112,112,115,117,116,114,112,115,115,109,109,118,118,113,112,112,113,115,122,117,112,111,119,115,112,117,113,110,110
114,115,119,114,111,115,115,115,114,112,112,111,114,115,114,114,115,112,113,115,118,115,114,114,117,116,116,115,116,119,117,113,111,112,115,114,112,117,117,116,115,111,113,113,116,118,115,114,116,112,114,113,119,114,116,116,115,113,114,117
113,111,116,114,113,117,113,114,115,119,117,113,113,111,112,117,116,115,115,118,113,113,113,115,116,111,115,114,116,114,114,115,118,115,115,116,114,116,116,113,115,114,111,113,119,117,117,121,116,112,115,117,114,119,119,114,114,113,112,118
116,115,116,112,114,114,113,113,114,114,113,117,118,116,114,113,117,114,106,114,113,114,110,114,119,113,115,113,121,114,117,117,115,116,114,116,115,114,116,115,111,114,117,114,113,108,114,114,115,114,119,116,115,116,116,109,114,112,107,111
115,117,112,112,114,120,114,113,110,112,117,118,115,115,115,113,113,113,119,114,113,115,109,116,117,117,109,120,114,113,114,114,113,121,112,116,118,117,115,114,114,110,115,115,114,114,116,119,117,113,112,114,119,114,110,114,116,113,116,117
112,115,114,115,112,110,113,115,114,114,111,112,111,115,118,113,114,111,115,117,114,116,111,116,112,111,115,114,115,115,115,115,119,116,110,115,115,112,113,119,118,115,111,118,118,115,115,109,110,117,113,116,119,114,114,116,114,114,115,117
111,114,112,118,114,114,119,114,112,111,116,114,115,114,116,117,115,119,116,112,114,118,119,115,112,117,116,113,116,119,115,110,116,116,117,118,118,116,117,117,117,115,114,114,112,114,118,119,118,115,114,116,116,118,116,115,117,116,117,113
114,114,113,112,118,113,116,119,116,112,110,114,117,112,113,118,118,116,116,117,117,114,113,115,113,115,116,113,114,113,114,118,116,114,115,116,116,115,117,115,112,114,119,115,114,114,117,114,112,114,116,120,119,115,114,109,120,112,114,114
113,116,114,115,117,113,111,117,117,115,112,113,114,113,115,117,119,114,113,115,114,115,115,118,119,118,115,114,114,114,112,117,114,114,112,116,117,115,113,112,115,117,115,114,117,115,112,118,112,115,117,119,116,112,115,113,112,119,111,113
114,114,114,112,114,116,114,112,115,115,118,119,120,118,114,118,118,112,116,115,112,119,118,116,114,113,115,117,111,114,119,111,116,119,111,115,116,114,111,112,118,115,116,111,113,116,120,112,110,110,113,112,119,113,114,121,117,117,110,118
114,113,115,115,113,111,116,113,115,117,111,119,115,118,120,117,114,116,113,118,119,113,117,114,117,111,115,111,115,116,116,116,120,115,117,114,111,112,115,116,114,111,115,116,118,113,113,113,114,111,114,110,118,116,117,116,120,109,114,118
114,118,122,110,115,117,112,116,113,115,119,119,115,113,119,118,112,112,115,114,120,112,115,116,118,112,116,114,110,119,119,112,115,114,115,119,116,115,114,122,110,117,116,116,114,114,117,120,118,122,113,114,116,115,115,115,117,112,114,114
116,117,115,113,118,117,112,115,113,110,114,115,115,111,116,118,119,118,114,113,113,115,113,116,115,115,111,120,111,111,112,115,113,110,113,117,113,114,116,116,117,115,109,114,115,112,117,117,114,115,113,116,114,115,113,116,118,115,115,114
114,112,111,116,116,114,112,115,117,113,114,116,113,115,115,117,117,113,115,114,117,115,113,117,117,116,112,117,117,117,110,113,115,116,116,115,115,115,116,114,113,114,114,114,113,112,113,115,117,109,114,116,112,115,116,115,114,114,115,113
112,116,119,114,114,115,117,113,117,116,116,115,120,118,120,116,114,116,112,116,114,115,119,118,115,117,116,115,119,119,116,116,115,113,113,115,117,117,115,118,115,113,118,117,113,117,115,116,120,116,111,115,118,115,116,114,115,114,114,114
114,115,111,119,118,116,116,115,112,113,115,114,115,114,114,114,113,115,118,116,117,118,116,116,116,116,117,118,115,113,116,114,116,117,120,114,112,110,113,118,118,116,116,119,120,112,111,115,113,115,115,118,118,113,112,114,112,115,117,117
115,114,116,115,116,119,113,116,114,112,114,114,115,113,110,114,115,114,118,118,112,113,117,116,114,116,115,117,116,116,115,115,117,118,114,115,120,112,112,114,114,115,112,115,120,113,116,118,115,118,116,108,112,121,113,119,113,116,114,116
116,117,117,118,118,113,116,116,117,114,116,121,120,113,114,115,114,118,114,112,117,110,113,120,115,113,119,110,114,116,111,120,116,115,112,114,117,117,118,113,118,115,117,115,114,115,110,115,114,113,113,113,109,121,119,117,118,115,117,114
117,115,117,114,112,110,115,118,116,119,119,114,110,110,112,119,116,113,116,112,115,114,119,112,110,116,112,113,116,119,113,115,111,116,115,115,114,117,118,117,111,115,118,116,116,114,114,110,112,113,111,115,111,114,117,115,114,115,117,116
114,111,120,114,110,112,114,118,113,115,116,111,117,113,118,114,116,113,115,117,117,114,116,116,117,113,111,115,115,114,114,119,117,115,116,112,114,114,113,115,117,115,109,111,115,117,117,113,117,119,114,112,113,118,115,111,116,118,114,117
116,113,118,114,120,113,119,118,115,116,117,112,116,109,119,111,118,116,115,115,113,119,114,118,115,114,117,116,120,118,116,118,117,112,115,116,114,115,115,113,113,115,112,113,114,117,116,114,115,113,114,117,113,112,117,118,117,117,116,117
116,115,113,113,113,115,117,116,112,116,117,116,115,117,118,113,120,118,109,112,114,114,116,116,114,112,114,116,114,120,118,114,112,112,116,116,116,116,115,117,119,116,114,115,114,116,115,116,117,114,115,113,115,116,118,117,117,115,116,111
118,115,116,114,116,119,116,116,114,112,113,115,110,113,115,117,114,116,119,114,112,115,117,116,114,113,115,117,116,116,114,109,118,120,114,110,115,115,113,115,110,117,117,115,113,113,118,115,117,119,117,111,116,119,116,116,113,114,111,114
116,112,114,116,115,112,115,114,116,117,112,112,112,115,114,114,110,112,115,111,115,115,116,114,113,113,110,113,116,112,113,114,113,116,115,115,113,116,114,115,117,119,115,117,114,114,113,118,116,115,118,115,113,115,115,117,116,117,108,113
117,113,113,118,117,114,116,116,116,115,120,121,120,120,114,114,114,114,112,114,115,115,112,114,114,118,118,120,117,116,112,116,116,116,114,113,117,111,121,117,119,120,116,116,114,111,115,112,119,115,119,115,115,113,115,115,114,111,112,113
114,117,117,113,112,116,112,113,115,110,115,114,116,109,111,119,117,111,116,114,114,115,112,117,116,112,116,115,116,115,118,110,118,112,115,116,115,115,117,112,116,114,117,112,116,112,115,113,114,112,111,112,113,112,114,116,109,116,115,117
111,115,115,115,119,117,113,113,115,114,114,110,115,112,116,114,114,112,119,117,117,112,120,112,118,117,116,109,114,112,119,116,113,111,111,116,113,121,115,115,111,113,113,115,114,115,116,115,114,113,113,117,115,114,118,116,109,113,116,115
114,114,119,114,115,112,121,111,113,118,113,113,119,118,115,116,114,112,116,112,112,111,115,110,117,118,119,114,116,116,113,116,112,115,118,115,115,112,112,117,117,116,111,116,114,117,116,112,115,114,117,114,114,116,116,114,113,112,112,112
