52,60,68
113,112,114,117,117,112,113,117,116,115,118,114,115,115,115,117,114,111,114,120,116,117,116,118,118,117,119,119,115,119,116,112,114,116,116,114,115,120,120,112,114,116,116,117,110,118,112,118,116,118,114,117,118,117,112,113,118,111,113,114
114,116,115,114,114,112,111,117,118,113,117,116,115,115,117,122,112,113,114,118,113,116,116,116,115,117,119,117,116,120,115,112,112,111,114,116,111,116,118,114,114,115,118,117,115,111,113,118,112,118,114,118,114,116,114,115,114,111,114,114
114,117,113,113,116,116,115,113,117,114,115,116,116,114,117,120,112,116,112,119,113,115,114,113,116,116,111,110,116,116,114,115,116,117,115,118,113,117,119,113,117,114,116,118,117,115,115,111,115,115,113,119,110,115,113,115,116,115,118,119
114,114,114,115,115,118,119,113,113,114,112,117,117,112,117,116,113,114,109,116,114,114,112,116,119,113,115,113,116,113,114,114,114,117,117,115,113,117,116,111,114,118,117,116,113,112,116,115,117,112,117,115,112,115,113,118,117,116,114,118
113,116,120,115,115,114,114,118,115,118,114,118,119,115,118,118,113,119,117,113,117,115,115,115,118,115,121,119,118,111,115,116,120,121,119,112,114,115,110,110,112,116,117,114,115,114,115,112,113,116,117,113,117,119,114,117,115,116,115,113
115,115,117,116,116,115,112,117,114,119,115,114,115,113,111,117,113,115,118,113,118,112,111,118,118,112,114,114,118,112,116,116,114,114,116,120,119,116,112,117,115,115,116,112,114,115,113,115,115,117,120,117,118,115,115,122,115,115,114,115
113,113,120,118,113,114,113,118,113,115,115,114,112,116,114,114,116,114,118,110,114,115,114,119,115,110,114,117,116,112,116,116,112,115,114,116,112,120,118,117,113,119,118,116,119,117,114,114,113,117,116,117,113,110,114,115,116,120,115,118
111,115,118,115,115,113,112,114,113,114,116,119,118,116,112,111,116,117,114,115,113,112,114,114,115,113,115,119,116,113,115,117,118,116,115,119,115,119,112,115,114,118,115,116,115,113,115,113,112,113,115,122,113,114,120,114,114,118,114,115
116,117,113,113,112,112,115,117,114,118,115,113,115,120,116,117,115,117,110,115,114,115,116,115,114,116,116,118,116,116,119,115,116,113,115,118,112,115,114,117,118,118,114,117,116,114,117,111,117,120,117,118,114,114,117,109,118,115,118,116
117,114,116,116,116,117,116,118,117,117,111,112,114,119,112,108,110,116,117,114,112,116,115,118,117,118,119,115,117,121,115,114,115,114,118,115,114,112,110,114,115,113,116,116,112,112,116,109,113,113,114,118,108,110,116,110,116,106,115,112
115,112,119,117,115,111,108,113,115,115,114,116,114,116,113,118,112,113,112,115,116,113,111,117,115,114,115,107,112,112,107,115,115,114,116,114,118,116,118,116,117,115,114,114,112,117,118,117,120,115,112,117,113,115,114,110,117,115,116,115
117,115,117,116,114,118,112,115,115,115,111,115,115,115,114,120,111,117,113,118,117,115,112,118,116,113,117,117,118,113,114,115,111,114,115,112,117,115,115,115,117,114,113,115,116,119,113,113,114,113,110,119,119,119,114,118,117,113,111,118
111,116,116,115,117,115,114,118,115,117,115,115,118,117,114,117,116,116,113,119,113,116,117,117,112,110,117,115,116,115,115,116,116,116,114,114,114,113,113,116,118,112,112,116,118,117,119,114,118,119,111,114,122,114,114,121,113,116,116,117
115,116,118,114,115,117,117,120,115,114,112,114,119,116,116,115,113,118,114,117,116,116,112,111,117,115,118,115,116,115,115,112,113,114,114,121,115,118,116,112,117,114,111,117,115,113,117,108,115,114,114,115,122,110,111,113,113,116,116,115
116,119,114,111,114,117,114,117,115,116,117,114,113,115,116,117,109,114,114,119,114,116,114,116,116,113,117,113,116,116,115,113,114,116,112,115,115,115,114,113,116,119,117,118,114,116,117,114,118,112,116,111,116,115,118,118,119,117,116,118
109,119,117,114,119,117,116,118,121,114,117,113,111,115,111,116,111,113,112,117,112,115,114,116,116,117,118,114,113,113,114,117,119,114,112,114,117,115,116,117,114,115,115,116,111,113,117,114,120,117,115,113,117,117,116,113,118,121,116,116
112,118,114,113,118,111,114,113,116,108,117,114,114,116,115,118,115,114,113,117,115,115,115,116,118,116,116,110,114,119,116,115,115,109,113,114,118,118,117,116,114,112,115,115,115,117,116,116,112,115,118,115,115,116,118,115,116,116,110,111
115,118,108,117,112,114,117,115,118,112,117,116,115,117,117,113,113,113,113,114,111,113,113,113,117,112,114,111,114,118,120,114,114,113,118,116,116,117,118,110,112,113,118,116,114,116,117,119,112,117,119,116,117,116,117,109,114,113,116,117
112,117,113,116,111,122,113,114,113,113,119,119,116,117,115,119,119,114,118,116,116,117,112,113,115,110,116,118,120,115,114,113,118,116,115,115,111,116,118,112,117,116,116,115,112,116,115,114,110,114,116,115,117,116,116,113,119,115,116,115
115,116,113,114,110,116,111,116,116,116,114,118,117,115,113,119,116,115,119,118,114,118,114,117,114,111,118,116,113,114,114,112,116,118,112,117,112,116,114,111,115,115,113,116,114,117,116,114,113,121,112,119,116,112,111,112,120,115,114,112
116,114,114,114,115,119,118,116,113,116,117,116,114,113,116,118,111,115,115,116,111,117,110,118,117,113,114,115,113,112,117,113,113,117,115,121,115,117,122,117,120,116,112,112,110,114,114,116,113,115,109,117,115,113,118,117,120,115,117,113
116,116,119,117,114,115,112,113,113,114,113,114,112,113,115,113,111,113,112,112,112,117,115,115,112,111,112,117,117,111,117,112,111,116,117,118,115,116,120,114,116,112,114,121,113,117,115,116,116,116,113,117,114,116,117,113,114,117,119,114
118,114,115,116,115,116,116,121,119,115,114,116,113,116,115,116,118,116,114,111,117,116,115,114,112,118,114,116,115,114,121,118,115,118,118,114,113,116,113,112,115,115,120,116,115,114,112,114,116,116,116,116,111,114,112,117,114,110,117,117
116,113,114,113,121,120,119,116,115,115,116,119,111,113,113,116,117,118,116,111,116,121,116,114,112,110,111,117,113,117,115,115,114,111,116,115,119,118,111,117,119,114,120,116,116,116,115,115,114,114,112,114,117,118,115,117,115,114,117,120
117,113,115,116,114,113,117,115,117,118,116,117,111,115,116,116,115,113,112,113,114,116,114,114,119,115,114,114,110,116,114,118,116,111,115,114,117,112,115,115,116,111,115,111,109,116,115,116,118,117,111,117,120,119,114,113,113,117,112,116
120,114,114,117,116,117,119,117,118,117,115,115,115,117,116,118,115,114,115,114,114,114,113,109,112,109,113,119,116,116,115,113,114,111,117,117,116,113,116,114,117,115,115,113,117,120,119,119,117,118,112,116,119,117,114,118,113,118,117,121
114,109,120,117,117,115,116,114,117,114,116,115,115,116,111,111,118,117,115,111,116,116,117,114,116,113,121,114,116,116,115,116,118,116,119,119,115,113,112,112,113,117,119,113,118,115,115,118,113,113,115,116,118,114,110,118,115,118,119,118
114,113,116,114,119,113,109,112,116,114,116,112,119,117,117,117,122,115,114,113,114,113,116,117,112,114,119,112,115,111,112,117,117,112,114,119,117,114,113,118,118,118,114,111,115,114,117,121,114,112,117,118,112,114,117,117,115,116,112,113
116,117,114,110,117,115,112,114,120,118,112,114,120,114,118,114,114,114,115,116,119,112,115,116,115,118,116,114,118,113,115,117,118,115,114,115,113,115,114,116,114,116,112,113,120,113,116,118,112,112,115,116,114,119,122,115,118,114,113,119
118,114,111,114,118,117,117,115,118,115,112,118,122,115,115,113,114,117,117,111,115,115,116,112,115,120,118,117,117,109,116,115,114,114,116,119,113,118,119,120,112,118,117,115,118,116,118,111,111,111,117,116,115,114,117,117,120,115,116,119
116,115,114,117,115,114,117,116,119,118,114,116,118,113,115,118,114,113,114,116,117,116,116,117,115,115,112,115,116,113,118,117,117,114,117,118,118,112,112,117,115,117,114,113,116,110,114,113,117,113,121,117,117,118,118,117,119,118,118,116
118,114,117,112,112,116,118,115,116,115,112,115,115,111,116,117,112,114,115,114,116,113,117,117,117,114,117,116,117,118,120,113,115,113,115,113,120,115,114,117,116,117,116,114,118,116,119,115,117,115,118,115,115,113,116,113,122,121,114,114
119,115,119,115,118,118,116,114,116,118,121,116,112,113,115,112,116,113,116,115,116,113,118,113,118,116,117,113,117,117,113,115,118,115,119,114,118,118,115,114,115,114,114,115,116,109,112,116,119,114,116,114,116,114,118,112,115,122,117,117
116,113,118,116,115,112,114,116,119,115,117,116,112,114,115,116,117,113,116,117,114,115,116,115,116,115,118,117,116,116,115,121,113,117,120,113,117,114,111,117,116,112,113,118,115,116,116,118,117,113,118,115,113,112,115,118,116,118,113,114
113,115,116,115,117,116,118,113,113,113,115,118,116,116,120,116,115,119,112,114,113,118,113,118,116,114,113,113,114,113,112,110,110,118,114,111,115,116,114,118,116,117,116,112,111,117,111,117,113,114,112,114,119,116,118,117,114,119,118,117
116,118,118,113,112,108,112,107,115,117,118,116,113,114,115,112,113,114,112,116,111,116,114,118,118,113,114,117,117,116,114,111,115,114,113,116,114,111,112,113,116,119,123,118,112,115,115,117,114,114,115,114,117,114,116,111,114,120,120,119
118,114,115,113,114,114,124,113,110,112,117,112,111,115,117,115,114,112,112,117,119,115,114,118,112,113,118,119,115,114,117,116,116,116,119,121,115,114,118,119,116,118,112,115,114,113,118,113,115,112,117,119,119,117,121,115,113,115,107,114
116,110,116,119,119,117,117,108,109,114,118,112,110,115,116,114,115,117,114,115,121,111,106,116,108,112,114,117,112,111,118,114,110,115,115,116,117,115,116,119,114,116,109,112,119,113,116,113,115,118,118,117,115,114,117,115,118,116,113,116
118,113,117,116,115,113,113,117,115,114,117,115,113,115,114,113,114,119,115,114,120,119,114,118,114,122,118,114,116,116,117,119,115,116,116,115,122,117,117,118,114,115,117,112,118,114,115,117,115,118,116,116,119,119,117,119,119,116,119,119
115,114,118,114,118,117,115,111,112,111,117,116,118,118,113,112,116,113,113,116,120,117,109,112,117,115,110,113,117,117,114,116,118,116,118,114,116,116,117,112,115,113,118,114,118,122,116,117,114,114,114,115,116,117,116,117,116,115,117,119
114,111,111,113,115,112,113,114,117,114,118,117,113,115,115,116,118,115,115,114,113,114,117,120,115,115,114,119,119,118,122,119,115,116,119,115,118,114,115,116,120,118,118,118,118,119,113,117,119,119,116,116,117,113,112,115,116,118,116,115
114,114,112,117,115,118,116,115,114,113,117,116,114,116,116,118,117,117,113,115,116,119,114,113,109,119,119,122,111,113,120,117,117,117,118,112,118,114,116,118,116,115,115,115,122,119,111,113,118,118,116,117,114,117,118,119,118,118,117,119
116,115,113,120,116,118,114,112,119,113,114,113,111,116,114,112,112,116,111,114,113,112,114,118,114,118,114,114,114,119,117,110,118,113,115,116,117,115,119,120,117,114,117,110,113,114,113,116,119,116,116,113,111,118,119,116,119,116,116,115
117,114,112,117,113,113,116,116,114,111,119,118,116,113,113,116,117,119,114,117,116,116,118,118,115,114,116,113,115,116,113,115,118,113,117,115,115,116,117,116,118,112,118,114,114,120,116,118,115,117,118,116,115,112,118,115,117,116,121,115
112,116,113,117,114,114,115,118,115,115,117,113,117,117,114,117,112,111,117,115,111,115,117,116,117,111,115,115,118,117,120,123,116,114,119,113,115,116,116,118,116,110,116,115,115,119,113,115,113,115,114,114,118,115,118,114,116,114,120,114
113,116,114,112,113,116,111,115,117,118,119,115,111,115,115,120,118,114,120,116,116,116,115,113,119,117,115,117,124,126,127,129,125,120,119,115,117,117,116,117,115,115,116,120,114,113,116,121,114,115,114,115,117,116,112,118,116,114,120,115
112,117,118,113,114,113,114,119,117,116,110,116,117,119,113,114,115,114,111,110,117,116,114,117,122,119,112,116,120,129,136,136,127,119,117,120,118,118,115,116,114,116,115,112,113,120,118,115,110,115,114,120,119,119,114,120,117,123,121,115
115,113,116,116,119,118,116,114,114,112,111,120,117,114,110,116,116,116,112,117,120,115,117,118,119,114,114,119,127,132,133,138,131,124,121,119,118,116,114,120,118,116,117,115,114,118,113,113,118,117,120,116,112,115,114,117,117,118,119,115
116,116,117,114,113,116,117,116,115,110,114,115,114,114,115,114,112,114,117,118,121,117,119,117,121,120,125,125,129,130,134,139,128,127,126,117,118,113,113,114,115,114,117,115,112,118,115,115,117,111,119,117,113,117,118,118,119,113,112,113
117,114,111,115,116,115,115,115,113,113,117,113,113,115,121,118,117,113,113,117,118,115,118,116,116,115,117,124,128,135,134,132,135,131,122,116,123,120,122,116,116,114,116,117,116,118,113,116,116,114,116,114,113,118,116,119,116,115,117,116
113,110,112,116,114,113,114,116,115,116,118,110,111,114,115,112,115,116,115,118,113,111,112,117,120,126,125,126,126,129,133,135,140,128,121,116,117,114,115,112,112,116,115,114,112,120,112,119,116,115,114,111,116,119,120,116,108,118,117,112
114,115,116,108,114,113,115,120,115,118,117,118,115,115,113,116,111,114,116,116,118,118,118,121,118,115,121,129,133,134,133,130,140,128,123,115,122,117,116,115,114,117,116,116,112,117,113,114,115,114,109,116,123,115,110,119,116,119,117,115
116,117,114,112,121,119,111,114,114,118,113,119,115,117,114,119,116,111,115,117,117,115,113,119,115,114,119,126,130,132,135,138,141,127,122,114,118,116,115,112,111,113,121,120,113,116,115,112,112,115,115,119,112,116,113,122,114,111,118,115
117,113,112,118,116,113,112,116,114,118,116,116,116,117,112,116,116,110,112,115,112,119,115,117,114,119,125,127,137,132,130,134,123,124,120,118,117,113,118,114,116,115,118,115,109,114,114,116,114,117,114,114,114,116,113,120,114,116,121,118
116,112,113,113,115,115,119,113,114,114,116,114,113,113,115,116,117,117,116,115,114,117,118,118,113,117,120,123,133,133,131,141,128,126,119,115,114,114,119,116,113,114,118,113,110,119,115,114,116,116,113,117,117,116,112,118,114,117,121,115
114,116,120,113,114,113,117,116,118,113,118,115,114,113,115,112,117,114,115,115,121,117,112,117,115,119,124,123,133,138,134,137,127,124,121,118,118,117,115,117,115,115,113,113,115,119,116,116,118,118,113,118,111,117,118,119,116,115,115,118
122,119,113,119,120,115,117,115,115,113,115,113,115,117,119,116,114,109,118,117,115,115,116,119,114,122,124,133,135,133,133,133,128,121,114,117,113,115,115,116,115,115,115,116,114,115,116,115,114,119,117,119,112,118,118,115,119,118,117,127
114,113,110,120,116,115,113,116,118,115,121,117,113,116,118,111,114,114,117,117,116,114,117,116,115,122,123,129,125,129,136,132,127,123,120,121,117,116,117,115,110,112,118,117,112,116,119,116,114,115,111,116,110,114,114,114,117,114,114,116
117,115,115,117,117,115,114,119,120,117,116,114,116,116,113,112,123,118,116,114,117,116,115,114,117,123,128,134,134,138,138,134,124,124,122,119,114,114,120,121,115,118,118,117,115,117,117,118,120,118,114,117,114,117,116,117,114,116,120,116
113,114,113,114,114,110,113,112,113,115,115,113,113,115,117,114,118,111,115,114,115,117,119,115,115,118,126,133,130,133,132,135,128,122,115,119,114,115,116,109,114,118,115,115,110,115,115,117,115,116,114,114,114,114,114,114,115,118,115,114
115,118,114,115,114,115,115,115,121,118,114,114,114,110,114,116,115,115,119,118,113,114,115,115,120,121,131,128,127,135,140,137,127,122,116,116,115,116,118,114,119,116,110,116,114,119,117,113,115,115,110,114,116,114,119,122,117,118,116,116
114,119,114,116,112,116,112,111,112,113,113,113,113,117,116,112,113,117,113,118,117,117,118,118,124,119,126,129,134,134,140,131,131,130,121,116,122,118,118,116,117,115,112,113,113,118,116,113,117,112,112,120,118,112,115,119,115,115,112,120
113,114,112,119,115,116,114,115,114,118,116,113,111,116,117,115,110,115,117,120,111,115,113,111,119,120,127,127,134,135,136,131,131,121,120,114,114,115,113,113,114,116,119,121,114,115,117,116,117,111,117,115,116,114,117,117,117,117,114,116
118,113,110,116,114,116,117,115,117,118,117,117,112,112,113,114,113,119,116,117,113,113,114,117,119,119,129,129,129,135,134,130,127,117,122,119,121,113,114,117,118,115,113,114,111,111,116,114,115,111,116,113,120,114,118,119,116,111,115,119
113,113,114,117,113,113,116,117,114,110,114,117,117,114,118,116,112,120,117,115,113,116,117,116,115,116,126,126,137,138,137,134,133,123,123,114,115,110,119,117,117,116,111,119,119,117,119,119,121,116,121,113,116,114,115,114,114,115,116,114
118,114,111,114,114,117,112,115,114,110,114,116,118,112,115,116,115,121,117,116,116,117,119,119,122,124,129,134,136,133,131,130,128,123,122,113,116,113,123,117,111,116,110,114,112,114,116,113,120,117,115,114,117,112,115,118,117,113,113,113
117,111,112,119,111,115,116,115,112,111,115,112,113,114,115,118,114,117,116,118,117,115,121,122,117,120,129,137,130,136,130,129,127,123,122,118,115,115,117,114,111,113,114,118,118,114,112,114,116,113,112,111,117,116,118,115,114,114,114,116
114,114,115,115,120,116,119,118,111,114,116,118,119,115,112,119,115,116,110,116,116,111,115,116,118,122,129,133,130,136,129,129,128,125,120,116,112,114,115,114,113,113,115,112,115,114,117,121,117,120,118,115,118,117,115,113,117,114,116,116
116,115,113,112,118,110,113,118,113,120,119,117,117,109,113,114,111,115,113,115,114,113,120,115,119,122,124,134,136,144,136,134,127,126,123,114,111,112,115,116,116,116,118,115,115,117,115,113,115,116,111,117,117,118,118,115,115,112,119,116
117,117,114,113,114,117,114,113,112,114,116,115,116,113,118,116,116,118,118,117,116,113,118,115,118,123,119,137,138,135,131,129,123,120,117,116,117,116,117,113,115,119,117,113,114,111,107,112,119,119,119,121,118,116,119,114,118,118,116,115
114,117,113,115,115,115,112,114,118,116,116,116,120,115,117,116,117,117,122,115,114,115,116,113,118,125,123,134,135,130,139,126,126,127,119,115,115,114,115,117,115,114,110,111,113,114,119,119,115,119,119,111,113,111,118,118,115,113,115,117
114,115,112,119,116,110,115,116,118,117,115,117,119,113,118,114,113,114,115,110,115,117,115,111,110,118,121,130,128,133,135,128,132,122,121,120,116,116,114,117,117,112,114,118,118,116,117,114,113,118,115,113,114,115,117,115,115,116,118,113
116,118,111,114,114,111,122,114,115,117,117,117,113,110,116,113,113,117,117,118,114,116,117,116,114,117,124,135,131,138,129,132,129,120,117,116,111,115,115,115,118,114,116,114,115,116,112,114,116,117,115,116,115,117,115,116,116,116,117,115
113,114,112,113,119,115,120,115,119,117,114,117,113,115,120,114,112,116,115,117,114,119,117,113,114,117,120,129,130,131,127,126,118,117,116,117,114,116,117,117,112,112,114,116,119,110,113,116,114,113,115,117,114,113,111,113,113,117,117,119
118,113,116,114,118,112,112,116,119,111,113,118,114,117,115,115,117,116,114,116,113,114,111,113,120,121,117,122,129,130,124,118,120,119,116,117,114,118,123,118,111,113,113,112,121,117,116,115,113,115,113,114,115,117,115,118,115,117,113,116
118,116,118,116,114,114,111,113,115,112,118,119,113,118,114,115,117,114,114,117,118,118,119,114,115,114,114,119,118,125,126,118,115,118,124,118,116,115,119,117,116,116,115,113,120,119,113,115,116,116,114,116,114,116,116,118,114,118,116,119
113,115,113,115,115,116,116,119,116,117,113,117,111,117,112,114,113,116,117,113,115,114,119,112,112,117,115,118,122,122,120,118,121,116,117,114,116,112,116,115,118,115,117,114,116,113,116,119,119,114,113,116,113,117,115,119,111,117,116,115
112,116,114,115,113,115,116,114,116,117,112,121,116,118,119,119,112,115,115,121,118,119,117,114,116,116,118,116,118,121,118,115,119,111,113,114,112,115,116,116,120,117,116,114,114,111,117,114,115,116,116,115,115,121,119,120,113,121,113,109
115,119,114,113,115,115,116,114,117,117,114,115,113,111,115,119,116,116,114,118,109,116,113,116,117,112,119,119,114,112,113,116,119,115,114,112,112,120,119,116,114,116,114,114,117,116,116,114,114,111,115,114,119,117,114,117,115,114,110,111
114,115,117,115,118,117,117,117,110,115,115,115,117,114,112,111,113,116,114,113,116,118,114,118,116,108,114,116,115,119,117,120,115,117,119,118,113,119,119,115,114,117,114,117,113,116,115,111,115,117,115,113,120,116,118,116,113,113,117,115
115,115,116,115,119,112,111,116,113,116,108,114,116,117,117,118,115,120,115,111,116,115,115,114,115,116,118,112,114,115,114,120,112,113,115,117,115,115,114,115,118,118,115,118,112,119,116,114,113,118,114,113,114,112,110,113,117,111,115,115
115,115,116,119,116,110,115,122,117,118,110,118,111,114,116,118,115,119,115,115,115,113,116,114,115,117,114,116,116,113,115,113,113,114,114,115,116,116,116,120,120,118,112,113,114,113,112,121,116,117,115,113,114,110,115,115,114,112,117,111
115,116,116,114,113,116,117,116,109,119,113,117,116,113,116,120,119,117,117,115,113,112,118,116,116,119,110,115,113,113,120,115,118,118,118,118,116,113,112,116,114,113,114,116,118,116,111,118,114,114,116,114,115,112,117,120,117,120,115,115
114,114,115,110,116,118,112,115,116,117,110,113,121,115,115,116,114,112,117,116,112,116,117,114,116,116,116,118,117,117,118,112,115,112,115,112,112,117,117,118,113,116,115,113,114,118,115,120,118,118,113,116,116,118,118,121,116,115,111,114
115,115,118,115,116,115,118,114,114,116,114,115,116,114,114,116,114,111,115,114,114,118,115,117,118,116,116,116,114,117,117,117,118,113,116,111,114,115,111,115,115,120,116,112,118,120,117,120,116,120,113,120,114,114,117,117,113,118,120,114
117,115,116,119,117,116,115,110,114,121,117,114,110,115,115,113,115,115,116,116,114,114,115,119,118,115,114,117,115,116,114,114,115,116,114,115,119,113,112,116,115,116,112,115,121,118,116,120,109,116,117,122,116,112,113,115,117,117,115,110
117,118,115,115,114,119,115,117,113,115,114,113,111,113,116,115,117,116,116,115,111,115,114,113,113,113,114,118,114,115,111,112,115,115,113,119,116,114,115,113,114,115,112,112,118,117,114,120,111,112,113,117,115,116,113,113,115,113,118,118
116,116,110,119,117,118,117,123,112,117,120,113,115,117,114,111,112,114,114,112,110,115,115,118,117,118,113,112,115,115,110,114,118,116,119,120,116,116,115,114,119,118,112,118,123,113,114,115,111,117,116,115,119,116,113,117,119,116,117,117
115,118,111,113,115,120,113,117,114,117,117,112,111,114,113,116,120,120,116,115,114,121,117,116,115,113,114,114,114,119,115,114,112,112,118,117,113,113,115,114,116,116,110,118,116,111,116,115,115,118,117,110,118,117,115,116,117,116,116,111
115,116,114,117,114,121,117,119,117,115,113,117,114,117,117,115,112,113,114,117,113,115,115,116,115,115,115,117,114,117,117,117,117,116,117,114,113,114,116,115,114,119,114,116,115,116,112,115,114,111,116,114,114,114,115,110,113,113,118,113
120,113,113,117,114,116,111,116,116,116,118,121,116,113,115,114,114,116,113,115,117,116,115,118,114,116,110,116,111,112,113,112,112,115,111,111,117,114,117,114,114,116,110,114,115,117,116,113,114,113,114,115,116,120,118,115,115,112,112,113
118,113,116,117,117,116,111,116,115,111,117,118,115,113,115,112,115,116,118,117,114,115,116,115,116,117,114,123,116,119,119,122,113,115,110,116,113,113,119,114,116,118,114,115,111,114,116,117,119,117,115,118,113,118,115,113,110,117,118,115
117,116,115,111,117,119,112,119,116,111,117,114,112,115,117,114,114,116,114,117,117,114,115,114,116,114,115,120,113,118,115,119,115,118,115,117,113,116,114,116,117,116,112,115,114,115,111,111,117,115,114,115,109,117,118,114,118,122,118,111
117,119,113,115,116,114,111,117,112,115,119,112,111,112,115,117,116,117,114,117,117,109,117,119,114,113,112,114,113,117,116,114,111,116,109,114,116,117,111,119,111,109,116,116,114,117,114,111,114,118,114,115,113,116,113,112,116,117,115,116
116,118,113,112,115,116,113,113,107,114,118,115,120,114,116,120,116,111,114,118,117,112,112,114,113,114,116,112,114,114,115,119,115,117,118,123,118,119,109,119,114,112,115,110,112,113,109,114,120,120,118,117,120,121,114,118,115,113,112,118
115,109,113,112,116,117,110,115,116,119,116,112,121,115,116,117,118,117,112,117,116,114,114,116,115,114,115,116,119,112,115,115,114,115,115,118,115,114,112,118,111,110,116,114,119,118,113,110,114,112,114,112,115,116,119,118,112,115,115,115
120,116,121,119,116,116,114,115,108,115,115,113,115,111,113,113,112,118,111,116,111,113,117,113,115,116,113,116,117,113,115,113,114,119,118,119,113,113,116,117,113,114,115,115,115,111,115,115,116,110,112,112,118,116,116,111,117,116,114,114
117,111,112,116,111,112,111,113,115,119,117,114,115,117,111,113,114,119,108,113,114,116,118,111,116,116,117,117,118,118,113,117,113,116,113,114,113,112,116,116,114,119,114,113,115,117,119,115,118,116,114,113,119,114,119,115,114,115,117,114
119,114,115,117,117,117,114,113,116,116,119,115,117,115,112,116,114,116,113,113,116,118,117,115,115,110,116,114,117,115,111,117,117,121,116,116,116,114,120,119,117,116,111,111,117,115,119,115,116,118,117,116,116,114,112,113,108,115,119,111
110,109,119,114,119,116,114,114,123,114,115,111,116,114,116,115,114,116,113,114,114,111,114,116,119,118,116,115,119,118,115,118,117,119,115,114,115,113,116,114,117,114,117,116,118,116,116,112,110,113,115,118,115,115,117,120,113,113,116,115
118,115,119,112,116,113,113,115,120,112,119,113,114,117,113,113,114,116,115,110,113,115,116,116,117,117,114,115,115,115,117,119,115,115,120,113,115,114,116,117,118,115,114,116,116,114,114,115,116,114,117,114,113,117,121,115,111,116,112,114
118,115,117,116,117,117,115,117,116,115,113,113,113,116,111,118,116,114,116,115,115,115,111,112,115,115,113,114,113,111,115,118,117,114,116,114,115,117,113,116,108,110,114,115,112,113,115,113,117,112,122,118,115,114,114,114,117,119,114,112
114,114,113,113,112,114,111,117,117,117,116,117,113,120,116,113,115,119,116,113,115,118,119,114,113,116,119,117,114,118,116,113,115,117,113,112,113,116,115,118,118,114,116,114,117,120,117,115,119,115,115,110,115,109,112,115,117,112,113,117
117,115,115,118,118,115,114,113,118,115,117,114,112,117,118,117,117,116,112,115,116,112,110,115,117,111,116,121,117,117,116,115,114,117,119,115,115,115,114,113,114,113,116,117,119,114,112,114,118,112,117,112,117,114,121,113,115,111,115,117
120,115,116,115,115,112,115,112,119,113,113,112,115,121,122,123,119,115,116,117,118,116,115,117,120,113,116,118,115,114,117,116,115,114,113,115,113,113,114,119,114,116,114,114,116,114,117,111,117,110,116,114,115,110,115,113,114,112,119,113
116,113,119,112,115,118,114,114,121,117,116,115,113,121,116,115,114,114,116,115,118,112,116,111,116,115,119,113,112,113,114,116,114,116,117,121,115,117,116,118,111,111,115,117,117,112,113,115,121,115,120,116,114,115,116,114,113,113,118,114
113,112,116,113,116,118,109,111,119,115,111,119,113,114,114,118,116,119,119,115,118,116,117,113,120,114,112,107,110,115,116,116,114,116,113,116,114,115,116,116,114,118,115,117,116,112,115,118,115,112,114,117,117,115,110,111,115,115,116,116
111,112,119,120,115,115,117,112,118,117,114,119,113,113,116,117,113,112,111,113,118,113,117,115,120,115,122,113,117,116,114,116,114,117,115,116,118,118,120,113,110,115,116,115,111,114,113,116,116,116,114,113,113,116,115,121,117,112,118,116
118,119,113,117,111,112,118,108,114,114,114,116,116,115,117,115,116,114,114,114,120,115,118,115,115,114,117,116,116,117,114,115,113,114,117,116,115,113,114,111,115,114,118,117,115,118,114,114,117,111,111,111,110,118,110,118,114,112,116,113
115,118,114,114,110,115,120,113,115,116,120,114,117,120,116,115,119,114,116,114,114,115,116,116,118,117,115,108,109,115,112,114,115,117,114,113,112,115,116,110,118,111,114,115,112,114,115,111,116,115,114,119,113,117,113,116,114,118,116,112
115,116,115,115,115,118,118,115,116,116,118,117,115,118,113,112,113,112,112,114,118,115,117,117,118,110,118,117,116,116,111,117,115,117,112,111,115,116,118,117,122,117,118,121,112,117,118,116,115,119,112,115,115,117,116,115,113,114,112,115
118,113,115,119,117,114,116,112,113,114,117,117,114,116,112,109,110,114,115,117,118,114,118,114,114,113,112,112,114,114,118,116,113,116,113,113,118,113,115,120,116,115,113,116,111,115,109,116,112,113,112,114,113,116,117,116,113,114,114,119
118,113,115,118,120,116,116,114,117,117,117,112,112,119,116,113,115,117,116,116,116,117,118,117,120,122,120,115,118,111,114,114,114,114,114,116,118,117,114,118,113,116,117,119,117,118,116,117,115,116,117,112,111,115,116,114,113,115,116,116
112,114,114,116,117,116,114,118,117,112,112,117,115,113,115,116,113,111,114,112,115,116,115,115,113,118,117,112,112,111,116,117,114,118,117,117,115,119,113,112,115,117,113,114,115,116,115,112,116,117,114,116,120,114,116,114,116,115,115,120
115,112,115,114,117,118,114,116,118,117,116,117,112,112,117,122,114,115,117,111,115,114,112,116,113,112,111,115,117,116,115,109,111,121,116,115,115,118,115,114,115,115,116,118,120,115,116,111,115,121,115,116,117,115,117,117,123,116,112,116
109,116,119,119,117,119,116,119,120,112,112,115,114,114,112,115,111,115,118,108,119,118,119,118,112,113,114,114,115,115,118,114,117,118,113,117,116,115,115,114,114,116,116,110,118,116,117,118,116,115,112,114,119,118,114,111,116,115,112,116
114,112,111,118,108,116,117,113,116,116,115,113,121,118,115,116,116,115,113,111,118,113,116,114,112,112,116,116,114,113,118,117,117,121,122,118,113,114,116,114,112,116,115,114,119,120,116,114,116,115,117,115,114,117,113,112,116,115,114,114
114,113,113,116,112,116,121,116,114,115,116,116,123,114,113,112,119,118,114,118,120,117,119,119,117,116,116,115,113,115,119,118,116,113,113,111,112,115,119,117,114,117,114,111,113,117,114,109,114,117,123,115,117,119,118,113,113,115,115,112
112,114,116,116,116,114,119,118,112,116,117,113,116,108,111,108,113,116,112,117,119,116,114,111,117,115,112,114,115,112,114,114,117,117,117,111,117,116,117,114,111,116,116,113,115,118,115,116,117,112,113,110,121,113,114,117,113,112,116,115
115,120,117,115,114,116,120,121,114,115,112,114,117,113,117,119,114,115,115,115,112,118,115,112,119,113,115,114,118,115,115,113,114,114,115,114,116,116,117,113,115,118,117,116,110,115,110,112,114,115,113,115,117,111,112,116,112,114,116,116
