50,61,72
111,113,116,111,105,115,112,115,116,116,109,117,116,113,109,110,115,106,108,115,113,115,114,112,113,111,114,111,115,116,110,114,115,113,111,115,114,115,117,111,112,113,114,114,111,112,107,114,119,118,113,113,117,115,113,114,111,113,115,115
114,118,108,109,113,116,114,111,121,114,111,112,111,117,110,113,110,110,115,116,115,114,111,112,113,111,112,113,114,113,113,109,112,114,110,109,112,113,116,114,112,112,115,116,114,114,116,114,108,113,113,108,112,112,110,111,112,118,114,114
117,112,113,119,114,113,117,115,116,113,113,116,112,115,113,115,116,108,111,117,111,114,114,114,114,111,113,110,111,116,115,111,111,112,114,110,113,114,114,118,110,112,117,116,112,115,115,113,115,111,114,113,111,110,115,115,113,110,114,111
112,115,112,110,116,113,111,114,111,108,117,116,112,113,116,113,112,115,112,116,115,114,114,115,115,111,111,109,111,114,114,114,115,114,109,112,115,112,116,116,111,116,111,113,109,115,108,111,114,117,115,113,114,109,113,115,115,112,110,113
112,114,113,116,115,110,111,112,113,114,117,111,111,113,115,115,114,114,111,112,114,114,115,108,114,111,113,115,111,110,112,113,110,113,111,111,111,116,114,115,111,113,112,111,112,113,109,112,113,111,110,113,113,111,111,114,112,109,112,112
114,116,118,113,111,117,114,113,112,110,113,114,111,110,113,115,109,116,117,114,116,110,115,111,114,113,113,112,110,116,112,112,110,116,115,114,111,112,112,110,114,115,116,112,115,110,111,114,114,110,117,112,111,116,115,112,111,113,112,109
114,117,114,114,113,112,116,114,109,117,113,110,112,117,112,114,114,114,117,115,112,115,112,114,111,112,110,116,113,114,109,110,113,110,116,111,116,106,115,111,117,111,115,115,110,108,115,115,112,114,112,113,109,116,116,113,111,109,112,115
110,117,112,113,107,112,116,114,113,117,111,114,112,116,115,114,116,113,118,113,110,110,113,115,109,111,112,114,111,111,107,115,110,107,117,109,109,109,117,116,108,112,114,115,116,112,114,111,110,110,114,116,113,114,111,115,116,117,116,113
114,113,115,115,106,116,114,114,114,114,116,114,110,109,111,116,110,110,114,110,115,110,112,117,111,108,108,114,112,113,113,117,116,115,113,112,111,113,117,111,113,114,113,114,114,111,111,111,113,114,116,111,117,115,113,113,113,112,113,116
113,114,114,115,112,115,113,119,113,112,109,115,120,111,109,112,116,116,112,114,111,113,114,112,114,111,113,111,111,114,115,114,114,113,111,118,113,112,117,115,113,110,109,111,110,111,115,111,113,116,115,114,110,113,114,110,112,114,114,113
108,112,110,112,112,113,111,115,108,110,111,111,111,112,113,113,113,113,118,115,109,108,111,114,114,113,115,118,117,110,115,114,116,114,112,118,114,114,116,111,113,116,113,117,108,114,114,117,115,110,114,117,110,113,115,111,110,117,109,117
116,112,109,115,113,114,106,110,112,113,117,115,110,112,118,115,112,116,111,114,116,111,109,114,111,109,112,116,116,112,117,114,116,116,111,108,117,117,113,106,115,114,114,112,110,113,113,110,112,116,116,112,118,113,111,113,118,109,117,112
113,115,114,111,112,115,108,111,114,111,113,114,112,108,115,115,112,114,109,118,118,116,113,114,111,110,115,109,115,117,112,110,108,113,113,115,115,112,115,110,112,114,111,115,110,110,114,113,114,115,109,113,110,114,114,116,109,109,112,116
109,115,111,108,115,108,113,111,112,117,114,112,112,116,113,117,114,112,115,113,115,111,113,113,116,110,115,116,112,116,111,114,115,108,116,117,112,114,115,111,111,117,116,117,109,112,111,113,113,113,116,111,111,112,113,116,111,116,112,114
114,114,112,113,109,115,113,116,114,115,113,111,110,118,113,117,117,113,115,113,112,108,111,112,112,115,110,115,115,116,110,114,109,114,116,111,115,112,110,115,114,114,112,112,114,109,112,114,111,111,111,114,116,110,113,114,115,113,109,116
117,117,110,109,113,114,113,118,117,113,107,118,115,116,107,113,112,115,115,110,110,115,111,112,118,114,112,117,113,115,114,115,104,115,115,115,115,111,112,115,113,108,112,115,112,108,111,115,115,112,110,116,115,110,115,114,112,114,109,115
114,112,112,116,112,112,112,113,112,108,113,115,111,115,116,113,110,114,112,115,112,113,115,111,115,113,116,112,117,114,108,116,115,110,115,113,113,111,114,117,110,109,113,114,113,113,114,111,113,115,112,115,111,112,114,112,111,113,112,115
111,116,110,115,114,115,113,113,111,118,115,111,117,111,115,112,114,115,113,115,115,113,116,113,113,114,114,111,113,116,110,110,114,117,114,112,114,112,113,114,112,114,115,111,113,115,116,114,107,113,114,112,111,114,111,113,113,115,117,110
112,115,112,116,114,110,111,114,110,113,116,113,111,112,113,113,114,117,113,111,110,113,116,117,115,114,113,114,117,113,112,114,112,111,109,111,116,115,113,114,115,113,111,109,112,108,112,116,115,111,110,117,116,111,111,116,110,110,120,113
114,115,116,113,114,117,108,112,110,112,117,117,112,110,113,114,114,112,111,113,115,117,112,116,114,114,110,117,112,109,111,115,115,113,111,113,111,114,112,111,112,118,113,115,120,109,108,113,112,109,116,111,107,113,112,116,108,112,110,114
114,112,114,117,116,112,109,115,111,115,118,113,109,116,115,113,112,109,112,110,110,113,114,116,111,112,109,116,113,111,113,112,116,113,117,116,113,115,112,110,114,113,107,111,114,115,114,114,112,112,112,115,111,113,116,113,111,112,116,114
113,110,113,112,115,114,111,118,113,112,118,115,115,116,113,112,112,113,113,116,112,110,114,117,113,114,113,114,113,117,112,114,117,113,113,115,116,113,109,115,114,113,110,113,109,114,113,115,111,115,113,111,115,114,113,111,113,115,113,117
118,111,113,113,110,115,112,113,109,117,119,110,111,116,110,110,118,112,114,112,117,112,114,110,112,114,111,112,114,114,111,112,112,114,113,110,114,117,111,117,115,111,113,113,114,115,111,112,116,113,111,114,116,114,112,110,115,117,110,114
115,115,113,110,107,114,113,112,112,120,114,112,113,114,110,113,113,113,112,111,113,111,117,116,111,111,114,118,115,109,113,112,112,109,120,115,113,113,113,113,113,112,115,109,116,110,112,112,112,115,110,115,119,111,110,116,113,113,114,110
113,110,113,110,117,106,112,112,114,113,116,117,111,113,117,114,112,111,113,112,112,112,113,115,112,111,113,111,113,112,114,113,112,115,118,112,111,112,112,114,113,112,116,115,109,109,111,116,113,109,111,112,114,114,110,116,115,109,112,111
118,111,111,110,112,111,111,116,116,109,110,117,113,114,113,113,118,116,110,114,117,110,113,112,111,107,112,112,112,116,113,114,113,110,114,116,115,114,114,114,112,111,112,115,116,109,111,117,115,116,114,112,111,115,113,109,109,113,115,114
110,110,110,107,111,116,116,112,113,112,114,115,111,116,111,110,109,110,111,113,114,113,115,111,113,116,114,114,114,116,113,115,114,114,113,114,114,111,114,113,107,115,111,108,114,114,114,113,115,112,111,114,114,117,113,111,112,110,109,108
114,115,113,110,113,118,116,112,111,109,113,114,108,114,112,113,112,108,108,108,114,117,112,112,111,108,112,112,115,111,113,120,111,111,118,115,119,110,112,113,111,114,116,110,104,118,113,114,115,113,118,116,114,109,108,112,113,107,113,112
116,116,115,115,115,116,110,113,110,109,113,112,112,116,112,117,116,114,114,110,116,109,112,118,106,113,112,111,110,107,118,116,113,113,116,111,113,113,113,111,114,110,115,115,116,112,112,112,117,111,108,120,113,115,111,115,111,110,113,113
113,112,110,117,114,112,113,115,115,108,112,112,112,109,112,116,113,114,112,113,111,115,110,114,106,118,112,110,117,114,115,111,113,114,109,111,113,109,112,115,113,110,114,112,110,111,115,110,114,111,115,114,111,113,115,117,114,112,113,115
115,111,114,115,113,108,118,112,117,113,112,108,116,114,111,111,116,117,107,112,107,116,115,109,113,114,112,115,113,116,115,115,114,110,113,111,114,110,110,115,112,114,110,113,115,110,113,113,114,116,116,114,111,111,108,112,114,112,114,117
112,111,116,111,116,111,116,109,113,111,118,119,111,117,113,109,111,118,111,107,114,110,118,112,109,114,116,118,110,110,114,116,110,111,114,113,115,110,110,113,112,116,111,109,108,113,113,114,117,112,107,114,114,113,111,109,113,114,113,117
113,116,111,114,111,116,116,112,114,112,110,111,114,109,115,115,111,115,109,117,111,111,114,112,112,117,115,112,111,114,112,117,113,109,116,113,110,114,110,111,117,113,113,114,111,112,112,113,110,113,115,114,111,110,115,113,111,110,112,113
114,117,111,114,117,112,116,113,111,112,110,111,111,112,115,112,110,111,112,115,116,113,112,112,112,112,114,110,111,114,114,116,114,114,116,113,112,117,113,110,113,113,114,111,109,112,115,114,113,116,115,113,113,113,115,112,114,109,110,112
116,118,114,109,114,116,110,114,115,111,113,113,114,112,113,112,110,111,109,117,114,109,113,114,112,114,111,113,115,115,119,112,112,115,112,116,111,115,114,110,108,112,116,111,114,112,113,115,111,112,115,114,114,110,113,113,117,114,108,113
116,115,114,113,113,112,111,113,112,113,114,115,111,115,113,115,117,113,112,111,115,117,117,114,108,115,113,112,109,115,112,111,117,114,118,114,111,117,115,111,108,113,110,110,117,110,110,110,110,106,120,111,111,110,113,111,110,119,113,108
114,112,114,114,114,112,114,112,114,112,114,116,111,114,112,113,115,113,113,113,109,114,114,109,113,113,107,118,120,115,112,114,114,117,112,115,118,114,108,113,115,113,110,114,110,111,113,110,112,111,112,113,115,108,110,114,115,112,113,111
109,113,113,107,113,114,113,109,117,111,115,112,114,115,114,114,112,116,113,117,115,112,114,112,118,112,114,110,113,111,115,116,113,116,113,115,115,111,109,112,117,110,111,113,115,118,108,113,111,114,111,112,115,113,109,114,113,113,114,109
109,116,111,112,113,110,114,107,105,112,113,116,106,115,113,116,109,113,110,114,113,116,110,113,114,113,115,111,118,116,114,115,119,117,116,113,114,114,113,115,115,116,115,115,114,115,109,115,112,110,114,112,114,115,114,113,113,113,113,115
110,114,112,114,109,114,115,112,109,118,112,113,112,115,107,108,108,114,110,112,116,114,114,110,112,113,116,117,112,114,118,119,121,123,121,116,119,115,116,113,114,116,109,115,116,110,110,115,112,115,117,113,114,112,112,114,119,110,110,110
110,115,114,111,112,111,108,111,113,114,113,114,112,117,114,107,109,112,110,112,112,112,113,110,116,119,115,116,115,113,119,122,124,126,122,117,115,113,114,110,115,112,108,114,113,112,113,110,113,115,116,114,110,114,109,111,115,113,118,114
112,116,114,114,115,113,112,114,114,111,113,111,113,115,114,114,113,112,113,114,110,113,111,110,115,113,114,117,117,115,118,123,127,126,126,122,122,116,112,117,117,113,113,114,115,111,117,110,114,111,112,115,114,114,115,117,111,117,113,112
117,115,115,115,114,112,113,112,113,114,113,115,117,112,111,117,117,115,110,112,115,114,105,115,116,110,113,117,119,120,124,127,129,124,121,122,126,117,112,115,114,117,115,113,111,112,112,113,110,113,113,108,116,112,114,115,104,115,111,112
111,114,116,115,113,111,114,115,115,115,114,113,116,113,114,115,116,111,112,115,116,118,115,117,114,113,115,119,114,120,120,126,126,129,123,122,116,114,116,112,116,115,113,113,114,117,109,113,113,111,117,111,114,110,112,111,112,112,108,115
105,110,115,113,114,117,111,116,113,117,111,113,111,113,114,116,112,107,119,109,115,114,108,116,117,113,122,112,114,123,122,125,126,134,120,128,122,116,112,111,113,111,112,114,111,111,113,114,114,112,110,111,115,111,114,109,112,116,116,112
111,114,114,110,117,113,111,115,105,110,112,110,115,110,113,114,113,113,113,116,113,117,110,113,115,117,121,118,118,118,123,125,123,126,126,123,119,115,113,109,112,111,113,115,117,114,109,114,109,111,110,115,110,113,115,113,108,110,114,112
114,115,113,110,116,109,113,111,112,112,115,114,110,117,116,108,107,114,113,119,112,106,112,116,111,117,117,118,118,117,126,126,123,123,126,123,120,116,115,114,117,114,114,114,113,109,113,113,112,113,116,114,109,111,114,114,113,109,108,110
114,113,112,113,113,118,116,112,115,115,113,116,115,112,109,113,113,109,112,114,116,117,110,114,116,117,111,115,120,123,126,122,125,129,127,125,116,113,116,117,114,114,115,112,113,110,108,111,114,114,115,113,115,114,115,114,112,108,114,111
106,113,113,112,108,111,116,113,113,112,111,117,112,111,112,114,115,114,112,110,116,117,116,112,113,116,113,116,115,123,129,123,126,133,123,115,114,114,114,116,118,108,107,116,114,109,112,113,114,113,113,114,113,112,113,114,109,110,114,113
111,112,114,112,112,115,113,111,112,114,114,113,109,112,116,115,112,115,118,115,113,112,113,114,114,116,116,117,122,125,129,125,126,129,122,117,114,118,113,110,117,113,110,115,112,111,116,112,112,117,114,114,112,112,119,112,113,110,110,116
111,115,115,111,109,115,116,113,112,110,112,108,112,115,115,114,114,112,115,110,111,116,116,114,116,117,119,118,125,132,132,127,131,130,121,121,115,117,115,115,111,115,118,110,110,114,115,110,110,117,113,109,117,113,112,111,119,113,111,113
113,116,112,110,110,112,113,109,116,115,110,110,115,107,113,109,114,113,113,113,113,114,116,111,112,116,113,114,124,127,126,127,128,133,123,117,113,116,119,115,111,111,110,117,115,111,109,116,115,113,116,117,113,114,113,113,112,112,117,111
114,110,112,113,110,116,112,112,115,115,109,117,109,113,110,113,111,117,114,113,112,110,116,110,113,116,117,114,122,125,126,127,132,130,125,118,119,113,113,118,111,113,116,112,117,116,110,114,112,114,117,114,113,111,114,111,114,109,112,113
113,110,115,108,116,112,113,115,113,113,110,113,113,113,112,118,115,110,115,114,117,109,115,113,115,112,120,118,117,128,128,129,130,126,119,119,126,115,115,107,113,116,114,110,113,113,114,114,113,114,111,110,114,116,114,112,112,113,115,114
109,110,111,113,114,112,110,111,115,111,113,112,113,110,113,113,117,110,113,109,113,116,113,113,114,115,117,118,120,126,124,131,126,123,122,115,112,117,117,110,113,113,114,115,112,110,114,115,116,114,113,113,110,109,115,112,110,112,113,115
114,111,110,113,112,116,119,112,110,113,109,118,112,109,115,109,109,113,114,114,115,113,111,115,116,118,120,119,118,124,121,130,131,124,121,115,112,116,118,116,114,113,115,114,111,111,114,115,113,112,113,112,110,114,117,115,119,111,111,117
115,112,112,111,109,114,111,110,113,115,111,112,112,115,115,113,114,114,112,111,113,111,114,113,116,117,116,126,130,126,127,132,128,125,122,122,115,114,118,114,116,113,107,112,113,114,114,109,112,113,114,111,112,114,112,111,116,112,112,108
116,113,112,116,114,114,109,107,111,112,115,114,109,114,113,111,113,113,112,109,110,114,114,115,114,115,118,125,126,122,127,128,124,125,122,119,114,116,117,111,116,112,112,108,113,111,113,116,112,112,116,114,111,113,110,110,110,116,114,115
114,109,111,115,113,111,117,111,111,114,114,114,108,113,114,109,109,113,114,115,113,117,112,115,115,116,122,121,126,126,134,127,132,126,121,121,112,114,112,111,112,114,115,114,112,118,106,113,115,116,118,110,113,111,111,114,112,113,114,115
112,113,112,116,114,115,113,111,110,107,114,112,109,113,113,118,116,113,113,114,114,115,114,116,117,119,119,122,125,129,131,130,129,122,119,116,112,114,116,114,116,109,111,115,112,116,114,107,114,117,116,110,113,113,115,108,112,114,114,112
110,114,108,114,113,111,110,116,113,107,115,113,113,112,109,114,116,113,113,109,114,114,109,115,114,114,119,129,122,131,134,126,126,119,113,116,109,114,110,116,113,112,110,113,111,114,114,110,114,111,114,114,110,112,115,114,110,117,111,113
109,113,109,113,111,113,114,109,115,110,112,117,114,111,109,112,112,113,116,112,111,113,115,117,110,110,118,127,123,133,127,130,129,123,114,117,113,112,113,114,113,114,110,116,112,110,110,113,112,112,113,111,109,115,112,114,112,113,109,109
113,113,112,112,113,110,116,106,110,116,110,112,117,113,110,116,111,113,109,115,111,112,109,117,116,114,119,126,124,135,136,135,126,123,120,116,105,112,119,113,112,111,112,109,117,116,111,116,112,113,110,109,112,112,110,113,111,113,116,116
112,116,111,113,118,117,110,108,114,114,113,109,112,112,115,112,109,113,112,114,118,112,115,117,107,117,124,122,125,130,129,127,128,127,120,118,112,110,112,116,111,109,113,114,115,107,113,115,114,114,111,116,116,114,117,115,111,114,114,113
113,111,110,116,116,116,113,111,116,112,110,111,113,116,110,113,113,113,113,115,116,113,119,117,114,118,120,121,121,124,128,129,134,131,123,118,112,111,116,112,116,110,112,115,113,115,106,114,118,109,111,114,117,111,112,112,113,114,114,106
109,106,109,112,112,109,112,114,116,113,110,113,110,112,113,107,114,114,112,116,112,113,118,113,117,116,117,122,119,126,126,131,130,124,123,121,115,115,120,115,114,112,108,112,111,109,111,114,119,109,111,111,114,117,108,107,110,114,113,108
114,111,112,110,111,109,113,115,111,108,112,118,110,112,117,110,110,110,117,115,113,115,115,112,114,118,118,118,124,130,126,127,129,124,121,117,116,112,111,108,115,118,110,112,116,111,118,113,110,118,115,113,114,115,114,113,110,110,107,112
113,112,114,109,115,113,117,114,112,111,116,117,113,111,114,117,116,113,113,113,116,110,116,113,110,120,122,120,123,123,125,124,129,121,120,116,120,114,117,111,113,116,114,112,109,112,114,111,112,115,115,109,115,116,111,118,111,111,111,114
108,114,115,112,113,113,115,109,114,113,116,110,112,111,114,115,109,114,117,112,117,112,113,115,114,116,114,119,121,123,126,122,126,124,121,112,114,113,112,114,116,114,110,113,110,114,111,110,112,112,111,113,112,114,115,115,107,111,114,114
108,112,113,110,107,117,115,114,113,114,117,111,110,111,115,116,111,111,116,115,112,117,114,117,114,111,117,120,125,126,128,126,120,126,120,114,113,117,115,115,111,110,114,115,111,113,111,111,110,113,113,113,112,113,115,114,113,112,113,114
111,119,115,110,106,113,109,115,111,109,115,116,115,111,113,114,111,114,111,114,115,112,112,110,116,116,122,123,132,123,121,126,125,126,119,115,113,117,116,109,113,112,115,115,109,115,113,112,112,113,115,117,111,110,109,111,113,113,111,116
109,112,113,116,108,113,107,115,116,113,111,112,117,115,113,112,112,115,113,114,112,110,110,115,113,118,120,123,127,125,131,127,130,129,119,117,115,112,115,111,113,113,115,112,111,108,115,115,108,111,115,112,113,113,112,108,108,112,114,112
113,113,113,115,114,116,115,112,110,111,110,112,115,113,112,114,116,110,112,118,114,113,113,114,116,117,115,123,124,122,128,131,126,122,123,118,114,109,118,117,114,109,117,110,111,114,112,112,114,115,116,108,114,112,112,116,112,111,112,112
114,112,111,114,115,114,113,115,117,110,111,115,113,112,114,116,115,110,115,116,114,110,113,113,118,114,117,124,124,129,129,124,125,122,123,118,106,116,115,111,115,115,108,110,113,110,113,110,112,114,115,111,113,113,107,112,112,115,112,110
114,115,109,109,111,112,111,115,111,112,115,114,114,110,110,115,114,114,117,113,116,113,119,118,108,113,114,122,122,134,129,124,123,125,120,113,115,116,114,106,109,115,107,111,114,114,114,110,114,113,116,112,108,115,114,112,109,114,116,111
111,116,111,111,108,111,111,115,111,109,114,114,112,116,115,108,110,111,109,114,116,113,107,112,111,120,112,122,122,127,131,131,136,121,117,113,121,114,118,110,112,115,116,108,113,110,114,112,113,111,116,114,109,114,116,117,113,111,114,114
112,115,107,115,111,112,111,114,113,113,110,115,112,114,113,110,113,111,116,111,116,113,116,116,111,115,122,121,128,131,129,128,129,121,120,118,118,110,119,115,111,114,113,111,114,109,117,114,111,112,114,112,113,114,111,112,115,113,112,111
111,110,116,115,108,111,110,117,112,109,111,112,117,112,116,111,111,116,119,111,113,115,122,115,110,120,121,119,125,136,128,128,127,124,121,120,118,115,111,110,110,113,115,113,114,113,114,119,111,112,115,110,112,117,113,112,112,114,114,113
112,112,113,111,111,104,114,111,111,108,113,114,112,111,116,113,110,114,114,114,114,114,113,113,113,118,115,117,125,130,126,129,131,127,115,116,116,109,110,118,114,108,114,117,112,115,115,111,112,111,110,110,114,116,116,111,112,114,115,110
114,110,114,113,113,110,113,111,113,111,110,112,111,112,115,113,109,111,115,114,107,112,117,110,118,118,117,118,124,129,128,126,128,125,123,119,112,110,114,115,113,106,111,113,114,115,115,111,113,113,109,112,111,116,115,113,109,109,113,111
111,112,116,114,110,111,113,116,113,114,115,112,109,111,112,115,114,109,114,115,114,113,114,118,111,113,116,115,125,126,127,126,123,118,121,116,117,116,112,111,114,113,111,108,116,113,109,115,111,114,107,116,112,110,108,113,105,110,112,114
110,114,113,108,112,112,113,113,111,111,111,112,116,113,110,119,112,117,115,112,112,111,108,116,113,113,119,112,118,128,127,124,123,122,118,110,113,116,114,116,111,116,111,106,112,113,114,114,108,112,112,115,107,113,107,115,110,111,113,111
112,112,110,111,111,110,115,111,111,114,110,106,114,120,108,108,111,109,117,113,109,114,107,115,112,113,119,114,119,128,128,122,124,114,116,108,119,110,113,115,112,115,117,114,116,110,114,109,116,113,115,114,108,112,113,107,112,111,111,116
107,113,116,113,108,111,116,111,110,116,111,112,113,111,114,115,112,108,115,118,109,118,113,115,107,113,114,113,117,120,122,120,115,117,110,112,119,112,113,114,114,113,113,116,116,112,114,110,110,113,112,109,108,113,112,109,110,110,114,113
108,111,111,111,108,117,110,110,112,110,115,111,112,112,114,114,110,116,111,116,107,109,116,110,114,113,114,110,112,117,117,117,114,118,112,115,116,117,109,112,116,110,112,113,109,116,111,114,114,109,110,109,111,111,114,110,113,111,111,109
109,107,116,110,112,117,105,113,113,112,115,111,109,113,115,114,111,111,117,115,110,111,114,113,110,113,116,110,115,112,113,114,113,112,115,112,110,109,111,114,113,109,115,115,109,109,114,114,108,110,112,114,112,112,112,108,113,114,111,108
113,109,109,112,111,112,114,115,106,110,114,114,110,113,117,114,113,111,115,116,116,116,112,111,114,115,112,112,115,114,109,114,111,109,117,116,113,111,110,115,117,111,115,116,115,113,115,111,109,112,110,116,112,110,112,109,113,113,115,109
110,111,112,112,110,111,113,111,108,115,115,110,111,114,110,113,114,112,112,109,108,110,112,111,117,115,109,114,113,114,112,113,114,110,110,115,114,110,108,109,112,118,118,113,111,111,108,115,111,112,113,113,108,117,116,111,107,106,116,113
116,109,115,116,112,111,111,114,113,114,113,108,111,112,109,111,115,114,110,115,111,107,114,115,110,114,110,112,113,114,113,113,111,112,113,115,115,115,111,112,110,113,114,114,116,114,107,106,114,114,111,112,109,109,104,111,112,111,108,117
112,113,118,113,116,115,117,111,112,115,108,116,112,113,112,113,109,113,116,114,113,110,110,114,111,112,109,106,112,114,112,111,109,109,112,109,110,113,113,101,115,112,111,116,111,112,112,110,109,111,108,108,119,108,110,109,113,112,107,113
108,110,115,112,108,110,113,116,113,113,110,112,113,112,109,111,113,110,113,117,112,106,114,108,112,107,113,113,112,109,114,111,113,109,113,106,111,108,111,107,109,112,113,114,114,108,112,108,105,110,109,107,110,108,111,111,106,107,107,113
114,113,110,114,112,111,109,110,114,117,113,111,114,111,109,109,111,107,105,118,116,107,115,111,116,108,113,115,113,113,111,113,106,108,113,111,114,110,112,113,110,113,107,111,112,114,110,112,110,109,108,111,109,107,112,109,112,113,108,115
111,111,113,115,114,114,110,111,115,108,108,112,113,111,115,111,112,110,112,112,109,111,109,109,105,109,114,111,111,112,116,108,109,115,110,112,109,110,105,109,114,114,111,115,113,111,113,114,112,112,111,113,110,109,114,110,108,108,107,114
110,120,112,113,110,110,113,113,117,113,109,108,113,113,113,105,110,115,112,113,112,113,112,110,109,108,113,113,111,111,109,108,116,107,110,111,109,107,110,109,109,114,111,111,113,107,109,112,108,109,112,112,111,109,113,111,107,107,110,113
114,113,110,109,114,115,114,111,108,111,108,112,113,113,111,112,113,110,113,111,113,111,107,110,114,109,112,113,113,111,108,112,113,111,107,110,110,105,112,113,108,112,110,108,112,110,113,107,105,111,111,112,106,107,113,107,111,108,116,114
114,113,109,111,110,112,116,114,114,113,111,111,109,114,109,116,114,109,111,111,111,110,114,114,109,109,110,109,112,114,111,108,112,110,107,110,113,110,113,107,106,112,111,111,113,109,116,108,107,110,110,115,111,113,115,115,115,116,115,115
117,115,111,111,110,110,111,112,112,108,112,114,107,114,110,109,111,106,110,113,112,113,113,108,110,115,110,105,111,108,107,113,111,111,109,109,111,112,110,113,112,110,114,112,114,113,115,115,115,116,116,115,116,116,115,115,115,115,115,115
112,109,110,115,113,110,108,111,116,111,113,111,110,107,115,114,113,112,112,110,114,107,112,111,111,110,111,112,113,104,112,106,111,107,111,114,112,114,114,115,115,116,115,116,115,116,115,115,115,115,115,115,115,115,115,115,115,115,115,115
112,107,113,113,114,113,112,106,110,110,104,113,111,109,113,110,108,110,109,113,109,106,111,107,108,115,109,116,115,111,115,114,115,116,116,115,116,115,115,115,115,115,115,115,115,115,115,115,115,115,115,115,115,115,115,115,115,115,115,115
111,114,113,106,112,111,113,108,107,112,107,106,110,111,109,105,110,109,110,113,107,113,114,114,115,115,116,115,115,116,115,115,115,115,115,115,115,115,115,115,115,115,115,115,115,115,115,115,115,115,115,115,115,115,115,115,115,115,115,115
109,110,110,111,108,108,109,113,105,109,106,115,112,111,113,113,115,115,115,115,116,116,115,115,115,115,115,115,115,115,115,115,115,115,115,115,115,115,115,115,115,115,115,115,115,115,115,115,115,115,115,115,115,115,115,115,115,115,115,115
108,111,109,110,112,111,112,115,114,115,116,115,115,116,116,115,115,115,115,115,115,115,115,115,115,115,115,115,115,115,115,115,115,115,115,115,115,115,115,115,115,115,115,115,115,115,115,115,115,115,115,115,115,115,115,115,115,115,115,115
114,115,115,116,115,116,116,115,115,115,115,115,115,115,115,115,115,115,115,115,115,115,115,115,115,115,115,115,115,115,115,115,115,115,115,115,115,115,115,115,115,115,115,115,115,115,115,115,115,115,115,115,115,115,115,115,115,115,115,115
115,115,115,115,115,115,115,115,115,115,115,115,115,115,115,115,115,115,115,115,115,115,115,115,115,115,115,115,115,115,115,115,115,115,115,115,115,115,115,115,115,115,115,115,115,115,115,115,115,115,115,115,115,115,115,115,115,115,115,115
115,115,115,115,115,115,115,115,115,115,115,115,115,115,115,115,115,115,115,115,115,115,115,115,115,115,115,115,115,115,115,115,115,115,115,115,115,115,115,115,115,115,115,115,115,115,115,115,115,115,115,115,115,115,115,115,115,115,115,115
115,115,115,115,115,115,115,115,115,115,115,115,115,115,115,115,115,115,115,115,115,115,115,115,115,115,115,115,115,115,115,115,115,115,115,115,115,115,115,115,115,115,115,115,115,115,115,115,115,115,115,115,115,115,115,115,115,115,115,115
115,115,115,115,115,115,115,115,115,115,115,115,115,115,115,115,115,115,115,115,115,115,115,115,115,115,115,115,115,115,115,115,115,115,115,115,115,115,115,115,115,115,115,115,115,115,115,115,115,115,115,115,115,115,115,115,115,115,115,115
115,115,115,115,115,115,115,115,115,115,115,115,115,115,115,115,115,115,115,115,115,115,115,115,115,115,115,115,115,115,115,115,115,115,115,115,115,115,115,115,115,115,115,115,115,115,115,115,115,115,115,115,115,115,115,115,115,115,115,115
115,115,115,115,115,115,115,115,115,115,115,115,115,115,115,115,115,115,115,115,115,115,115,115,115,115,115,115,115,115,115,115,115,115,115,115,115,115,115,115,115,115,115,115,115,115,115,115,115,115,115,115,115,115,115,115,115,115,115,115
115,115,115,115,115,115,115,115,115,115,115,115,115,115,115,115,115,115,115,115,115,115,115,115,115,115,115,115,115,115,115,115,115,115,115,115,115,115,115,115,115,115,115,115,115,115,115,115,115,115,115,115,115,115,115,115,115,115,115,115
115,115,115,115,115,115,115,115,115,115,115,115,115,115,115,115,115,115,115,115,115,115,115,115,115,115,115,115,115,115,115,115,115,115,115,115,115,115,115,115,115,115,115,115,115,115,115,115,115,115,115,115,115,115,115,115,115,115,115,115
115,115,115,115,115,115,115,115,115,115,115,115,115,115,115,115,115,115,115,115,115,115,115,115,115,115,115,115,115,115,115,115,115,115,115,115,115,115,115,115,115,115,115,115,115,115,115,115,115,115,115,115,115,115,115,115,115,115,115,115
115,115,115,115,115,115,115,115,115,115,115,115,115,115,115,115,115,115,115,115,115,115,115,115,115,115,115,115,115,115,115,115,115,115,115,115,115,115,115,115,115,115,115,115,115,115,115,115,115,115,115,115,115,115,115,115,115,115,115,115
115,115,115,115,115,115,115,115,115,115,115,115,115,115,115,115,115,115,115,115,115,115,115,115,115,115,115,115,115,115,115,115,115,115,115,115,115,115,115,115,115,115,115,115,115,115,115,115,115,115,115,115,115,115,115,115,115,115,115,115
115,115,115,115,115,115,115,115,115,115,115,115,115,115,115,115,115,115,115,115,115,115,115,115,115,115,115,115,115,115,115,115,115,115,115,115,115,115,115,115,115,115,115,115,115,115,115,115,115,115,115,115,115,115,115,115,115,115,115,115
115,115,115,115,115,115,115,115,115,115,115,115,115,115,115,115,115,115,115,115,115,115,115,115,115,115,115,115,115,115,115,115,115,115,115,115,115,115,115,115,115,115,115,115,115,115,115,115,115,115,115,115,115,115,115,115,115,115,115,115
115,115,115,115,115,115,115,115,115,115,115,115,115,115,115,115,115,115,115,115,115,115,115,115,115,115,115,115,115,115,115,115,115,115,115,115,115,115,115,115,115,115,115,115,115,115,115,115,115,115,115,115,115,115,115,115,115,115,115,115
115,115,115,115,115,115,115,115,115,115,115,115,115,115,115,115,115,115,115,115,115,115,115,115,115,115,115,115,115,115,115,115,115,115,115,115,115,115,115,115,115,115,115,115,115,115,115,115,115,115,115,115,115,115,115,115,115,115,115,115
115,115,115,115,115,115,115,115,115,115,115,115,115,115,115,115,115,115,115,115,115,115,115,115,115,115,115,115,115,115,115,115,115,115,115,115,115,115,115,115,115,115,115,115,115,115,115,115,115,115,115,115,115,115,115,115,115,115,115,115
115,115,115,115,115,115,115,115,115,115,115,115,115,115,115,115,115,115,115,115,115,115,115,115,115,115,115,115,115,115,115,115,115,115,115,115,115,115,115,115,115,115,115,115,115,115,115,115,115,115,115,115,115,115,115,115,115,115,115,115
