52,61,70
114,113,114,120,115,116,121,113,117,118,116,118,116,113,113,118,116,120,117,111,114,113,115,114,116,115,114,118,117,118,116,118,113,116,116,117,112,117,116,112,117,115,117,118,119,113,117,121,114,116,117,117,111,108,116,112,113,108,111,116
119,115,118,121,114,117,115,113,117,117,118,116,112,116,117,109,114,115,111,108,115,116,115,116,115,113,113,115,114,110,113,116,112,115,113,115,111,117,115,112,115,117,115,114,114,117,116,115,114,114,117,118,116,116,118,116,116,110,116,113
115,112,112,117,115,118,113,113,116,114,121,116,115,118,115,113,116,118,116,119,117,114,116,121,116,114,114,113,116,113,112,114,113,113,116,118,114,113,112,112,113,113,113,116,113,115,115,113,114,114,115,112,114,114,116,116,112,114,116,112
116,116,115,114,114,115,113,115,115,113,118,108,114,118,113,117,115,118,116,113,116,116,115,112,110,113,114,113,115,113,113,113,117,112,115,116,117,113,112,114,119,120,118,116,116,116,116,115,118,115,116,113,117,112,112,113,117,117,115,114
117,116,112,114,117,116,113,116,114,119,120,114,114,116,114,117,116,118,113,115,111,115,122,118,115,118,114,119,116,114,119,114,116,112,113,111,123,114,116,115,112,112,111,113,115,114,117,115,117,111,115,113,116,114,114,111,116,113,115,114
119,115,115,119,118,113,116,123,116,117,113,111,114,115,117,117,110,117,117,120,115,115,116,111,116,114,110,116,111,111,113,115,116,112,118,108,116,115,111,115,115,115,121,116,112,113,116,114,118,112,117,115,115,116,113,113,118,115,115,112
118,116,117,113,113,111,117,116,113,116,111,112,112,114,115,119,112,114,116,119,112,117,121,108,118,116,118,115,114,115,111,114,117,115,115,113,116,116,115,114,114,114,115,112,109,113,115,113,117,118,118,115,118,118,115,118,115,109,113,118
115,115,118,113,108,111,117,113,109,120,114,115,115,115,111,119,118,114,113,114,113,118,115,109,116,112,113,110,113,118,115,113,119,119,110,116,116,115,116,112,118,120,114,118,115,115,118,116,116,116,116,109,115,112,113,115,117,115,111,115
114,115,114,114,114,114,114,112,112,117,113,115,111,116,110,113,113,113,115,116,116,114,112,113,117,116,116,120,116,116,116,112,111,110,112,121,110,113,119,121,117,116,116,121,120,116,116,115,114,113,113,114,116,110,114,115,113,110,115,113
111,116,115,114,116,119,116,112,115,114,115,117,116,113,116,116,114,117,115,117,112,109,115,117,116,115,112,116,114,112,114,114,116,115,113,120,115,116,114,115,112,114,115,113,116,117,114,115,116,111,111,116,117,114,115,116,115,108,117,117
116,114,116,115,118,117,111,111,114,114,112,112,118,111,115,116,116,112,111,117,114,112,119,114,116,113,115,113,115,115,116,115,115,114,115,117,116,113,116,117,115,119,117,111,114,114,111,118,120,115,114,114,116,113,111,115,119,114,114,115
119,113,110,112,118,114,113,116,115,119,118,114,115,117,117,117,116,121,112,114,115,112,115,115,117,110,117,119,119,115,117,118,114,114,113,111,116,114,118,118,112,113,115,114,120,117,115,115,112,115,114,114,112,112,117,118,119,114,111,113
114,115,110,116,116,114,115,115,112,113,116,116,116,117,117,116,113,111,114,121,115,112,117,118,115,118,118,115,116,114,115,117,113,114,112,114,117,117,113,115,114,113,113,116,115,116,122,116,112,116,116,116,113,112,112,113,117,119,113,116
113,119,109,114,115,114,116,114,115,115,114,115,112,116,119,114,119,117,115,118,114,114,117,116,114,121,112,115,114,117,117,113,116,117,109,114,115,120,118,110,110,115,113,114,111,115,117,114,112,119,120,112,114,117,117,116,117,121,117,122
113,118,113,113,114,114,116,110,116,117,117,115,113,116,117,116,117,116,115,114,115,116,117,117,110,117,112,115,112,114,115,114,116,114,110,113,113,118,118,113,115,115,114,115,109,115,118,118,118,117,118,112,113,114,119,115,115,114,115,113
114,116,116,118,114,116,116,114,115,113,117,114,114,117,116,118,114,106,118,121,117,113,113,118,113,112,117,118,114,115,114,111,116,113,115,114,112,117,115,112,116,111,114,119,115,116,112,109,116,116,117,114,118,116,118,116,114,114,117,115
120,119,116,117,116,115,114,116,114,114,114,112,112,112,112,116,122,113,114,113,115,115,111,115,115,111,115,114,116,117,118,113,118,111,115,115,118,118,116,112,112,113,115,110,109,116,114,118,118,116,115,114,119,110,118,111,111,115,116,115
115,114,110,117,118,117,115,116,113,114,115,114,117,111,113,118,119,113,115,114,118,118,115,116,116,117,114,115,120,119,114,113,120,116,118,114,115,115,116,112,110,113,115,115,111,113,112,115,115,114,114,110,120,113,118,115,115,119,115,113
111,120,118,114,110,116,112,117,113,112,111,113,119,115,114,111,119,119,116,114,116,113,114,117,111,116,117,112,110,114,114,121,115,112,115,115,114,116,117,117,115,116,114,113,117,111,116,114,112,113,115,116,116,115,113,114,114,118,116,114
117,119,116,117,115,116,114,115,116,117,115,116,117,115,118,113,113,110,115,114,118,112,111,112,109,111,118,118,113,115,114,112,106,117,118,115,113,114,113,116,114,112,114,110,121,114,119,113,111,113,110,115,116,116,113,119,118,114,119,117
116,113,112,114,113,110,117,113,115,114,114,116,119,115,112,116,115,116,117,116,117,116,116,115,116,112,113,117,112,114,119,118,113,114,116,113,114,120,116,116,119,115,117,114,114,111,115,114,120,118,115,113,115,117,109,114,118,115,115,114
116,113,120,113,114,117,116,113,113,113,111,112,116,118,115,119,115,116,114,116,116,112,111,113,113,115,111,120,116,112,113,115,114,111,111,113,114,113,115,115,117,118,116,113,112,117,116,115,116,113,112,112,111,114,114,111,117,118,112,116
112,113,118,115,116,114,115,118,115,117,108,110,114,116,117,120,115,112,112,112,113,113,117,117,108,115,118,116,114,114,116,117,120,117,117,116,119,113,115,113,113,118,115,112,116,114,115,112,114,113,113,116,117,117,114,112,117,117,114,114
112,114,112,116,119,113,111,114,113,115,118,113,110,116,117,116,113,117,112,111,116,116,110,113,115,116,118,113,116,114,112,115,114,113,116,113,117,119,115,112,114,112,113,116,116,110,115,113,115,116,113,113,117,119,115,115,118,112,116,111
113,115,114,111,113,114,112,116,113,111,115,114,115,116,112,113,110,117,115,117,114,119,113,117,116,113,115,115,116,116,109,113,114,118,117,116,116,116,119,111,113,115,116,118,117,115,116,117,118,115,113,115,116,113,115,115,118,115,117,114
116,113,115,111,116,116,115,115,113,116,115,110,116,113,113,115,114,113,111,118,110,119,115,119,119,118,116,113,111,119,111,117,117,113,118,119,117,108,113,112,115,110,115,115,115,113,114,116,115,117,119,113,115,113,114,112,111,113,119,117
117,115,118,113,116,116,115,113,115,116,116,112,111,115,114,111,117,116,112,114,112,117,115,116,115,113,115,119,116,117,115,114,114,115,118,113,111,112,121,115,121,117,115,117,118,118,115,115,114,112,115,116,116,117,117,112,114,114,114,114
116,116,115,111,113,117,117,114,116,114,112,124,115,115,115,115,115,110,117,115,112,115,116,113,111,117,112,117,116,115,117,117,115,118,119,113,113,114,118,116,117,116,113,119,112,117,115,115,118,115,114,113,114,122,121,113,111,115,114,112
115,117,117,118,115,117,117,119,115,114,112,117,115,110,115,111,116,111,114,113,117,119,116,115,113,119,115,117,115,117,117,117,117,117,118,115,115,113,116,117,117,117,111,114,112,112,111,112,114,114,115,115,115,118,115,115,111,115,118,117
115,114,115,113,113,112,114,116,114,116,116,117,117,114,119,114,116,119,115,114,115,112,113,116,117,114,110,112,115,118,115,114,110,111,116,118,116,112,118,121,117,113,109,116,116,111,114,112,110,113,112,112,112,115,114,115,116,118,114,119
114,113,113,116,120,115,112,119,117,114,116,112,112,112,115,114,115,121,114,112,114,115,116,118,116,117,118,113,112,115,119,118,115,115,113,118,118,111,108,116,122,117,110,116,116,114,118,112,115,118,117,117,114,115,116,114,117,116,112,117
116,115,114,110,114,114,110,115,114,116,119,116,118,114,120,115,115,118,116,112,113,117,117,116,112,118,117,115,115,115,112,113,114,115,117,115,116,115,109,113,117,114,114,119,115,110,116,116,117,117,116,113,112,115,116,112,115,115,115,113
114,114,116,118,119,116,112,114,112,111,114,114,115,113,117,115,116,113,115,115,114,114,117,116,117,122,115,111,115,118,113,113,115,111,116,118,118,115,116,116,113,110,115,111,115,115,115,114,111,116,115,116,114,115,114,114,115,116,118,114
116,113,119,115,108,119,118,117,116,113,114,111,119,116,117,116,118,115,113,115,115,114,116,116,115,117,115,110,111,118,115,117,115,115,117,116,118,113,117,117,114,118,118,113,121,115,113,116,113,115,112,116,115,114,111,116,113,115,119,115
117,112,119,115,108,116,110,117,112,115,118,111,114,116,115,113,119,121,114,116,118,111,115,116,114,119,119,113,113,116,116,119,115,115,115,115,118,118,120,117,113,115,114,114,118,117,115,115,108,117,115,116,117,115,116,116,112,116,114,111
120,116,118,119,113,120,112,118,113,115,116,120,117,113,114,113,115,114,113,116,120,115,115,110,116,120,118,117,116,118,116,112,115,124,122,114,121,117,115,116,120,118,116,119,116,117,116,115,112,118,122,113,111,114,112,113,112,120,115,116
115,114,114,115,114,114,117,114,113,110,112,116,119,119,117,116,115,112,112,114,113,115,117,113,120,117,117,113,112,115,115,118,117,118,115,111,119,120,117,119,115,115,118,118,113,116,119,115,114,113,116,109,115,117,116,118,112,118,119,119
114,117,117,115,116,117,114,116,120,114,116,115,112,118,122,117,114,115,115,116,116,121,119,118,119,118,117,111,119,118,117,117,114,119,118,114,115,116,117,115,112,114,114,116,114,115,122,117,117,116,110,109,116,110,109,118,116,115,116,117
114,111,114,114,116,117,110,115,117,118,115,117,114,115,117,115,117,113,115,112,113,119,117,115,115,119,117,116,120,116,117,115,115,120,120,115,113,112,114,114,114,116,114,113,117,115,116,110,114,114,114,116,117,112,113,117,113,118,111,111
115,112,114,117,117,117,113,116,112,116,115,112,116,119,120,112,114,113,115,114,119,117,115,114,114,116,115,117,117,116,121,117,121,119,119,115,113,117,115,119,118,114,119,118,120,116,115,115,119,119,116,115,115,113,116,118,115,119,115,116
112,117,114,118,115,116,116,115,116,116,117,116,117,113,116,115,117,116,116,112,115,118,117,120,114,113,120,120,118,116,119,112,117,109,120,119,116,115,115,117,118,117,119,116,114,114,115,111,112,113,116,115,115,117,116,114,114,117,114,118
114,116,111,114,113,119,118,112,115,115,111,117,112,111,110,110,118,116,116,112,115,116,115,125,117,116,122,117,122,119,124,125,123,114,115,114,117,119,116,111,118,119,116,117,120,113,116,119,115,114,114,116,112,114,115,113,110,116,113,113
115,117,117,116,110,112,117,117,116,119,113,119,113,116,115,114,117,111,115,113,114,112,113,120,117,113,123,118,118,120,122,121,124,117,120,125,114,118,117,112,116,115,119,117,119,115,117,118,114,118,112,118,117,118,116,116,117,119,115,117
113,113,112,116,116,111,115,122,113,114,115,115,114,122,117,113,118,118,117,116,119,123,117,119,119,115,122,122,121,120,127,120,123,120,121,117,114,118,116,119,116,115,116,117,116,113,118,118,111,113,115,120,113,120,121,118,120,119,116,115
113,116,111,114,114,116,115,112,112,116,116,117,115,110,111,118,115,110,110,112,114,115,117,116,123,117,119,121,125,124,132,134,135,124,124,121,123,121,119,116,115,121,114,118,115,111,119,122,120,114,110,116,119,114,115,120,119,114,118,118
109,119,117,115,113,118,115,113,115,116,114,115,113,117,118,116,113,114,114,118,117,113,121,115,121,121,121,126,125,127,132,139,133,129,125,118,113,120,119,117,113,119,119,119,117,111,118,118,117,113,115,117,122,113,113,114,117,110,114,119
114,117,117,113,114,112,111,115,115,110,113,121,114,115,120,117,115,110,112,115,114,116,120,116,116,121,118,126,126,134,138,138,139,139,132,125,119,122,113,120,118,116,115,115,118,116,119,115,115,115,115,115,121,120,117,110,118,116,111,115
115,112,116,116,113,114,113,118,116,114,118,115,114,111,116,116,114,111,118,118,116,117,114,118,121,123,123,127,131,139,144,137,134,134,133,127,122,124,115,117,118,118,115,117,119,119,125,117,116,117,113,116,117,115,120,114,111,118,117,112
116,116,116,116,114,120,116,117,117,116,117,110,117,113,114,115,116,116,116,115,115,117,110,116,124,128,127,127,130,142,146,141,137,133,129,121,123,118,122,118,115,125,118,112,115,114,119,116,113,115,111,118,118,117,116,117,115,118,115,115
114,117,115,117,114,118,115,116,117,115,115,115,115,113,118,117,114,118,119,116,120,119,115,121,121,117,117,123,132,145,140,138,140,139,131,123,122,118,122,122,117,121,123,123,116,114,113,116,111,115,117,117,113,116,111,113,110,112,112,113
117,116,112,118,114,114,114,116,122,113,115,116,114,116,116,115,110,119,113,111,116,114,117,122,123,123,121,122,131,143,137,139,142,142,127,128,120,118,118,121,118,122,116,118,116,120,116,119,115,117,115,117,112,113,112,115,110,117,117,115
114,113,115,116,116,114,115,115,117,114,118,114,111,117,118,119,114,120,118,117,117,118,118,118,117,122,122,125,137,141,137,146,142,141,128,127,117,121,115,117,117,121,116,115,119,118,113,117,113,121,115,116,117,116,116,120,110,116,114,112
111,111,118,114,116,116,117,118,111,116,119,115,112,115,115,114,114,116,116,117,118,119,117,122,120,125,123,128,138,139,138,145,145,138,129,131,122,122,119,122,123,121,118,121,120,115,118,118,117,119,117,122,112,111,117,118,113,115,115,108
117,112,113,117,120,115,114,114,110,114,113,111,115,117,117,118,114,116,116,118,118,119,117,120,116,124,124,130,139,141,145,141,145,140,133,129,125,121,122,120,117,119,118,124,117,113,121,118,116,116,116,119,112,111,118,118,115,115,115,114
115,114,113,110,115,117,118,116,113,118,118,112,115,116,117,116,114,114,116,113,115,119,123,119,120,121,126,131,139,145,147,142,143,139,135,130,119,122,123,116,121,122,117,118,119,115,114,116,115,114,120,118,118,119,116,117,117,119,115,117
117,114,117,114,115,115,113,121,113,114,115,116,115,113,116,116,119,115,121,117,119,115,113,118,122,121,126,129,142,151,158,150,145,142,140,134,123,125,121,117,116,114,116,117,119,115,113,111,112,111,115,109,116,118,113,116,112,114,117,114
116,116,113,113,114,117,116,116,113,117,117,117,119,114,116,117,117,115,115,113,123,120,120,124,121,123,130,129,137,145,152,147,144,140,141,131,128,120,119,122,121,124,122,120,118,112,116,116,118,121,119,116,116,115,116,115,110,116,120,113
113,109,110,117,115,115,117,117,117,116,114,114,117,115,120,115,114,116,118,112,115,116,120,122,124,124,126,132,142,144,142,145,145,136,131,126,127,124,126,122,117,120,118,114,116,113,119,116,117,115,115,118,117,116,113,114,118,114,115,114
116,110,111,113,109,116,116,117,116,115,114,112,114,114,115,112,116,113,120,119,125,122,118,113,121,123,122,129,143,145,142,139,139,140,132,127,125,120,121,119,118,122,116,114,120,117,118,113,112,113,116,116,117,117,118,115,115,113,109,115
114,117,118,116,109,114,111,114,113,113,113,116,116,116,116,110,117,116,118,113,120,120,123,121,122,128,127,130,138,143,142,145,140,140,135,127,127,121,124,117,119,121,115,117,122,117,119,116,113,115,117,117,116,116,117,111,113,116,115,116
116,112,115,117,114,119,113,117,116,117,118,118,117,117,117,116,115,116,119,121,120,112,118,121,119,125,127,127,134,150,147,147,145,144,131,127,130,123,125,119,119,118,121,117,123,116,113,116,118,117,116,119,113,115,119,114,113,112,118,120
119,115,114,117,116,115,113,115,117,116,115,116,117,118,119,116,114,115,117,117,114,120,123,118,120,121,123,129,133,141,143,142,145,150,136,129,127,120,121,122,121,117,121,117,116,117,115,116,121,116,114,119,114,114,115,112,116,117,114,116
112,110,113,117,113,117,117,112,116,114,112,112,113,119,122,117,114,119,118,117,114,115,121,119,125,122,128,126,136,147,147,147,150,148,140,130,129,121,118,119,119,120,116,117,116,115,118,116,114,114,118,116,112,114,116,116,112,117,118,116
120,115,113,113,110,116,117,111,115,113,113,116,117,114,115,113,110,123,114,115,120,116,120,119,127,122,127,125,134,145,149,151,151,153,144,132,126,122,124,120,116,118,118,118,120,119,120,116,112,113,114,114,115,116,113,118,114,117,117,113
115,114,113,116,117,114,117,118,115,114,111,115,118,116,117,117,113,117,121,118,118,116,115,116,124,129,125,124,137,139,145,153,148,146,134,127,125,123,122,124,121,121,118,118,117,116,120,114,113,122,118,118,114,120,115,115,114,116,118,114
111,114,117,114,112,115,115,113,110,112,116,117,114,117,116,116,119,113,115,117,116,118,118,122,118,122,127,126,134,138,149,148,139,138,132,130,124,121,123,125,113,118,117,120,116,120,124,119,110,121,116,118,113,113,114,115,116,118,117,117
110,109,116,119,113,115,118,114,117,114,113,115,114,113,118,118,119,120,119,119,116,119,118,119,116,120,124,124,133,137,138,137,140,140,131,126,119,116,121,120,115,113,112,119,115,115,113,118,114,118,116,115,115,114,114,113,114,114,115,115
119,109,108,115,115,113,117,112,112,116,114,115,117,110,119,115,117,120,118,120,118,116,119,121,118,126,126,130,134,136,133,138,146,140,133,132,127,122,116,117,126,120,119,120,120,116,117,118,121,120,115,112,113,113,113,116,115,115,116,115
116,112,114,115,116,114,117,115,114,112,112,116,115,111,120,116,117,116,117,116,115,112,118,116,119,123,119,126,134,140,144,137,141,141,137,131,125,125,117,118,122,115,117,114,122,117,118,112,117,123,115,118,120,115,116,121,114,116,117,116
117,119,116,112,114,114,112,112,122,116,112,117,114,116,113,113,116,118,117,117,118,115,116,119,125,124,115,121,128,139,150,138,142,142,137,128,124,125,116,122,119,116,119,111,119,118,115,111,116,123,116,118,116,112,114,116,113,114,116,116
118,118,114,115,113,114,114,113,112,114,117,117,111,113,113,116,115,114,112,118,117,120,119,119,121,125,126,132,142,138,138,136,133,136,140,134,118,125,122,124,116,117,110,116,118,116,118,116,118,112,113,115,116,113,117,111,113,118,115,115
118,119,114,111,113,112,115,117,114,115,116,116,120,116,110,115,117,116,116,116,116,120,121,116,119,122,121,125,140,143,142,142,136,138,134,131,121,120,118,120,123,120,114,118,116,117,117,119,121,112,116,114,116,117,118,111,113,116,114,117
115,115,116,116,121,111,124,114,112,116,117,114,114,117,117,113,110,116,116,120,115,119,127,120,123,120,122,123,129,136,142,141,134,131,128,126,123,123,118,112,120,115,120,116,113,117,118,123,118,114,117,116,116,117,113,116,115,113,114,109
118,113,113,115,115,111,117,114,109,110,114,116,114,116,118,114,113,120,109,118,118,118,120,124,120,118,123,127,131,135,136,135,137,142,137,126,123,122,121,115,121,122,124,119,116,113,110,113,113,117,116,117,117,115,112,118,116,112,114,117
114,116,117,114,111,114,116,121,114,114,115,115,116,120,123,112,116,119,115,118,112,113,118,127,118,118,122,125,123,137,139,134,135,138,139,129,124,116,122,121,119,117,118,121,115,120,115,113,112,115,114,116,111,112,114,119,117,113,111,114
112,118,113,119,114,111,112,115,111,114,114,113,112,113,116,115,118,112,114,118,117,116,117,122,115,115,122,127,127,135,139,138,131,131,131,130,125,118,117,117,118,117,114,119,115,118,117,116,114,118,120,118,112,115,115,112,116,111,116,118
114,119,112,119,113,115,114,113,110,116,115,117,111,114,115,112,116,113,115,115,121,116,113,120,120,121,122,124,130,130,138,135,130,133,128,126,123,127,124,117,119,119,112,113,116,119,110,115,113,114,118,117,120,120,116,112,117,113,118,116
116,118,112,118,114,109,113,116,114,117,110,113,112,118,119,118,119,115,116,117,123,117,119,119,117,122,118,119,125,128,136,139,131,135,133,130,121,120,118,121,115,117,118,115,113,119,117,121,113,116,120,111,113,111,111,113,114,108,118,114
115,116,115,115,120,114,115,114,114,119,116,113,112,117,114,113,116,113,115,116,122,118,118,119,118,116,121,117,116,123,127,140,138,135,132,123,117,119,120,121,114,115,116,116,116,115,112,120,120,115,114,116,118,116,118,119,116,116,122,115
113,113,116,113,117,114,114,114,115,117,115,115,114,115,115,115,121,114,120,115,117,115,116,119,120,113,122,118,119,119,125,135,129,122,123,121,121,123,119,117,117,118,114,118,116,116,115,115,121,120,112,118,117,113,115,114,116,113,119,112
123,118,119,116,115,116,117,116,121,118,116,114,117,116,119,112,113,111,112,115,119,116,117,115,115,115,115,118,117,118,121,125,121,122,122,118,118,121,118,125,119,121,118,120,116,108,115,114,119,119,114,117,114,113,114,115,121,118,114,115
114,115,114,117,119,116,116,116,112,114,115,115,116,111,115,117,118,121,120,114,117,115,120,120,112,122,114,119,114,117,115,116,121,121,118,112,117,115,114,123,118,115,114,113,119,123,120,114,118,116,115,112,114,118,116,111,113,118,114,115
116,120,117,113,118,115,114,118,112,116,114,117,115,113,114,116,115,112,115,113,119,109,116,124,116,120,116,113,115,121,116,113,118,118,117,119,120,116,118,115,118,117,117,115,115,117,113,114,118,115,116,114,114,118,116,117,116,116,118,118
110,118,116,112,117,112,114,116,113,117,114,114,112,115,116,117,117,113,118,120,124,115,114,117,114,111,118,112,116,116,116,118,113,116,114,117,119,115,118,119,121,116,112,116,114,116,115,117,112,111,112,120,116,116,110,112,117,112,112,116
116,116,115,117,118,115,115,115,116,119,117,115,113,117,116,111,111,112,115,116,112,111,112,113,116,111,116,111,114,115,114,120,115,114,119,118,122,119,115,115,117,116,115,118,118,114,115,118,114,114,112,116,111,120,116,112,113,114,117,115
114,115,120,113,114,115,115,114,115,115,116,114,115,116,114,117,118,116,113,117,116,115,116,116,116,113,123,118,113,115,118,119,116,114,120,117,116,116,113,116,118,117,116,116,116,112,114,114,112,109,112,118,113,119,115,114,115,117,113,111
115,116,122,115,114,116,111,111,113,115,115,115,118,117,112,112,114,118,115,111,112,115,115,116,114,113,118,117,116,118,115,118,119,118,116,111,115,119,115,117,115,115,117,117,119,116,118,116,119,117,114,114,116,117,115,116,115,113,113,117
114,115,115,118,115,117,114,113,116,114,114,117,115,114,118,116,119,118,118,114,118,117,117,119,118,119,116,116,113,118,118,119,116,116,121,115,117,118,115,119,117,119,115,112,113,122,114,112,114,117,116,114,116,117,112,115,119,116,118,118
111,116,112,113,115,113,115,114,113,115,112,112,113,116,119,115,113,114,121,114,113,115,111,116,115,113,114,117,112,115,112,115,116,111,113,119,118,116,114,118,115,120,116,112,111,116,112,116,112,119,114,116,113,116,113,114,118,114,117,118
113,114,115,113,116,115,116,114,111,119,118,114,115,116,115,111,110,116,119,111,113,118,115,113,115,114,110,110,116,116,113,113,117,114,110,118,118,116,114,117,115,118,116,111,114,118,116,113,114,112,109,116,114,115,115,115,115,114,116,113
117,113,114,114,113,113,115,119,112,118,117,118,114,110,116,114,114,114,116,118,119,116,115,116,116,117,113,113,115,118,120,121,116,113,119,114,116,118,115,114,113,112,115,110,116,114,112,116,120,113,113,114,117,117,116,114,114,115,110,113
113,115,114,116,120,114,115,121,112,116,118,116,111,112,116,115,115,115,111,120,115,115,114,112,116,121,113,121,111,110,117,116,111,114,117,113,118,116,117,115,109,115,118,113,117,116,116,118,118,114,114,116,115,114,116,116,118,115,116,116
116,110,112,115,115,111,110,112,112,114,116,117,113,115,114,115,114,118,113,114,108,110,115,112,116,116,110,117,116,116,117,115,116,119,112,112,118,111,113,118,117,118,119,119,112,109,114,116,118,119,114,113,116,116,113,109,113,114,114,111
115,109,113,116,113,113,112,114,119,117,112,115,115,117,112,113,117,115,117,119,116,114,116,117,117,113,115,114,111,113,112,112,116,117,111,115,113,111,115,115,116,115,115,113,119,119,122,118,117,115,115,115,119,117,118,115,114,118,116,114
120,114,113,117,116,116,113,112,117,116,117,115,113,118,112,114,118,113,114,114,116,116,116,116,118,115,117,114,114,115,116,114,118,119,113,115,118,115,121,119,117,115,118,113,117,112,114,113,118,114,118,118,116,115,116,112,118,115,116,117
114,116,114,115,112,116,113,112,115,116,116,119,116,118,111,112,114,117,115,114,114,112,116,117,114,112,119,114,118,119,117,115,115,115,115,112,116,116,117,113,116,116,121,118,116,117,114,116,116,112,115,118,115,118,115,112,117,111,115,113
120,116,110,116,114,113,117,113,112,113,114,114,111,111,110,112,115,120,118,116,112,112,113,116,115,112,120,118,109,112,119,117,116,116,116,114,114,119,120,116,118,116,116,117,113,119,116,116,116,114,113,116,115,115,114,117,118,114,118,115
115,115,110,112,119,115,117,114,115,116,115,114,116,111,116,111,114,116,122,115,114,115,114,113,115,112,114,117,113,112,119,114,113,118,118,115,115,116,117,117,115,118,114,120,112,118,119,114,114,116,116,115,119,116,111,113,117,119,116,116
114,115,114,112,116,110,113,119,116,119,116,114,113,116,120,113,120,112,117,113,113,116,114,114,110,116,116,115,115,111,116,110,115,118,116,114,116,116,116,120,113,119,112,116,113,117,115,112,112,118,117,112,115,117,119,113,115,117,116,119
117,115,114,114,115,115,114,116,115,120,117,117,113,115,119,114,117,112,114,115,114,118,111,116,116,123,121,113,117,116,118,115,116,115,116,110,114,114,117,119,113,116,110,116,118,116,113,115,116,117,118,117,113,114,118,117,115,113,112,120
114,112,115,118,111,114,118,112,113,118,114,112,113,111,110,113,115,117,117,117,115,118,119,116,118,113,117,114,118,118,114,114,120,115,115,112,111,115,120,117,115,120,115,115,114,114,116,115,118,116,115,121,117,113,112,117,115,118,117,117
117,118,114,116,115,118,114,114,116,116,119,114,112,116,113,120,119,113,112,108,115,115,117,114,118,115,118,114,114,117,113,116,116,111,113,118,114,117,114,113,116,119,120,119,118,117,113,110,113,116,116,119,111,112,115,119,114,117,116,112
116,119,115,114,116,122,113,115,112,116,121,119,118,118,113,114,117,116,121,112,114,118,121,113,119,118,112,113,117,116,117,118,115,114,114,115,116,118,115,113,111,114,115,113,111,113,122,117,117,115,119,118,113,115,119,114,114,116,115,115
113,114,117,117,115,118,111,118,113,114,114,116,113,116,119,115,116,112,114,114,112,112,112,115,115,116,111,112,118,112,114,112,113,116,115,113,115,116,118,114,112,115,115,116,115,112,117,113,117,115,116,115,115,110,116,119,121,114,110,118
119,114,113,118,115,115,115,115,115,112,114,118,114,114,118,113,117,110,112,118,120,114,114,113,114,116,116,116,116,114,115,116,117,116,116,113,113,114,116,119,115,117,113,116,117,119,118,116,113,114,116,115,119,115,113,117,114,120,117,116
114,115,110,115,116,116,117,115,118,115,116,116,121,118,118,109,116,118,115,116,114,111,119,114,115,109,115,114,116,117,114,112,110,113,117,116,117,120,115,119,116,114,114,121,115,114,113,114,113,120,120,111,116,114,113,116,111,115,118,117
115,114,117,114,118,116,118,116,113,115,115,114,116,114,115,112,114,113,113,119,116,117,115,115,115,109,120,117,113,112,114,119,114,119,120,111,111,114,114,119,117,110,115,112,112,117,115,115,121,116,118,115,117,113,113,115,116,115,117,115
116,112,116,111,117,114,115,114,113,116,114,115,117,116,116,113,115,117,113,113,112,112,108,115,113,114,117,117,115,116,110,113,116,111,116,118,118,114,116,114,114,114,121,116,115,117,116,112,118,116,118,120,110,114,115,114,112,112,111,118
114,111,118,114,117,116,115,119,116,115,114,116,117,111,115,115,113,118,115,118,117,120,117,118,111,117,116,115,113,115,111,114,117,114,116,111,109,111,118,116,117,114,117,120,120,116,117,114,113,114,109,117,112,115,114,113,118,117,111,119
114,110,113,116,112,112,115,114,115,118,117,120,119,114,118,114,113,116,115,115,113,114,114,119,113,114,114,115,115,116,115,116,112,116,116,114,117,114,118,115,108,113,114,114,117,114,112,113,115,116,113,118,117,117,117,114,117,117,120,116
117,119,111,119,117,113,115,116,113,118,110,115,116,114,118,115,114,117,115,116,115,114,117,118,116,111,112,115,116,113,112,114,110,113,116,117,121,115,115,114,110,116,115,115,119,115,113,114,113,111,111,117,115,115,115,115,113,110,116,117
113,120,115,112,114,119,112,117,113,120,110,114,116,116,117,114,113,116,116,115,115,116,119,117,117,112,115,115,114,115,117,113,116,111,114,120,114,109,118,117,112,115,115,117,120,118,117,116,113,113,116,116,109,117,111,114,114,115,114,115
114,114,118,114,115,118,115,116,110,121,114,114,114,114,113,115,116,118,119,112,113,113,117,114,115,114,117,114,117,114,114,116,118,111,115,116,116,114,117,118,116,114,114,113,117,118,118,119,110,112,116,117,114,121,116,117,115,113,115,116
113,112,113,112,115,115,113,116,115,115,112,115,117,113,114,118,117,115,116,118,118,115,118,115,114,110,116,118,118,116,114,112,114,112,115,113,115,118,116,113,116,113,114,119,117,116,114,119,113,115,117,113,110,118,116,113,115,116,115,115
116,114,114,112,116,116,111,113,114,115,115,119,113,116,116,116,115,114,112,118,120,121,118,115,114,110,117,120,115,113,114,116,120,113,116,112,112,114,113,109,115,115,116,119,113,117,116,118,113,116,115,114,114,115,116,113,113,112,109,115
114,113,119,118,116,115,114,119,118,117,116,118,115,117,116,117,116,116,112,115,118,117,113,118,114,110,113,116,116,114,114,113,115,111,119,117,117,115,117,111,115,114,115,114,109,115,115,116,109,117,116,114,118,116,116,116,117,117,115,116
115,114,115,117,119,114,116,119,117,115,117,114,113,115,117,114,113,118,115,111,116,114,112,116,110,115,116,113,117,115,115,114,112,117,115,113,114,115,114,112,115,117,110,115,115,113,116,114,110,117,117,115,114,114,114,116,121,115,116,111
116,117,111,116,114,113,116,115,115,113,115,115,117,116,113,115,111,114,117,117,115,111,115,115,111,114,116,115,115,113,117,118,110,117,114,117,119,117,113,115,115,119,114,114,113,112,115,118,115,113,116,116,116,117,115,111,114,111,120,114
117,117,110,116,112,112,114,112,114,117,115,111,115,114,109,112,113,116,114,116,114,111,112,115,119,114,108,113,121,118,114,115,113,116,111,113,112,117,113,117,116,115,116,114,114,114,112,115,116,110,117,115,116,113,116,116,115,112,115,113
114,116,122,120,116,113,116,116,116,116,115,114,117,114,121,123,114,116,116,116,114,118,117,115,121,119,115,116,117,115,115,113,111,117,116,112,112,117,114,115,116,117,118,116,112,112,118,113,113,113,116,113,116,116,118,118,118,117,114,115
