51,57,63
114,118,118,119,111,114,113,115,112,114,116,114,117,113,116,119,115,115,118,114,112,112,111,114,112,116,117,110,114,115,111,113,116,115,115,117,114,116,118,119,112,115,114,116,113,115,114,112,120,116,114,113,113,118,117,112,114,112,116,117
116,115,116,112,112,116,115,114,115,119,115,114,119,115,112,115,116,111,115,114,111,115,116,113,113,115,115,116,117,119,113,114,117,112,109,113,117,118,114,115,114,117,112,114,116,115,114,116,114,117,113,115,115,115,117,112,115,112,114,112
116,114,115,116,114,117,113,113,114,114,116,114,116,116,113,114,119,117,117,118,113,116,115,110,112,117,112,113,113,117,120,117,116,119,117,117,113,113,113,116,116,116,113,115,117,116,111,114,110,118,112,116,117,116,113,112,115,114,118,115
114,117,112,114,113,116,111,115,114,112,117,113,112,114,113,116,114,115,112,113,115,115,117,114,111,117,115,115,112,114,115,117,113,118,114,114,112,116,115,117,120,113,110,114,117,118,112,115,116,116,114,113,113,115,113,115,115,117,112,109
114,118,113,115,112,116,116,116,115,114,114,114,116,117,116,117,115,115,112,115,115,112,113,113,114,117,112,113,114,113,113,114,112,113,113,117,111,114,116,117,115,114,118,119,118,119,119,117,116,115,118,112,114,116,114,116,114,117,115,115
111,115,115,112,115,116,113,112,110,115,112,112,111,114,113,112,114,118,116,117,114,114,114,113,117,116,115,113,120,113,117,119,115,113,109,116,115,114,113,115,116,114,110,114,107,111,112,116,112,115,118,114,114,116,114,115,115,114,116,121
110,110,115,109,114,115,117,113,115,117,118,115,114,113,117,112,112,117,115,114,113,116,115,114,112,113,117,109,112,109,111,114,112,117,118,116,115,116,114,112,112,115,114,121,113,113,117,118,119,119,115,116,115,114,117,116,113,113,113,115
116,114,118,113,113,115,116,110,113,111,115,115,113,112,116,113,112,115,112,113,118,115,115,115,112,113,121,118,117,118,117,116,116,113,117,117,117,117,112,114,112,114,117,117,113,113,112,114,113,115,116,119,115,116,116,116,112,114,114,111
116,116,114,118,114,117,115,116,114,116,113,119,119,120,118,117,115,117,117,112,117,115,114,114,114,117,120,112,118,113,113,113,117,117,113,113,115,116,119,122,117,114,112,111,115,122,116,119,113,111,114,115,116,118,115,115,112,114,114,115
109,117,116,120,112,116,112,116,112,112,110,113,115,111,116,111,114,116,115,110,117,115,115,116,116,113,118,114,117,118,114,115,115,121,114,114,116,115,114,118,117,115,112,116,116,119,114,114,116,117,116,112,113,115,116,114,115,117,114,114
115,120,116,118,109,111,111,119,114,114,117,110,116,110,119,114,113,111,115,115,118,113,115,112,115,114,117,117,113,117,112,113,111,117,112,114,113,113,112,111,108,117,115,119,115,110,114,112,114,118,117,116,113,114,110,111,115,111,115,115
115,115,110,113,115,117,114,117,110,114,115,115,116,109,111,112,115,115,116,113,112,112,114,114,111,112,114,116,107,119,117,118,113,117,116,116,114,115,116,115,113,117,115,114,117,111,112,111,112,117,112,110,113,114,117,112,113,115,117,112
112,114,116,115,109,118,111,116,118,116,115,117,114,110,115,114,113,114,111,113,115,114,112,116,116,116,114,118,109,120,112,113,112,118,112,113,116,116,115,116,116,112,108,111,115,120,118,116,110,118,116,112,117,113,114,116,118,115,117,116
119,113,113,113,114,118,111,114,114,112,111,112,116,112,111,111,116,118,116,115,113,113,112,116,116,113,110,113,111,120,110,109,112,116,113,112,112,115,113,111,119,116,111,117,115,117,111,118,115,114,112,113,114,115,111,111,114,109,111,115
114,113,115,116,111,114,111,111,113,117,114,111,114,118,117,115,114,116,112,112,112,114,112,115,112,112,116,113,112,113,116,115,114,115,117,114,114,114,116,112,116,113,110,112,114,116,115,114,115,116,112,115,114,118,116,112,116,116,114,116
115,118,116,111,112,117,112,114,115,114,116,115,116,118,114,117,117,113,115,119,119,116,115,117,117,113,115,110,115,119,120,112,113,114,116,113,113,113,116,112,113,112,114,116,115,115,115,111,114,115,111,115,117,115,114,116,114,114,117,113
116,115,113,114,117,116,117,111,112,112,111,113,114,114,112,110,114,113,117,112,119,115,112,112,117,112,117,113,112,113,115,115,114,114,113,113,115,117,115,113,117,116,117,119,115,113,113,117,118,117,112,118,118,117,111,117,119,122,116,116
119,117,113,113,115,114,116,112,112,119,115,112,115,116,115,111,115,116,116,110,118,116,115,114,114,114,119,116,112,114,114,116,117,114,109,113,117,112,115,115,114,114,117,116,113,116,114,113,112,113,112,112,111,117,116,118,115,114,109,118
114,118,116,113,112,118,113,111,114,117,114,112,116,115,113,118,114,111,118,114,117,113,117,119,114,111,116,116,111,114,115,110,112,115,118,117,115,114,114,113,118,113,110,115,116,116,114,114,118,115,116,113,112,115,116,118,108,114,114,115
110,112,114,115,115,119,121,116,117,114,113,115,112,113,111,116,116,112,117,116,115,113,119,117,114,116,116,116,114,114,120,114,119,115,115,115,113,112,116,114,111,111,110,117,116,113,119,116,115,115,120,116,114,119,116,116,115,118,113,110
114,113,115,117,111,113,118,117,116,117,118,117,115,115,112,112,112,113,118,113,113,113,113,111,114,121,116,116,112,112,110,114,115,109,115,114,116,114,116,115,116,119,117,117,114,112,118,112,115,115,115,117,116,114,108,115,119,117,114,114
114,117,112,118,114,117,118,116,116,113,111,113,117,115,109,118,114,109,113,116,117,119,118,114,114,112,113,115,114,119,117,113,113,114,115,115,117,114,111,116,117,113,110,114,115,110,110,112,114,112,112,114,113,119,114,109,113,112,111,113
115,118,113,113,112,115,114,116,114,112,114,117,115,117,113,117,116,112,116,116,117,114,112,112,116,118,117,111,113,111,116,111,112,114,111,117,115,116,112,115,114,115,113,112,116,116,113,108,109,114,113,116,118,117,115,110,115,117,115,116
114,113,115,115,112,114,113,118,113,117,113,114,113,111,110,115,117,112,114,113,112,115,112,116,114,117,114,113,117,116,119,110,113,116,113,111,114,115,112,116,118,118,115,109,116,120,115,114,118,120,114,112,114,111,117,113,111,109,117,113
112,110,116,114,113,114,112,115,111,115,112,110,114,113,113,115,115,115,114,115,113,116,113,111,109,116,116,116,116,109,110,116,117,110,116,118,116,114,114,111,114,113,114,116,114,116,114,117,117,112,115,115,115,114,116,115,118,111,113,117
112,113,118,117,118,109,109,117,113,119,121,118,117,114,114,120,121,119,115,115,111,110,116,115,114,116,118,116,115,113,111,113,116,112,114,111,110,109,116,115,117,112,112,117,110,115,117,116,114,115,117,114,113,118,118,117,115,114,111,115
117,121,116,113,120,118,116,116,114,114,110,116,110,110,113,115,116,114,118,116,113,113,115,115,114,110,111,116,115,118,117,115,115,115,115,112,118,115,114,113,116,112,112,115,115,116,114,116,112,113,113,114,112,116,113,114,113,116,115,112
112,121,112,110,111,116,116,117,114,115,114,119,118,116,117,111,116,114,114,113,114,117,115,115,117,114,115,115,112,114,110,116,109,117,118,117,116,117,121,114,111,111,116,116,119,118,118,117,114,112,118,122,113,115,117,116,117,115,117,110
112,115,119,116,114,114,116,118,114,115,114,118,112,111,116,118,117,110,112,115,111,115,115,115,117,116,116,113,113,116,113,122,113,117,111,119,119,109,114,116,112,109,115,116,116,115,119,116,114,115,118,117,111,114,118,111,110,109,120,114
115,111,118,112,109,114,112,116,115,118,115,121,116,114,113,115,113,112,117,115,110,114,116,110,115,113,115,115,114,115,107,121,120,117,112,111,115,111,118,119,114,113,116,114,113,110,117,117,113,110,112,111,113,113,115,112,117,114,114,114
116,115,115,119,114,114,110,112,117,118,118,117,118,117,114,112,113,115,116,113,117,117,113,112,113,113,118,115,114,118,109,112,111,116,115,111,114,117,113,115,113,113,117,115,115,112,116,114,114,109,113,116,118,117,117,116,117,117,115,116
114,113,111,118,118,116,115,114,116,115,117,109,115,118,116,114,115,113,114,115,117,112,112,119,117,117,116,113,115,119,110,118,115,115,116,113,111,111,111,114,115,113,116,114,116,116,118,115,117,113,114,114,118,118,116,115,111,113,117,113
119,120,117,118,111,111,114,116,117,116,115,110,112,116,119,117,116,113,117,118,118,115,115,116,113,114,115,115,113,116,113,114,117,110,116,117,115,115,117,117,115,112,116,112,109,110,115,112,115,111,114,115,115,112,114,116,118,117,118,115
113,115,113,113,116,113,117,113,112,110,115,114,113,115,114,113,116,116,113,115,117,117,114,109,113,116,117,112,112,117,114,113,117,115,115,115,115,118,112,118,120,116,112,113,118,114,115,115,114,112,112,111,116,108,114,115,111,113,113,113
113,113,116,119,120,111,116,112,116,112,113,115,116,113,112,116,110,115,113,116,111,112,116,116,121,115,114,108,113,116,115,115,116,117,118,115,114,115,112,115,112,117,113,115,116,116,112,116,119,115,119,115,119,115,118,113,105,111,112,112
114,114,113,119,118,114,119,111,114,113,116,116,117,115,116,121,109,114,114,115,113,111,115,111,111,111,113,114,112,111,112,116,113,115,115,112,114,115,117,114,112,118,117,120,118,118,116,116,117,113,110,113,111,114,111,118,119,117,118,112
115,116,112,114,115,113,115,111,114,114,117,116,116,111,112,116,115,117,114,113,116,116,117,118,120,120,113,118,117,119,114,112,113,115,115,113,112,115,117,114,117,118,113,114,111,111,112,113,110,118,113,116,112,119,117,114,115,114,116,113
110,116,115,118,117,119,120,114,120,116,114,111,112,112,117,116,116,115,117,113,115,112,110,116,113,117,114,116,116,118,113,113,113,114,112,114,111,112,114,116,116,114,113,116,116,116,115,123,112,110,115,115,110,113,115,118,118,115,108,111
114,120,116,114,112,108,117,114,113,114,118,115,115,116,117,114,114,110,119,113,114,116,110,113,113,118,113,110,115,113,115,114,111,117,111,114,115,112,116,114,116,115,116,112,116,114,110,117,112,117,119,119,116,116,114,118,114,115,111,114
111,111,114,113,119,116,117,115,116,116,110,110,115,117,117,114,116,115,118,118,118,118,114,123,116,113,115,113,114,113,117,114,108,115,114,113,117,112,118,114,119,119,115,116,117,116,111,119,114,114,116,115,110,111,112,113,111,114,117,119
120,115,114,116,121,110,111,114,115,116,112,114,114,113,116,117,112,113,112,111,118,119,112,115,115,115,117,116,114,114,115,115,118,115,110,113,118,121,117,114,111,113,113,113,114,115,116,118,112,114,114,115,117,116,116,115,115,117,114,115
114,111,110,113,115,112,117,117,109,112,112,115,108,111,114,119,115,110,114,112,116,118,115,114,115,116,113,116,115,112,117,113,111,113,113,113,110,118,112,110,115,117,119,111,114,113,118,115,116,115,111,115,119,114,116,116,114,117,119,119
115,116,110,112,110,115,118,116,115,117,118,117,115,116,116,115,119,114,114,114,113,112,114,114,111,113,112,114,118,116,117,114,115,118,113,116,115,114,116,116,111,112,116,111,112,110,118,114,114,115,114,113,113,116,116,114,111,117,120,117
113,118,117,117,118,110,111,114,116,113,113,113,116,116,118,112,114,117,115,115,116,114,118,115,114,112,112,118,120,120,115,117,115,119,118,118,116,117,118,116,116,115,117,116,115,110,119,113,115,117,113,113,113,117,117,114,114,114,116,117
114,114,116,109,115,114,118,117,116,115,112,113,114,112,113,118,116,116,116,116,115,115,116,117,118,115,116,121,120,123,122,122,118,119,114,110,116,116,116,112,114,114,118,114,115,115,116,116,117,112,110,112,114,110,116,115,110,113,115,115
114,112,117,116,112,115,117,114,112,121,113,114,119,119,116,116,112,112,115,117,116,112,110,114,113,118,119,120,128,129,130,128,123,120,119,114,115,113,114,117,115,114,116,114,115,114,115,112,116,114,115,115,118,114,113,121,113,113,114,115
112,114,115,117,114,115,109,114,112,117,115,114,116,116,115,112,114,117,117,116,116,114,112,115,113,116,119,126,140,146,142,133,131,124,121,123,119,118,113,115,113,115,115,116,113,108,113,114,120,118,115,114,115,113,110,114,111,115,114,114
113,109,114,113,117,116,110,118,116,116,117,115,116,117,118,117,115,115,118,116,111,112,115,115,117,121,122,131,140,151,151,142,138,130,123,128,120,117,115,119,114,114,115,117,114,113,117,113,110,116,118,119,117,118,117,114,111,115,116,113
117,114,114,112,114,111,115,115,114,113,115,118,118,120,118,118,115,113,116,116,116,112,117,118,120,119,123,131,141,145,145,145,149,142,123,121,121,118,121,117,111,114,113,115,114,117,114,111,112,113,115,118,113,113,111,118,119,117,116,111
117,116,115,115,116,117,118,113,115,113,113,118,112,114,113,118,110,110,113,116,118,117,120,114,122,117,129,140,148,145,147,145,144,138,125,119,119,118,118,114,117,115,111,116,114,115,114,116,115,109,112,115,113,115,116,116,116,114,114,112
113,112,115,118,115,116,113,111,111,114,118,117,112,114,117,117,112,114,111,117,116,110,114,116,123,123,124,137,142,142,136,139,142,136,126,126,120,120,116,114,114,113,111,117,117,118,119,115,115,113,116,116,111,114,118,116,113,112,115,113
117,116,113,114,115,114,112,112,114,112,116,113,119,111,115,115,110,117,119,115,113,116,120,120,120,120,126,140,145,146,145,143,137,138,131,128,121,120,115,116,114,115,113,114,116,115,112,112,117,115,114,113,111,114,113,115,112,113,116,111
114,119,113,113,118,119,116,113,116,115,117,110,117,115,117,119,112,117,119,116,116,117,120,118,119,119,125,130,137,145,151,148,140,137,134,122,121,120,116,117,113,118,114,114,115,113,112,115,115,112,114,111,113,114,119,121,117,112,111,115
116,115,110,112,114,114,114,117,117,114,117,116,112,114,113,116,112,113,116,115,117,117,121,115,117,121,124,140,146,150,150,143,144,140,138,125,119,120,118,119,113,112,112,113,114,112,113,114,115,116,117,110,114,109,118,117,116,112,112,114
118,114,112,118,119,114,109,113,116,116,114,115,112,118,116,116,114,113,118,111,117,116,120,116,119,126,119,126,144,147,145,145,151,146,136,129,123,120,118,116,113,118,116,111,113,113,112,113,115,114,119,111,114,114,114,115,120,120,114,115
120,121,117,114,115,116,117,115,110,115,120,120,116,113,113,117,115,113,117,114,117,113,124,120,116,122,127,131,147,148,150,149,146,147,134,124,117,117,115,117,114,113,113,113,118,117,113,118,112,113,115,108,113,117,113,116,117,119,112,115
112,117,120,114,114,115,120,117,117,115,113,112,115,114,113,116,116,113,118,116,120,116,117,120,118,121,128,141,148,150,150,149,149,151,139,127,120,121,118,117,115,114,114,115,116,118,115,117,111,113,119,113,111,115,112,117,117,119,112,115
117,111,111,112,112,111,116,112,116,113,117,116,116,115,119,116,123,113,113,113,109,116,114,119,116,119,124,140,144,150,152,149,149,148,140,129,120,122,121,116,115,115,115,113,105,116,112,121,113,111,111,110,112,115,117,113,115,118,112,114
114,114,112,115,118,111,112,114,113,114,118,113,118,114,111,115,117,113,118,121,114,116,116,117,118,124,128,138,144,154,153,142,140,142,134,128,125,119,119,116,115,114,113,119,117,121,111,117,113,117,115,114,116,111,116,114,115,119,116,114
112,111,116,115,114,117,118,120,114,114,113,114,117,113,106,121,118,110,110,114,113,113,116,117,119,125,127,138,145,154,148,138,141,141,135,129,123,117,118,118,112,115,114,116,114,119,117,114,117,114,115,115,119,115,115,116,108,112,115,114
115,114,115,115,111,116,120,115,112,114,111,117,116,114,111,112,116,118,117,117,118,111,116,118,115,120,122,135,143,149,142,142,144,138,134,131,123,118,111,119,117,113,117,117,114,116,118,112,116,111,115,115,116,116,115,115,110,116,115,116
118,119,109,116,115,112,117,116,115,118,116,112,116,115,116,110,115,115,119,117,119,118,119,118,117,120,125,132,138,150,139,148,144,142,136,132,122,119,116,122,120,116,118,114,115,115,114,113,119,118,114,113,115,119,117,115,117,118,114,112
114,113,110,113,116,113,117,116,118,114,117,114,121,117,117,120,116,114,115,114,114,114,118,119,119,125,126,128,130,138,135,143,141,141,134,128,126,121,116,113,110,110,116,112,113,114,115,115,117,114,111,112,113,111,117,118,114,115,120,116
117,117,117,117,123,118,119,112,117,108,116,114,111,111,113,116,109,117,115,114,112,115,112,116,114,118,120,127,136,138,131,138,140,140,138,125,119,117,116,118,120,114,115,113,115,114,116,113,116,114,115,115,117,114,111,115,114,114,115,114
110,113,115,109,117,113,115,114,116,110,113,113,122,115,114,115,115,118,113,117,115,117,115,117,114,119,124,129,138,144,138,137,141,135,133,125,118,120,117,120,123,114,110,111,112,113,119,115,115,115,115,113,114,116,114,114,115,112,116,117
117,111,121,112,115,115,115,114,111,111,112,114,117,113,116,115,116,115,114,112,115,120,119,117,113,117,117,122,133,147,142,139,140,134,128,126,122,119,115,116,116,113,114,118,119,114,115,112,113,113,112,115,113,114,117,112,116,114,111,112
116,115,121,114,116,116,114,114,109,115,116,113,113,115,116,112,113,111,110,113,118,115,121,117,117,117,124,129,135,150,149,143,140,138,130,120,117,117,116,117,119,116,110,115,113,115,116,109,114,115,116,119,115,114,115,115,116,117,117,113
114,110,116,116,115,114,115,115,115,116,113,118,116,115,116,115,115,119,115,113,113,113,121,114,120,116,122,130,138,141,141,141,137,135,127,124,119,120,112,114,113,116,112,116,111,114,115,114,116,115,111,111,116,117,118,119,116,110,115,111
115,115,118,115,111,116,112,110,114,113,114,121,118,113,113,107,109,113,112,115,114,115,114,114,118,114,121,120,127,137,140,139,128,122,118,123,111,115,115,122,117,118,116,114,111,114,116,111,114,118,116,119,114,113,118,113,116,115,116,116
117,117,114,112,111,116,116,117,116,114,115,111,115,116,119,114,111,116,117,120,112,112,114,113,116,115,118,115,120,124,125,120,125,121,113,117,109,117,117,113,119,116,117,116,117,114,117,114,110,110,112,111,111,115,117,117,112,114,114,113
113,115,118,116,114,112,111,114,113,112,114,112,117,112,115,114,113,115,114,116,111,116,115,116,120,117,120,116,122,119,125,119,120,120,117,124,117,117,117,106,115,114,119,114,115,116,113,111,113,112,113,112,110,112,115,119,114,118,119,116
112,117,116,114,117,115,118,115,114,116,111,112,115,115,121,116,112,114,117,116,116,121,113,118,118,113,113,114,120,112,112,113,115,116,115,118,114,114,119,114,115,115,117,115,118,117,115,114,113,113,110,114,111,114,108,114,116,114,112,114
115,114,111,113,117,112,111,113,119,120,114,112,115,117,114,116,117,112,113,115,113,120,113,117,116,109,114,115,117,114,115,115,117,114,115,116,118,115,116,116,114,113,116,113,114,113,115,114,113,122,117,113,113,117,117,114,117,117,112,114
117,114,109,112,113,120,117,110,114,111,112,115,113,112,115,114,112,109,116,116,111,115,116,122,118,115,119,119,119,117,120,112,116,114,111,111,116,117,118,114,113,111,117,114,114,114,114,113,113,116,114,111,117,114,114,115,114,114,112,116
116,114,115,119,110,113,116,112,111,116,117,112,115,111,114,116,119,114,115,116,116,115,115,116,111,114,113,117,116,115,116,113,116,119,119,117,115,111,117,118,118,112,114,113,115,117,118,115,112,113,113,114,115,111,110,115,111,116,117,118
114,109,115,116,114,115,116,111,112,111,119,114,119,115,113,118,118,122,114,114,116,119,113,116,115,117,114,118,117,113,116,114,111,115,115,115,117,112,118,109,116,118,115,114,112,108,114,111,113,114,115,116,114,117,118,118,111,111,115,111
114,108,111,111,116,113,118,116,117,111,115,111,114,116,113,112,110,114,111,113,112,113,113,116,114,113,115,113,116,120,114,111,109,112,115,117,123,115,115,110,117,114,113,116,115,114,115,118,118,113,113,116,113,116,117,115,113,116,117,113
114,119,115,116,114,112,117,113,115,117,114,118,115,115,119,115,114,114,115,116,117,115,115,118,116,115,116,112,112,121,112,116,116,114,116,113,115,115,115,111,116,114,115,110,112,110,111,116,116,113,111,111,110,116,115,118,115,113,114,116
111,116,106,114,119,113,117,118,116,120,109,112,115,109,111,116,118,117,115,114,111,113,113,116,116,111,115,115,109,116,116,117,113,112,120,115,109,114,114,110,115,114,117,116,116,117,113,113,112,118,115,118,115,117,114,113,114,115,115,115
113,114,115,115,114,111,117,118,114,118,115,116,118,117,113,115,116,112,112,113,111,111,113,113,116,116,114,115,117,116,114,115,115,113,115,115,115,116,111,108,113,115,119,121,115,116,117,117,115,117,111,114,108,112,116,113,113,112,109,113
114,115,117,117,114,110,115,115,114,114,117,118,111,116,110,110,115,114,115,114,122,116,114,113,116,113,112,113,118,115,114,115,117,115,122,114,112,114,117,119,120,112,108,115,116,111,115,114,115,114,115,117,120,113,116,111,113,114,112,117
115,118,112,113,116,113,118,114,113,113,112,110,113,115,115,116,115,115,112,110,114,113,118,112,114,115,113,111,115,114,116,113,116,113,117,112,110,116,114,113,116,117,114,116,118,112,116,113,117,114,115,109,117,111,113,115,114,114,114,115
113,115,113,110,116,111,111,113,119,116,113,115,116,113,116,119,114,117,118,116,114,115,116,112,115,115,111,116,114,112,116,114,113,113,115,122,113,116,112,117,116,115,117,114,115,113,114,117,120,111,113,117,116,115,112,117,115,114,115,113
112,115,116,112,113,118,118,110,116,118,114,115,111,114,117,116,112,110,113,114,116,114,116,113,115,117,115,117,117,114,114,116,115,115,109,111,114,122,113,119,113,116,116,107,111,120,114,115,114,111,112,110,109,117,111,111,111,114,116,114
115,118,115,117,115,116,116,111,114,115,111,111,111,114,118,119,113,112,112,114,113,110,117,115,114,112,114,109,116,116,112,113,117,116,119,116,113,116,110,112,111,116,115,117,111,111,111,114,114,114,115,112,112,113,115,115,113,116,115,113
114,116,113,111,113,116,113,113,115,116,116,113,111,118,117,118,111,119,116,113,107,114,120,117,118,115,116,110,115,113,111,114,118,114,114,115,115,117,114,110,113,116,114,116,115,115,115,110,114,113,114,113,118,110,115,117,113,114,114,114
112,112,117,122,119,118,114,115,116,118,114,115,110,117,116,116,115,119,117,119,116,116,111,113,113,111,114,115,115,116,116,111,114,115,116,117,119,115,114,113,115,117,115,115,116,111,112,116,121,113,117,112,115,111,115,115,114,119,118,115
116,114,113,115,111,117,116,115,112,118,112,116,112,113,111,116,117,113,115,113,112,115,114,115,114,116,116,113,108,113,113,115,115,113,112,111,116,114,116,117,117,111,114,121,115,112,116,117,112,112,117,113,116,113,113,112,113,114,116,115
115,119,116,117,115,113,114,116,118,117,108,116,115,119,114,116,118,113,117,117,116,111,112,117,114,115,115,117,114,116,115,117,116,112,120,113,116,110,112,112,116,116,114,116,113,114,112,117,111,110,114,112,114,113,117,112,121,115,117,113
116,112,115,114,112,113,116,111,116,116,112,113,112,112,112,110,115,113,114,113,116,112,115,115,114,110,113,115,115,115,116,117,118,112,115,112,116,108,112,115,116,118,116,115,115,118,115,115,114,114,113,114,121,114,116,106,111,112,116,116
116,115,117,118,114,113,117,111,113,114,117,115,113,113,114,112,114,116,115,113,114,109,113,114,117,114,114,114,115,112,115,111,115,120,119,117,117,117,115,113,113,113,117,114,112,118,121,115,118,114,114,110,113,116,119,115,115,118,115,117
114,114,115,116,115,114,117,118,113,112,115,114,114,116,116,116,111,111,114,113,113,118,117,113,119,116,115,110,115,112,118,116,114,116,110,113,114,116,114,110,116,113,111,114,114,116,114,117,119,115,115,116,114,115,114,113,114,113,115,114
114,117,115,115,112,116,115,119,114,112,114,118,113,115,112,115,116,116,116,115,109,113,114,110,118,114,118,113,115,114,114,118,113,119,112,115,112,117,119,117,117,113,107,114,112,115,113,116,111,112,111,114,115,114,117,118,118,111,116,114
113,112,111,114,114,112,112,115,120,117,111,114,114,120,113,118,116,117,118,118,114,113,117,114,113,110,112,115,117,118,112,120,114,116,116,114,111,112,111,110,111,116,114,117,113,120,117,116,114,114,114,115,117,115,117,114,120,111,115,115
112,111,116,114,116,113,116,112,115,120,111,112,110,118,113,115,113,116,118,116,115,117,116,110,112,114,114,118,119,117,115,116,114,115,116,114,116,113,115,111,114,116,118,114,112,113,111,120,122,115,112,114,111,113,117,113,115,109,112,113
114,119,117,113,111,115,114,114,116,116,114,116,114,115,112,113,117,114,117,115,113,113,116,109,112,120,115,115,117,112,112,111,112,117,116,114,115,113,111,107,115,113,114,117,114,115,111,109,115,114,112,117,115,112,112,116,113,114,118,117
117,116,112,121,119,118,116,114,115,114,113,114,115,114,114,113,118,113,115,112,114,112,118,116,115,118,112,112,115,116,114,113,115,113,112,114,113,114,114,117,115,117,119,119,116,117,117,110,113,112,115,113,117,116,116,114,113,111,112,115
112,112,114,114,115,114,117,110,111,117,115,115,116,111,112,112,113,113,113,112,116,118,118,116,117,115,111,113,112,117,115,109,111,112,110,111,109,117,117,113,111,115,113,112,113,116,118,119,117,112,113,113,115,111,112,113,115,112,112,119
113,114,115,117,118,114,114,114,113,116,113,114,116,119,115,116,115,118,116,117,116,114,113,111,114,115,116,119,113,113,114,110,115,120,112,115,111,113,115,114,115,115,111,118,115,113,112,116,116,117,114,115,114,113,112,112,116,113,110,112
114,116,115,114,114,112,115,115,110,117,113,114,116,119,111,118,115,116,114,113,114,113,114,115,117,118,116,114,115,120,122,117,117,120,114,115,114,114,113,113,116,113,110,116,111,111,115,114,114,115,112,114,113,117,114,114,115,116,115,114
113,114,115,114,114,112,116,114,112,116,115,117,112,116,113,112,112,117,115,111,114,114,113,115,115,118,118,117,118,115,111,113,113,116,118,117,113,115,114,110,117,117,112,118,117,112,114,112,118,115,113,112,110,117,114,116,115,111,116,118
117,115,114,114,115,114,112,115,116,115,116,112,111,118,118,113,115,113,117,118,114,114,114,115,111,112,112,116,114,114,112,117,118,115,110,116,116,117,117,111,111,115,114,114,114,112,113,113,114,112,120,118,110,117,113,113,116,112,115,116
111,113,114,117,110,115,118,115,115,113,114,113,110,115,114,113,117,114,117,118,110,116,115,114,114,117,112,114,110,117,113,113,115,118,113,114,116,112,116,117,111,114,113,113,117,117,115,114,112,114,117,115,113,115,114,112,114,112,112,114
119,121,116,121,116,115,115,110,115,111,116,116,115,117,114,113,114,113,109,116,115,113,111,118,115,116,110,113,115,119,115,115,114,112,113,115,117,114,120,118,116,119,116,114,117,118,112,117,115,115,109,112,119,115,119,114,116,111,108,116
113,113,112,113,111,115,119,117,118,112,113,109,115,118,114,116,114,116,115,116,115,116,115,116,114,114,111,113,115,112,112,114,116,116,120,116,113,115,114,113,116,115,120,119,116,116,114,117,114,116,110,118,115,106,116,113,115,117,111,107
113,113,111,116,113,113,114,108,116,118,114,113,113,112,116,112,114,113,114,116,116,114,112,110,112,114,115,114,112,115,115,114,119,115,114,114,112,110,112,114,118,115,116,112,112,115,115,114,116,117,113,115,114,112,118,114,114,114,115,117
115,116,111,112,114,116,119,113,113,115,114,115,115,111,119,114,118,116,114,112,112,114,116,117,115,116,112,118,116,117,117,116,114,114,115,113,113,113,116,111,115,115,114,113,112,113,113,116,120,115,115,115,117,112,116,113,116,117,117,120
114,112,115,112,114,114,118,113,117,115,120,115,116,112,114,114,119,114,115,116,117,114,117,115,111,116,114,116,118,118,114,116,113,111,115,117,118,117,119,108,115,113,114,115,115,118,112,115,117,113,114,113,113,111,119,118,112,115,114,112
119,114,113,111,116,113,112,115,119,113,117,111,110,115,113,111,111,110,111,112,117,113,116,118,115,114,116,120,112,115,115,114,114,113,115,116,116,115,113,110,116,112,115,114,109,116,116,115,112,113,116,114,111,115,113,113,114,118,117,116
115,115,114,112,110,114,115,115,113,115,116,118,116,116,117,114,113,114,110,110,116,110,110,114,113,112,112,118,115,120,116,111,114,115,116,114,116,118,115,116,116,112,115,116,112,113,117,116,115,115,114,114,112,116,115,115,117,115,113,119
118,118,116,114,115,115,109,111,111,119,119,116,116,111,111,114,114,116,115,114,119,110,111,112,110,116,113,115,109,112,115,116,117,113,116,114,114,114,110,113,116,114,114,114,113,110,114,114,118,115,117,112,115,114,114,113,114,114,112,120
116,113,118,116,119,116,113,116,112,114,114,116,117,113,111,117,116,114,112,113,116,114,115,119,117,118,115,113,116,115,118,117,116,112,115,115,115,110,110,110,118,119,120,118,115,113,118,114,116,113,115,112,114,112,113,116,117,115,114,115
114,108,116,112,116,120,120,112,113,116,115,114,111,111,116,119,118,114,113,113,117,122,117,114,113,113,115,114,115,112,116,112,113,110,116,112,115,113,115,115,117,109,115,116,114,115,118,114,116,111,114,112,117,117,113,114,119,114,116,111
117,115,116,115,113,112,111,110,117,115,116,119,114,113,115,113,117,116,115,114,111,112,113,117,118,120,115,116,113,118,116,115,116,114,115,115,117,115,119,115,115,112,112,113,116,114,116,111,115,114,114,112,117,116,115,107,118,115,116,113
113,113,109,115,113,114,116,118,113,111,116,120,116,114,117,113,114,115,114,117,116,112,112,112,111,112,109,116,107,112,112,118,113,112,116,115,114,114,115,110,114,110,115,110,115,114,116,113,115,116,117,114,114,112,115,110,120,118,114,117
114,116,115,115,116,119,117,115,114,118,111,114,115,110,116,114,114,114,113,113,113,116,118,113,110,114,110,115,114,116,108,112,110,112,111,113,115,109,112,114,112,112,122,113,117,114,117,116,116,117,111,109,116,114,113,112,110,116,114,117
113,113,117,116,115,118,115,114,113,116,114,112,120,115,114,113,111,115,119,114,108,113,112,112,117,119,117,116,110,115,120,119,116,115,119,117,115,112,114,113,114,114,115,114,118,115,115,114,112,114,118,114,112,114,113,115,114,119,115,116
115,117,113,113,113,114,114,116,117,113,111,111,115,116,116,118,114,112,118,117,114,117,116,114,115,111,114,114,111,118,113,116,117,115,116,113,117,113,117,117,116,113,110,116,109,110,113,117,116,111,113,116,114,115,114,117,115,113,108,115
114,118,116,117,117,114,115,117,117,112,113,119,116,112,110,113,113,112,114,117,116,113,112,116,114,112,115,119,111,118,117,114,114,115,110,109,113,112,115,113,117,118,109,116,112,116,115,115,116,117,116,115,117,118,116,120,113,113,113,116
112,115,116,118,115,120,116,115,115,115,113,113,115,118,112,112,111,117,114,113,115,117,117,116,115,114,114,119,112,115,113,109,110,117,116,118,119,117,116,111,114,119,115,114,119,120,115,114,114,114,112,117,114,114,112,119,116,117,115,108
