57,65,73
115,115,115,115,115,115,117,119,122,117,116,115,120,115,120,117,117,118,117,118,114,119,116,115,120,118,121,114,119,117,117,116,120,119,120,118,112,116,113,115,117,124,121,120,119,120,118,120,119,116,116,117,122,117,118,116,119,116,120,117
115,115,115,115,115,114,114,124,118,112,112,112,122,113,119,115,115,117,117,114,112,119,118,112,117,111,120,114,118,115,119,116,118,116,115,114,117,117,115,119,118,114,114,117,117,118,119,118,120,123,120,120,118,117,116,113,114,113,118,118
115,115,115,115,115,117,115,119,109,116,121,117,119,115,120,117,114,110,116,118,117,115,116,115,118,116,118,114,118,117,117,115,118,117,116,111,117,115,120,118,117,113,119,116,117,118,119,120,117,122,118,118,117,119,122,116,118,115,113,116
115,115,115,115,117,119,112,123,120,120,119,114,118,118,114,115,118,114,121,116,115,118,116,116,117,123,117,115,117,119,115,114,116,115,118,116,117,118,122,118,117,116,121,120,120,115,116,121,117,120,120,119,117,116,120,119,121,118,113,119
115,115,115,115,114,116,111,118,118,114,117,109,119,117,117,117,120,117,117,115,115,119,114,119,116,121,114,115,114,118,113,117,120,117,119,114,113,117,119,120,118,117,124,117,113,115,120,123,115,117,115,116,119,114,110,115,114,120,120,118
115,115,115,115,116,116,113,118,120,115,118,112,118,112,116,118,116,115,118,118,115,119,117,119,114,118,108,113,118,120,111,116,114,112,116,114,118,118,118,120,117,113,118,121,117,123,119,115,117,120,118,116,117,119,113,121,118,121,118,119
115,115,117,119,117,115,118,119,118,112,116,121,116,114,115,119,116,113,117,118,114,115,115,116,117,118,109,117,116,118,116,120,121,119,115,114,118,114,117,122,119,115,119,123,112,112,116,116,121,117,113,117,121,120,117,124,117,118,114,118
114,116,119,122,120,111,114,117,119,115,117,121,115,114,115,117,122,115,116,117,117,114,116,115,115,116,115,119,115,117,113,116,122,116,115,115,123,119,120,117,117,118,121,119,120,116,120,117,120,117,116,115,123,117,121,119,116,119,119,119
116,121,118,117,117,115,118,117,117,114,117,117,114,118,117,115,122,116,114,116,118,115,113,115,119,119,118,120,113,116,115,116,117,111,122,116,118,113,117,117,115,114,114,113,119,116,117,120,119,114,120,116,120,115,118,116,118,117,114,117
119,120,119,119,119,117,116,114,117,114,121,114,113,115,112,113,118,114,113,114,117,121,117,115,115,114,114,117,115,115,113,118,119,113,116,112,119,121,116,118,115,116,120,117,121,120,119,120,120,114,118,117,113,111,120,114,117,116,113,117
118,114,119,113,114,116,116,111,118,115,120,117,119,118,119,119,116,114,118,116,115,119,118,114,117,115,113,113,114,117,116,115,118,115,116,115,112,119,116,117,115,115,119,114,114,107,115,117,118,116,118,121,118,119,121,112,117,117,118,117
119,118,121,119,117,118,118,116,122,117,119,117,116,113,113,113,117,113,117,117,116,115,115,117,118,115,115,116,117,120,116,112,116,116,118,118,113,116,111,114,118,116,117,118,121,117,116,116,117,114,116,117,116,118,119,118,116,112,116,114
117,118,112,114,118,113,116,114,117,118,116,120,117,114,121,119,116,115,119,119,122,113,115,115,114,113,116,112,116,118,119,115,119,114,112,113,110,115,115,114,118,115,115,116,117,116,120,117,117,116,121,119,114,112,113,111,112,116,119,116
112,116,118,119,121,112,120,115,113,117,114,118,116,114,117,113,110,116,117,113,114,112,119,114,119,120,119,113,119,117,113,112,116,114,114,114,114,121,118,114,116,113,117,114,116,115,111,109,113,116,119,111,115,114,118,119,118,119,118,116
117,117,115,114,114,116,116,115,111,112,114,113,116,117,116,117,122,114,113,119,114,110,116,114,114,115,115,115,114,115,116,120,118,112,113,114,117,114,114,113,116,111,119,117,112,114,112,117,116,114,114,114,122,115,120,119,118,116,117,112
112,119,119,117,113,116,114,121,112,112,118,116,115,116,109,110,115,109,113,117,117,118,118,115,117,113,114,122,121,117,115,110,111,113,116,117,121,115,117,116,119,115,118,117,109,115,116,117,116,117,117,119,115,113,113,116,113,113,116,115
114,117,117,114,117,117,121,123,116,116,112,117,116,116,115,119,116,116,120,117,115,116,112,115,118,116,119,115,116,118,120,117,116,113,115,114,112,112,114,116,118,119,120,117,112,117,117,120,111,112,114,114,114,121,115,118,115,113,116,113
115,115,118,116,118,119,120,116,117,121,118,119,117,111,112,115,116,119,118,116,113,119,117,117,122,113,115,118,119,115,114,112,118,115,118,117,113,117,115,115,117,119,116,113,115,119,110,116,114,110,117,118,115,115,113,116,113,113,114,115
117,114,111,114,117,118,118,115,116,114,114,111,119,119,115,116,115,115,111,114,113,118,116,112,115,108,113,116,116,111,112,110,117,114,114,114,115,115,111,112,118,116,113,115,116,118,117,115,113,113,115,116,113,117,112,114,111,115,118,121
116,116,120,122,115,111,112,111,112,112,118,116,117,116,116,113,114,115,114,114,120,116,116,111,115,113,115,118,114,112,118,114,115,113,112,112,115,116,111,114,115,114,116,116,114,112,113,115,112,113,112,118,115,120,117,118,115,118,114,114
114,117,120,119,116,121,120,114,118,118,120,116,118,115,118,116,117,115,118,115,119,113,119,114,114,116,114,117,118,117,116,116,116,114,115,114,115,116,110,115,113,114,112,111,114,115,115,119,114,115,116,117,112,114,116,115,115,118,116,115
122,119,118,117,119,118,115,116,121,112,122,114,117,115,115,112,113,112,118,120,121,116,114,115,115,120,117,113,115,117,112,113,116,118,114,113,114,117,117,115,113,117,115,114,116,114,116,117,112,116,114,114,114,115,121,117,116,113,114,117
118,110,115,118,118,120,115,115,111,109,119,111,119,118,114,113,116,117,112,115,110,113,114,114,112,114,116,115,114,115,114,116,116,113,113,115,114,116,115,114,113,116,111,115,118,119,117,119,115,114,115,118,116,114,115,111,116,114,113,113
120,118,117,117,108,115,111,113,116,115,119,118,118,116,115,121,117,116,113,115,116,113,116,112,115,111,110,114,116,117,115,117,118,116,114,112,111,115,116,118,117,115,110,115,112,115,118,119,117,114,118,114,114,116,116,113,115,115,115,114
118,117,111,118,117,118,119,119,116,114,116,118,115,115,111,117,118,114,119,116,119,118,118,111,114,121,114,116,114,114,114,114,114,117,114,114,112,114,115,116,121,115,119,112,109,113,116,113,112,115,117,112,116,115,115,114,110,116,117,114
115,119,114,114,114,119,118,119,112,115,116,115,115,118,115,113,115,115,115,111,114,117,111,116,114,120,116,114,113,113,114,116,115,114,112,115,117,120,117,112,119,117,117,110,115,117,112,111,113,115,116,110,115,115,115,116,110,113,112,111
115,117,114,117,117,118,113,114,111,118,119,113,118,117,112,115,117,118,115,122,116,116,111,113,114,115,116,113,115,114,112,114,118,116,114,115,113,112,114,112,113,114,112,116,115,114,112,114,115,113,114,110,115,116,120,115,114,116,115,113
120,114,114,114,114,115,116,123,118,117,117,111,118,115,117,117,113,111,115,115,115,118,117,113,121,114,115,116,118,114,116,117,116,112,115,114,114,113,116,116,114,115,113,115,114,117,115,112,112,109,117,114,113,114,113,111,117,115,116,115
119,117,121,116,119,120,111,116,114,117,115,115,116,109,113,115,117,114,115,112,117,118,114,115,118,110,112,114,115,113,117,115,114,115,116,115,116,115,115,120,118,116,113,114,117,114,113,115,121,115,116,116,114,115,112,120,115,109,115,116
114,111,117,115,117,120,112,117,114,111,110,110,114,114,115,117,115,115,117,116,115,118,117,117,113,112,113,115,119,117,113,115,114,114,111,114,115,117,117,118,115,111,112,114,114,113,119,118,119,117,114,114,113,115,113,117,115,118,113,115
117,118,121,116,115,121,115,114,115,116,118,117,116,118,113,112,116,117,119,119,117,115,115,115,114,113,114,116,116,116,119,120,115,119,115,117,119,117,113,112,117,119,115,115,115,116,117,114,113,111,116,116,116,119,115,115,114,115,108,114
120,117,109,115,111,114,114,118,119,118,117,117,118,119,119,116,117,113,116,110,112,114,118,115,117,120,117,119,119,113,114,118,115,112,114,114,116,115,114,112,110,119,117,117,117,115,117,114,112,112,118,114,115,115,112,115,117,116,111,114
117,119,119,119,111,117,118,116,116,112,114,113,118,115,112,109,118,114,118,114,114,116,117,119,116,117,110,114,113,114,116,116,115,110,116,115,116,114,113,118,117,114,115,119,115,111,113,114,114,112,116,119,112,112,114,114,114,114,112,112
117,118,117,113,110,115,116,113,115,111,116,116,116,112,114,109,116,111,113,112,115,115,109,116,111,112,115,112,115,115,115,113,115,114,119,118,116,111,113,113,110,110,117,115,113,114,116,114,118,113,114,117,110,113,117,116,113,115,117,117
114,111,112,114,113,119,117,117,117,112,114,117,117,112,116,118,120,113,113,113,114,115,113,119,114,114,119,117,118,112,115,114,118,116,117,115,114,112,114,113,114,114,117,110,108,110,116,113,115,111,118,116,112,116,117,119,116,117,115,113
115,118,117,115,116,118,117,115,116,119,114,115,117,113,115,119,117,113,113,115,117,118,118,115,112,114,114,119,114,110,119,115,115,118,115,120,115,115,115,116,119,118,116,115,113,112,120,114,116,111,113,112,111,119,117,114,115,117,115,109
113,116,114,111,117,116,115,115,111,109,116,118,113,111,113,114,114,118,115,116,115,114,118,119,115,115,111,116,114,110,114,115,114,120,113,114,110,112,115,115,110,109,114,120,117,115,118,115,115,117,114,115,111,115,114,113,117,113,116,116
121,117,115,114,116,116,115,115,118,114,116,116,114,115,120,116,117,119,114,110,116,117,113,113,115,117,115,117,117,116,114,115,115,111,113,112,116,116,115,116,114,114,116,116,116,116,116,114,114,119,118,114,114,117,115,115,113,112,115,116
114,112,117,120,111,111,116,112,114,115,114,115,115,109,112,114,115,113,118,116,118,117,111,113,118,115,115,116,116,116,112,117,116,110,117,114,114,114,111,112,117,119,114,123,124,119,116,113,117,116,115,114,115,115,113,116,114,114,113,115
114,112,119,115,112,119,114,114,114,116,115,111,113,112,114,116,112,113,117,118,116,117,114,114,115,114,116,117,115,115,115,113,114,116,118,114,109,115,118,111,114,112,113,117,116,115,115,114,113,109,113,117,115,110,112,116,114,119,115,113
112,112,121,116,113,119,111,116,108,114,116,113,116,115,114,113,112,117,115,116,113,114,114,113,114,117,114,111,115,114,114,114,114,115,112,115,115,111,116,109,117,120,115,114,114,115,115,120,118,115,115,113,115,113,113,112,116,120,111,114
114,113,118,114,108,119,115,117,113,115,114,111,119,114,119,118,113,110,118,116,113,115,117,119,116,113,115,112,118,116,113,116,116,116,114,120,115,114,117,114,115,116,111,117,120,116,115,116,114,117,117,111,114,112,115,117,113,112,108,113
115,115,118,112,110,118,115,116,115,115,112,114,117,111,119,112,111,110,120,114,112,111,112,113,114,110,115,117,113,115,115,116,115,115,116,118,113,118,113,117,119,118,113,109,113,112,115,116,115,115,114,110,114,114,117,118,112,113,112,120
115,116,116,111,111,113,111,118,113,115,113,115,112,108,116,114,114,111,113,114,113,110,114,114,116,110,110,119,113,112,117,114,116,116,117,114,115,116,112,113,109,115,114,111,113,110,116,114,113,113,115,111,117,113,113,115,114,117,113,120
113,114,113,115,117,118,115,119,116,117,119,116,115,113,117,115,111,115,115,117,115,113,113,114,114,116,114,116,118,114,113,110,119,118,116,116,123,118,114,115,113,115,117,111,112,116,119,117,117,117,115,114,117,111,115,120,119,116,110,116
114,116,112,117,117,117,113,116,119,116,115,113,112,112,112,116,111,112,115,116,112,113,112,115,113,117,117,117,123,119,109,111,119,115,113,114,114,114,117,117,119,118,114,109,110,115,112,117,118,113,113,116,112,114,114,118,114,112,112,116
114,117,114,114,113,114,115,115,116,116,115,114,117,115,114,118,115,112,114,116,113,115,114,115,111,114,118,114,115,114,116,121,118,110,114,117,114,114,113,109,114,114,114,113,114,113,112,116,118,110,112,119,113,117,114,115,112,115,116,116
115,116,118,115,113,115,116,115,116,121,112,111,116,113,117,118,116,112,113,115,114,116,114,120,115,112,114,115,118,116,112,117,115,118,117,117,118,119,117,119,118,114,115,114,116,119,121,115,116,118,116,120,115,118,115,115,115,116,111,110
115,116,116,113,113,119,117,117,112,116,110,114,119,116,114,113,113,115,115,113,116,113,110,118,117,115,118,118,112,118,116,114,114,118,115,116,114,113,111,114,117,113,115,116,113,119,119,110,112,116,112,115,115,115,115,118,117,118,112,117
113,116,114,113,112,118,114,113,107,119,118,114,110,113,115,116,120,117,116,113,120,113,115,118,118,114,114,123,120,122,121,117,116,117,113,113,117,120,118,116,118,114,114,117,113,112,113,108,117,113,116,115,116,117,113,115,120,119,109,117
116,120,116,117,115,117,117,119,115,119,118,117,115,116,116,115,120,114,118,113,116,113,116,117,120,116,115,124,129,128,124,123,118,116,112,117,114,117,114,114,115,122,115,119,120,116,119,114,115,111,114,111,109,114,113,116,119,112,110,113
112,116,114,114,112,112,114,115,115,116,117,118,114,116,114,115,118,114,116,113,113,114,116,114,121,121,121,128,131,128,128,128,117,120,118,120,114,120,116,119,116,114,111,116,111,110,109,114,114,114,117,115,113,114,115,117,114,113,118,117
114,117,117,112,117,116,116,113,120,117,114,111,107,116,113,114,114,111,114,115,111,117,120,115,122,123,125,131,135,134,131,126,118,118,117,119,115,118,115,118,117,114,120,117,113,118,113,114,114,115,120,116,117,118,117,119,119,117,117,114
117,114,113,114,117,108,115,113,115,114,116,113,110,115,116,113,114,115,116,119,117,114,114,116,117,121,127,130,128,134,132,126,117,119,123,116,114,117,113,118,118,116,118,112,113,115,113,112,111,111,114,109,112,117,113,113,111,115,113,114
112,114,116,113,112,111,119,116,113,116,117,112,112,117,119,113,110,110,115,119,121,113,113,120,114,119,129,132,131,136,133,132,121,123,124,117,118,117,114,116,114,115,118,111,112,111,113,116,111,114,114,115,117,117,114,114,116,120,113,117
112,115,116,114,116,116,116,114,114,116,116,115,111,112,113,116,115,115,122,116,118,114,113,117,115,119,129,130,125,127,128,129,124,124,120,119,121,118,114,120,117,117,114,111,113,112,115,115,113,116,116,113,111,110,114,112,115,113,118,120
112,118,117,114,114,111,113,116,119,119,114,114,113,120,114,113,116,115,118,112,119,114,115,116,119,122,127,132,132,131,127,130,125,121,116,116,117,122,112,111,113,114,111,115,114,116,116,111,120,116,114,110,115,115,120,114,118,117,118,114
115,118,113,116,117,113,112,115,116,115,113,114,113,115,112,112,116,115,122,113,114,112,114,115,118,122,124,129,127,125,125,127,126,121,115,115,116,120,112,112,112,113,112,113,113,116,115,110,113,115,115,115,118,116,117,113,114,114,114,117
118,115,113,114,115,117,116,117,115,116,117,113,118,119,118,117,122,116,118,116,117,114,115,115,119,126,125,133,130,127,131,124,126,126,120,113,114,117,115,113,112,116,119,116,119,113,114,119,118,120,112,113,114,112,110,114,114,114,113,118
113,116,112,112,116,114,113,116,112,111,113,110,115,117,120,113,113,113,113,116,114,111,116,119,117,118,121,129,131,128,135,128,124,122,122,113,118,121,118,116,119,116,116,110,115,110,111,115,114,112,112,115,115,114,117,116,113,116,111,121
115,123,114,113,116,115,116,116,113,112,117,114,114,112,111,110,116,119,114,118,117,112,112,117,119,118,122,128,133,132,133,128,127,120,123,117,115,118,120,114,113,115,119,115,117,115,114,115,121,116,114,116,116,117,118,118,117,117,113,113
113,115,111,118,116,115,114,112,116,115,113,115,112,110,112,117,116,114,111,117,116,114,116,118,120,126,129,135,131,131,134,131,128,120,119,122,123,116,114,115,115,117,118,110,113,116,115,111,112,111,111,114,109,120,116,112,116,110,114,116
119,116,116,115,108,114,117,114,114,117,113,117,118,117,115,113,113,117,118,117,120,117,115,118,120,125,128,137,135,133,130,128,125,120,113,120,118,118,116,116,116,114,113,112,117,115,118,112,117,117,114,120,116,119,114,115,121,113,117,117
115,115,116,115,114,116,113,114,114,115,109,112,112,113,115,117,114,112,111,112,117,117,117,121,121,126,127,130,136,135,135,132,126,122,118,121,114,114,119,117,118,116,113,115,116,114,118,115,119,117,112,118,116,110,108,113,113,111,114,115
115,117,115,115,116,118,115,116,114,113,113,116,109,117,115,114,113,113,118,116,112,115,116,117,117,124,134,134,139,131,135,129,124,126,119,116,117,117,116,112,115,115,115,117,116,111,116,115,114,112,112,117,111,111,117,118,114,116,112,113
113,114,114,117,114,115,118,116,115,114,118,118,117,118,113,111,117,117,117,114,114,116,116,119,119,124,131,128,140,130,131,131,123,119,120,117,117,117,117,114,114,111,111,118,118,115,117,114,112,112,112,114,114,115,116,115,111,114,111,119
114,117,116,114,113,116,117,116,120,115,113,112,110,112,114,118,117,117,118,120,120,118,120,126,126,123,130,130,139,132,131,138,128,122,121,113,120,116,116,115,116,114,112,115,114,114,117,114,110,115,117,117,119,115,112,113,109,119,114,120
112,116,115,114,115,115,108,112,116,114,116,118,115,118,118,116,114,122,117,114,116,117,112,117,113,113,128,134,132,133,134,138,131,126,124,120,115,109,113,116,118,114,115,117,114,112,115,115,114,120,116,114,119,120,117,117,109,115,114,118
115,116,117,114,112,114,116,116,114,113,115,110,111,117,118,110,114,118,113,112,117,116,115,119,119,126,129,134,133,139,141,135,128,123,120,123,113,114,117,116,117,114,116,116,115,117,115,116,116,116,116,112,114,114,116,114,114,117,117,116
116,115,114,111,113,109,116,119,113,112,118,111,113,115,114,111,118,112,112,114,117,116,120,121,121,123,128,132,131,130,129,133,131,126,119,118,114,118,118,116,113,113,115,114,113,120,118,120,117,110,116,110,111,120,121,114,116,113,111,114
118,114,114,113,117,110,116,119,113,116,118,115,115,112,112,112,111,112,117,120,117,119,119,122,118,119,129,133,135,135,134,139,131,120,118,118,115,114,117,115,113,117,120,113,114,113,115,112,113,115,115,114,114,120,111,110,115,115,112,114
114,114,116,114,118,116,113,116,114,115,112,112,114,117,120,116,113,116,118,114,114,114,111,120,118,122,130,130,130,135,131,130,131,128,123,121,119,116,116,114,113,116,118,112,116,117,114,116,116,118,112,113,113,116,115,116,115,120,115,115
115,115,115,115,117,116,111,117,116,118,120,118,116,119,117,110,114,116,117,113,118,116,113,115,119,123,126,131,135,136,135,134,131,124,115,117,119,116,110,115,115,117,118,116,115,117,110,113,114,117,114,114,115,116,112,116,112,113,113,118
115,114,114,115,115,114,115,119,112,115,112,112,111,120,120,118,116,116,119,114,119,117,120,115,116,118,122,131,133,130,134,129,130,122,119,122,118,116,113,114,116,118,115,118,118,120,114,112,116,115,114,117,115,117,110,112,117,117,108,113
111,114,113,113,112,114,117,112,110,114,113,117,112,117,114,115,109,116,117,114,116,113,121,117,117,123,124,127,138,135,133,128,135,123,119,121,116,112,116,110,117,116,114,115,110,111,114,116,117,108,111,115,114,119,116,116,114,113,115,115
113,117,117,116,116,113,115,115,116,117,121,117,111,117,115,118,117,115,115,112,116,114,115,116,116,117,123,129,135,131,131,134,134,120,116,115,117,115,115,111,115,110,110,117,118,120,119,114,117,117,119,117,109,114,109,113,115,114,117,112
116,115,118,113,114,114,115,111,116,115,119,114,115,117,114,115,117,111,117,120,118,116,115,117,120,118,126,130,134,130,128,130,132,127,120,115,118,117,116,117,118,116,116,119,118,119,117,115,114,116,115,116,114,114,111,113,114,115,117,115
114,116,118,114,117,116,115,113,116,110,118,118,117,112,116,116,114,117,117,115,111,116,118,114,117,120,126,121,126,126,131,133,124,128,124,117,115,119,117,114,118,116,116,114,110,113,115,117,112,114,115,116,115,114,115,115,116,116,115,110
115,117,114,112,117,117,116,114,113,113,112,111,115,113,119,115,112,117,118,117,108,113,120,112,117,119,121,124,131,135,129,124,116,122,119,117,116,119,115,112,118,112,114,112,114,120,113,120,115,114,114,113,113,113,114,113,116,117,115,113
118,118,115,118,118,115,115,114,111,115,111,116,115,114,115,116,119,116,115,117,113,111,117,119,115,119,119,122,124,128,129,123,118,118,118,117,113,111,110,115,120,114,114,113,113,120,115,117,113,112,110,110,116,120,115,110,111,112,115,114
117,117,113,119,115,113,113,116,112,118,115,116,114,117,114,115,112,112,114,115,110,113,115,118,111,118,119,119,120,124,126,114,119,118,116,118,116,115,113,115,115,113,114,115,114,118,114,118,114,114,112,110,115,115,111,114,113,112,118,114
122,117,116,114,115,117,113,115,116,117,112,115,117,115,116,118,115,119,119,118,112,118,116,119,116,118,117,119,121,116,117,111,119,115,114,116,114,110,115,114,110,113,114,113,111,116,115,117,112,117,116,113,117,118,116,119,113,115,115,108
122,112,113,115,116,115,111,115,114,112,110,114,113,111,116,116,110,115,115,113,110,116,117,113,112,118,114,111,111,109,120,118,113,112,114,114,117,110,114,116,115,119,119,115,114,114,111,118,112,120,114,109,116,117,116,114,113,116,114,117
120,113,115,116,112,111,110,119,117,113,119,119,114,117,119,120,116,121,114,114,112,113,114,113,118,118,112,111,112,120,118,113,114,119,116,113,112,110,115,117,116,113,112,111,115,118,112,116,106,117,115,110,116,115,115,114,111,115,114,119
114,116,115,114,113,112,111,116,114,110,121,121,114,114,113,115,112,117,117,118,116,116,116,115,117,114,112,116,113,121,113,112,116,117,113,114,116,116,116,111,114,111,114,118,112,113,111,117,109,120,115,113,116,114,113,122,115,116,112,120
111,120,113,114,116,118,118,117,117,113,115,112,111,116,113,113,114,116,113,112,115,118,117,114,116,120,117,117,115,120,113,114,117,116,115,112,113,115,115,113,117,118,111,116,113,114,110,116,116,117,111,116,116,112,112,116,109,115,113,117
115,118,115,116,118,113,113,115,114,112,119,118,116,119,114,113,118,115,115,116,116,117,118,116,115,119,114,112,113,113,114,115,114,117,118,114,112,112,111,114,114,118,109,115,116,114,117,120,117,116,118,116,116,114,114,114,109,113,108,110
119,119,117,114,116,116,115,117,114,117,117,118,114,114,117,116,116,109,111,118,117,116,117,115,111,114,117,115,118,116,117,117,116,115,113,114,118,118,116,112,115,122,114,113,113,115,120,113,115,115,114,116,118,113,111,113,113,120,114,113
118,113,114,117,118,118,112,119,117,116,112,116,114,113,115,113,113,113,114,115,115,112,118,116,121,117,116,108,114,114,113,114,113,112,111,115,117,114,115,109,110,119,113,113,116,116,115,112,116,116,117,116,114,115,117,110,113,114,116,116
116,113,112,112,115,116,112,115,115,114,113,116,115,117,114,117,114,117,115,110,114,113,115,114,117,111,113,110,116,117,112,114,116,116,113,113,112,110,115,118,114,117,112,112,115,110,114,116,114,111,113,118,117,111,118,113,114,110,117,118
116,113,115,121,119,112,115,115,111,112,115,118,112,113,111,117,115,114,109,115,119,118,115,114,114,114,119,116,116,117,114,116,115,113,116,115,114,117,114,116,114,113,112,114,118,111,115,115,115,119,114,113,116,116,116,110,112,110,113,114
119,113,115,118,112,110,117,116,114,116,114,115,113,114,116,121,115,113,116,119,115,117,117,117,115,114,117,117,116,113,109,114,112,112,115,113,112,115,113,115,117,115,112,118,114,111,113,112,114,123,115,116,114,116,117,117,116,116,115,112
117,111,117,116,115,115,114,115,117,114,117,115,113,113,113,117,116,116,114,117,115,114,113,112,114,112,113,110,108,112,115,115,114,118,115,112,116,118,116,117,117,118,113,119,115,117,115,115,111,110,109,113,115,119,120,114,111,112,109,115
114,113,115,116,117,117,116,115,118,116,117,112,116,114,114,116,113,117,115,116,115,117,116,119,116,112,114,114,114,115,118,117,111,115,116,116,118,114,113,116,115,114,113,118,113,114,114,113,117,115,116,117,119,115,110,110,116,117,115,121
114,113,113,115,117,117,116,113,114,113,115,113,115,114,121,116,115,117,116,114,114,114,115,115,113,114,110,115,118,119,114,117,114,118,119,111,115,113,116,118,118,115,111,111,113,116,121,113,115,117,117,114,108,115,117,119,119,112,113,118
114,116,119,121,118,112,114,115,116,116,119,116,113,113,120,113,114,115,117,116,116,114,115,111,113,115,112,119,113,115,114,117,116,114,113,113,119,117,118,112,113,113,116,114,115,115,111,114,117,116,110,110,115,119,117,111,113,117,115,115
112,114,111,111,111,114,115,117,120,115,118,117,115,117,115,110,115,112,115,115,113,115,114,117,116,114,114,118,113,117,119,117,115,112,113,114,112,116,115,114,116,112,115,112,115,118,117,118,119,119,112,113,121,113,114,113,115,118,110,114
115,114,109,116,117,119,111,110,117,116,115,114,113,114,105,112,114,110,118,117,114,118,113,118,115,114,115,118,118,119,116,115,115,115,115,116,112,114,113,114,114,112,115,117,114,110,114,114,115,113,115,113,116,112,112,114,115,119,117,117
112,114,118,119,112,119,114,115,119,114,117,118,120,118,115,120,115,114,116,117,115,121,111,115,111,112,112,115,116,115,116,121,116,112,114,115,111,110,117,112,114,117,113,116,115,115,118,116,117,116,117,112,114,117,111,115,114,116,117,117
117,112,116,113,112,112,111,111,113,106,117,117,118,110,111,113,113,116,111,113,116,116,113,118,115,113,114,113,114,116,113,119,112,111,118,120,117,113,121,114,115,119,117,114,112,117,117,114,117,114,117,116,113,116,112,116,114,116,115,116
117,117,115,109,117,112,118,117,116,108,114,114,118,116,111,115,114,117,116,115,122,117,116,116,114,115,118,116,117,112,107,116,114,115,115,115,111,110,117,112,112,113,114,116,113,116,114,114,116,112,114,116,112,115,115,114,115,115,114,115
116,116,120,113,116,113,119,116,111,117,120,121,116,116,109,113,115,116,117,112,118,113,113,117,115,113,112,116,117,114,114,114,115,116,116,118,112,114,115,113,111,115,113,116,116,113,111,120,116,113,112,115,114,116,118,120,116,114,115,119
114,114,118,114,115,113,116,114,114,119,115,117,108,112,116,117,118,114,115,113,111,111,114,115,118,111,112,115,117,115,116,115,118,113,116,114,113,120,117,113,110,117,112,111,117,120,114,117,112,118,114,109,115,118,112,114,112,111,112,117
115,116,117,111,116,114,113,115,119,120,115,116,112,116,117,112,117,116,114,116,116,118,116,115,117,109,117,114,115,116,115,115,117,109,115,115,115,116,113,113,111,116,111,119,116,116,111,115,113,123,116,115,118,119,113,112,116,116,115,117
116,113,116,115,118,114,115,118,117,118,116,115,111,117,117,116,117,112,112,111,112,112,115,113,116,113,118,113,111,120,115,115,115,111,119,111,119,114,115,115,117,120,116,121,116,111,109,111,111,118,113,116,113,115,118,115,115,114,114,115
116,114,113,109,117,113,115,115,115,120,122,112,114,116,113,115,113,114,116,115,113,111,112,113,114,114,117,116,114,116,113,119,114,111,115,114,123,114,120,112,112,113,111,110,116,113,114,115,115,117,117,117,115,113,116,111,111,112,114,117
117,117,115,114,118,113,116,116,113,119,115,112,118,119,116,113,114,112,113,116,111,114,117,116,115,119,112,110,113,113,114,117,115,114,119,118,116,111,118,111,113,116,116,116,118,112,113,115,117,113,118,118,117,112,116,117,119,115,109,113
116,115,113,114,115,114,109,115,114,117,112,115,116,111,115,112,118,116,115,118,116,116,113,114,116,117,113,115,114,116,119,115,112,116,115,113,114,118,121,115,112,115,113,116,120,116,115,114,116,110,119,114,114,114,116,112,114,111,109,115
114,115,113,117,114,114,110,113,111,115,115,113,115,107,116,109,117,116,112,117,115,112,112,116,116,117,113,114,109,114,115,111,116,117,116,118,116,115,113,113,113,115,118,114,116,116,113,116,120,116,117,113,116,119,114,112,115,113,112,120
113,117,119,115,113,115,117,114,112,113,116,114,118,109,119,113,114,112,114,114,114,117,114,116,112,114,107,117,116,114,112,111,112,113,118,112,115,114,113,116,114,113,120,116,111,114,114,117,119,114,113,115,116,118,116,115,118,112,112,113
118,115,117,114,116,111,116,116,117,115,118,113,111,105,117,115,110,114,119,113,113,113,113,112,109,120,115,114,117,115,113,117,116,117,116,111,119,117,115,111,111,112,116,114,113,115,115,116,116,114,120,119,116,115,113,110,111,114,116,115
119,114,115,112,115,116,118,115,112,114,117,115,116,123,118,113,112,113,118,112,115,114,117,114,114,114,115,111,118,121,114,119,116,113,113,116,117,116,115,109,117,119,117,117,116,114,119,116,117,114,114,114,113,113,114,114,111,112,115,114
116,118,119,115,110,120,115,116,118,116,116,116,112,112,112,112,119,114,117,113,117,114,116,113,119,116,117,115,113,114,112,116,110,115,115,113,113,116,116,116,117,116,113,116,114,117,120,113,113,115,116,120,119,116,115,116,114,113,115,109
113,112,109,115,115,115,113,116,118,118,114,116,115,114,119,116,118,115,120,116,116,117,118,112,121,113,113,117,112,115,115,114,114,117,114,112,116,116,113,118,112,110,109,113,115,113,115,112,113,113,112,113,114,118,114,114,115,114,114,118
112,111,113,117,116,111,118,116,116,115,111,115,118,115,117,115,115,114,114,112,116,118,117,112,115,115,113,118,113,110,112,114,114,115,118,116,115,112,108,119,113,115,116,115,116,113,119,118,114,113,113,114,111,117,117,115,110,114,112,116
118,117,119,117,113,113,117,112,116,116,115,115,115,112,117,117,110,112,117,116,114,114,112,110,114,116,115,118,116,113,113,118,116,114,115,115,114,113,118,118,112,114,109,115,116,111,113,110,116,116,119,115,114,119,116,114,111,121,116,115
114,114,117,114,111,116,117,114,115,116,117,113,112,109,115,116,112,113,121,117,116,117,117,117,115,116,118,115,114,119,114,117,115,110,114,113,114,115,121,113,112,114,111,118,113,109,114,116,120,113,113,109,115,113,109,114,112,114,114,113
115,116,117,112,114,115,112,113,114,114,113,114,116,112,120,112,116,115,120,116,114,110,112,115,115,119,117,112,111,115,112,114,118,114,117,115,113,110,116,118,118,118,115,117,112,113,113,115,114,116,114,113,118,115,113,114,116,115,113,116
116,119,119,116,113,114,117,116,114,115,112,114,120,110,122,115,113,111,118,115,115,111,110,114,115,114,115,113,112,112,115,112,112,108,111,116,108,114,115,112,116,118,119,118,117,118,116,123,114,116,112,112,118,116,113,113,115,120,116,116
115,115,110,113,115,117,123,117,112,114,113,117,118,112,116,112,117,111,115,113,116,115,113,116,115,113,115,107,113,115,118,116,117,110,111,117,111,119,116,118,119,116,117,115,120,114,115,117,109,117,115,116,117,117,115,116,111,115,111,115
