52,58,64
115,113,117,112,114,115,113,114,117,113,117,117,115,113,121,112,111,113,115,114,117,117,115,119,114,116,115,114,118,113,116,116,112,114,110,111,118,116,116,122,115,118,116,115,114,111,114,116,117,116,116,115,118,117,113,116,115,113,117,115
114,112,112,112,116,115,115,110,113,113,116,112,117,115,118,117,117,117,115,118,113,119,111,111,113,113,114,116,121,115,114,113,111,112,115,114,119,117,113,114,117,116,115,113,114,114,117,115,117,114,114,114,115,117,112,117,113,114,119,114
116,118,113,113,115,114,110,113,115,113,111,112,117,118,115,112,117,115,111,114,114,118,116,117,113,116,117,109,111,114,114,114,113,112,114,116,113,111,116,112,120,118,117,111,115,118,118,110,115,115,117,113,113,114,118,118,113,112,114,117
111,117,115,117,115,118,112,114,120,119,114,118,117,114,115,114,116,114,116,119,118,117,117,114,114,117,112,114,116,118,114,116,116,116,115,116,114,111,118,112,114,112,114,113,119,116,119,112,114,117,120,115,114,110,114,118,115,116,113,118
118,118,116,121,112,117,114,115,118,116,116,111,110,114,115,114,112,113,116,116,115,118,121,116,116,117,114,122,116,112,117,115,112,117,113,113,113,114,113,116,117,110,112,116,114,112,116,114,114,115,117,117,118,118,116,118,115,119,117,120
115,116,117,112,109,117,116,112,119,116,118,118,119,118,112,116,112,114,112,113,115,117,118,111,115,117,110,115,118,111,116,118,115,114,114,117,116,116,115,118,114,115,117,114,113,115,114,114,113,118,116,115,115,116,113,115,117,117,118,115
118,114,114,116,113,115,117,113,116,118,115,116,117,116,114,118,115,115,114,115,115,112,119,111,114,112,116,117,116,117,114,111,115,114,113,112,114,115,115,117,113,118,116,114,116,116,119,113,113,117,111,115,115,117,113,114,121,116,117,117
114,116,118,119,112,113,115,116,111,114,116,117,118,115,115,115,116,115,116,114,112,113,118,111,119,112,117,115,113,113,117,117,115,118,117,115,113,117,118,118,114,116,119,115,116,118,113,113,114,114,113,118,116,117,118,119,120,116,115,117
109,115,113,116,109,114,118,117,115,118,119,116,115,117,116,117,116,117,120,116,113,110,115,118,117,115,118,118,119,110,117,114,114,112,114,113,115,117,114,113,114,115,121,115,112,119,118,118,117,111,113,116,112,113,116,114,115,115,116,114
112,113,111,114,109,112,115,113,115,114,115,115,109,116,116,115,112,108,115,117,114,112,112,117,110,115,118,112,115,116,119,117,119,111,115,114,115,120,113,118,120,114,117,113,114,113,115,116,112,116,120,114,111,120,117,114,114,117,118,117
114,116,114,117,113,113,117,117,113,114,118,119,114,116,115,113,115,114,114,116,112,117,115,118,116,110,112,115,112,114,115,116,111,112,115,116,111,113,110,120,117,114,117,118,116,113,116,120,110,119,115,113,117,119,112,116,117,117,113,117
113,112,116,117,113,116,117,119,116,116,116,117,113,110,118,116,114,116,114,117,115,114,113,112,111,112,114,117,109,114,117,116,114,117,119,116,117,114,114,116,112,112,113,114,114,113,115,115,113,116,110,116,116,118,114,114,115,115,114,112
113,115,116,117,115,113,112,114,116,115,116,112,116,112,115,113,115,117,118,116,116,115,115,116,115,119,116,117,112,113,118,112,113,115,114,112,114,114,115,113,117,115,116,113,113,116,122,118,113,111,113,119,114,120,120,112,119,113,118,114
114,118,114,111,116,116,115,117,115,114,118,112,118,111,116,113,111,111,112,113,119,116,112,115,117,111,112,109,114,118,120,114,114,116,114,113,116,119,118,117,121,115,118,111,117,116,115,113,115,116,119,116,113,113,118,112,117,111,116,112
114,116,115,111,112,113,116,112,117,118,118,112,117,114,116,111,114,115,118,120,117,117,118,119,118,114,115,118,119,115,118,116,114,116,112,111,113,117,112,112,115,115,117,116,116,115,118,114,115,115,115,113,116,111,117,114,115,114,119,117
116,114,113,115,117,117,116,115,116,117,114,114,118,112,118,113,115,114,114,118,110,117,114,112,110,114,115,114,111,117,118,115,113,109,112,117,113,115,116,109,110,115,115,115,111,114,114,113,112,116,117,115,115,110,110,108,115,116,118,110
118,114,115,115,110,113,118,113,111,116,113,117,116,112,118,115,112,114,113,117,114,113,112,111,112,118,114,115,114,117,114,114,115,111,115,117,112,113,117,112,114,117,119,113,113,117,110,116,115,116,118,119,116,113,116,116,117,115,112,111
116,115,115,116,111,114,118,115,115,115,113,109,117,117,115,115,114,117,114,115,111,114,118,118,117,117,110,113,113,117,115,114,119,115,112,112,116,111,115,114,118,115,114,110,112,116,111,115,117,117,114,116,114,113,115,113,114,109,112,116
115,115,113,118,121,114,112,113,119,115,121,116,116,117,116,109,113,115,112,114,113,118,115,117,113,113,112,111,115,120,119,113,114,116,119,116,119,115,113,112,114,114,115,123,115,113,115,111,111,114,115,117,112,114,117,117,117,112,118,117
116,115,116,115,116,110,111,116,117,110,116,116,110,114,117,113,116,113,112,120,113,119,114,113,115,116,114,111,112,115,113,115,113,117,113,116,114,110,112,113,115,115,118,117,114,116,113,113,118,118,113,114,115,115,113,114,117,112,116,116
113,112,115,111,112,116,113,114,115,115,116,112,115,117,115,115,119,116,112,119,115,115,113,114,112,115,118,115,114,116,118,118,117,113,113,116,112,111,113,116,117,113,119,113,115,117,114,118,118,113,117,114,118,117,119,117,116,112,114,114
111,116,114,114,114,118,114,116,116,115,121,112,116,117,110,114,115,114,112,115,121,112,110,114,115,117,114,109,116,116,119,115,116,112,119,117,109,116,118,116,117,115,120,115,113,117,114,112,114,112,115,116,118,117,116,114,116,114,112,114
115,114,116,121,117,118,119,120,114,112,116,115,115,111,110,114,114,116,115,113,116,111,115,113,116,116,113,113,115,112,115,114,113,112,112,116,110,114,115,115,110,113,120,115,115,116,116,112,113,120,116,116,114,114,115,114,115,114,109,116
118,116,115,114,115,111,112,114,113,115,119,116,116,115,116,117,115,113,114,112,113,115,117,116,119,112,115,118,111,123,113,113,114,117,114,116,117,114,115,121,114,113,115,113,117,116,115,111,113,112,116,117,114,117,113,112,113,119,117,115
117,112,111,116,116,116,115,116,116,118,119,114,115,115,115,122,113,114,117,113,117,113,117,115,117,112,112,115,111,118,108,117,113,113,111,111,110,113,117,115,110,114,122,119,114,111,112,115,116,110,115,115,113,114,113,120,117,109,111,111
115,115,114,117,117,119,114,117,115,119,115,112,111,115,115,114,111,117,115,115,120,115,109,110,117,114,112,111,113,114,111,115,115,116,112,118,112,116,114,114,113,114,115,115,112,111,116,116,119,117,115,117,113,114,114,113,112,113,115,120
112,116,113,114,116,115,112,115,112,115,113,114,118,115,115,115,118,116,114,117,115,113,114,115,117,112,116,115,114,112,113,113,117,113,112,114,114,117,115,114,112,120,116,115,115,114,118,113,116,116,112,115,112,116,115,114,116,118,117,115
114,116,115,118,120,113,114,118,118,113,116,116,120,114,115,116,113,110,113,115,113,113,117,118,119,110,113,112,118,112,115,113,115,113,120,110,109,116,114,111,114,116,112,110,117,114,111,113,111,113,117,115,114,111,114,113,115,113,113,113
114,118,118,114,112,114,115,112,111,111,116,110,116,113,116,113,110,116,115,114,116,122,116,115,117,115,116,112,117,115,119,112,117,113,114,113,113,116,117,115,117,117,118,112,113,116,114,119,110,113,119,117,118,112,117,113,114,114,113,117
110,112,114,116,115,117,115,113,119,115,115,114,118,112,121,115,111,119,115,116,116,119,114,113,113,116,114,117,117,117,117,110,115,113,116,118,110,114,118,117,118,114,116,111,114,119,117,115,113,114,111,115,115,112,118,116,112,111,113,119
116,120,116,119,116,115,115,111,116,116,118,115,118,112,114,114,113,117,115,111,113,114,115,113,113,119,114,117,118,115,114,109,110,117,115,116,115,121,119,114,117,114,112,114,116,111,115,111,114,115,112,118,116,115,118,114,119,119,113,117
111,114,113,111,113,115,112,114,122,117,115,112,114,115,115,111,115,113,113,114,116,113,116,113,118,116,112,115,116,116,117,120,115,118,113,114,115,120,113,113,113,115,118,112,118,111,117,113,116,116,110,115,114,112,112,116,114,116,115,118
115,116,114,116,114,115,115,115,116,115,120,112,114,113,114,115,117,115,116,116,116,112,116,112,119,113,113,116,113,116,114,117,116,114,115,117,117,119,111,115,111,113,118,111,116,116,118,115,113,113,117,118,115,114,114,120,112,112,115,116
119,116,114,116,111,114,116,111,115,114,115,113,117,116,118,116,114,112,116,115,111,110,114,103,117,111,113,116,112,118,117,115,116,116,109,111,116,114,113,117,115,112,110,112,114,114,111,113,114,119,115,109,113,111,111,112,112,113,117,112
115,113,114,113,116,118,115,116,117,111,116,114,118,117,116,113,115,115,115,112,115,111,117,113,115,114,117,118,110,115,116,114,116,116,113,116,116,113,121,119,116,116,114,114,116,116,118,115,115,118,114,116,117,116,114,118,116,112,112,114
113,113,116,115,122,118,112,116,117,113,117,113,113,113,117,116,116,113,112,113,121,115,113,117,116,117,118,117,117,116,111,115,119,114,114,110,114,116,118,115,114,113,116,112,119,115,118,119,117,117,112,117,116,116,113,114,115,116,111,115
115,117,115,115,114,113,117,120,117,111,116,112,111,118,115,113,118,117,115,115,115,113,111,120,116,116,112,116,115,116,116,115,114,113,116,111,116,116,115,112,112,114,115,110,114,112,115,113,110,114,114,116,115,118,115,114,115,111,113,114
117,110,112,117,117,118,119,117,120,114,113,113,111,115,117,114,114,115,113,117,117,118,112,116,116,119,115,115,109,117,118,117,119,118,114,114,117,116,115,114,112,115,117,115,115,116,116,113,118,119,114,114,114,115,116,116,117,114,116,114
118,115,112,112,113,114,110,115,116,113,116,118,114,116,117,115,112,118,116,119,116,114,111,115,116,116,110,116,113,117,118,116,114,113,112,117,117,112,113,115,115,118,115,113,118,110,110,110,113,116,115,116,115,115,116,114,115,116,113,113
117,109,109,118,113,116,118,120,113,112,117,112,112,117,113,117,115,113,114,115,111,118,114,116,120,118,114,116,117,113,113,115,121,112,113,119,117,113,118,118,113,114,113,113,117,115,112,113,113,116,115,119,119,117,119,115,115,116,111,116
110,114,117,119,111,110,116,112,112,114,118,109,113,116,116,114,118,115,116,115,116,117,116,117,117,117,115,113,117,116,115,113,113,113,112,113,111,115,119,118,115,117,119,114,113,108,114,114,118,118,116,111,115,113,116,117,117,114,110,116
118,117,117,114,112,112,118,115,114,114,117,111,117,114,113,115,118,111,109,115,119,114,119,117,113,116,114,114,117,118,116,113,114,119,113,112,111,114,116,117,118,115,115,113,117,112,120,118,119,111,113,115,115,115,115,118,111,111,112,116
114,114,117,112,115,116,118,117,114,115,114,115,117,115,113,112,114,116,113,113,116,115,115,116,116,117,117,114,113,117,118,114,118,119,113,115,116,119,116,113,114,112,118,113,114,116,115,116,118,117,111,116,117,114,115,116,115,117,115,115
121,113,116,118,118,116,116,113,109,116,116,111,115,115,117,115,118,117,113,117,115,116,116,118,119,118,116,116,116,116,118,117,118,110,114,124,116,115,116,117,117,113,116,117,115,116,114,114,115,114,113,117,118,116,118,113,112,109,114,117
118,114,114,116,117,115,114,113,116,117,115,110,117,116,117,115,113,115,110,117,116,117,121,118,118,120,120,120,117,118,120,119,116,118,120,119,115,115,118,117,115,114,113,117,114,115,118,114,117,118,115,115,116,113,110,111,117,116,115,118
114,113,114,112,116,117,117,113,114,115,116,117,114,114,116,123,117,118,109,113,114,119,118,121,124,120,120,118,116,126,119,123,119,119,117,115,120,119,117,118,115,113,111,113,118,117,115,113,115,114,113,113,114,114,113,116,115,114,109,119
117,119,116,112,113,115,114,114,111,116,111,116,115,115,114,113,110,114,116,114,113,118,115,117,117,119,118,122,127,132,127,132,127,119,116,115,120,119,114,116,117,113,113,119,118,115,116,116,112,109,115,112,117,116,113,116,115,119,112,114
116,112,113,115,117,118,113,117,116,122,118,117,113,113,116,116,115,116,115,112,116,118,117,118,118,119,117,129,131,132,139,133,133,127,120,117,121,117,112,114,118,114,114,113,114,116,114,113,114,114,121,117,121,117,112,111,112,118,115,114
113,118,114,115,114,118,116,116,118,116,116,116,111,115,114,117,112,113,120,117,119,122,117,117,119,119,123,127,131,133,138,136,139,132,118,119,119,118,118,118,120,116,113,114,116,113,113,116,112,110,114,116,115,113,116,114,116,113,109,113
114,117,109,110,118,119,114,111,115,111,113,118,116,114,115,120,118,117,119,115,115,115,114,114,117,119,124,129,139,143,135,137,143,138,125,121,114,120,118,113,118,118,114,119,116,110,115,115,109,113,113,112,113,111,113,116,112,114,111,114
114,113,117,115,117,114,111,112,114,112,111,118,114,113,116,118,116,113,115,115,116,115,119,115,115,123,125,131,134,135,128,133,141,141,131,119,116,119,118,117,120,119,113,115,114,112,114,116,114,117,115,114,114,111,108,115,112,112,114,118
119,114,117,114,116,115,114,116,115,119,117,118,114,113,117,116,116,119,118,114,115,119,117,118,120,126,122,130,135,139,137,142,138,133,130,120,122,117,119,119,116,118,114,118,116,116,115,116,115,114,115,115,112,117,115,117,115,110,116,115
116,112,122,116,113,113,115,116,114,115,114,114,117,116,119,114,113,118,114,118,113,115,121,121,118,117,123,129,136,139,135,135,139,136,133,125,121,115,119,118,121,114,111,116,116,116,112,115,114,116,113,116,113,113,113,114,115,114,118,111
116,114,117,116,115,114,114,117,113,117,118,117,117,116,117,116,113,119,117,122,118,116,118,116,120,116,126,131,136,137,137,139,143,137,126,124,122,119,117,115,115,115,114,114,119,115,110,116,114,116,111,118,116,116,113,118,117,112,115,116
113,111,110,116,114,113,110,113,113,110,115,118,118,113,116,115,111,116,111,115,113,118,121,119,120,119,129,130,133,126,136,136,142,139,125,123,118,114,115,117,116,116,117,114,115,118,117,116,109,111,115,119,115,113,114,117,114,112,117,115
115,113,112,115,117,119,116,115,116,113,117,113,117,112,115,116,114,120,116,123,122,121,116,117,118,117,123,131,138,136,144,135,138,129,122,123,122,120,117,118,115,115,116,115,114,122,117,111,114,111,112,115,115,116,116,114,114,118,116,113
120,118,118,117,115,115,111,114,117,113,116,111,112,112,113,114,117,114,115,118,117,118,120,124,117,116,124,136,139,135,131,142,144,136,126,123,117,118,122,114,112,117,114,115,116,118,112,110,115,115,114,114,116,112,115,112,110,114,116,114
114,109,114,114,110,113,114,114,116,111,113,115,115,115,118,111,117,111,117,115,115,115,117,121,117,121,128,134,137,138,137,154,143,141,128,119,116,120,120,111,117,117,115,120,116,113,115,116,117,116,114,113,122,113,116,115,120,114,119,117
116,115,115,112,111,117,115,113,117,115,114,109,113,115,110,113,122,112,119,112,118,119,120,122,118,119,128,136,137,136,138,148,145,140,125,118,121,118,120,114,117,113,118,118,113,112,117,112,113,114,114,112,116,114,115,113,115,111,112,112
115,115,113,116,115,116,117,113,114,114,116,113,119,117,109,115,116,112,114,114,125,121,113,115,117,123,128,135,138,131,137,147,142,132,124,122,123,118,116,113,121,112,111,113,115,114,117,115,116,115,111,115,117,116,115,118,118,115,113,113
116,112,116,119,114,115,118,116,114,117,116,120,115,109,111,116,115,116,124,112,118,113,116,120,123,123,126,138,138,130,141,142,137,135,126,125,122,120,118,116,117,114,115,116,115,113,115,115,115,117,115,114,113,112,110,113,113,113,114,117
116,110,117,117,115,113,115,114,115,118,111,115,111,112,115,117,115,116,118,106,121,113,119,120,124,124,124,132,139,135,142,137,138,133,126,121,119,119,119,117,117,111,108,116,117,117,117,112,114,117,116,117,112,115,113,111,115,117,119,115
119,117,116,116,117,112,121,115,120,115,114,116,112,112,114,113,112,118,121,119,116,113,117,119,121,123,133,141,141,138,136,137,139,133,129,122,121,119,122,117,111,110,113,113,114,117,113,114,118,117,112,115,109,116,118,114,117,116,116,113
114,114,110,114,115,111,117,115,114,109,117,115,113,117,119,114,111,116,117,118,119,117,114,118,121,123,134,144,141,145,141,143,135,127,125,119,121,120,118,112,110,117,120,111,117,115,110,116,116,113,111,112,116,119,116,114,114,114,113,112
116,114,116,118,114,115,116,114,114,113,118,115,114,111,115,122,114,116,116,116,117,115,120,119,121,124,133,139,135,142,141,150,148,129,121,117,121,120,116,118,116,115,115,110,117,110,114,118,116,114,120,118,114,114,114,115,112,112,112,113
118,113,113,110,113,122,116,113,117,115,111,115,114,113,115,117,113,119,119,117,115,114,117,121,125,122,130,140,148,149,141,144,146,127,124,120,123,121,112,112,115,117,118,117,113,114,115,112,118,117,119,117,113,112,114,114,115,114,111,116
111,110,114,119,117,114,106,113,116,117,114,115,107,118,118,112,119,116,114,114,115,115,116,115,117,120,130,137,139,144,138,139,146,127,127,122,116,117,113,113,116,117,114,113,113,116,114,114,115,110,115,112,112,115,116,111,112,116,116,118
113,112,113,118,118,119,112,113,113,118,117,116,120,120,117,113,116,113,116,123,121,115,117,119,120,126,126,142,139,142,136,139,142,133,124,118,114,116,115,116,115,117,111,115,117,110,115,116,117,117,117,114,117,119,110,114,116,112,116,116
112,115,114,116,116,110,107,112,114,117,114,112,116,115,115,115,112,113,116,116,112,113,113,115,119,124,129,144,146,149,144,146,134,130,122,115,116,118,116,113,114,117,112,118,121,112,117,117,114,112,115,114,115,112,112,116,115,111,119,116
115,118,116,118,116,114,112,118,116,117,118,117,115,116,115,116,113,113,118,114,120,118,117,120,116,119,129,138,145,152,149,144,130,128,117,118,112,114,120,119,116,119,117,117,117,111,113,113,111,111,112,114,117,114,116,113,114,114,116,116
113,116,114,120,112,113,113,117,118,116,116,116,116,113,111,115,114,115,117,112,111,116,116,118,119,121,126,135,146,144,127,131,126,124,117,119,116,115,117,115,111,118,114,114,114,114,117,114,113,118,116,118,117,121,120,112,109,110,117,117
117,115,115,118,117,114,115,115,116,117,110,111,116,116,113,115,117,113,115,117,115,117,116,117,117,118,120,124,127,131,125,126,120,128,119,109,117,118,119,112,110,114,113,117,113,114,116,112,112,115,113,113,110,113,116,115,119,118,117,110
113,115,114,114,117,114,121,118,111,114,114,115,114,119,118,112,116,116,119,114,112,113,114,116,112,113,116,118,122,123,119,122,115,119,120,115,118,113,117,116,112,114,114,118,116,114,115,113,117,118,115,114,116,117,117,115,115,114,117,112
113,112,107,112,117,112,113,114,121,118,111,113,116,116,116,114,119,112,112,113,114,114,117,116,117,119,116,114,121,115,113,124,118,116,122,118,113,115,113,111,115,115,112,117,118,111,116,113,118,118,118,117,116,115,115,113,116,114,113,117
114,117,118,112,118,118,120,116,116,114,113,112,116,115,116,116,115,112,114,118,114,115,116,113,113,117,116,115,117,115,118,118,111,112,115,114,112,115,116,110,115,112,112,114,116,113,120,111,117,111,115,119,113,112,115,114,120,116,113,116
116,115,116,112,117,112,114,114,115,113,115,109,115,117,118,117,113,115,113,114,114,113,114,122,114,115,114,117,115,114,114,113,117,119,116,118,120,116,114,115,115,112,116,116,118,112,116,112,115,114,113,118,113,111,115,119,120,113,116,119
116,118,114,115,116,112,113,115,115,112,114,113,116,114,111,114,120,116,113,115,115,117,110,118,117,121,116,113,113,114,116,118,118,115,114,113,115,115,112,115,114,110,113,113,115,115,118,115,115,117,116,118,114,111,117,118,113,113,112,115
118,118,117,116,115,114,115,120,116,112,113,116,114,113,117,111,116,117,117,119,113,122,114,117,116,110,114,113,115,114,114,115,116,111,113,112,115,118,112,117,120,116,114,117,119,116,112,112,115,115,113,116,117,112,113,116,114,117,115,114
112,116,115,114,113,113,115,114,114,111,116,117,118,114,112,110,115,121,113,120,115,116,115,113,115,114,120,116,117,114,110,114,113,115,117,117,112,117,113,115,114,115,114,116,116,112,115,116,116,114,117,117,117,111,113,118,109,117,115,114
117,119,115,119,117,115,117,116,118,117,115,110,118,117,114,119,113,118,118,115,109,113,118,118,114,113,117,114,115,112,111,117,112,115,120,117,114,115,112,114,117,117,114,115,115,113,113,115,117,112,116,115,118,116,114,116,112,117,112,115
114,118,111,110,115,113,112,111,115,114,117,114,114,117,114,115,111,115,116,113,113,117,115,116,117,116,119,113,111,111,117,118,113,117,119,115,110,114,114,118,115,113,111,114,110,114,113,117,114,115,118,119,115,114,115,114,113,114,113,114
111,112,117,112,119,114,112,111,114,116,118,115,113,116,115,113,117,115,117,117,115,115,117,112,115,115,112,116,116,111,113,116,114,116,112,116,116,117,115,116,113,118,112,116,112,114,111,116,113,116,113,113,110,117,117,113,116,113,113,120
116,115,112,115,119,114,117,115,120,116,113,114,115,111,115,109,119,111,113,114,112,109,119,115,114,115,113,117,116,120,115,113,116,115,111,116,116,113,113,118,119,114,109,121,114,117,112,112,114,114,112,114,111,114,117,118,114,114,115,113
118,118,117,114,113,113,116,117,116,112,106,110,118,114,119,113,115,114,114,114,117,111,116,111,115,114,116,115,112,119,116,112,117,116,116,117,113,118,117,115,114,119,115,118,114,117,112,111,118,119,113,115,119,115,114,116,111,120,117,114
115,114,114,107,115,114,115,117,111,112,113,115,119,115,118,115,114,115,115,115,117,117,115,114,116,113,113,114,117,116,115,113,114,115,111,114,115,112,114,111,114,117,116,117,111,115,115,114,117,115,110,115,113,112,113,117,114,116,115,112
114,114,116,113,115,109,115,116,114,116,115,113,112,111,113,113,112,115,117,113,113,119,116,113,117,117,111,114,111,112,117,119,116,114,114,118,116,114,122,115,115,118,116,116,114,115,115,110,117,118,113,113,113,115,115,117,115,112,118,110
113,111,114,115,115,113,117,115,115,115,110,115,117,114,115,114,114,116,116,116,116,114,112,108,115,115,116,116,116,117,115,111,118,115,114,115,113,115,116,115,117,118,115,113,113,113,117,112,116,109,115,116,115,113,112,115,112,110,113,111
115,113,113,115,116,119,117,115,116,120,114,114,115,116,115,113,110,118,117,112,113,115,117,117,115,116,118,106,115,112,113,113,114,113,116,114,116,115,115,115,117,115,114,116,116,116,117,110,115,111,116,114,111,112,111,119,111,112,118,115
115,114,114,119,119,115,115,112,115,114,115,118,117,113,115,114,113,115,115,113,114,118,116,115,113,112,121,114,113,116,114,114,111,116,119,113,117,117,118,115,115,111,110,120,117,114,115,118,116,109,115,116,116,120,114,118,114,111,115,110
112,113,111,114,117,116,120,118,116,113,117,114,110,108,116,113,116,116,111,110,113,115,115,116,114,111,115,109,110,118,116,116,113,114,114,115,116,115,113,114,117,113,116,117,106,112,115,114,117,112,114,111,114,115,118,115,114,115,113,114
113,113,111,113,117,108,117,115,119,116,113,111,116,118,118,113,113,116,114,112,116,115,115,118,114,113,116,118,116,110,112,114,117,116,114,115,112,112,117,115,117,108,115,119,118,115,114,112,114,109,115,113,117,118,119,115,115,115,112,117
117,116,113,114,119,113,118,111,114,115,116,114,117,119,114,115,114,118,121,114,114,119,116,116,117,117,113,118,116,113,117,117,115,117,117,115,119,111,113,112,113,112,115,113,115,114,113,116,118,112,113,114,111,111,113,117,117,116,110,115
113,115,113,116,117,115,113,117,116,114,114,112,115,117,111,116,114,115,113,109,114,114,113,119,115,115,113,114,115,116,112,118,120,117,115,112,116,115,118,115,113,113,113,116,116,116,116,118,117,114,112,112,113,117,118,116,116,116,113,114
115,118,115,113,118,118,107,113,104,112,117,120,116,116,114,116,115,112,110,113,116,111,114,115,116,116,116,114,116,118,113,114,115,112,115,117,113,115,114,112,116,118,116,115,111,115,112,114,111,114,117,117,116,116,115,112,112,111,117,111
113,112,114,112,117,120,111,116,116,118,115,115,114,114,119,114,118,118,118,118,115,112,117,112,113,112,113,108,111,114,111,112,111,111,115,116,115,115,111,112,114,114,115,113,111,116,112,115,112,115,112,115,119,116,111,113,117,117,121,116
113,112,115,116,116,112,114,111,115,116,115,110,112,113,117,112,114,112,112,112,114,115,115,116,114,118,116,114,114,118,116,112,112,117,116,117,113,110,116,117,117,118,117,114,111,114,118,116,113,117,119,119,118,115,115,118,117,118,111,111
113,123,119,112,115,113,118,115,118,111,117,114,114,116,120,113,113,114,119,115,115,116,111,114,113,114,116,119,114,119,116,118,114,115,111,117,117,113,114,113,112,115,115,115,115,114,116,116,113,114,116,113,112,116,117,117,113,119,118,113
110,115,115,114,117,113,118,114,115,112,117,120,115,114,120,113,114,115,117,115,114,117,116,114,117,117,111,115,115,118,111,112,110,116,114,117,118,116,115,117,116,114,113,115,109,114,116,116,114,114,115,115,116,115,113,116,114,114,117,111
114,116,114,121,114,114,117,116,112,113,114,117,116,115,116,112,116,117,115,114,115,116,116,117,119,116,112,116,108,113,114,116,113,118,117,119,114,111,119,117,118,117,116,114,114,114,111,114,116,115,116,113,115,113,111,118,117,111,118,112
108,113,114,120,109,113,114,114,112,115,113,112,112,112,115,116,113,109,112,117,114,113,115,114,116,110,112,116,117,119,112,114,111,119,112,113,114,115,115,113,120,116,115,113,116,114,119,117,113,110,114,118,118,115,116,112,114,120,121,116
108,116,116,115,112,112,116,115,113,117,114,113,116,116,115,116,113,117,116,112,119,112,116,113,116,113,117,116,117,118,116,116,110,112,110,114,114,118,114,114,119,121,118,115,113,114,117,111,111,115,115,118,117,113,116,115,115,117,114,114
114,114,114,113,112,111,114,116,115,118,116,114,112,110,117,119,117,117,113,112,118,109,117,112,116,116,114,114,114,114,110,112,108,113,118,115,116,115,112,107,114,116,112,118,117,117,116,111,116,113,115,116,111,111,113,116,115,114,116,117
114,114,116,113,112,112,113,118,115,114,117,114,114,113,114,115,111,110,113,116,115,117,117,114,116,114,111,117,116,115,118,116,113,116,116,109,120,116,114,120,113,114,112,112,115,115,113,109,114,113,114,115,115,114,111,114,116,111,113,115
113,114,112,111,114,117,115,115,112,112,115,116,115,117,114,114,112,113,113,115,114,116,117,113,115,112,114,120,118,112,113,113,115,115,114,113,116,114,109,115,110,118,113,114,116,119,117,114,113,116,117,114,118,116,115,112,112,110,116,116
115,115,117,117,117,116,116,116,113,116,117,117,114,117,113,117,112,120,115,116,116,114,113,112,118,116,112,112,114,112,115,114,112,115,116,118,109,112,118,117,117,118,109,110,109,111,119,112,116,122,117,107,112,112,112,115,115,115,116,115
118,116,116,113,113,110,111,113,118,116,118,117,116,116,114,116,112,115,107,117,111,114,113,115,112,114,112,111,116,113,115,114,112,115,116,115,113,116,118,112,114,112,112,114,113,113,119,110,116,116,115,114,113,114,113,117,116,115,117,113
115,115,113,113,114,113,115,110,115,114,112,113,118,116,116,112,106,118,115,114,109,115,112,114,111,117,116,114,114,117,113,117,117,116,119,111,111,115,118,116,113,111,116,115,112,115,115,113,112,114,116,111,111,118,111,115,113,114,117,115
112,114,119,111,113,113,119,120,115,116,111,114,118,114,114,115,115,118,112,117,109,116,116,117,117,119,114,116,114,110,108,115,119,117,119,113,116,119,114,115,112,117,117,114,116,116,110,111,111,113,119,114,110,114,111,115,112,119,113,113
114,113,115,111,115,114,117,122,114,113,113,115,116,119,115,113,112,115,113,115,110,117,114,114,114,115,113,115,119,114,116,119,116,112,116,115,114,117,111,112,114,114,112,116,112,112,120,118,114,110,113,113,117,121,119,114,113,117,113,110
115,115,114,114,116,112,110,115,114,118,117,116,115,116,114,114,115,119,117,115,115,114,116,114,112,113,116,112,112,112,115,116,116,115,116,113,111,113,111,117,114,117,116,114,112,115,116,112,115,112,115,110,111,112,119,109,115,115,116,116
114,113,114,110,116,115,114,114,114,111,114,112,111,110,116,114,119,116,116,114,114,112,115,115,110,116,117,112,116,115,112,113,115,113,119,115,115,116,117,119,108,115,115,113,109,117,117,115,116,111,117,111,118,113,116,112,117,115,115,111
117,111,118,111,115,114,111,112,115,112,116,112,116,118,116,114,118,115,115,119,119,115,113,116,114,115,114,113,122,117,113,114,113,113,117,113,119,112,113,115,113,116,116,116,115,115,112,114,114,115,114,113,114,116,117,114,118,114,118,113
115,110,115,114,120,117,115,114,114,112,108,114,116,117,113,114,109,111,116,117,116,115,114,115,115,112,115,116,118,114,112,113,115,114,114,117,119,111,112,116,116,113,115,114,117,115,115,115,115,115,112,114,116,116,114,113,115,116,114,109
116,114,115,115,118,115,118,113,111,110,113,119,111,111,113,117,115,118,118,116,113,115,115,114,116,120,112,112,115,111,115,116,120,113,112,119,115,111,112,114,118,114,112,112,115,111,117,116,114,114,115,112,114,113,114,113,117,116,116,116
116,111,116,110,113,114,116,115,114,110,118,117,107,115,117,119,116,116,114,111,111,116,113,116,116,116,111,118,115,115,116,110,110,113,116,117,116,112,112,111,114,115,113,114,113,113,116,115,113,116,115,110,118,112,114,112,118,118,113,114
111,112,116,113,112,113,110,113,116,109,113,115,116,118,113,114,111,112,111,114,116,117,117,116,114,113,114,116,114,115,115,121,116,118,114,109,113,112,114,117,114,115,115,112,113,117,117,115,114,117,113,108,118,115,117,111,114,117,114,116
114,116,113,111,113,118,117,116,114,114,112,111,116,118,118,115,111,113,115,118,115,115,117,110,117,118,115,111,114,114,116,120,112,112,112,114,113,110,117,121,115,117,116,112,115,116,111,113,120,117,114,115,116,117,113,111,113,117,115,113
115,113,112,116,116,118,111,116,116,112,113,117,117,116,120,115,114,117,118,119,116,114,115,109,115,114,112,110,116,114,111,109,116,118,110,113,117,112,114,115,119,118,116,112,112,115,118,115,117,114,109,115,115,114,114,113,113,111,112,121
116,116,112,115,114,117,111,114,113,110,109,113,119,112,115,113,115,115,113,115,115,111,112,115,115,115,113,116,116,117,118,109,118,116,113,120,119,112,115,115,116,116,112,114,115,114,111,113,120,113,111,117,115,113,115,112,113,119,116,116
113,114,113,115,117,120,110,112,112,113,113,114,115,111,120,113,113,118,115,112,112,113,118,121,115,119,111,112,113,117,116,108,111,114,111,116,115,116,118,123,116,114,113,113,115,114,113,118,117,109,121,118,113,113,113,114,112,109,109,117
