54,62,70
118,117,109,111,115,115,109,107,114,114,113,111,111,114,112,111,113,114,116,112,110,112,117,111,108,115,115,117,113,113,115,114,112,112,115,109,110,116,113,111,114,112,111,117,112,111,112,112,109,110,115,115,111,109,112,115,116,115,114,114
114,114,111,112,112,116,112,112,117,113,114,115,113,110,116,116,110,111,113,116,115,112,112,115,112,110,115,114,109,112,114,111,112,112,113,112,111,112,111,108,113,113,109,114,114,110,115,114,111,112,112,111,112,112,115,113,109,115,113,109
111,115,113,115,115,110,113,112,111,114,112,112,115,113,109,113,113,114,113,114,118,111,108,115,114,113,116,110,112,114,110,112,114,113,113,112,109,113,112,109,110,114,110,111,112,112,113,110,113,116,113,109,112,112,110,109,112,107,107,112
112,110,111,114,116,116,109,111,116,115,110,108,115,116,113,111,116,116,113,110,111,113,114,115,111,112,113,113,112,109,113,115,112,113,112,110,111,112,113,107,108,117,113,113,111,109,110,115,117,115,116,112,111,111,116,113,110,113,113,116
108,111,112,112,113,111,111,117,109,111,111,112,117,112,110,110,112,114,115,113,114,115,111,113,111,112,112,111,113,112,114,115,113,113,112,112,112,113,115,107,115,116,112,116,113,116,114,113,113,113,114,113,113,109,112,114,114,115,113,112
115,113,111,109,112,116,112,113,111,114,112,113,113,110,113,112,115,111,110,115,117,112,113,111,112,116,112,112,112,113,112,111,115,114,112,113,112,116,115,108,113,112,112,116,114,115,112,110,114,115,111,108,108,115,113,109,113,114,114,111
111,116,114,115,116,112,112,111,112,112,110,110,114,111,110,113,115,114,115,111,112,114,112,109,111,115,111,107,108,111,113,110,113,113,114,114,109,112,115,114,112,113,113,110,114,116,112,113,111,116,111,111,112,112,119,117,112,110,116,112
112,110,112,113,110,110,111,109,112,115,110,109,112,114,115,114,108,113,117,109,111,113,112,111,110,115,111,110,114,114,113,111,113,113,113,117,114,107,111,114,112,113,115,114,107,111,116,117,115,111,112,115,110,110,115,110,115,116,112,112
111,116,114,111,114,116,111,108,114,118,112,113,116,116,114,115,110,112,113,116,109,111,113,113,111,110,112,113,115,114,114,110,110,115,112,109,114,111,109,111,113,111,112,115,113,115,113,110,113,113,117,117,112,110,111,116,109,112,114,113
117,112,109,117,113,109,111,112,117,112,106,108,113,115,112,113,111,113,111,112,114,116,113,112,114,113,117,113,113,111,113,117,111,114,117,111,109,113,113,110,114,114,113,112,110,113,111,110,114,111,113,115,115,118,113,114,112,115,114,110
109,111,114,113,115,112,110,117,112,111,114,115,113,115,112,111,114,113,112,113,112,110,114,112,113,112,114,116,113,111,111,116,114,112,113,113,112,110,114,116,115,110,112,111,115,117,113,112,111,112,108,114,109,110,114,112,114,110,111,112
113,111,113,113,115,112,111,115,111,111,116,115,114,112,114,112,112,109,112,113,112,110,111,113,113,115,111,114,110,112,116,111,111,109,109,112,112,110,114,111,112,116,115,112,117,116,116,113,114,113,111,112,110,111,111,114,110,112,107,111
114,111,107,113,114,116,114,118,107,115,111,112,114,111,118,112,113,114,108,112,113,111,110,110,111,111,112,111,110,116,113,110,111,112,110,114,110,112,114,111,114,117,112,108,112,115,116,115,115,116,113,113,112,114,111,111,112,112,110,117
114,113,110,111,116,107,109,116,109,113,114,114,115,112,113,114,115,108,113,116,112,116,113,107,113,114,108,109,113,111,112,112,112,117,113,110,115,117,115,115,120,108,110,114,113,110,114,111,111,113,113,116,112,109,115,116,116,116,114,115
106,106,112,115,117,111,112,115,108,112,113,116,112,112,113,115,112,111,109,112,116,114,117,113,113,117,111,111,113,108,114,113,111,116,113,115,117,110,111,115,112,108,112,112,114,112,111,114,110,111,114,111,110,113,114,115,114,114,115,110
111,111,113,115,110,116,114,116,117,112,114,111,113,115,112,117,109,114,111,113,114,110,116,112,109,111,113,113,116,112,111,113,110,110,110,113,114,112,113,111,107,112,112,108,113,113,113,114,112,108,111,111,115,114,113,112,114,116,112,107
114,116,113,107,114,112,110,111,108,110,115,111,113,114,112,111,113,109,110,112,111,108,112,113,112,110,112,112,116,112,113,114,109,113,115,108,115,110,115,110,110,114,113,110,113,116,112,110,112,109,115,113,115,111,114,116,110,109,111,115
115,110,115,112,116,109,114,115,112,114,117,109,109,117,115,112,111,110,114,115,107,109,115,117,114,114,113,114,112,111,119,111,113,114,113,112,112,111,112,112,114,112,112,113,112,113,112,116,112,111,112,116,110,108,116,111,114,112,111,108
111,110,115,110,114,113,115,110,113,115,113,113,110,116,116,112,113,110,113,111,112,117,114,112,115,111,114,113,109,114,116,111,114,113,110,116,108,110,119,116,114,107,108,116,110,116,115,113,111,114,112,114,111,111,112,114,112,112,110,113
112,113,110,114,114,112,114,115,110,114,105,114,110,119,114,111,112,109,114,114,115,113,110,117,114,110,115,111,114,113,115,110,113,111,109,113,111,112,115,112,109,117,111,112,116,113,111,109,112,115,111,113,116,109,117,114,115,114,113,111
115,109,110,118,115,108,117,114,111,111,113,113,111,114,109,113,114,110,112,111,112,110,114,112,112,115,111,114,115,115,118,111,110,111,109,114,110,113,112,107,112,114,112,109,115,115,114,113,116,108,109,110,115,117,112,115,115,111,116,109
114,116,112,117,113,112,115,114,117,114,112,112,120,107,114,116,112,117,112,112,114,114,113,110,113,113,107,115,114,115,111,112,112,109,113,109,108,111,114,111,113,109,113,116,111,115,109,119,116,113,111,112,115,112,116,116,115,112,111,110
107,117,112,113,111,115,112,118,113,114,109,110,113,111,112,113,115,112,111,114,113,114,113,115,109,107,111,111,114,113,108,113,114,110,111,112,114,111,113,113,114,114,115,114,113,115,116,110,116,112,115,110,108,113,116,107,115,111,109,113
113,114,111,112,113,118,111,117,111,117,112,117,113,111,113,109,115,109,112,112,115,112,109,113,110,111,113,111,113,115,114,110,110,115,110,115,114,114,115,111,113,117,109,112,112,112,114,115,111,111,111,115,114,111,112,108,115,111,111,110
113,115,112,115,110,107,117,116,116,111,114,113,114,110,111,113,116,111,112,115,117,110,114,111,113,118,112,115,115,113,115,109,112,112,114,113,111,113,112,113,111,112,110,116,114,112,110,115,111,113,115,107,113,112,116,114,116,114,112,112
115,114,112,117,109,119,108,110,113,111,109,112,116,112,107,116,112,108,114,110,112,117,117,113,116,110,111,115,114,116,113,117,116,106,115,110,111,114,112,113,113,111,108,113,114,112,111,110,116,112,115,110,114,114,113,113,109,115,113,114
112,109,116,112,113,112,115,116,112,111,112,114,111,108,109,117,115,109,118,111,115,115,115,113,112,110,111,111,111,114,115,114,112,111,115,113,114,116,110,116,109,115,112,112,108,115,114,113,115,113,113,116,112,112,109,114,111,115,110,112
113,117,112,117,114,111,111,115,109,114,112,112,115,114,113,112,115,111,110,116,111,113,115,113,110,118,115,108,111,114,116,106,109,118,114,115,111,113,111,112,107,115,114,115,106,113,116,117,112,112,116,112,112,115,109,113,115,112,114,115
115,114,115,110,115,116,112,111,114,115,116,106,115,110,116,115,109,114,107,114,110,119,114,111,109,114,115,111,114,114,112,111,112,115,116,113,110,111,117,112,108,115,110,121,110,114,112,117,112,114,111,114,112,114,114,116,114,114,110,115
108,112,113,112,110,110,115,113,112,120,117,106,114,113,115,112,111,120,112,116,112,117,118,110,109,110,115,116,114,109,114,113,115,113,113,112,114,112,108,116,114,113,111,113,112,111,110,114,114,113,113,113,116,113,111,114,117,114,111,115
111,110,115,116,112,109,111,114,113,111,107,113,111,117,111,113,113,115,112,111,112,113,116,108,108,113,113,117,112,116,110,114,115,113,113,113,117,114,111,112,113,111,116,112,114,112,111,116,113,111,116,114,109,110,113,113,111,114,112,115
108,110,115,111,116,114,113,106,115,113,115,111,112,112,111,108,115,114,115,120,110,116,114,110,112,114,111,115,112,114,111,112,114,115,110,115,110,110,114,111,111,111,112,110,118,113,112,114,116,113,116,114,117,121,107,113,109,115,110,111
110,110,116,114,111,110,119,109,108,112,115,111,116,111,119,110,115,110,116,115,112,111,111,111,113,109,111,112,117,110,112,108,117,114,114,113,109,113,114,111,113,115,109,112,112,109,115,110,116,113,111,118,114,112,108,109,110,111,106,113
111,114,113,110,110,113,114,109,116,110,115,112,108,116,111,113,111,111,112,111,111,112,111,112,113,110,116,113,113,114,111,107,117,115,117,114,112,115,113,111,111,113,112,115,112,110,109,111,113,110,111,117,111,112,106,113,117,116,111,113
111,118,111,112,111,111,111,115,111,117,114,115,116,114,111,110,113,113,110,115,115,110,115,111,116,113,112,114,113,112,118,112,111,113,111,116,110,111,111,114,113,114,115,116,109,117,110,113,112,115,115,111,109,109,115,108,116,111,113,108
116,111,103,116,113,109,109,115,113,114,112,109,121,118,112,113,113,112,114,118,116,110,113,111,116,113,111,111,114,114,113,114,113,111,115,113,113,112,114,115,112,114,114,113,116,108,112,113,108,109,117,120,114,109,115,115,114,116,108,110
116,110,110,110,114,113,107,109,113,115,112,111,120,112,112,109,112,110,111,108,115,111,113,112,116,117,113,114,111,110,112,113,115,110,116,117,114,115,115,116,113,111,112,112,117,110,114,111,118,106,118,117,115,113,110,112,112,114,108,114
113,112,110,113,113,113,112,108,111,115,109,111,112,113,112,109,114,110,115,106,110,112,115,114,118,112,113,115,111,108,115,118,113,111,112,117,113,111,114,113,115,116,112,115,116,115,111,116,112,114,115,118,120,109,111,108,114,111,114,111
112,105,114,117,112,112,113,117,114,112,114,108,110,115,111,112,114,111,115,112,113,114,112,118,113,110,115,115,108,111,113,116,113,113,116,116,115,112,113,112,115,113,111,113,105,116,112,113,111,113,115,106,116,115,109,110,115,115,114,112
114,114,111,112,118,111,113,113,110,111,111,115,114,112,116,111,115,115,109,116,113,115,114,112,113,114,115,113,112,111,111,117,112,113,116,113,114,112,112,114,113,114,109,112,111,112,112,114,113,116,111,110,114,111,112,111,110,108,112,106
113,118,111,110,107,113,116,117,116,113,110,107,116,118,114,114,113,112,111,115,113,114,115,112,111,116,116,109,114,110,116,116,114,115,110,111,113,116,110,116,114,112,113,116,113,112,113,109,114,115,112,108,113,112,110,116,114,106,115,116
115,112,113,116,112,115,113,113,119,110,117,113,115,116,113,110,111,109,113,117,113,113,115,113,110,113,114,110,112,109,117,111,113,111,112,111,113,115,114,114,113,109,112,113,111,113,110,113,113,115,113,111,108,115,115,111,115,114,109,111
111,113,117,114,107,112,115,119,111,111,121,113,112,114,111,115,116,111,113,114,115,117,116,112,115,110,111,113,115,112,109,115,118,110,118,108,114,115,114,114,110,116,112,107,115,116,110,114,116,114,112,111,116,111,114,115,111,115,116,108
113,119,111,111,112,115,111,113,116,115,111,113,114,112,113,113,120,109,110,114,115,114,119,112,109,114,114,114,114,113,110,113,116,112,114,113,112,115,114,110,114,116,112,114,114,114,114,115,111,117,112,112,114,112,113,105,114,112,110,113
114,113,114,109,114,116,116,113,111,115,115,111,110,117,112,115,112,111,111,116,111,109,111,112,111,116,111,113,111,112,112,113,112,117,112,110,116,110,116,115,109,113,117,113,109,117,112,111,111,116,116,111,111,115,112,115,112,114,115,114
116,110,115,115,116,111,110,115,114,113,114,112,114,112,113,115,114,110,109,117,113,110,112,112,114,112,114,118,115,114,118,122,116,117,114,110,114,113,116,116,109,115,112,112,108,116,113,112,115,110,113,115,114,114,114,113,117,113,112,111
111,108,114,118,114,114,112,111,112,114,114,116,113,113,114,118,114,114,112,107,114,113,115,112,113,112,113,115,115,120,125,123,119,115,117,116,109,115,115,121,114,110,114,112,108,113,114,115,110,117,114,112,112,114,117,116,112,113,119,116
111,108,112,114,115,112,110,116,112,116,112,115,114,113,111,114,113,111,112,113,111,112,115,117,113,113,114,112,118,123,128,127,126,120,115,116,113,119,114,115,116,108,117,109,107,116,112,114,114,116,110,114,114,112,113,114,114,116,111,112
109,114,116,115,110,112,117,119,113,112,110,114,114,106,110,116,114,109,111,118,111,112,113,113,111,114,117,117,125,122,128,131,126,127,120,114,116,113,116,112,116,114,112,118,115,114,112,110,112,114,118,114,111,115,108,112,114,114,110,112
111,112,118,111,114,115,111,112,112,112,110,111,109,117,111,112,114,112,113,112,115,113,115,112,113,114,114,114,119,122,123,124,124,127,123,118,112,111,114,115,112,114,117,117,112,111,112,114,109,109,116,113,114,118,118,114,111,109,115,115
109,119,115,111,117,112,113,111,106,115,116,114,114,113,114,113,110,117,115,112,117,115,117,114,112,115,118,122,125,127,126,124,128,130,120,117,112,115,111,112,111,116,115,113,112,114,111,109,114,113,114,110,113,116,113,117,112,114,115,110
113,112,111,112,114,112,112,111,116,112,117,116,115,112,110,116,112,110,111,114,115,112,113,110,116,116,117,125,128,130,132,129,129,129,121,113,112,119,117,110,113,116,113,110,114,114,114,110,113,117,112,112,115,113,113,114,114,111,113,113
116,110,113,114,115,116,117,110,113,116,113,115,110,116,112,111,115,113,114,116,112,112,115,114,113,113,116,122,127,133,128,127,126,126,123,119,116,119,117,110,116,113,111,110,112,115,114,110,109,117,114,111,115,112,112,116,114,115,113,110
108,113,114,110,112,114,116,117,108,109,112,112,112,110,115,114,113,113,114,112,115,113,115,113,112,117,121,126,127,133,133,124,126,130,123,116,113,114,119,118,112,112,110,109,112,116,109,113,116,112,116,116,113,111,114,111,111,120,116,112
111,112,109,113,114,113,114,113,114,107,109,114,114,117,114,113,108,113,116,115,113,110,115,113,115,119,122,122,125,133,132,124,127,127,118,118,115,114,117,116,112,116,112,111,112,114,115,113,116,114,112,113,109,114,115,112,114,116,115,117
109,113,112,113,116,115,116,114,118,114,108,113,114,112,116,113,108,116,117,114,112,111,113,117,117,114,118,124,125,132,127,127,128,123,120,117,118,116,113,112,114,115,115,114,114,112,115,113,114,115,109,114,111,110,114,112,111,108,113,118
117,113,116,112,111,110,114,114,112,113,112,112,113,112,114,114,112,114,116,111,111,113,113,113,114,113,121,128,129,133,128,127,129,125,121,116,114,112,112,117,119,114,113,112,110,111,115,113,114,114,115,114,113,114,113,119,115,112,112,115
113,111,116,112,113,117,115,111,114,111,112,116,111,115,115,112,113,111,113,114,113,113,112,114,112,113,121,122,127,132,127,130,129,124,119,119,115,111,116,119,117,114,116,114,110,113,114,109,111,118,114,111,114,118,113,110,110,114,112,111
111,112,115,116,112,114,115,115,112,112,113,109,112,112,114,117,112,110,114,113,114,114,112,117,113,115,122,120,126,131,131,132,128,124,122,118,118,114,118,121,112,112,116,114,115,112,115,115,113,108,111,115,113,115,107,111,113,115,116,110
111,110,112,112,110,113,113,111,112,113,110,113,114,111,116,116,110,108,114,114,114,116,115,119,116,112,120,124,127,133,134,129,128,127,122,118,118,120,117,114,113,114,112,110,118,113,109,115,112,113,113,116,114,111,116,116,115,114,112,113
114,114,113,115,112,114,113,112,110,113,116,113,113,116,113,107,110,115,113,110,111,116,114,114,113,111,117,124,126,130,132,132,127,122,121,118,112,113,114,113,115,111,115,116,114,113,109,112,113,113,115,109,112,112,111,110,111,116,114,117
112,112,115,111,115,113,112,115,117,117,111,114,118,117,110,109,114,114,112,111,113,114,113,115,115,113,116,124,126,127,131,135,129,123,121,116,116,111,111,114,114,109,109,115,114,114,108,111,118,115,113,109,111,114,110,116,118,112,114,112
115,110,109,113,115,114,115,110,113,116,113,111,111,113,113,113,113,113,114,115,114,114,114,115,119,115,119,133,129,128,128,130,129,125,118,115,114,114,116,116,115,115,111,114,117,115,115,112,112,113,108,112,112,110,113,113,114,109,110,115
115,120,114,111,111,113,118,115,112,115,115,113,115,116,114,115,112,112,112,117,113,113,112,112,118,120,124,128,130,128,129,130,129,122,119,119,117,114,113,113,113,116,112,114,116,112,113,116,114,117,114,112,117,112,113,113,112,114,111,112
114,112,111,115,114,113,110,112,114,112,112,112,113,114,114,114,112,115,113,110,109,115,113,111,113,120,121,122,131,129,129,130,132,120,117,117,116,113,112,115,114,116,112,116,115,112,114,116,115,114,117,116,110,113,117,114,116,113,115,116
112,113,118,118,111,112,113,115,118,116,112,113,115,114,112,111,113,111,116,114,114,114,118,113,112,119,117,123,128,128,129,126,125,123,119,115,115,114,116,121,116,114,115,117,112,113,115,112,113,115,116,111,112,116,115,118,116,113,114,111
118,111,114,113,108,112,116,112,118,111,113,113,114,115,111,110,109,114,113,117,116,113,113,111,115,118,122,129,129,128,132,125,121,124,122,118,116,114,112,114,115,115,112,115,111,112,115,117,116,112,114,114,114,116,113,114,110,116,114,111
113,111,114,114,110,110,107,112,112,112,109,113,117,114,113,115,115,114,112,113,116,118,112,112,120,115,122,129,131,128,127,128,128,123,117,118,117,116,111,111,114,113,109,114,115,117,114,112,115,114,113,110,113,112,110,114,116,112,111,111
115,113,114,114,109,114,119,114,113,113,113,115,111,115,115,113,113,114,115,116,110,113,116,115,116,122,117,122,130,128,127,132,132,126,117,117,117,113,116,115,114,113,114,119,115,111,112,110,115,111,109,114,117,114,110,115,113,113,111,115
109,119,114,113,112,113,116,114,113,115,111,113,112,112,113,115,117,115,110,111,113,108,111,119,116,120,117,126,124,129,135,130,129,125,119,116,116,114,114,116,115,109,112,115,114,110,109,112,113,115,112,116,113,114,118,116,111,112,115,111
112,112,110,115,119,114,111,108,108,116,113,114,112,116,120,114,112,116,108,111,112,112,113,114,119,120,121,130,124,122,134,133,125,122,115,114,111,113,114,114,115,113,114,114,111,111,114,115,110,111,111,115,109,114,115,116,115,113,114,112
108,112,113,113,115,116,113,115,115,115,112,113,113,116,114,116,112,114,114,116,112,111,113,113,118,118,118,128,129,123,129,132,125,123,114,115,114,112,113,113,112,115,116,108,111,113,116,114,110,115,116,114,113,111,114,113,109,116,115,116
105,109,109,114,114,115,115,104,111,120,114,112,114,110,110,110,115,112,114,114,115,113,117,113,116,118,113,127,127,127,131,128,126,125,120,121,112,115,118,113,116,114,109,110,114,115,115,115,112,116,110,111,117,114,113,111,111,118,117,113
114,116,111,111,117,111,110,113,111,113,112,115,109,112,111,114,110,112,112,114,116,111,114,116,112,119,118,124,125,126,133,127,121,122,119,118,112,109,120,113,114,111,111,118,113,111,110,110,111,108,113,115,108,111,113,112,113,115,116,112
115,116,111,114,113,116,115,114,114,111,113,110,111,108,118,112,114,116,114,110,113,112,112,120,113,115,119,123,129,131,130,129,125,123,119,114,116,111,119,114,112,112,117,114,109,115,113,114,115,109,112,115,116,118,112,113,115,116,108,107
116,113,115,113,106,113,114,114,113,116,111,113,112,114,117,115,114,112,115,110,114,114,116,116,119,113,116,124,129,133,130,128,129,122,121,113,114,117,111,114,116,110,114,110,115,113,115,115,113,110,108,109,111,117,116,114,112,115,114,118
119,117,116,107,111,110,115,115,113,111,114,113,109,112,118,119,109,107,110,114,116,111,114,112,114,111,117,121,123,125,127,126,127,122,120,113,110,117,114,113,114,111,113,115,113,111,113,112,111,116,113,111,110,115,112,113,115,115,110,113
111,110,116,114,112,113,112,107,114,116,114,117,112,112,118,111,116,114,115,115,113,117,111,114,113,116,118,118,118,116,126,128,129,119,118,114,110,114,115,116,108,114,113,112,116,117,111,111,115,114,117,112,111,114,118,110,117,112,113,116
112,116,111,110,108,112,114,114,108,114,112,114,114,110,111,116,115,113,113,113,114,118,113,119,110,112,116,120,116,117,128,121,125,116,115,113,110,115,113,116,113,119,115,112,115,114,112,115,111,112,111,114,112,115,115,114,115,111,114,113
116,113,113,113,113,117,107,111,114,112,113,116,114,114,116,111,112,113,109,108,107,117,119,111,115,107,111,120,113,116,124,116,115,117,112,118,111,113,114,109,117,110,112,113,114,110,113,114,115,113,107,113,111,117,108,112,117,117,113,115
115,114,113,109,114,112,113,114,118,112,113,112,111,115,113,109,113,111,110,112,111,112,117,110,116,114,117,115,114,113,118,112,116,118,112,118,114,114,109,116,114,108,109,112,111,115,114,107,116,112,114,111,113,113,114,111,112,116,114,111
116,116,113,112,114,114,112,117,112,118,113,118,112,112,115,110,112,112,111,114,114,118,109,116,111,117,117,113,117,113,113,115,116,116,118,114,113,113,113,112,114,113,107,110,111,113,117,113,115,116,111,110,113,114,115,110,113,114,116,115
111,115,113,111,115,112,116,107,116,114,114,117,106,114,116,111,112,109,111,111,117,110,112,115,116,113,111,117,113,116,111,115,112,114,117,113,116,110,119,112,116,115,116,112,114,115,113,117,117,112,115,118,109,111,113,115,114,114,113,109
112,113,111,114,117,112,116,117,109,116,112,113,113,111,112,113,114,113,115,112,113,109,112,116,115,115,110,116,116,118,109,112,113,112,110,112,116,115,113,114,116,111,117,117,117,116,108,116,112,115,110,118,114,109,107,111,115,115,112,114
110,117,112,113,113,106,113,113,116,111,110,112,114,113,115,113,111,114,114,115,115,114,114,115,113,116,109,110,114,115,110,114,113,113,110,112,111,121,113,117,111,116,115,117,111,113,114,112,116,115,114,115,110,110,111,115,112,113,115,108
111,119,113,113,116,112,116,114,115,104,112,115,115,111,113,113,111,119,114,111,114,117,118,110,114,110,113,116,116,112,111,113,116,115,113,113,115,119,111,117,113,116,116,115,112,113,117,116,114,113,115,116,108,115,114,110,112,112,116,117
110,111,112,111,114,112,110,115,118,114,112,117,117,109,115,108,115,113,113,110,112,112,118,111,116,114,112,114,118,111,112,112,115,113,114,115,114,113,114,113,113,114,111,116,110,113,114,117,108,116,115,111,111,112,116,108,113,113,113,117
111,110,113,114,111,113,108,116,111,115,116,115,115,114,119,117,111,113,113,114,113,114,113,113,116,113,113,113,110,110,112,110,112,114,115,115,110,112,116,115,113,110,109,113,115,113,116,111,117,110,113,114,111,116,108,108,112,112,111,115
116,115,114,113,115,114,119,113,108,117,112,117,112,115,115,115,115,111,114,113,113,112,118,110,114,109,113,115,112,107,114,111,116,115,115,114,115,114,114,115,113,113,112,117,115,118,116,110,118,108,114,114,112,113,111,112,117,115,114,116
114,117,112,112,116,115,114,113,109,114,114,113,111,118,113,111,113,112,115,110,113,114,119,114,110,114,111,113,114,112,112,118,113,115,113,114,112,112,113,111,115,110,109,117,114,112,120,115,110,113,107,114,111,115,116,109,112,119,109,117
116,111,117,110,116,110,108,116,117,110,115,112,109,114,110,115,114,116,108,112,117,113,109,115,111,118,110,112,113,115,109,118,112,113,114,115,115,114,110,116,110,111,112,107,116,115,113,112,114,116,109,112,114,115,113,115,115,115,109,116
116,111,114,115,112,111,114,109,117,112,109,116,111,114,112,114,117,116,113,118,110,116,113,111,117,112,117,110,115,108,113,114,114,112,118,112,117,111,113,113,113,117,115,112,114,112,118,107,112,112,113,104,115,116,117,111,116,119,108,110
113,110,113,106,113,116,114,111,113,114,112,114,116,109,120,115,106,116,111,118,111,114,112,111,118,113,113,115,115,112,115,110,116,113,111,113,116,117,112,115,110,112,115,114,108,115,111,111,114,115,121,108,109,107,113,117,110,115,118,110
112,112,115,115,110,109,113,117,112,116,114,113,116,110,112,115,116,114,114,108,116,111,110,114,116,115,107,114,118,112,112,115,108,116,111,112,121,116,109,115,114,110,108,114,113,113,110,110,116,117,109,117,114,114,111,116,115,115,112,113
114,109,108,115,117,111,115,118,116,109,111,119,120,111,109,113,116,110,117,112,114,114,115,115,114,115,111,113,112,111,113,115,115,120,112,109,119,111,114,109,114,114,113,109,118,113,115,115,114,110,113,113,110,109,116,115,104,113,109,114
116,116,113,114,115,109,114,116,115,116,113,112,113,115,113,108,110,112,110,116,113,115,113,113,119,116,114,112,109,116,115,109,120,115,110,116,115,113,114,113,112,113,112,115,117,112,113,114,115,113,115,113,113,114,111,111,114,110,117,115
113,111,111,116,115,119,108,116,116,115,111,112,114,115,115,112,113,112,115,115,109,115,108,112,116,115,113,115,118,116,112,114,114,116,112,114,115,111,112,117,117,108,115,122,112,111,116,111,115,114,112,114,110,112,119,115,108,114,117,112
112,118,117,113,111,109,113,114,116,113,114,109,112,114,118,116,113,115,119,115,114,112,111,116,112,111,112,118,114,114,107,113,114,114,111,108,116,116,113,117,117,108,114,115,110,117,116,111,114,112,113,114,111,117,107,118,114,114,117,112
113,113,113,110,116,114,109,113,117,111,116,113,108,118,115,111,113,115,114,109,111,110,113,112,115,113,112,112,114,115,114,112,109,112,114,113,111,110,113,117,115,115,113,117,111,113,112,109,112,114,115,115,111,114,113,111,120,111,115,119
116,112,113,114,116,112,115,113,110,110,105,112,115,112,117,115,112,115,114,114,111,113,114,116,116,115,112,111,117,113,115,112,110,115,112,112,112,113,112,114,110,111,115,113,115,117,111,113,114,116,114,112,110,116,109,117,117,113,113,114
112,110,114,117,115,113,115,119,116,108,114,111,113,110,112,116,115,113,114,117,115,111,113,118,116,111,113,113,111,110,112,112,114,117,113,112,119,115,114,112,113,111,116,106,117,117,114,115,115,115,115,110,114,115,114,109,110,115,116,111
112,114,114,112,115,112,113,112,117,111,114,110,112,114,110,108,114,115,113,111,114,112,112,114,113,109,117,110,114,113,113,115,115,117,112,111,118,112,113,112,113,113,113,115,117,114,115,113,114,116,110,112,115,114,114,111,114,110,114,111
114,113,110,116,110,114,113,112,112,112,114,115,113,109,114,113,112,117,115,114,110,113,117,113,108,112,117,114,117,112,112,110,115,113,112,111,111,115,117,110,116,110,111,117,113,113,117,112,117,119,112,115,115,110,113,113,113,109,112,115
113,114,113,116,114,112,113,114,113,116,111,112,114,115,116,113,114,114,112,112,117,117,111,113,111,112,118,117,112,109,116,113,114,115,112,116,112,113,112,116,114,111,113,119,115,109,112,116,114,108,114,110,114,114,111,109,110,117,109,114
112,116,114,110,119,114,117,111,110,114,113,109,110,115,113,112,112,114,114,111,113,117,112,113,114,113,115,117,113,112,115,116,112,114,113,116,113,110,109,118,110,112,114,114,114,112,111,109,110,114,112,115,112,114,113,112,113,112,112,117
110,117,115,115,113,111,115,107,116,116,111,115,107,112,117,115,108,111,117,111,108,114,113,114,115,112,113,117,115,112,115,111,108,114,118,114,112,110,114,115,112,113,116,111,115,114,110,114,115,112,118,110,111,114,111,110,118,117,115,112
113,112,114,113,116,110,113,117,116,117,113,110,118,113,114,112,114,116,112,112,110,115,113,110,116,112,115,113,114,114,112,115,112,114,116,112,116,109,111,109,113,114,112,116,111,115,111,114,113,114,109,117,116,116,112,113,115,106,112,119
116,108,116,110,115,115,115,113,117,116,112,112,117,110,110,117,116,116,111,113,117,117,115,112,115,110,108,113,117,115,109,114,114,111,117,112,115,111,111,112,114,113,110,116,115,116,110,113,114,113,115,110,113,113,109,117,117,113,112,115
112,112,116,117,114,113,116,112,114,116,114,115,112,112,110,114,119,111,111,110,112,112,115,116,112,116,110,111,114,112,115,113,114,119,116,114,113,113,116,110,116,116,112,113,116,113,113,110,114,116,112,114,114,110,113,115,114,113,115,114
109,110,115,112,113,112,114,116,111,117,115,111,115,115,113,114,114,112,115,113,113,117,116,110,114,115,115,115,110,114,114,114,117,115,116,115,111,112,118,112,114,110,110,114,113,112,111,113,113,112,109,114,114,109,115,116,113,113,116,110
113,111,112,116,114,116,114,114,113,114,119,113,111,114,116,115,116,115,111,114,116,116,115,113,114,113,113,116,111,111,114,115,115,109,113,114,112,115,114,112,115,116,109,113,119,112,112,114,113,115,116,115,112,112,115,114,109,112,119,112
113,110,109,113,114,110,111,111,115,112,114,113,113,118,119,112,112,115,114,116,114,111,114,113,114,114,112,115,113,114,115,113,112,112,111,113,115,117,113,111,112,112,112,112,113,112,116,114,112,115,114,115,114,112,111,112,115,115,111,110
115,109,114,113,110,115,115,112,115,114,116,119,114,111,114,115,111,108,112,113,111,111,113,111,115,113,117,113,112,116,112,113,115,113,118,117,110,113,115,115,114,112,111,115,118,112,113,116,118,112,110,116,113,114,116,116,114,110,114,114
115,113,111,119,112,111,116,111,112,113,111,114,115,113,115,115,110,112,112,113,112,114,115,115,116,114,115,115,107,109,115,115,111,113,118,112,115,117,112,118,114,116,113,114,119,114,115,115,113,112,112,118,115,112,114,115,111,112,113,114
114,112,111,109,114,113,114,111,115,114,110,117,113,114,116,114,117,115,117,112,110,115,112,114,114,114,113,115,111,112,116,114,112,112,113,115,114,114,114,111,112,114,116,112,114,117,113,111,110,116,113,112,115,115,115,113,116,114,113,120
111,114,114,112,113,115,110,112,117,116,112,113,114,116,112,113,116,112,115,113,112,113,115,116,115,117,114,113,114,113,114,114,115,112,111,114,112,112,113,113,114,113,110,113,117,115,116,112,111,113,113,116,109,114,118,112,119,113,107,114
111,113,116,113,111,114,114,111,117,117,110,110,114,115,111,111,117,114,113,114,115,115,116,116,114,115,114,114,113,113,114,111,111,115,109,111,114,114,115,115,112,113,117,114,118,114,111,113,116,113,108,116,113,107,115,114,111,115,113,111
110,112,116,113,111,116,114,112,112,112,111,114,117,117,114,112,112,116,118,109,112,114,111,115,116,113,111,112,116,114,112,112,113,118,112,115,116,111,114,111,114,116,113,113,116,110,112,117,109,112,116,115,112,110,112,112,113,115,114,109
114,116,113,111,110,112,114,115,113,112,113,114,116,113,110,115,115,111,113,112,114,109,110,115,117,113,111,112,112,114,113,116,113,113,116,115,113,112,114,112,115,116,111,107,112,114,113,113,112,111,111,114,109,109,118,117,111,111,114,113
113,114,112,111,112,115,115,112,113,114,116,114,112,115,113,112,113,115,115,111,114,114,114,114,111,112,116,113,111,113,112,119,112,111,117,112,115,113,111,116,114,114,114,115,115,112,114,113,114,116,111,113,111,110,113,115,112,109,111,113
