51,60,69
113,114,112,116,116,113,113,120,113,112,118,116,113,116,113,116,114,114,119,116,118,113,117,113,115,115,113,118,114,115,117,113,120,114,115,115,119,114,116,112,115,115,111,115,114,115,118,113,116,119,112,113,112,112,117,114,116,114,109,113
119,120,113,120,111,108,112,118,114,111,115,115,116,120,112,113,116,120,113,115,117,114,115,109,118,113,117,118,116,114,115,116,115,116,119,114,117,117,116,115,115,113,112,114,114,116,111,112,111,110,124,114,113,116,115,116,113,112,114,115
115,112,119,120,109,112,114,117,114,115,113,114,111,111,113,110,116,114,112,116,117,117,108,112,115,114,114,115,118,117,115,114,114,116,117,118,118,113,114,112,118,113,112,112,116,116,114,115,114,110,118,112,114,115,113,121,117,114,114,113
117,115,116,113,114,118,111,112,114,119,116,116,119,116,112,115,117,110,113,116,117,114,112,117,115,117,113,114,115,112,113,118,115,118,115,119,118,116,108,108,121,118,115,111,121,120,113,113,120,118,116,119,118,107,114,116,113,118,115,112
115,114,114,117,114,112,118,117,116,120,114,114,114,110,113,119,114,116,114,110,118,118,115,115,114,112,115,116,113,116,111,114,113,110,117,116,116,118,113,108,112,119,116,111,118,115,113,115,112,114,113,118,113,110,110,115,114,116,113,118
115,117,113,116,120,115,116,120,116,115,114,114,116,114,115,112,115,119,116,112,117,110,114,119,117,114,114,116,116,113,118,117,117,110,115,112,115,116,116,119,116,112,113,117,118,113,119,115,119,112,106,112,115,119,112,120,117,113,109,118
115,116,114,112,116,111,116,116,116,115,112,116,111,111,118,107,120,112,112,113,120,113,109,115,111,118,115,113,118,111,115,118,115,116,117,110,120,113,119,119,118,112,110,115,112,117,120,116,117,113,113,117,116,117,115,116,117,113,115,115
119,114,112,112,114,122,112,113,113,119,113,116,115,115,114,113,114,115,114,112,117,118,119,115,115,119,116,115,111,111,116,117,118,108,118,114,114,111,123,116,114,115,114,118,112,115,112,116,115,110,115,112,109,111,112,117,111,111,120,115
117,114,116,116,111,116,120,115,111,117,117,112,116,114,111,116,115,116,116,117,116,117,117,112,112,113,115,115,108,114,114,116,117,116,120,115,116,121,118,114,114,113,114,114,113,112,111,118,112,114,116,117,113,119,117,113,117,114,114,113
113,113,112,113,114,117,116,113,115,111,113,115,117,116,113,117,113,113,113,119,115,116,115,118,111,112,122,119,114,114,116,118,114,111,116,117,117,112,115,115,113,111,114,113,120,121,112,111,116,114,112,114,112,111,118,115,115,113,114,118
114,119,118,113,116,117,115,115,117,113,117,117,114,119,118,116,114,116,119,117,111,116,114,117,114,112,119,117,111,117,117,116,114,109,115,118,109,113,118,115,118,117,117,114,114,114,118,114,116,112,116,114,116,116,114,116,116,115,113,116
116,111,116,114,117,115,115,114,117,117,116,117,113,115,116,112,116,113,112,112,110,116,115,112,115,110,114,113,112,121,109,113,114,115,118,114,114,115,117,113,120,114,114,114,120,113,110,116,115,113,115,115,113,114,114,117,117,117,113,116
117,114,111,114,113,109,111,113,116,117,113,116,116,114,118,112,118,117,118,113,113,115,115,113,113,110,114,117,117,117,112,113,119,114,118,112,116,118,116,114,114,112,115,114,118,116,113,114,108,113,116,119,114,117,113,117,111,118,117,115
115,111,112,116,117,116,114,112,113,112,112,118,115,115,111,114,116,111,120,118,118,115,108,115,111,112,115,114,114,117,114,113,119,115,115,118,113,115,115,115,113,115,120,119,115,115,114,115,121,115,112,117,116,118,116,118,112,119,117,111
117,116,110,111,114,114,118,117,114,115,114,118,113,118,114,119,112,114,117,117,115,113,111,114,115,117,111,112,115,119,118,117,118,114,110,118,115,116,110,116,114,113,117,118,113,119,113,111,117,113,117,113,116,113,114,114,115,118,115,112
114,118,108,115,118,116,117,114,113,113,119,114,114,115,110,113,112,114,117,117,116,115,117,110,114,115,111,114,115,111,111,116,118,114,117,111,113,117,116,114,118,113,114,118,110,116,116,117,115,117,119,111,112,117,114,113,116,123,115,112
113,112,114,109,116,114,114,118,115,115,113,112,119,114,112,118,114,113,112,113,115,115,119,108,116,115,108,119,115,115,116,114,118,117,120,110,112,118,118,113,113,113,117,118,118,117,111,119,116,113,112,112,113,113,112,116,115,117,115,118
114,111,116,114,117,114,111,112,117,118,111,114,115,115,114,117,115,111,116,115,113,112,115,116,119,113,111,116,111,116,116,117,114,115,117,113,114,114,116,113,110,117,118,113,114,112,117,119,114,114,116,114,115,112,119,117,118,113,115,115
119,116,118,114,112,117,115,119,118,118,114,119,116,116,109,117,117,111,116,118,116,118,113,116,120,116,114,114,112,114,109,114,115,117,110,118,117,114,113,115,115,116,115,116,118,112,116,119,116,109,117,115,114,112,118,116,115,113,116,113
114,115,115,117,117,118,119,113,111,117,118,114,117,118,112,111,117,116,115,118,115,115,113,118,117,115,115,116,116,114,121,116,114,115,116,114,112,118,117,113,118,115,117,115,114,117,116,111,115,114,116,113,113,116,116,111,115,114,117,112
119,116,113,115,115,116,115,112,116,115,114,114,117,113,116,114,118,114,116,120,115,115,113,115,118,116,117,113,116,112,114,118,114,116,119,114,117,116,113,112,113,115,117,114,114,117,119,113,117,118,119,115,116,115,115,110,113,115,112,117
114,114,116,120,114,113,116,118,112,112,111,113,117,114,113,114,117,116,114,117,114,113,118,118,113,116,116,120,116,113,116,112,113,116,115,111,115,114,114,113,117,115,112,118,115,114,120,115,115,115,114,111,117,116,109,116,112,116,116,115
114,113,116,118,116,115,118,115,114,115,115,117,116,116,116,115,113,114,114,120,116,114,113,117,117,116,115,118,118,115,114,116,118,119,116,116,115,111,117,111,113,117,116,116,113,117,112,114,116,116,116,112,113,113,113,117,111,113,119,115
115,115,116,112,110,118,117,117,112,117,114,109,115,116,118,112,113,110,113,111,117,118,111,116,117,113,113,120,113,115,114,117,111,117,121,113,115,116,119,119,111,111,117,114,114,114,112,114,115,118,118,116,116,118,116,113,112,117,112,118
117,114,116,113,111,120,120,118,113,117,112,115,116,116,116,117,115,113,116,110,116,116,118,116,116,117,114,111,116,117,115,119,112,115,115,111,118,117,113,119,122,116,110,116,117,113,116,120,114,114,113,116,116,120,116,112,118,112,114,119
116,118,119,114,112,114,116,116,116,113,115,115,115,116,115,117,116,114,115,122,116,113,116,117,115,117,115,114,115,116,115,116,112,112,115,116,117,115,114,116,115,116,117,115,113,115,111,112,114,117,116,120,114,113,117,112,120,118,115,117
116,123,116,111,117,114,110,112,113,112,118,115,115,113,116,115,120,112,112,112,114,118,114,115,115,116,113,120,116,115,114,111,122,112,110,114,116,113,118,118,114,113,120,112,114,114,115,115,116,114,118,120,117,112,114,116,114,115,111,117
118,120,116,109,115,117,114,121,113,117,115,117,117,116,115,114,119,115,113,113,119,115,118,119,115,114,112,119,114,115,114,118,119,113,114,112,116,117,112,116,115,112,116,116,115,113,112,113,118,118,121,116,117,115,117,113,112,121,115,113
118,116,115,111,111,112,115,120,109,114,112,116,118,118,117,114,115,119,114,112,116,116,118,111,120,114,116,115,119,114,111,117,117,114,118,118,113,113,115,117,115,111,111,115,115,113,111,117,115,114,111,121,116,113,119,117,113,120,114,118
113,113,116,112,114,114,117,121,117,110,112,118,114,110,119,117,109,119,116,111,112,115,119,113,119,116,113,119,114,110,114,114,115,115,114,117,118,110,112,115,119,116,116,117,116,115,116,113,115,116,111,113,114,112,111,112,118,119,117,116
115,115,114,114,112,117,117,113,119,112,117,117,118,113,115,118,113,114,117,117,114,113,115,113,113,114,110,114,116,118,116,115,116,110,115,114,113,115,115,119,112,114,118,115,113,117,117,111,118,115,112,115,117,113,112,111,115,117,116,116
113,115,115,117,114,118,116,112,112,113,115,116,113,112,114,116,118,115,111,117,121,118,113,109,119,115,117,117,114,116,119,114,118,111,117,114,113,115,115,112,113,114,111,112,114,114,115,115,115,115,113,117,120,115,118,116,116,116,111,115
116,111,117,117,119,117,113,112,114,116,114,113,117,113,115,117,115,114,115,117,117,118,118,110,115,116,119,118,110,110,116,114,114,113,115,110,109,115,115,116,117,115,114,114,117,112,116,113,111,120,119,113,117,113,115,118,113,114,111,119
117,115,115,113,118,117,114,112,119,115,116,110,111,112,116,116,107,117,119,114,113,118,118,115,120,114,113,117,113,115,111,111,115,115,114,115,119,116,114,117,112,115,115,116,115,115,114,114,116,116,116,114,115,113,113,115,113,115,116,114
114,117,117,117,115,109,114,115,116,116,112,114,110,111,118,115,115,113,113,114,114,116,116,116,120,114,110,117,117,118,112,111,113,116,116,116,121,117,111,116,115,116,116,109,114,119,114,116,114,115,114,115,115,113,113,114,119,115,112,115
112,119,116,115,116,115,116,117,114,110,114,115,115,115,118,115,114,112,116,117,118,115,114,116,117,122,116,115,120,115,118,122,112,116,119,115,111,115,113,110,109,118,118,116,117,115,115,119,116,112,113,114,113,112,119,113,123,117,113,117
113,119,116,112,114,119,115,114,115,113,117,115,115,111,118,119,116,112,116,114,116,112,116,116,117,118,118,115,118,116,116,116,116,116,113,119,116,113,117,114,111,117,116,115,115,117,114,120,118,110,113,115,118,112,112,118,116,116,117,113
118,118,116,117,113,117,115,116,116,114,115,115,114,118,115,118,118,115,119,111,114,116,118,117,119,114,118,116,114,115,117,114,112,119,114,116,118,117,115,119,113,115,118,116,121,114,113,119,114,112,116,115,117,118,112,115,112,112,115,116
116,116,113,119,117,114,112,113,117,111,119,114,117,117,114,115,114,115,117,116,116,117,115,114,114,117,121,114,113,116,118,117,117,122,115,113,113,115,113,118,112,109,116,117,108,114,116,116,116,117,116,118,115,113,115,114,116,111,113,117
110,114,112,113,117,118,116,114,118,113,118,115,114,114,118,114,113,116,113,113,113,117,117,118,109,115,119,118,111,123,117,115,112,114,116,117,108,113,114,113,122,116,114,117,113,111,115,114,119,116,112,121,114,111,115,115,122,114,116,116
114,114,115,119,116,117,113,116,116,110,115,113,116,117,115,114,115,121,118,115,114,117,114,115,115,120,115,118,115,114,112,115,117,114,108,112,112,117,116,115,115,112,115,116,114,120,115,112,114,112,114,117,114,116,115,119,115,114,116,115
115,118,120,114,114,116,117,120,117,115,119,110,116,114,120,111,112,117,116,113,117,117,115,112,116,120,119,111,112,115,120,115,114,117,118,114,118,113,112,118,117,118,113,115,114,111,114,114,117,115,114,113,118,119,113,114,114,115,114,114
115,114,113,114,116,113,116,110,117,113,110,113,117,116,119,115,114,114,112,113,117,118,110,114,119,114,117,117,126,119,115,120,117,119,114,114,120,114,115,115,114,118,116,115,115,116,117,113,113,114,118,117,114,116,114,109,110,117,113,116
112,116,117,112,116,115,114,110,115,116,114,116,117,117,116,113,112,114,116,113,116,114,112,116,118,115,119,116,121,122,122,123,123,123,121,117,119,113,116,122,118,117,115,117,117,117,118,113,116,114,112,117,113,116,116,117,113,115,117,115
112,117,116,115,118,115,110,111,113,114,115,116,115,119,111,112,116,109,113,110,118,117,119,118,119,120,117,119,118,124,133,133,133,128,121,119,122,120,112,117,116,116,111,114,118,116,119,113,114,112,114,115,115,116,114,117,114,115,117,115
113,114,119,116,114,118,121,110,116,118,111,117,110,118,118,115,119,112,114,115,114,117,116,112,119,119,121,124,122,126,124,137,137,137,133,124,119,117,115,114,120,117,119,120,115,115,118,113,115,118,116,112,112,116,117,115,111,115,121,113
120,113,116,115,116,118,114,120,116,120,118,117,115,116,114,117,113,116,115,112,113,114,117,113,117,114,116,116,118,132,132,137,134,129,131,133,126,117,118,112,118,114,115,117,112,119,116,112,115,113,119,115,109,122,119,112,114,117,118,114
119,117,118,116,113,118,110,113,113,114,117,119,119,116,114,119,115,116,113,117,117,115,115,114,119,118,120,119,118,129,130,134,135,132,133,130,126,119,116,117,117,117,117,116,112,117,114,115,121,115,115,115,115,116,116,116,116,111,114,114
116,113,113,116,116,114,115,114,114,115,111,116,116,114,120,114,110,117,112,114,114,118,113,111,115,118,121,118,114,126,135,135,131,129,135,130,121,120,114,113,120,114,117,118,114,115,114,112,123,112,111,115,115,111,109,113,118,115,116,113
117,113,116,114,111,115,115,117,117,119,115,113,116,116,112,115,115,111,113,116,115,116,117,117,116,118,119,122,121,127,128,134,133,133,130,124,117,115,122,113,122,114,113,115,116,118,120,112,117,116,113,117,113,117,117,113,110,116,120,111
119,112,117,119,115,113,116,117,112,116,118,120,115,117,115,117,118,114,116,115,116,115,120,114,117,120,118,116,119,122,134,140,131,135,131,127,124,120,113,115,117,117,115,110,113,115,113,114,118,115,115,119,111,116,115,117,113,116,121,110
118,110,112,116,116,111,114,115,113,113,115,117,113,116,113,111,116,118,114,116,113,112,118,115,117,118,117,117,123,127,131,129,132,134,128,128,125,120,115,116,115,115,116,113,115,117,116,114,121,111,111,119,114,116,111,113,116,118,117,110
112,118,117,111,114,117,111,117,117,115,117,117,112,118,115,115,120,117,115,117,112,112,116,114,114,116,117,118,118,128,135,130,130,132,129,133,122,119,117,114,111,115,115,115,120,114,110,113,120,117,111,115,116,113,116,118,113,114,117,115
115,114,115,115,115,115,117,118,114,115,118,117,114,117,115,112,115,115,113,115,119,116,116,114,115,116,118,123,122,126,129,129,135,134,135,130,120,123,122,111,114,115,116,118,116,113,115,115,116,119,115,114,115,115,114,116,113,112,116,116
114,110,115,115,111,115,120,120,115,116,118,116,113,117,113,112,116,114,115,116,115,113,118,115,121,118,114,124,124,129,133,132,129,130,130,124,123,116,119,116,119,119,118,115,114,115,113,110,113,119,117,114,114,114,119,121,116,113,112,115
114,116,113,115,116,118,115,118,114,112,117,117,112,116,115,110,114,110,116,120,117,113,119,112,120,119,114,122,124,124,134,134,126,128,131,129,120,117,119,117,116,117,119,115,118,120,111,114,114,115,114,114,118,113,112,117,115,112,118,113
113,119,114,115,115,117,112,111,119,115,113,118,111,118,120,114,110,115,116,117,112,116,117,117,116,116,116,121,122,125,129,136,135,133,134,129,121,120,119,111,115,116,114,113,116,120,117,116,116,117,117,115,116,114,118,118,114,112,114,111
118,118,113,117,116,116,116,111,118,116,116,114,112,113,114,117,113,114,115,114,119,118,115,119,117,119,113,118,123,130,133,128,136,134,140,134,125,121,117,121,120,118,116,117,119,116,112,117,117,114,115,117,117,114,111,114,112,116,119,113
114,116,116,119,113,113,114,116,116,113,118,113,117,115,112,116,117,111,112,113,116,115,114,115,115,119,112,124,120,126,137,135,134,127,144,139,125,120,118,117,112,115,117,112,111,114,114,115,116,114,114,115,116,112,116,111,113,114,117,117
117,113,113,119,116,114,111,113,114,113,115,114,115,116,117,115,115,115,119,111,114,113,113,115,119,114,115,120,127,129,131,135,137,137,136,131,126,118,117,111,117,118,115,114,117,114,113,117,118,115,118,113,116,115,119,115,115,117,116,117
118,110,114,116,112,114,117,117,113,115,114,115,116,115,115,115,119,118,118,119,117,116,112,115,114,116,119,116,121,129,136,138,135,137,139,141,129,116,118,118,120,119,120,111,116,115,114,117,120,117,113,115,114,119,118,117,116,115,116,116
115,116,122,115,115,114,116,122,114,117,116,112,114,119,113,115,113,113,112,118,118,115,115,116,111,120,119,118,125,135,139,138,139,142,138,134,128,120,115,115,119,119,118,118,119,114,111,115,119,117,115,113,114,114,113,116,113,111,114,112
118,119,116,115,119,114,116,119,118,114,117,112,116,115,113,118,119,119,117,114,110,118,121,115,114,120,116,114,123,129,138,145,136,143,131,128,125,119,118,114,114,118,115,117,116,116,114,115,118,118,114,117,113,115,114,119,121,113,112,118
120,119,118,113,113,114,110,113,118,113,111,111,120,116,111,113,116,116,118,116,114,117,116,116,120,115,121,115,122,129,143,138,137,138,131,129,124,124,121,120,119,113,114,118,116,119,115,115,113,117,111,117,116,117,111,112,121,119,116,115
117,118,115,112,112,117,114,112,120,117,117,111,116,114,115,114,119,113,114,117,115,113,114,116,119,117,121,120,125,126,140,138,138,132,137,128,124,121,116,119,118,113,111,114,120,116,113,119,115,118,118,116,118,117,113,113,115,115,114,114
119,119,113,115,115,118,116,118,117,116,118,115,118,115,118,116,117,119,115,114,114,113,115,117,114,117,120,120,126,123,136,139,131,132,137,129,122,121,120,120,116,118,112,121,117,115,116,116,117,116,117,116,112,115,120,115,124,115,112,115
117,113,113,115,112,120,109,118,114,115,120,115,115,111,116,116,113,115,115,113,114,117,119,114,115,117,122,116,121,132,137,134,132,130,134,129,124,121,120,118,117,118,115,117,115,114,114,115,113,115,114,118,115,113,120,112,118,112,115,116
112,113,119,117,112,116,117,118,113,117,117,112,111,118,118,119,113,115,116,114,112,116,119,115,121,120,121,118,118,128,135,139,136,130,135,133,127,121,118,116,114,118,119,115,118,118,116,117,115,114,114,116,113,115,120,117,114,115,115,117
113,116,116,118,116,116,112,114,113,113,114,119,114,109,117,115,116,118,114,119,112,116,114,117,117,118,117,120,123,129,130,134,133,137,133,130,120,117,116,119,112,114,120,116,115,110,121,119,114,116,118,114,112,111,115,119,119,119,118,113
114,110,115,118,115,116,117,112,112,116,115,115,120,111,113,112,115,119,117,116,112,116,119,117,114,114,120,122,120,126,132,132,131,132,135,129,123,117,115,117,114,114,116,112,116,115,119,117,112,117,116,112,117,114,113,112,116,120,117,114
116,112,117,117,118,114,112,118,117,115,115,115,117,118,112,114,116,120,113,114,114,117,118,117,121,118,117,121,121,123,130,135,135,131,132,128,127,119,118,115,113,119,116,115,120,113,113,119,108,116,113,114,116,120,115,119,114,111,116,113
115,116,116,113,117,114,112,113,117,111,114,117,114,116,114,115,115,114,119,114,116,117,119,121,119,120,116,119,122,127,136,132,129,131,127,125,124,114,117,120,117,115,118,117,118,113,113,118,115,118,111,118,113,115,113,114,110,111,116,113
114,116,111,118,116,115,116,110,114,112,109,112,117,120,115,113,119,112,116,111,112,114,112,118,113,113,120,119,122,129,134,135,131,132,129,131,120,119,118,119,119,115,117,116,110,117,121,112,120,116,117,117,117,113,115,113,114,116,116,114
113,111,114,119,110,115,115,119,112,111,114,115,119,120,117,113,112,117,112,109,111,115,123,115,118,115,120,121,126,126,129,135,131,129,120,129,120,112,121,120,112,117,114,115,115,113,116,117,117,109,115,114,115,116,116,113,115,116,119,115
119,113,112,112,112,116,115,121,116,112,114,116,117,114,113,112,112,114,112,118,116,114,118,115,123,117,117,121,127,134,134,135,134,127,122,119,119,117,117,117,115,116,117,117,117,116,116,111,112,118,116,112,113,115,118,117,116,120,114,116
115,115,116,115,115,118,116,115,113,112,110,115,115,116,113,115,116,115,113,113,112,116,120,115,116,117,117,117,119,126,133,137,136,129,124,118,115,119,116,113,115,115,116,118,117,112,113,114,112,111,112,114,114,118,115,116,113,116,114,114
120,111,117,116,116,116,117,112,114,114,113,116,112,114,117,119,114,114,116,113,116,117,116,116,115,117,118,118,120,120,130,136,131,123,129,119,119,113,117,115,113,122,113,117,113,118,115,109,118,117,112,114,114,119,118,115,114,115,113,114
114,111,114,109,116,114,118,119,119,112,118,117,114,115,115,115,114,115,113,114,118,117,116,123,118,118,117,120,120,123,117,124,129,117,120,117,123,116,118,114,116,117,112,116,115,117,117,115,117,112,116,117,118,115,116,116,113,113,113,114
110,114,115,115,114,114,119,115,113,112,116,116,112,116,118,112,113,116,114,115,113,115,114,115,113,120,117,120,117,123,116,121,119,118,118,120,119,114,116,120,119,115,117,112,115,118,116,113,118,111,116,116,117,117,117,113,110,113,115,114
115,113,113,117,113,112,115,113,116,116,114,116,115,115,119,115,120,112,114,118,112,115,120,116,114,115,113,115,113,118,122,116,113,122,121,118,118,118,114,115,118,117,114,113,114,118,117,118,119,120,111,118,115,117,115,114,115,114,116,112
113,117,114,116,117,111,112,117,110,116,115,117,116,114,122,112,120,113,117,114,113,116,117,111,114,112,115,116,109,108,113,118,110,117,119,116,118,122,113,116,114,115,114,115,114,115,111,110,118,115,116,119,116,115,113,114,115,118,116,116
111,117,114,116,117,113,111,114,115,120,112,115,118,116,117,114,116,113,115,115,119,116,113,116,118,113,113,120,110,113,111,113,118,116,115,116,116,117,115,119,114,114,118,113,116,115,112,115,114,114,114,117,119,113,117,115,116,118,116,118
120,118,113,115,117,118,116,114,114,115,111,114,112,112,114,117,112,114,120,115,113,115,114,115,117,119,114,112,111,117,115,115,117,117,122,115,115,118,118,117,118,119,119,117,116,115,113,120,114,115,117,117,117,114,110,116,119,117,113,113
115,116,114,114,116,114,115,117,115,111,114,115,113,113,110,117,115,116,118,115,114,118,117,109,117,114,116,117,114,118,115,118,113,114,117,107,115,115,116,116,115,118,119,111,118,119,113,114,120,111,118,118,111,113,114,118,113,110,122,119
119,115,118,110,115,117,114,113,117,111,117,113,117,113,113,115,112,116,116,117,118,116,114,119,113,112,113,112,115,118,118,116,118,115,112,115,114,114,116,121,112,117,113,113,119,119,112,113,119,109,113,118,114,111,112,110,113,117,114,109
119,111,120,114,108,117,116,113,117,113,117,112,115,117,114,114,117,119,117,114,122,119,111,121,111,114,115,116,117,117,115,116,118,115,111,113,114,118,116,117,113,116,114,111,110,117,115,116,120,110,112,117,119,115,119,117,113,117,112,117
115,113,118,113,112,118,113,115,114,112,116,112,116,116,112,111,116,115,117,116,117,114,117,116,116,118,119,115,113,117,110,116,116,112,114,116,116,118,117,110,115,115,119,116,113,113,115,118,117,109,120,118,115,117,115,117,119,115,113,116
116,115,115,114,115,116,115,115,114,116,117,108,116,112,118,121,114,114,112,115,113,115,116,109,116,118,118,118,117,115,112,116,118,113,113,116,118,116,114,121,119,110,119,118,120,117,111,116,117,118,114,114,116,114,113,116,119,116,117,116
113,114,113,116,109,116,113,114,113,113,118,115,119,114,113,114,115,113,111,116,112,117,116,115,114,115,113,114,117,119,113,118,110,110,117,114,113,118,114,119,114,112,113,112,113,115,119,117,112,117,123,119,110,114,120,114,115,114,114,112
110,117,114,115,118,117,113,115,117,118,116,116,114,118,113,112,118,117,113,116,120,119,113,112,116,118,113,117,110,117,112,119,114,115,114,115,118,115,117,118,114,115,116,113,111,113,111,118,114,113,116,115,115,115,115,116,115,114,117,116
112,115,115,110,118,112,114,116,117,114,115,114,112,114,111,117,118,115,111,119,116,116,117,116,116,114,112,119,118,116,117,116,116,117,113,116,117,116,114,117,120,119,118,112,114,116,117,117,110,120,119,116,113,117,115,120,114,112,111,110
115,121,115,111,115,114,114,117,116,121,118,116,109,113,119,117,108,114,112,115,115,115,117,109,113,118,114,113,113,119,118,112,113,116,115,120,115,118,113,115,117,117,117,113,116,108,118,116,112,115,116,116,115,116,116,118,120,114,113,116
116,116,106,118,119,108,111,119,106,117,122,118,117,110,114,116,115,115,115,118,115,111,115,114,114,112,116,115,112,116,114,117,115,115,110,117,114,113,118,116,116,117,121,112,118,116,111,111,117,118,114,111,115,113,114,118,114,113,121,117
114,118,114,119,115,115,117,117,117,115,116,115,117,115,117,115,112,115,118,120,118,114,113,113,114,120,112,118,116,120,114,116,112,114,114,112,113,115,117,115,114,115,114,112,118,114,115,114,111,117,116,116,113,112,114,118,118,115,120,115
112,108,116,121,114,116,115,115,117,114,114,114,116,116,116,116,116,112,113,116,117,109,116,115,114,113,112,116,117,116,115,114,116,119,116,116,119,114,114,115,114,114,114,117,116,115,117,114,112,120,114,113,111,115,115,116,111,118,117,116
117,115,115,114,118,113,117,115,115,112,113,115,116,112,116,117,117,119,115,116,116,115,117,116,119,120,114,116,115,111,114,116,116,114,113,115,111,116,114,116,120,114,114,118,116,117,119,113,119,116,116,117,118,116,114,113,111,118,116,115
115,117,112,115,119,109,116,114,115,118,115,115,117,112,112,117,113,111,112,115,111,117,117,109,110,117,111,117,115,113,112,114,118,117,114,117,116,118,114,110,119,116,115,113,114,115,116,113,117,116,116,112,113,115,114,115,117,119,121,115
117,117,115,121,114,108,116,114,118,119,115,113,114,113,116,114,115,116,113,113,116,114,115,112,111,114,118,118,112,118,116,111,117,118,114,118,117,113,118,115,115,115,117,120,117,115,113,110,116,117,115,116,113,116,115,113,115,114,120,118
115,117,112,115,117,113,117,115,116,117,115,114,115,117,113,114,119,112,116,112,118,116,118,114,122,116,114,116,116,112,116,115,115,116,117,118,117,120,116,118,117,117,114,114,116,118,118,115,110,120,113,118,113,116,117,110,116,114,113,114
115,116,110,111,115,116,116,117,113,114,115,116,114,115,113,113,118,120,114,114,113,107,117,115,117,118,115,115,117,110,112,112,113,113,113,116,113,120,119,115,116,111,114,115,117,112,118,117,114,116,115,120,112,112,115,113,115,120,118,117
114,117,118,119,112,117,117,118,114,117,110,114,115,118,109,112,114,116,113,115,114,115,118,115,113,115,119,117,118,116,117,115,111,118,113,109,119,116,118,113,113,113,110,114,116,114,116,117,118,110,111,114,116,114,117,117,116,116,116,119
113,116,114,112,111,114,118,118,115,112,111,119,117,115,113,116,116,120,116,117,113,112,115,113,115,114,115,116,114,116,111,113,119,117,116,114,114,113,116,117,113,112,112,116,117,114,113,118,117,112,117,111,110,114,117,115,115,113,110,117
117,118,114,117,115,112,117,119,114,118,118,116,116,115,116,116,114,115,120,120,114,113,114,112,114,119,110,116,115,115,114,110,117,118,114,119,117,116,116,116,116,123,116,114,110,115,115,117,116,114,119,118,115,119,114,113,112,116,116,114
115,116,115,109,114,114,119,117,112,120,114,118,119,112,113,115,116,114,114,122,116,113,114,114,113,116,118,115,113,117,116,114,114,115,114,115,116,117,118,117,114,114,117,115,107,114,120,115,114,113,115,118,114,115,116,114,116,120,115,115
118,113,119,115,114,117,115,115,113,117,117,117,118,114,115,114,114,114,116,112,114,116,114,112,114,116,117,119,118,116,113,116,118,119,113,112,118,118,117,114,114,116,116,113,114,117,118,117,119,113,113,119,116,113,120,117,113,115,115,117
114,114,111,118,115,118,118,119,114,113,115,110,113,119,114,114,113,115,115,110,117,116,113,115,117,113,118,113,116,114,115,113,115,116,113,116,116,112,117,118,113,114,118,114,114,112,114,119,116,117,117,115,116,115,116,117,114,114,115,119
114,116,114,115,114,117,111,119,118,116,111,112,117,117,115,113,111,120,118,111,116,117,116,116,116,115,116,115,114,111,118,118,116,119,118,116,116,118,119,119,114,118,111,110,118,118,110,117,111,117,110,111,118,113,112,114,113,116,116,114
118,116,111,113,115,116,111,118,115,118,117,117,118,117,118,113,113,118,118,114,114,115,117,114,116,116,113,117,116,113,116,116,114,121,113,112,115,116,110,117,116,118,111,113,114,118,108,115,115,114,117,116,117,115,116,113,116,118,119,118
118,116,110,117,117,111,110,115,115,117,112,115,116,117,115,111,109,114,115,118,114,113,117,116,117,117,109,118,112,115,109,114,111,116,114,111,112,114,115,119,119,120,116,116,114,114,113,115,117,115,119,117,114,119,119,111,112,115,115,118
116,112,111,112,120,116,112,110,112,116,111,117,121,115,112,116,116,114,116,120,118,114,105,118,117,116,117,113,110,119,114,113,116,115,118,118,112,113,112,114,117,117,118,116,116,115,108,111,118,115,120,117,116,115,111,121,113,121,120,117
114,114,117,117,117,114,116,114,116,115,111,113,116,116,119,118,112,112,110,114,114,115,114,113,117,113,115,114,113,116,117,118,115,116,117,115,115,117,115,115,111,117,113,119,114,119,113,115,119,115,118,115,114,117,114,114,116,120,114,113
112,116,118,117,112,117,116,116,116,118,114,117,109,116,115,113,112,114,117,117,115,110,113,116,115,113,112,119,117,112,117,111,105,111,117,111,117,118,114,117,111,117,113,120,117,118,114,114,115,115,112,113,116,120,117,114,114,116,114,113
112,115,113,116,113,116,113,116,113,115,109,117,115,116,117,112,114,115,114,117,117,114,114,118,112,116,116,111,109,116,115,115,119,114,118,116,113,117,117,117,118,115,115,118,119,118,119,115,115,120,117,117,116,114,113,117,114,115,111,116
116,115,114,111,120,117,114,114,115,116,108,118,117,112,119,115,117,114,113,119,116,116,114,114,115,112,117,114,114,114,117,116,116,116,116,115,115,114,110,114,113,114,116,116,115,115,115,112,112,116,120,121,113,114,117,114,114,115,114,115
115,116,115,111,116,111,113,115,115,116,112,120,119,118,118,118,113,114,113,117,117,116,113,113,116,116,118,116,117,116,112,112,119,114,117,111,114,116,115,108,117,113,111,119,115,111,118,114,119,114,112,120,114,116,118,116,116,114,116,115
117,118,115,117,118,116,116,110,112,119,114,118,109,116,115,117,114,117,113,112,114,118,116,117,115,117,117,113,114,120,117,114,115,115,114,118,114,117,115,116,117,118,114,110,116,115,120,119,117,114,113,115,115,116,115,114,117,114,111,114
120,115,114,116,118,116,119,114,109,117,114,117,122,116,114,112,115,117,114,116,112,113,115,115,114,114,111,118,114,119,118,115,111,118,114,116,113,119,114,120,113,116,114,113,112,116,120,114,112,116,115,117,114,115,116,111,118,112,117,118
114,115,116,116,113,116,118,116,120,117,114,117,119,114,117,113,112,117,118,117,116,114,115,115,111,114,115,118,114,115,121,117,119,112,118,118,114,113,117,115,114,115,115,118,114,115,116,115,116,115,115,120,120,114,111,119,115,112,110,113
114,117,114,113,116,116,113,112,115,114,113,117,114,113,114,113,118,118,116,117,110,116,115,114,115,112,116,113,116,114,114,115,117,113,117,116,111,108,115,116,113,114,112,112,116,113,116,116,119,116,113,115,120,116,116,115,113,116,113,113
112,113,109,111,116,115,117,121,113,119,112,116,116,121,119,113,114,118,113,116,118,119,115,117,110,111,118,114,118,117,116,116,114,118,118,112,113,117,119,110,114,116,113,115,111,109,117,112,111,119,115,116,116,114,112,113,119,116,113,115
