107,107,107,110,108,108,104,106,106,105,106,107,106,103,107,107,106,104,109,107,108,109,102,106,109,107,105,107,107,107,110,108,104,105,108,108,107,109,109,109,105,104,107,107,108,104,104,106,107,107,108,106,104,107,106,108,109,108,107,105
107,106,109,108,108,108,105,106,108,107,103,109,109,104,107,109,106,102,108,108,102,104,105,105,108,108,108,107,105,102,105,107,106,105,106,107,107,105,106,106,105,109,110,107,106,106,105,105,106,106,107,108,107,105,105,108,109,106,106,107
104,108,108,108,111,107,106,106,107,108,106,107,105,107,108,109,107,103,105,107,104,105,108,106,108,109,106,108,109,107,105,105,108,109,104,105,106,106,105,106,109,111,107,104,107,107,106,107,106,107,106,105,107,106,106,107,106,103,103,105
106,107,107,107,108,105,103,107,106,107,109,107,105,107,107,108,109,108,105,105,109,107,108,110,109,108,107,108,109,110,110,108,108,109,106,105,108,107,106,106,108,108,105,105,108,107,107,107,105,107,107,106,107,107,107,106,105,106,105,105
104,105,104,106,108,104,103,106,106,107,107,107,108,106,105,109,108,107,107,107,106,105,109,109,105,108,110,106,105,106,109,112,107,105,108,107,107,108,108,107,104,105,107,105,104,106,109,107,104,109,113,110,108,107,108,107,106,107,107,108
105,103,104,107,108,106,107,107,103,103,107,105,104,105,105,107,106,105,109,110,106,105,107,108,107,106,107,109,111,107,105,108,108,107,105,106,106,107,107,107,106,107,107,104,103,105,108,107,105,109,110,106,105,107,109,109,107,106,107,107
105,105,108,107,106,107,107,107,105,104,108,108,104,104,106,104,105,109,109,107,107,108,105,105,110,109,105,106,110,108,104,106,110,107,105,106,107,106,103,106,108,107,108,110,109,108,108,108,107,106,105,106,108,110,109,108,105,102,103,106
105,108,109,106,106,107,105,106,108,109,108,109,109,106,107,106,104,107,108,108,107,107,107,105,106,109,108,104,105,107,106,106,107,107,108,108,106,106,105,107,108,105,107,111,107,105,107,108,106,106,108,107,104,103,106,106,105,105,106,106
108,105,106,107,107,106,106,108,107,108,108,107,109,107,107,109,107,107,107,107,106,107,111,110,105,106,109,107,108,107,104,105,106,106,108,106,103,106,108,105,104,104,104,106,104,104,107,108,106,107,109,106,102,105,112,111,106,107,108,105
106,104,105,107,108,107,106,107,107,106,107,106,105,106,108,108,107,106,105,107,107,106,107,109,105,104,106,108,109,106,105,106,106,103,104,105,105,108,109,103,103,107,107,105,107,108,106,104,104,104,107,109,104,104,107,108,107,106,103,104
109,108,105,105,106,108,107,107,109,108,105,106,106,107,109,110,107,106,106,105,105,108,109,108,107,109,109,107,107,107,107,108,107,103,102,106,107,106,105,106,107,107,108,109,109,107,104,104,107,107,105,108,108,105,103,105,109,107,108,107
107,108,109,106,105,105,108,109,108,107,106,106,107,106,107,109,109,109,108,106,107,106,106,109,108,110,109,106,108,108,107,107,106,106,106,107,107,103,103,108,108,104,106,110,108,104,105,106,107,108,105,105,106,107,109,106,104,109,111,106
104,106,108,108,106,105,106,108,105,104,108,108,105,106,106,105,106,107,107,108,108,106,104,105,107,106,106,112,110,104,107,108,107,108,108,107,107,106,108,107,106,106,107,107,106,106,106,104,103,107,111,107,105,109,106,103,109,111,108,103
107,107,106,109,109,107,106,106,104,105,106,107,105,107,108,107,106,107,107,106,107,107,106,107,110,108,108,112,109,105,107,110,108,105,106,108,108,107,107,107,107,107,106,106,108,109,107,106,107,108,108,108,108,108,107,106,106,107,106,105
106,105,105,108,109,107,105,106,106,106,106,106,106,108,107,108,111,107,102,101,103,105,105,106,106,105,106,106,106,108,107,106,107,106,104,106,109,108,105,107,109,108,107,108,108,108,108,107,108,106,105,106,106,106,109,108,107,109,108,107
106,102,105,107,107,107,105,107,108,107,105,106,107,105,103,104,108,106,107,108,106,107,105,103,108,107,105,107,108,110,107,102,106,107,107,106,107,109,108,105,106,107,107,109,107,108,108,107,108,105,103,104,103,102,105,106,105,106,107,107
108,105,108,105,106,108,108,105,107,106,104,106,109,105,106,106,106,106,109,107,105,108,110,108,109,108,106,105,102,103,102,106,105,103,105,105,106,108,107,105,107,107,105,109,107,108,108,108,109,107,107,104,103,105,106,107,106,106,108,108
108,107,108,107,109,107,105,104,105,106,107,107,108,107,107,108,110,107,106,103,105,105,106,107,107,106,103,103,104,104,108,108,106,107,105,106,108,105,107,108,108,108,107,110,106,105,107,106,106,108,107,103,106,108,105,107,107,106,109,104
107,107,107,110,110,105,104,106,106,107,108,106,106,106,106,107,110,109,106,109,109,106,106,105,108,104,103,105,108,107,107,106,110,110,107,109,109,105,110,109,106,105,105,108,107,104,103,104,106,109,107,108,111,107,106,106,108,107,101,107
103,103,106,109,107,106,107,106,107,106,105,108,108,107,107,108,106,107,108,109,106,107,107,105,105,108,109,105,105,107,104,106,106,108,109,106,107,106,107,109,110,106,102,106,108,106,106,105,108,108,107,109,108,103,106,107,107,107,103,112
108,105,107,107,105,107,108,104,104,105,108,109,107,106,105,108,108,106,106,104,105,104,106,108,107,106,106,106,107,108,107,105,102,105,109,106,106,107,103,104,109,110,107,107,107,107,110,106,107,106,107,104,106,104,105,103,107,112,107,107
110,106,108,107,104,107,108,107,105,107,110,108,106,105,106,106,109,109,106,106,107,106,105,104,106,107,104,107,105,105,106,109,106,107,111,105,107,107,105,103,104,108,110,106,104,106,108,105,106,105,107,106,109,108,105,108,106,106,105,107
108,111,108,104,108,108,107,110,109,108,107,105,106,106,110,107,107,109,109,110,103,109,110,106,111,109,108,107,107,110,108,109,107,109,112,103,107,109,107,106,107,106,108,104,103,104,107,109,104,105,109,109,109,108,107,108,105,106,104,105
108,108,106,106,108,110,112,109,108,109,106,107,107,105,110,107,106,108,111,109,108,108,108,109,104,103,108,110,108,111,109,108,105,106,106,107,106,108,107,106,109,106,105,105,106,107,106,107,105,104,108,109,105,107,106,105,107,108,109,107
109,104,107,107,105,106,110,108,102,107,106,107,107,107,106,106,105,105,108,104,110,111,105,107,107,112,107,106,104,107,108,106,108,108,104,108,108,106,106,106,106,106,104,106,107,108,104,104,110,103,103,108,106,111,109,108,107,106,106,109
103,106,109,107,105,105,105,109,104,104,108,106,108,107,105,109,107,102,107,104,102,105,103,110,112,108,106,108,108,108,108,106,110,113,105,107,107,106,110,104,106,105,104,105,106,104,107,106,109,106,105,109,108,108,107,105,107,112,109,109
108,105,106,106,108,110,107,108,105,102,110,107,107,108,108,109,109,105,106,108,104,105,108,101,105,105,107,110,108,112,109,112,109,108,105,105,104,108,112,105,105,105,107,108,108,104,110,108,107,108,107,108,105,102,105,109,108,110,110,106
106,102,106,108,107,109,108,104,105,103,109,107,107,109,110,107,106,106,106,108,108,108,108,107,108,107,109,111,107,110,111,110,108,106,107,107,106,106,106,108,108,106,107,109,106,107,108,107,107,109,106,107,108,106,108,109,107,104,104,107
108,106,104,109,104,105,108,104,107,103,110,106,107,109,108,109,104,105,107,106,108,109,107,107,105,108,111,110,110,110,113,113,111,109,106,107,109,106,104,106,109,107,106,105,105,106,106,104,105,106,106,107,110,106,104,104,107,105,102,106
110,110,108,105,103,105,109,107,106,105,110,107,107,107,105,109,107,104,106,109,108,108,108,110,111,106,111,109,110,114,116,118,114,108,105,107,109,108,108,105,105,106,107,106,107,108,107,106,105,104,107,106,106,106,103,103,107,109,107,107
109,109,107,105,105,106,107,110,107,106,106,108,107,105,106,108,106,105,107,108,106,106,108,108,106,108,113,112,112,114,116,116,113,109,108,109,109,109,107,106,105,106,107,106,107,109,107,108,108,106,107,106,107,107,105,108,110,108,108,109
106,104,109,107,104,107,107,109,110,109,103,106,107,106,109,107,105,107,109,106,106,106,109,110,106,108,114,112,111,113,111,107,111,110,108,106,105,105,106,106,106,107,108,107,106,107,108,106,106,108,108,105,105,105,104,107,107,104,103,106
105,106,108,109,107,106,106,108,109,109,105,104,106,108,108,107,108,107,107,110,109,106,105,107,110,110,110,108,112,119,117,110,109,108,109,107,102,102,106,106,105,109,110,108,106,107,106,104,107,108,105,104,107,108,104,105,108,107,107,106
105,105,106,107,109,105,107,110,104,104,106,104,105,107,107,109,109,106,106,110,109,106,103,105,110,109,109,115,115,117,120,115,110,109,107,107,105,104,105,106,106,108,109,109,108,108,106,105,106,104,104,108,111,110,106,105,108,109,106,105
111,104,104,106,107,106,108,108,105,106,105,104,105,105,106,108,108,107,106,106,107,107,107,105,104,108,112,115,114,114,116,113,110,109,108,109,109,107,105,106,106,106,107,109,109,109,109,108,105,104,107,109,109,108,106,105,106,106,104,105
109,106,105,106,107,107,106,104,107,109,106,104,105,107,107,107,107,108,107,106,105,105,105,105,107,109,109,110,113,112,113,115,113,112,110,110,110,107,105,106,107,106,107,107,107,107,109,108,108,108,108,107,106,107,109,107,105,105,106,108
107,109,107,107,108,107,106,105,106,106,106,107,106,107,109,107,105,107,108,109,107,107,107,108,109,107,109,114,113,108,109,113,115,113,109,108,108,107,105,104,105,107,108,107,106,108,108,107,108,109,108,106,107,106,103,104,104,103,106,109
106,107,106,107,109,109,107,106,107,105,106,109,107,106,108,108,105,105,106,107,109,108,106,108,112,112,108,111,113,112,114,113,110,110,109,107,106,107,108,107,106,106,107,106,105,107,109,108,106,104,105,107,109,110,109,107,106,106,107,106
105,104,108,108,107,108,108,108,110,108,107,108,108,107,107,108,106,104,105,107,107,107,108,109,106,108,113,113,112,113,111,109,110,108,106,107,105,104,106,109,109,106,106,107,106,105,108,109,105,101,106,107,105,107,107,105,107,109,106,104
111,106,102,105,106,104,104,107,110,110,109,108,109,107,106,106,105,104,106,105,107,111,110,106,106,109,109,106,107,113,115,113,113,111,108,109,108,106,105,105,107,104,106,109,108,105,105,106,105,105,109,108,104,104,107,109,108,106,107,108
106,107,107,108,107,107,107,105,105,107,107,108,110,106,104,103,104,107,107,105,107,109,107,105,105,106,108,113,116,116,116,116,113,111,111,111,109,107,107,107,106,104,105,108,107,106,107,107,108,107,106,109,107,105,108,110,108,105,104,105
108,109,107,107,108,107,108,108,106,104,102,105,109,109,105,103,105,107,108,109,109,107,107,109,107,104,106,113,116,113,112,114,114,110,107,109,107,104,106,108,107,104,105,107,104,104,108,109,108,106,105,107,105,106,109,106,108,111,108,105
110,107,104,107,113,107,104,108,108,106,105,106,109,111,107,104,105,107,108,107,106,107,106,109,111,108,110,111,108,111,117,117,115,112,108,108,106,105,109,109,105,104,106,109,105,103,105,105,105,107,109,108,108,105,100,105,108,105,104,108
108,108,109,107,110,110,107,107,106,106,107,109,108,107,107,106,107,107,105,103,106,107,105,107,110,110,111,113,112,115,116,116,115,113,109,109,110,111,111,110,109,106,105,109,107,107,105,104,105,106,109,107,105,105,106,105,105,106,105,106
102,106,110,104,104,110,108,105,107,107,108,107,106,106,106,108,109,106,106,107,107,107,107,110,110,109,114,114,114,117,117,120,120,115,110,107,109,112,108,106,110,108,106,105,105,109,107,104,103,104,109,109,103,106,109,108,108,108,106,105
105,105,108,109,108,107,106,107,108,108,108,107,106,108,106,106,108,107,108,109,108,109,108,106,106,110,113,114,118,120,120,125,124,117,114,109,107,108,109,107,108,108,106,102,105,107,108,106,104,106,107,106,104,104,105,104,102,104,108,109
105,105,108,109,105,105,107,108,107,105,106,106,105,107,106,105,106,106,106,106,110,112,107,103,104,112,116,116,123,125,126,126,122,118,113,109,107,105,109,109,109,108,104,102,108,108,109,107,111,107,101,110,111,107,103,108,113,107,104,106
106,108,109,109,104,104,105,105,104,105,106,106,106,108,105,105,107,106,106,106,110,109,108,111,111,109,114,124,133,126,123,127,126,119,112,109,107,106,108,107,108,109,106,103,107,109,107,103,112,109,106,109,106,110,108,105,107,111,106,106
108,106,108,107,108,110,109,106,106,105,108,109,107,108,107,106,107,108,105,107,110,108,108,112,113,109,116,128,133,137,140,139,135,122,113,110,110,108,111,105,106,109,108,105,104,106,104,100,103,105,108,106,105,107,106,108,108,109,108,104
105,106,107,106,109,111,110,108,107,108,110,110,104,105,110,108,105,108,105,106,107,108,109,109,108,118,125,139,157,162,160,158,150,133,119,110,111,108,110,105,107,108,108,109,107,105,102,103,102,106,107,108,105,106,103,104,102,104,111,108
107,105,107,108,107,108,107,107,107,109,111,108,105,107,108,108,105,106,107,107,107,107,110,112,111,125,139,165,181,184,182,177,171,145,127,115,107,105,107,108,108,108,107,111,108,107,105,108,107,109,107,105,106,106,104,106,107,105,107,107
109,108,108,107,104,108,109,107,104,105,106,107,105,109,106,106,104,105,108,108,106,106,107,110,112,119,136,155,168,178,176,176,167,138,123,114,105,105,106,110,105,107,105,108,106,107,108,110,106,102,105,103,107,106,105,105,108,107,105,105
106,108,108,111,108,108,111,108,103,104,105,108,104,105,106,107,105,108,107,108,103,108,112,108,106,111,126,132,141,153,151,148,136,124,118,112,107,109,106,106,106,110,106,107,107,106,107,107,106,104,107,111,109,104,105,105,107,108,106,107
108,104,104,104,107,105,106,106,107,108,109,108,105,105,108,109,107,109,107,106,105,111,113,105,109,115,124,130,131,133,132,138,125,119,115,111,107,108,105,105,110,112,109,108,107,106,106,108,106,107,109,113,112,104,109,103,109,107,106,108
110,108,104,104,105,105,107,108,111,107,109,105,104,107,107,109,107,111,109,105,107,106,107,107,111,109,115,123,124,124,126,126,117,119,111,109,108,105,105,106,108,107,109,107,107,110,107,108,107,106,107,106,108,106,110,109,113,105,104,107
104,107,106,104,106,105,108,110,108,106,108,107,104,106,102,106,107,108,108,107,106,104,107,105,108,115,120,118,117,122,121,119,118,113,106,106,109,108,108,107,106,103,105,107,109,111,107,107,105,105,105,106,108,107,107,107,105,106,106,106
108,107,107,105,107,105,105,105,103,105,107,109,106,107,105,107,107,104,107,107,107,108,109,110,108,112,113,119,124,117,119,123,119,111,109,108,108,110,108,105,105,104,105,105,109,107,106,108,107,107,106,109,110,104,102,105,104,105,106,105
108,108,110,107,109,106,107,107,109,106,104,107,105,107,110,109,105,108,110,107,105,110,108,107,107,109,112,118,120,119,119,116,116,112,110,111,108,106,106,106,105,106,107,104,107,106,104,103,107,108,106,107,107,106,104,105,108,106,103,99
108,106,104,106,108,104,106,111,111,108,107,106,104,104,108,109,107,110,109,107,106,107,106,107,109,110,115,117,116,116,117,116,114,111,108,110,108,105,107,110,107,107,106,105,106,105,104,104,106,107,105,104,105,108,109,105,101,104,107,106
104,109,108,105,108,107,104,108,108,107,105,106,106,104,106,109,106,108,109,108,107,107,107,106,108,115,117,117,117,115,115,118,115,111,106,108,109,107,108,109,108,109,106,106,107,105,106,107,107,109,106,104,107,107,106,104,105,106,104,105
108,111,111,107,107,108,100,104,108,105,103,106,108,107,106,110,106,107,110,106,107,108,108,108,107,111,115,114,114,114,116,114,109,108,106,106,108,108,107,107,107,108,107,105,106,108,107,105,104,108,106,102,103,104,104,107,110,107,104,106
108,108,107,106,105,106,106,105,106,108,107,106,107,106,104,108,108,107,107,107,108,107,110,110,107,109,114,114,110,112,117,114,110,112,110,105,110,110,107,107,105,105,108,105,106,107,108,107,104,106,108,106,107,109,105,105,107,104,106,108
107,108,111,109,108,108,108,108,107,109,106,103,106,106,105,106,107,107,105,108,110,111,113,111,111,110,112,117,114,110,110,112,113,113,109,106,109,108,108,107,106,107,108,108,106,104,105,108,108,107,106,106,106,106,105,106,108,109,108,106
101,106,111,110,109,108,108,108,107,107,105,106,106,108,109,107,109,108,105,105,107,108,108,110,110,110,115,118,114,113,113,111,111,113,110,107,106,106,106,106,108,109,109,109,107,105,104,108,111,108,105,105,105,106,108,107,103,105,106,106
108,106,106,108,107,107,105,105,108,107,109,110,106,107,106,106,110,108,105,106,106,106,106,108,110,111,111,111,117,120,118,118,113,110,111,109,104,105,107,107,107,108,108,105,106,108,106,106,109,106,107,108,106,108,107,102,100,103,107,107
107,103,106,105,103,106,105,104,105,106,107,107,108,107,104,102,106,108,105,105,108,110,109,108,111,112,113,116,115,113,113,111,109,108,109,110,105,105,109,110,107,106,106,105,104,104,105,105,107,107,105,104,108,108,105,104,107,108,106,105
107,108,107,106,107,107,108,107,106,108,106,105,108,108,105,104,105,108,106,104,106,108,111,109,106,108,111,113,115,116,115,112,112,111,107,107,106,106,108,110,107,105,107,108,106,105,105,105,108,109,107,107,107,109,111,109,106,104,105,111
106,107,106,108,108,105,106,108,110,111,108,105,106,107,107,107,106,106,106,107,107,105,105,106,106,106,108,110,113,113,114,113,112,112,109,107,107,106,105,106,108,107,106,104,107,108,107,106,108,108,108,111,110,109,108,107,106,105,105,105
107,108,108,107,108,111,108,105,108,109,108,107,107,107,108,108,106,106,107,108,109,109,109,108,108,107,109,112,114,116,113,109,111,111,110,110,109,107,106,105,108,108,105,104,106,107,107,107,108,107,108,109,108,106,104,103,104,106,105,104
109,109,109,106,106,110,107,105,108,108,104,105,109,108,107,106,107,108,106,107,109,108,104,106,110,112,114,114,111,113,115,112,109,108,108,108,107,107,107,105,106,106,106,105,106,109,108,107,107,106,108,109,108,105,105,106,105,103,104,107
102,109,107,104,108,108,107,109,110,108,105,106,108,107,105,104,106,107,107,107,107,107,104,105,110,112,114,118,115,113,113,111,109,107,106,107,107,106,106,106,107,107,106,105,105,109,109,107,104,104,106,106,109,110,107,105,104,105,106,105
108,108,106,106,105,105,108,108,106,106,109,110,107,105,105,106,107,107,107,107,106,109,111,112,113,110,109,113,113,113,112,112,114,109,106,107,108,107,108,106,106,108,108,107,106,106,108,108,106,105,104,103,105,108,105,103,105,107,106,103
107,106,107,108,107,108,107,108,107,106,109,111,109,107,106,106,107,109,107,106,108,110,109,110,112,110,112,115,112,114,116,114,111,108,106,106,106,109,109,104,105,107,107,108,109,107,105,106,106,104,106,108,104,107,109,110,110,109,106,102
109,107,107,108,109,108,107,107,107,109,107,107,110,109,107,107,107,106,105,108,109,106,107,109,111,110,110,113,110,107,110,113,108,109,107,106,106,107,107,107,108,107,104,106,110,108,105,105,105,105,106,108,107,111,111,104,103,109,109,106
105,105,107,106,106,106,106,107,107,109,108,106,107,107,106,107,108,107,105,109,108,104,107,109,111,111,109,114,114,116,117,110,106,106,107,108,105,103,105,107,108,106,104,104,107,109,108,108,109,108,105,106,107,108,109,109,113,107,102,108
105,108,107,107,109,109,108,107,106,107,110,108,104,105,107,107,108,109,108,107,106,107,111,110,111,110,107,108,112,113,111,110,109,109,107,104,105,104,105,103,105,106,107,106,105,107,107,107,109,108,104,104,109,107,105,104,104,106,105,106
109,107,106,107,107,107,110,107,105,106,106,106,105,106,108,108,108,108,107,105,106,106,109,111,111,109,111,113,113,109,106,109,107,106,103,103,105,105,102,104,108,107,109,107,106,107,108,107,106,108,106,105,109,103,104,105,105,109,107,104
109,108,104,105,106,107,108,107,109,106,106,105,108,107,105,106,107,106,103,104,109,106,104,106,109,109,112,114,109,109,109,110,112,108,105,112,107,104,103,107,108,107,108,108,104,106,108,109,107,106,106,108,106,105,106,105,105,104,103,103
105,105,108,110,106,105,106,107,110,107,106,104,106,105,106,106,106,106,105,106,107,109,106,103,106,105,104,108,109,110,108,109,109,108,107,107,108,108,107,109,108,106,106,106,107,104,106,108,107,105,110,109,108,107,107,107,105,103,106,108
109,111,105,104,104,106,107,108,109,106,106,104,107,106,108,107,107,107,107,110,105,107,108,104,108,109,112,106,106,107,106,103,102,107,107,102,107,109,108,108,110,107,105,107,109,108,106,106,109,106,110,106,107,105,103,108,111,105,104,104
104,107,109,109,104,105,107,109,109,107,108,106,109,110,109,105,106,107,108,110,109,108,109,106,107,105,110,107,105,108,110,109,107,107,105,109,106,109,107,105,107,107,108,110,105,107,104,104,108,104,103,104,110,107,105,107,105,108,104,104
109,107,109,108,105,106,105,107,109,108,109,109,106,111,108,105,107,108,107,107,106,107,109,106,104,106,109,110,106,108,108,108,108,108,106,109,104,108,108,104,105,107,107,108,105,104,105,106,104,103,100,104,111,107,106,107,106,109,111,111
107,106,107,105,103,105,105,110,109,108,109,107,101,108,106,109,110,109,105,106,102,105,109,109,105,106,106,108,104,108,111,103,101,102,106,111,105,104,109,104,107,109,105,107,109,109,107,108,105,107,105,105,106,106,103,104,111,108,104,107
105,106,103,106,105,108,108,107,104,111,107,106,104,105,105,108,107,107,105,105,103,107,109,104,107,109,105,105,107,103,106,108,109,108,105,111,105,105,114,106,106,108,104,107,110,111,106,107,109,105,104,106,106,106,103,99,105,107,105,105
105,106,104,103,102,107,106,104,104,108,105,108,107,104,105,106,105,104,103,106,106,106,109,105,106,110,108,106,109,108,107,108,108,108,105,108,108,105,109,107,106,106,106,105,106,107,105,105,109,105,106,107,108,107,107,107,110,111,107,106
106,110,105,111,108,103,102,106,109,106,108,106,106,106,104,110,108,103,105,109,109,107,104,105,103,105,108,107,106,107,107,109,110,108,111,105,107,106,103,108,108,106,107,108,104,103,106,107,108,106,108,107,104,107,105,108,107,107,106,104
110,110,106,110,111,106,107,108,107,106,105,108,108,108,107,111,110,106,106,108,108,109,105,106,107,105,105,106,104,104,105,108,107,107,110,104,103,106,107,109,108,107,107,110,107,105,106,107,108,106,105,105,103,106,108,106,103,108,109,106
105,107,109,107,109,109,108,107,107,107,101,106,108,106,110,107,107,110,106,106,106,109,105,105,105,103,104,107,109,109,109,106,105,107,105,105,104,104,108,108,108,107,106,106,107,108,106,106,108,108,106,104,106,107,108,108,106,108,109,108
106,108,107,104,106,111,108,105,105,108,106,102,103,104,107,106,105,108,106,107,109,106,103,104,104,106,105,106,107,107,108,107,108,107,106,103,104,107,107,108,108,106,106,105,107,108,107,106,106,106,108,107,107,107,105,105,106,105,106,107
104,105,105,105,108,108,106,106,105,106,108,106,103,104,106,107,106,105,106,108,108,106,106,107,105,104,105,107,106,107,106,104,105,104,107,106,106,106,104,107,110,108,106,107,107,106,107,107,106,106,108,108,105,104,107,108,109,107,106,107
109,108,109,106,105,108,109,108,107,106,107,109,106,105,106,107,108,108,107,106,106,106,108,108,106,108,109,107,107,109,110,110,108,110,110,106,108,109,105,105,109,109,108,109,107,106,107,106,106,109,108,107,104,104,107,108,108,106,105,106
104,107,106,104,103,102,105,108,108,107,105,105,107,106,105,106,107,109,108,105,104,104,107,107,108,108,107,107,107,109,107,106,108,107,107,106,106,108,107,105,105,106,108,109,108,108,107,106,106,106,105,107,109,108,105,106,107,105,107,107
108,108,107,107,111,109,104,105,107,108,109,107,106,106,107,107,107,109,107,105,106,106,106,104,106,109,108,105,102,106,111,108,104,103,108,108,105,106,107,105,107,107,102,105,108,108,108,109,108,103,101,105,110,108,102,104,107,106,107,107
103,103,105,106,108,108,106,104,103,106,110,110,106,105,108,111,109,109,107,106,110,110,107,107,105,103,108,110,106,104,104,106,106,105,106,108,107,106,106,105,108,108,104,105,107,107,108,109,106,103,103,104,108,109,107,106,106,107,105,103
103,106,109,107,106,108,110,109,105,103,106,107,106,104,105,108,108,107,109,109,109,109,107,107,107,107,105,106,106,105,107,110,108,105,103,104,106,107,107,107,105,105,108,108,105,106,108,107,105,104,106,106,108,109,107,108,109,107,106,105
109,108,106,106,106,107,108,106,107,107,105,106,107,104,102,103,104,106,109,108,106,106,106,107,106,105,104,107,107,105,107,106,105,105,106,107,106,105,106,107,106,105,106,107,106,107,107,106,106,107,109,109,106,105,108,110,109,106,104,103
104,105,107,107,105,105,108,107,108,109,107,108,107,105,106,106,105,106,105,105,107,107,107,106,103,107,107,106,109,110,108,105,105,106,107,107,108,106,105,106,105,107,108,107,108,107,105,106,107,108,110,107,103,105,107,104,106,110,111,111
107,106,105,105,106,108,108,106,106,108,110,108,104,103,108,108,106,106,104,106,107,107,108,104,103,107,106,107,109,108,108,106,104,108,109,107,109,109,109,109,106,107,109,108,107,106,104,106,107,107,107,103,103,107,105,104,106,108,106,106
109,106,102,104,107,109,106,105,106,107,108,106,105,106,108,106,105,106,106,108,106,105,108,107,105,104,106,106,104,103,102,101,102,103,104,110,112,107,105,108,108,106,108,107,105,106,105,103,104,107,108,107,108,107,107,106,104,104,105,105
106,106,103,103,106,108,106,105,106,107,104,104,108,109,108,106,107,106,106,108,109,107,107,106,106,109,111,107,106,108,111,111,109,104,102,106,109,108,104,105,107,105,106,106,106,106,105,103,103,105,107,107,107,106,107,107,107,107,106,105
