108,109,109,107,108,107,105,108,109,107,110,112,113,117,119,120,121,119,122,126,125,122,118,114,111,111,111,112,114,112,108,113,116,109,106,110,112,111,105,107,111,112,110,109,110,108,108,110,107,107,111,110,106,107,107,109,109,106,110,112
110,111,110,107,109,109,107,107,111,112,113,113,114,116,118,122,123,119,121,127,128,123,120,117,112,110,111,111,111,110,109,109,110,110,108,109,110,111,107,107,110,110,109,109,107,106,108,110,107,105,109,111,109,108,107,107,110,111,111,109
110,110,111,112,112,113,111,110,112,113,112,114,114,114,118,126,128,123,124,129,130,125,122,120,115,111,112,112,110,107,106,106,107,109,107,105,109,112,111,112,111,107,107,110,109,107,107,107,109,109,108,108,108,109,109,110,111,111,109,108
109,111,112,111,111,112,110,108,109,111,112,113,113,115,121,129,134,134,134,135,133,128,121,118,116,111,111,113,110,107,107,107,106,108,108,105,107,112,112,112,110,107,108,111,111,109,107,107,108,108,108,107,107,110,109,110,110,107,108,108
109,111,110,108,108,110,111,110,111,113,113,111,113,122,130,138,148,149,145,143,138,132,126,120,116,111,109,112,111,108,108,108,108,111,112,110,107,107,109,110,110,109,110,110,110,109,108,107,107,106,108,111,109,108,109,109,110,109,108,106
109,108,109,111,113,114,112,110,110,111,111,114,118,129,144,162,176,175,166,159,153,145,137,127,116,111,111,113,113,110,109,108,107,106,107,108,110,113,111,109,109,109,109,109,109,108,107,108,110,108,109,109,107,108,110,109,109,109,109,108
110,108,106,109,112,109,108,109,109,110,112,114,119,131,156,183,200,202,196,191,183,174,159,138,121,115,113,113,113,114,114,110,106,104,106,107,108,113,112,107,107,110,109,107,107,107,106,107,108,109,109,107,106,108,109,108,107,109,112,113
110,106,107,111,109,104,107,111,111,114,115,115,119,132,153,177,195,206,211,216,217,208,179,142,122,117,115,112,111,112,114,114,111,109,109,108,107,111,114,109,106,110,111,108,105,106,106,105,108,110,109,107,108,109,109,110,108,109,112,110
107,108,112,112,109,110,113,111,109,110,114,115,119,130,143,159,173,186,197,209,218,206,171,135,118,115,114,111,109,109,109,110,110,108,109,108,107,109,113,113,108,108,111,110,107,108,109,108,108,109,109,107,109,112,110,108,106,106,106,108
108,109,111,112,112,111,112,113,110,110,113,114,118,127,139,148,153,160,168,177,181,171,151,130,118,115,114,112,110,110,109,108,109,109,109,110,111,111,111,110,108,106,109,109,107,110,111,108,107,109,109,107,108,112,110,107,109,109,107,108
109,106,108,112,113,111,109,109,111,113,112,113,119,127,138,145,144,143,148,153,153,148,141,129,120,116,112,109,110,111,111,109,109,111,112,112,111,109,109,110,108,107,110,110,107,108,110,109,108,111,111,109,106,108,110,110,111,110,107,108
109,107,108,111,110,109,110,108,112,115,113,114,122,125,131,142,148,146,145,146,144,139,132,123,117,115,111,109,113,113,110,110,109,107,108,109,110,111,113,112,110,108,109,113,111,108,108,110,110,111,112,109,107,108,111,111,108,109,110,109
111,110,108,107,107,110,114,112,108,111,113,116,119,118,124,138,149,149,144,141,137,131,124,118,114,111,111,113,112,109,108,111,110,106,107,110,109,108,109,111,112,109,108,110,111,109,108,109,110,110,110,110,109,109,110,110,110,111,111,110
109,111,109,106,108,111,110,112,113,107,108,113,115,116,122,131,138,139,135,132,130,128,123,117,115,112,109,109,109,110,111,113,113,111,110,109,108,108,107,109,110,109,107,107,109,109,110,111,110,108,109,111,111,109,107,109,111,110,108,109
111,110,112,108,108,109,110,113,113,110,110,111,115,116,120,125,128,130,128,127,124,123,122,117,113,112,107,108,113,112,109,108,108,110,113,110,109,111,110,108,109,109,108,108,107,108,110,111,109,107,108,109,110,110,107,107,108,108,109,108
114,108,108,111,112,110,110,109,109,115,112,112,114,113,117,123,128,127,126,125,120,118,117,115,114,112,112,110,111,109,109,109,107,106,110,112,110,110,111,108,108,109,110,109,106,106,108,108,108,108,108,108,110,110,106,107,111,109,106,107
111,107,107,106,105,112,111,111,111,112,112,112,112,115,118,121,125,125,128,125,122,117,112,114,116,110,111,113,112,109,111,111,110,111,108,108,111,109,109,107,105,106,109,110,106,109,111,108,108,108,107,109,110,110,108,110,112,109,106,109
111,110,108,110,110,110,110,106,110,112,112,109,115,117,117,121,124,125,127,124,122,119,112,113,113,109,109,113,110,109,110,111,108,108,106,105,110,109,108,107,106,106,110,111,110,112,113,110,110,107,106,110,110,111,111,110,107,107,109,110
109,107,111,108,107,106,113,110,110,112,113,109,115,112,116,124,127,126,126,122,120,120,113,110,110,110,109,112,108,110,109,112,112,113,112,108,110,109,110,109,110,110,109,109,111,111,109,109,111,110,109,109,109,112,110,108,108,109,108,107
108,107,111,109,108,111,110,114,108,107,114,112,113,113,118,124,123,126,125,122,119,119,114,109,109,110,110,109,110,112,108,110,109,107,110,108,110,109,112,108,112,112,107,109,111,110,106,107,109,111,111,109,107,110,108,108,109,110,111,113
112,108,108,109,113,111,108,112,110,110,113,113,114,116,119,120,117,123,125,120,118,116,113,109,110,107,107,109,112,113,110,111,108,112,111,108,108,107,110,110,111,110,108,110,110,110,109,108,110,110,111,108,109,111,109,110,108,108,109,105
110,110,111,107,112,109,112,108,113,112,112,113,113,113,117,117,116,121,125,120,117,114,110,110,111,108,110,111,109,106,108,107,105,107,109,107,109,109,107,109,110,108,109,109,107,108,111,109,111,109,108,108,111,110,109,109,108,108,110,110
108,110,110,109,104,106,111,109,112,111,113,111,111,109,116,119,119,120,124,120,116,111,109,111,110,114,114,112,109,111,109,110,114,109,111,111,106,108,107,107,109,107,107,108,108,109,108,109,111,108,108,109,109,108,109,111,109,111,111,111
110,108,109,111,112,111,110,111,111,111,112,113,113,114,119,123,120,120,119,116,115,110,109,111,109,111,112,113,110,111,108,108,109,108,109,111,106,108,109,110,109,106,105,109,111,111,107,110,110,108,110,108,108,111,113,110,108,112,108,108
109,107,108,109,108,107,109,109,113,112,112,114,116,118,121,122,118,118,116,116,115,111,109,110,107,107,113,110,106,106,111,112,107,104,108,110,106,109,109,112,109,106,109,110,109,110,110,111,108,106,109,106,108,111,113,108,107,108,104,110
110,111,111,111,113,112,110,108,112,113,112,111,113,118,121,117,118,116,116,119,113,110,109,109,109,110,112,109,106,111,113,109,109,109,109,109,108,111,110,111,109,111,110,106,106,109,110,108,107,107,108,108,109,110,111,110,107,112,106,108
110,112,110,108,110,109,109,109,109,110,110,111,113,118,121,115,116,115,117,119,112,109,113,111,111,109,108,111,109,108,110,109,108,109,110,109,107,107,109,110,109,112,108,105,109,110,108,107,110,111,108,110,110,108,110,110,108,110,105,108
107,106,108,110,110,107,107,110,109,108,110,114,116,117,120,117,117,116,115,115,113,111,112,112,109,109,107,112,112,108,109,110,110,107,110,112,110,108,111,111,109,109,110,109,114,112,107,109,111,112,108,109,110,106,111,110,109,107,111,110
108,108,107,109,111,110,110,110,109,107,111,115,117,115,116,118,119,117,113,112,112,110,111,113,109,110,108,108,111,112,111,113,110,110,109,112,112,111,113,113,109,109,112,111,113,111,108,110,112,113,108,107,111,106,110,110,108,111,112,109
112,113,111,109,109,108,108,109,110,108,109,115,117,115,116,119,120,119,116,113,110,108,111,113,111,109,106,104,108,109,108,110,109,108,108,112,112,111,111,112,111,112,111,108,108,109,110,111,112,113,110,109,110,109,107,106,107,108,110,108
106,107,108,109,110,110,111,109,110,112,111,113,118,119,118,120,120,119,119,117,111,108,110,112,114,111,109,109,111,111,111,111,111,110,108,108,110,111,110,111,111,109,109,109,108,109,110,110,110,110,111,108,108,109,108,108,108,108,109,110
107,108,113,114,111,109,111,110,110,114,114,113,118,121,120,120,120,119,118,118,114,110,109,110,111,113,111,111,112,112,112,111,109,107,108,111,111,110,112,112,109,107,109,113,112,110,109,110,108,107,111,108,107,109,110,110,109,109,110,113
108,111,113,113,112,109,110,112,112,114,115,114,117,120,119,120,121,119,115,113,113,111,110,109,107,109,111,112,113,114,114,114,113,111,110,113,111,109,110,110,110,109,110,112,112,109,110,110,108,107,110,110,109,108,109,110,109,108,109,110
107,109,109,110,111,107,107,110,111,114,115,115,116,119,119,119,120,118,114,111,111,111,111,111,110,111,114,112,112,113,115,118,117,112,111,112,109,107,109,110,110,110,110,110,110,110,111,110,109,110,109,110,109,106,106,110,111,109,108,110
108,110,109,107,109,109,109,111,113,112,114,115,117,121,121,119,118,117,115,113,111,111,111,111,110,110,111,114,115,116,115,114,117,117,111,108,106,107,110,111,110,110,110,109,110,111,112,111,110,110,109,109,108,107,108,110,110,108,108,109
111,108,106,105,109,111,108,109,113,112,111,115,118,121,121,119,118,118,115,113,114,113,111,109,108,108,110,114,118,120,122,118,114,116,115,112,110,107,108,110,109,110,111,111,110,109,110,110,110,110,108,108,108,108,108,108,107,107,108,109
110,110,109,106,107,110,108,109,114,114,113,114,117,118,119,118,118,117,114,114,115,113,110,109,110,110,113,116,118,120,122,121,118,115,113,113,113,111,109,109,109,110,111,111,108,107,108,108,110,110,109,108,107,108,110,109,108,106,105,108
110,111,111,110,107,108,111,113,114,114,113,112,114,117,118,117,117,116,114,112,112,112,110,111,113,113,114,116,118,123,127,124,123,121,115,112,111,111,110,110,109,109,110,110,108,108,109,109,109,110,110,109,108,109,108,107,108,110,107,106
111,113,110,109,110,108,107,110,112,112,113,112,113,116,117,115,115,115,113,110,108,110,111,111,113,115,116,118,121,122,125,126,121,116,114,112,109,108,108,110,110,110,110,109,109,108,109,107,106,109,110,109,110,110,109,110,110,108,109,112
107,109,110,112,110,107,107,109,111,111,112,113,113,114,115,115,114,114,112,110,108,108,110,111,112,115,117,121,125,125,123,122,120,115,113,113,111,108,108,110,110,110,109,109,110,109,108,107,108,110,109,109,111,110,109,108,107,107,108,109
112,112,109,109,109,108,108,110,112,112,111,112,112,111,113,115,114,114,114,111,109,111,111,112,111,111,115,121,123,123,124,123,123,121,116,113,112,110,109,109,110,110,109,109,110,109,109,111,111,110,109,109,109,108,108,106,108,112,112,109
108,110,107,107,110,109,108,112,111,111,111,111,112,111,110,111,110,111,112,110,111,113,112,112,113,113,114,121,124,123,124,123,118,118,118,113,110,109,109,109,111,111,109,107,107,109,109,111,110,109,110,110,108,109,111,111,109,109,107,109
106,109,109,111,112,109,108,110,107,108,112,111,111,111,109,108,107,109,110,109,110,110,111,111,115,116,115,118,123,125,124,122,120,118,117,116,112,109,110,110,110,111,110,108,107,109,109,108,109,110,112,112,110,109,112,110,107,109,111,110
104,109,110,107,111,115,109,109,109,107,109,111,110,109,112,110,108,110,112,111,109,110,111,112,113,116,119,120,122,123,126,129,126,120,116,117,117,113,109,108,108,112,112,111,110,111,110,108,108,109,109,110,110,109,109,111,111,111,108,108
109,108,108,110,111,111,109,106,110,109,106,108,110,109,112,112,109,110,113,112,111,112,112,113,115,116,123,129,125,125,127,127,127,126,120,117,113,108,107,107,109,112,112,110,110,112,110,108,107,107,106,106,110,108,107,107,110,112,111,108
105,106,109,111,108,107,108,107,109,111,108,109,111,109,111,110,109,110,110,111,110,111,112,111,114,118,120,129,131,133,133,129,125,123,118,113,111,109,111,111,109,109,109,108,109,110,109,108,109,109,109,109,108,106,107,108,109,110,110,109
112,108,108,109,108,108,106,110,110,111,109,110,110,107,109,109,109,109,108,109,110,108,111,111,114,123,131,134,140,142,134,133,130,126,120,114,114,115,112,112,109,109,109,109,109,110,110,109,109,111,111,108,107,108,108,108,108,108,109,109
107,106,107,107,105,108,108,111,110,109,106,108,109,108,107,108,110,109,108,108,113,110,112,112,113,124,132,138,140,138,135,140,135,132,129,120,116,114,110,109,112,112,111,109,109,109,113,109,107,108,110,107,107,110,108,109,111,112,107,107
107,108,110,111,107,108,107,110,109,108,108,107,109,111,108,108,112,111,107,110,112,112,114,115,115,122,125,137,141,145,143,140,138,135,132,123,113,112,110,109,112,113,109,109,110,108,109,107,107,107,107,107,106,108,109,109,111,112,111,109
112,111,111,111,110,110,107,110,111,111,111,108,109,112,109,109,112,111,109,111,107,108,112,116,121,126,135,149,155,156,150,154,150,142,133,122,114,111,113,109,110,110,106,109,110,109,106,108,108,107,106,108,108,106,107,108,110,109,110,108
109,110,109,109,110,108,110,111,111,108,112,109,110,109,109,107,112,111,113,110,107,107,112,112,116,128,139,154,166,158,162,164,170,152,137,121,115,111,112,108,109,110,109,111,110,110,108,109,107,108,109,105,110,109,109,109,111,111,105,107
108,110,110,108,109,108,109,111,108,107,112,110,110,107,109,107,112,110,113,111,111,107,114,111,115,125,139,147,157,148,155,148,159,148,137,122,114,111,109,108,108,114,112,111,111,110,108,107,109,108,111,105,110,115,108,106,109,108,106,109
109,107,109,111,112,109,105,108,107,107,109,107,108,108,108,109,111,109,112,113,111,110,116,116,115,122,131,128,132,134,143,137,138,137,129,122,114,111,110,110,107,110,110,110,112,109,107,108,111,107,110,109,109,110,109,109,106,110,108,108
111,112,109,110,109,108,107,108,107,108,108,107,109,110,107,110,111,110,111,112,110,112,113,116,114,120,121,128,129,133,132,134,126,131,123,119,114,111,114,111,106,105,109,108,110,109,109,110,113,108,111,113,108,110,107,109,111,110,108,108
105,106,108,106,108,111,113,112,110,107,109,110,111,109,109,110,110,109,110,111,111,112,111,113,114,115,117,121,130,128,132,132,125,127,123,118,115,111,113,109,107,107,111,108,107,110,109,106,111,108,108,112,107,110,112,104,107,115,110,109
110,112,109,107,110,113,112,111,108,106,109,111,110,110,112,109,107,108,109,110,111,111,110,109,115,115,119,127,127,127,127,127,124,121,118,116,116,110,108,110,110,107,108,110,108,110,107,107,108,108,108,111,110,109,110,106,106,111,111,106
105,107,108,107,109,112,109,106,107,107,108,110,109,109,110,107,105,108,110,109,110,112,112,110,113,114,114,120,131,129,125,126,125,118,116,114,114,110,107,111,111,107,108,110,109,109,107,111,108,109,108,109,110,111,111,110,107,109,113,107
104,104,110,110,109,109,109,108,110,110,109,110,109,108,109,109,108,108,109,108,109,111,112,116,115,118,123,124,124,127,127,127,123,118,116,115,113,113,108,109,111,111,110,109,109,109,108,111,109,110,108,107,108,107,109,109,107,110,108,111
112,108,108,109,109,109,109,109,111,110,110,110,110,111,111,112,111,109,107,107,109,109,110,113,112,112,118,124,122,121,124,124,122,118,115,116,114,113,110,108,110,112,110,108,109,108,108,109,110,111,109,108,110,108,107,109,108,109,110,109
111,112,109,108,108,108,109,109,109,110,110,109,110,110,109,109,110,111,111,111,109,107,108,111,113,114,120,123,121,123,127,125,120,119,116,115,114,112,110,110,110,111,109,107,107,108,108,109,112,109,109,111,112,111,106,108,108,107,107,107
105,106,109,109,109,109,108,109,110,110,109,108,108,108,107,107,109,111,113,112,108,107,110,112,113,114,115,121,126,128,127,124,121,121,118,115,113,109,109,110,110,109,110,108,106,108,108,109,111,108,107,110,109,110,111,109,111,110,109,109
108,106,106,108,108,109,109,110,111,111,110,108,107,109,110,110,109,107,108,109,109,108,109,112,115,116,115,116,124,127,125,124,122,119,117,116,113,109,108,109,109,109,110,111,110,111,110,108,110,109,107,108,109,108,109,108,107,107,109,111
110,108,107,108,110,111,110,109,110,111,111,109,107,109,112,111,110,109,108,110,111,111,111,111,109,110,115,118,122,125,122,120,119,116,115,116,115,112,110,109,109,109,109,111,112,111,109,108,108,110,109,108,109,109,109,108,111,113,109,107
109,110,112,112,110,110,110,109,110,109,110,110,108,109,110,109,109,111,112,112,111,111,112,112,111,109,112,114,115,119,123,122,121,118,115,114,112,112,111,110,110,109,108,109,110,108,108,107,106,108,111,112,111,110,110,109,109,111,110,107
109,110,110,110,111,111,109,110,112,108,105,110,111,108,106,108,108,110,113,111,109,111,110,110,113,113,110,114,119,120,121,124,126,121,115,111,109,109,109,108,110,111,111,110,109,108,107,107,108,107,108,110,111,111,111,112,111,106,106,107
108,110,109,106,108,111,109,109,111,108,107,110,111,106,106,110,110,110,112,111,109,109,107,106,110,114,112,113,118,119,120,122,122,120,117,113,111,109,107,105,107,112,113,111,111,110,108,109,110,110,111,110,108,109,110,107,107,108,109,110
109,109,109,106,105,106,106,107,110,111,109,108,108,108,109,110,110,110,112,110,106,106,106,105,107,110,111,110,113,118,119,118,115,116,118,115,111,110,109,106,105,106,109,110,112,111,108,109,112,110,109,109,107,105,108,109,106,106,109,108
111,109,108,109,107,107,106,106,109,110,107,107,109,110,110,108,108,110,110,108,108,110,111,110,109,108,109,111,111,111,115,119,116,112,114,114,111,109,110,110,107,105,107,108,109,111,110,109,108,107,107,106,105,107,108,111,112,110,110,107
109,109,109,112,112,108,108,108,108,109,108,111,111,110,109,108,107,110,110,108,111,114,112,111,111,110,109,113,116,114,113,117,115,111,112,112,111,109,109,110,110,108,108,108,106,109,112,111,109,109,112,111,108,109,110,108,107,107,109,108
107,111,109,110,110,106,109,109,107,110,112,111,111,110,109,109,108,110,110,106,107,111,111,109,105,105,110,112,112,109,111,115,115,113,111,111,110,110,110,108,109,109,108,109,109,109,110,112,111,110,109,109,109,110,109,106,108,111,109,108
108,109,108,108,109,108,109,108,106,110,112,108,109,111,109,108,108,108,108,107,107,108,107,107,110,109,110,112,110,110,110,111,111,111,110,109,109,111,112,108,108,109,108,110,111,109,108,107,107,108,108,107,108,108,108,107,106,108,109,108
108,107,109,107,110,111,109,110,109,108,109,110,108,108,107,107,108,108,108,109,108,108,107,105,105,107,107,106,106,108,109,110,111,112,112,110,109,111,110,109,108,110,111,108,108,110,108,106,107,109,109,109,110,108,105,107,110,109,109,109
112,108,109,110,110,110,110,111,110,108,108,109,107,105,107,110,111,109,110,107,107,107,108,112,113,109,108,111,113,110,110,110,110,110,111,110,110,110,109,107,107,109,111,109,107,109,109,109,109,106,104,108,112,111,109,111,111,109,108,110
114,111,110,110,108,110,112,109,109,109,110,108,107,109,109,110,113,110,109,110,109,108,105,107,111,110,111,108,108,110,109,110,109,107,107,108,109,110,110,108,107,107,110,110,108,108,109,110,110,110,110,108,109,108,105,104,107,108,108,108
111,113,111,108,110,109,110,108,109,110,110,108,108,111,110,108,111,110,108,114,112,105,108,106,107,105,109,110,110,110,108,109,111,109,109,111,109,110,113,112,109,108,108,110,109,110,109,107,107,111,112,109,108,111,109,106,110,112,111,107
105,112,109,105,108,108,111,109,111,111,109,109,109,109,109,106,107,111,107,108,109,109,112,112,109,111,109,109,108,111,112,111,110,110,113,111,108,110,114,110,107,110,109,110,112,110,106,106,106,108,108,108,107,110,110,110,110,109,107,109
109,107,106,106,107,107,110,109,108,113,109,109,110,109,109,105,107,108,108,106,109,111,106,108,108,106,111,109,108,109,111,111,110,109,112,109,108,109,111,108,107,110,111,109,109,110,108,110,110,109,109,107,107,107,105,106,109,107,105,108
108,107,107,111,108,108,110,108,107,113,110,107,110,108,108,108,108,107,111,108,109,107,108,109,107,106,109,107,109,109,108,109,106,108,109,109,108,110,108,107,110,110,110,108,105,110,113,109,108,108,108,109,110,108,109,112,111,110,109,109
107,109,108,108,108,109,110,108,110,108,108,105,109,107,108,112,108,110,111,110,111,107,105,110,112,111,105,108,111,109,106,107,106,109,112,111,109,109,108,107,111,111,109,107,107,108,112,109,107,110,111,109,108,107,107,105,107,109,112,110
109,107,108,108,109,107,110,109,110,104,107,109,107,108,107,113,107,111,111,110,110,111,110,108,111,110,107,110,109,109,106,109,110,112,113,115,111,108,109,108,109,111,112,108,112,107,108,110,109,109,107,108,111,110,108,111,110,107,108,110
109,105,108,108,107,108,112,112,111,107,109,110,108,108,107,109,108,109,110,109,111,107,109,107,108,105,109,111,109,110,109,111,110,109,110,113,110,108,111,110,109,108,112,111,112,108,107,107,107,106,110,110,108,109,108,111,110,108,108,109
107,107,106,106,106,110,113,111,110,110,107,107,110,108,109,108,110,107,111,109,111,108,108,105,107,109,106,108,107,111,110,109,111,108,109,107,110,108,110,110,110,107,110,108,107,110,108,110,110,109,109,109,107,107,110,111,111,110,111,108
105,109,106,106,107,109,110,110,109,109,108,107,111,111,111,109,110,107,111,108,107,111,110,107,109,109,104,108,110,107,108,109,112,109,106,106,111,109,109,108,110,109,109,108,109,111,110,111,110,107,103,107,109,106,106,106,114,110,110,107
109,110,107,107,109,108,107,109,109,109,109,107,109,111,109,109,110,109,108,107,108,109,110,104,108,110,108,107,108,108,110,109,111,108,106,109,110,109,110,107,109,110,111,110,110,108,108,109,111,109,107,110,107,111,111,106,112,108,108,108
111,111,110,108,111,112,109,109,109,108,108,107,108,108,107,111,110,109,107,108,110,109,109,109,111,111,108,109,111,111,110,109,108,108,111,111,109,108,110,109,109,110,110,109,109,107,109,110,109,109,109,108,109,108,110,113,110,109,108,106
109,111,111,108,110,112,111,109,108,108,109,107,107,108,107,109,108,106,108,110,108,107,108,108,110,113,110,109,110,109,112,111,107,108,112,111,107,107,111,111,108,109,109,110,111,108,108,109,111,107,106,105,109,109,104,107,106,110,111,106
105,106,109,109,109,108,110,109,108,109,110,108,108,110,108,107,107,107,110,110,109,108,111,109,107,108,109,106,109,110,111,110,109,109,110,109,106,107,110,109,107,110,110,111,111,109,107,107,113,110,107,109,111,111,105,107,110,109,109,107
108,107,108,108,107,107,109,110,110,110,111,110,111,110,108,107,107,108,110,111,109,106,107,109,107,108,112,111,107,108,110,110,109,108,108,108,107,108,111,110,109,111,110,108,110,111,108,107,110,110,109,108,109,107,111,111,110,109,112,112
113,110,108,107,107,108,109,110,113,112,111,111,111,110,107,107,109,108,110,111,108,107,110,111,108,108,109,108,108,109,110,109,108,110,110,107,107,110,111,111,111,110,108,106,108,110,109,111,110,107,106,104,109,108,109,109,110,111,112,112
109,109,108,108,108,108,109,109,111,111,109,109,109,109,106,107,109,109,108,109,109,110,111,109,109,110,108,108,111,111,109,109,110,110,110,108,109,110,111,112,112,110,107,106,107,110,110,112,111,107,107,107,108,110,109,111,110,109,108,111
110,112,111,108,108,110,110,108,109,109,109,109,110,108,107,109,109,107,107,108,109,109,110,107,105,109,112,109,109,110,109,111,111,109,109,109,109,109,108,110,111,110,108,109,108,108,108,108,110,111,109,105,104,109,107,104,110,111,111,112
107,110,110,109,109,111,111,109,108,110,109,109,109,108,109,109,110,109,108,110,110,107,107,110,110,108,108,109,109,108,107,109,111,110,109,109,110,107,104,105,108,108,107,109,109,106,108,108,107,109,110,110,109,106,107,109,111,111,110,110
105,106,109,110,108,109,111,109,109,111,108,106,107,108,106,107,109,109,108,109,111,111,110,109,108,107,108,112,113,111,110,110,110,109,108,110,111,108,106,106,107,108,107,109,110,108,109,108,107,107,108,110,111,111,111,110,108,106,106,108
109,108,109,109,109,109,109,109,109,110,109,107,108,109,107,107,108,107,108,109,109,109,109,107,108,109,108,109,110,110,110,110,108,107,109,111,111,110,110,109,108,108,110,109,108,109,109,109,108,107,109,111,110,107,107,110,109,107,107,107
111,110,109,109,108,107,109,110,108,107,108,110,110,111,112,111,108,107,109,109,108,108,112,111,110,108,106,109,110,109,108,109,109,108,108,109,109,109,109,109,107,107,109,108,107,108,108,108,108,109,109,108,109,109,108,109,110,110,110,110
110,109,109,110,108,108,110,111,109,108,108,109,109,110,112,111,108,106,108,110,107,106,109,111,109,108,109,109,109,110,110,109,109,109,109,109,110,108,107,108,109,109,109,109,108,107,107,106,107,106,104,108,113,110,106,107,109,109,111,112
111,109,110,109,107,109,110,111,111,111,111,109,107,108,108,108,108,107,108,111,111,107,107,110,111,111,110,108,108,109,110,110,108,109,112,111,110,109,108,109,110,110,110,109,107,107,109,110,111,111,109,108,108,105,107,110,110,108,108,111
110,109,109,108,106,108,109,107,108,110,111,107,104,107,109,109,109,108,108,110,111,111,110,110,109,110,111,111,109,108,108,108,109,109,109,109,109,109,110,110,109,108,108,108,107,108,111,111,110,111,110,108,109,108,108,110,110,108,107,110
109,107,109,109,107,107,108,107,106,105,107,106,105,109,111,110,111,110,108,108,108,110,112,109,108,108,108,108,111,111,109,108,109,110,108,109,110,110,110,109,108,109,109,108,108,109,111,110,107,106,109,111,112,110,106,108,111,110,109,110
108,108,110,112,109,106,109,112,107,107,109,108,109,111,110,109,108,110,111,107,108,111,113,110,109,110,107,107,110,109,109,108,108,108,108,110,111,110,109,108,109,110,110,110,110,108,107,108,109,107,106,110,112,111,109,108,109,112,113,110
