108,109,110,109,108,108,109,110,110,109,110,111,108,106,107,109,109,107,110,109,106,106,108,109,110,113,111,109,106,107,107,107,109,109,108,109,108,110,109,106,108,110,109,108,109,108,107,108,109,110,108,106,107,110,112,109,108,110,108,106
106,110,110,108,110,111,108,108,110,111,108,112,113,108,109,112,107,106,110,107,106,107,109,109,110,111,108,107,108,110,108,107,110,109,107,107,107,111,111,108,107,108,110,110,109,107,108,111,111,109,111,109,107,108,110,109,108,108,108,108
105,111,110,107,110,109,108,109,108,109,108,110,111,105,106,110,110,110,110,107,108,111,111,109,109,110,110,107,108,109,110,111,111,111,109,107,107,109,110,109,108,107,109,109,108,108,109,108,107,108,110,109,108,107,105,109,111,108,109,110
107,111,112,110,110,108,106,106,107,109,110,110,110,106,104,107,111,110,109,110,108,108,110,109,106,108,109,106,108,109,111,111,107,107,109,107,107,108,109,109,108,106,109,111,107,107,111,107,105,109,111,109,108,106,105,109,110,108,109,111
106,107,109,107,108,110,109,105,106,109,109,108,109,110,108,108,111,109,108,111,109,106,110,111,106,106,107,106,107,109,111,110,107,107,108,106,107,110,109,107,108,109,109,110,107,106,110,110,107,108,110,108,106,106,108,110,109,107,109,112
108,108,107,109,112,110,106,106,108,110,110,107,107,109,109,110,111,110,108,111,111,109,111,110,106,106,111,112,108,107,110,111,109,108,108,108,109,109,108,107,108,110,110,108,107,107,109,109,109,108,108,108,107,106,109,112,110,108,109,110
108,111,109,108,111,106,106,110,109,108,108,110,109,108,109,109,109,108,107,110,113,110,109,109,109,109,109,110,110,109,108,108,109,110,110,112,111,107,109,110,109,109,111,110,107,108,108,107,109,110,108,108,108,109,110,111,110,109,110,108
108,110,109,109,111,107,107,112,110,106,106,109,108,108,108,106,107,109,107,110,113,110,107,109,111,110,108,109,111,111,110,109,110,109,109,112,110,109,111,111,109,107,109,108,106,109,109,107,109,109,108,109,109,110,108,107,108,108,109,108
108,108,107,109,112,109,108,111,109,107,108,108,108,109,108,107,110,111,107,109,111,110,109,109,111,108,108,111,109,108,109,110,112,111,106,105,107,110,109,108,108,108,108,107,107,109,110,109,108,108,109,110,110,108,107,108,107,107,111,112
109,109,108,107,109,109,106,106,109,109,110,112,110,111,112,109,109,110,108,109,111,110,108,109,110,108,110,113,108,105,105,108,111,110,109,108,107,109,110,108,107,110,109,107,108,109,110,111,108,107,111,112,113,111,109,111,109,108,113,110
109,111,110,107,109,110,107,106,108,109,109,110,109,110,110,109,109,108,108,109,109,106,106,107,110,108,106,108,110,108,106,107,109,110,108,108,109,109,113,111,106,106,108,108,108,109,111,110,108,109,109,109,110,109,109,108,105,106,111,108
110,113,110,107,108,108,107,108,111,111,110,109,108,108,107,109,109,107,107,107,108,108,108,106,108,108,106,106,110,109,108,109,110,111,107,108,110,109,110,110,107,106,109,110,108,108,111,108,105,109,111,109,108,108,108,108,106,107,111,110
110,110,110,109,107,110,108,107,110,110,108,110,110,108,108,110,108,110,110,107,111,113,110,107,108,107,108,108,106,108,111,109,110,110,106,109,112,108,106,110,109,107,109,110,107,106,109,108,106,109,114,111,108,110,112,108,106,110,111,109
111,109,112,108,107,108,110,109,108,110,108,110,108,106,108,110,111,111,111,108,112,112,109,110,111,107,106,108,108,110,110,107,107,108,108,110,110,107,105,110,111,110,109,110,109,108,108,110,109,110,112,108,106,111,113,106,106,109,110,113
111,107,111,109,110,107,109,110,109,111,109,109,110,107,109,111,112,109,108,109,110,109,112,108,109,109,107,109,110,110,111,110,108,108,109,111,109,107,106,110,112,109,109,109,110,109,109,108,108,109,110,106,107,111,110,106,109,109,106,107
108,105,108,110,109,108,111,110,108,109,109,107,108,109,112,110,110,109,110,108,109,109,110,107,108,109,107,109,111,107,107,111,110,107,112,110,109,108,109,109,110,109,107,107,109,110,110,109,110,111,110,105,108,111,109,106,108,110,109,107
107,104,108,114,111,107,108,112,110,107,106,108,106,110,111,107,108,112,112,107,109,110,110,111,110,104,108,110,109,106,108,108,110,109,110,107,108,112,111,109,108,111,109,107,111,111,109,109,109,108,110,107,110,111,110,110,106,110,106,102
108,108,111,113,109,107,105,111,113,109,106,108,108,109,108,108,111,111,112,107,108,110,112,112,109,105,110,111,108,107,109,109,111,108,106,107,110,110,109,108,107,109,111,110,112,109,105,106,106,106,111,109,109,108,111,110,106,111,106,106
108,107,109,109,108,110,108,110,112,110,110,112,106,107,109,112,112,107,112,110,110,109,109,110,108,108,110,111,106,108,109,108,111,110,107,111,110,110,110,107,109,107,109,108,106,107,107,109,108,107,111,108,108,107,108,109,107,109,108,110
111,108,113,109,106,109,110,108,110,110,109,112,105,108,109,110,109,108,111,111,111,109,108,110,110,106,111,110,107,113,109,109,110,109,107,108,109,113,110,105,107,109,108,106,105,109,111,111,108,106,109,109,110,107,107,109,108,107,108,112
114,110,110,108,106,106,109,107,107,110,110,108,109,110,107,109,109,111,109,109,110,109,110,109,110,107,110,109,110,115,105,110,110,109,107,107,109,112,108,103,105,113,111,107,112,109,109,108,108,106,109,105,107,108,109,110,108,109,111,112
110,106,106,109,109,109,109,106,107,109,111,109,112,109,108,113,110,108,107,109,111,110,108,108,109,111,111,107,107,108,105,108,109,111,113,110,106,111,106,108,109,114,112,107,112,106,107,108,109,109,110,107,108,109,110,110,107,110,111,110
110,106,106,107,108,110,108,108,108,108,109,111,111,106,108,112,109,107,108,110,112,110,106,107,110,109,108,108,107,107,110,112,108,113,112,109,108,108,106,108,109,112,112,109,109,106,110,111,108,109,109,108,109,109,106,111,110,109,108,108
110,110,110,107,107,109,109,109,107,108,107,109,107,105,106,108,108,110,109,107,110,108,106,110,109,106,104,112,111,110,110,112,106,109,108,108,108,110,109,110,110,111,111,108,109,108,109,109,107,108,105,108,111,109,104,110,112,111,108,107
109,110,107,108,110,108,108,109,107,109,106,106,107,109,112,112,109,109,107,105,109,110,110,112,108,105,107,111,109,107,107,109,108,108,108,108,105,109,111,108,109,109,109,107,109,108,106,110,111,109,106,111,109,106,109,110,109,110,109,108
109,107,107,111,111,108,108,109,107,107,106,107,110,112,112,110,110,109,107,109,111,110,112,109,106,108,110,111,109,109,109,107,111,110,108,109,105,108,109,107,107,109,108,108,109,110,110,113,113,110,109,109,103,105,109,107,106,108,108,106
109,107,106,109,109,108,109,109,109,107,110,108,109,110,105,105,111,111,109,110,108,106,110,110,108,109,108,109,108,109,106,107,111,112,110,110,108,109,110,108,108,109,110,110,109,109,110,111,111,110,110,108,105,108,109,104,110,112,109,107
106,109,108,110,108,109,108,107,111,108,108,108,107,109,109,108,109,112,109,106,106,107,111,112,111,110,106,106,108,108,106,108,111,108,106,106,107,109,109,108,108,108,110,110,110,108,107,111,111,108,108,108,109,112,113,110,110,111,111,110
108,109,108,110,109,107,106,106,108,108,108,108,108,111,112,110,109,112,107,105,109,111,110,109,110,109,108,108,110,110,107,112,111,105,106,109,109,108,109,109,108,107,109,110,111,110,108,112,112,107,106,106,108,108,109,110,106,106,108,109
110,111,110,109,108,109,110,110,109,110,110,110,109,109,110,108,109,111,109,107,108,108,108,107,110,110,108,108,108,110,110,109,108,105,106,109,110,109,109,109,106,107,108,110,111,110,108,109,109,107,108,106,108,107,107,111,109,108,109,109
108,109,110,109,111,110,109,111,110,109,107,107,108,109,109,107,108,111,111,109,107,109,109,106,111,113,110,111,110,111,113,109,107,109,109,109,110,107,107,108,109,111,108,110,112,109,109,109,109,106,107,109,110,109,109,110,110,109,109,106
110,108,109,110,109,108,107,110,110,108,107,107,109,111,111,108,108,111,113,111,109,111,111,109,110,111,111,114,113,110,112,110,109,112,109,106,109,111,112,112,112,110,107,109,110,109,109,110,111,109,108,111,110,110,110,111,111,106,106,106
111,108,107,108,107,108,110,110,111,110,110,110,109,110,111,109,107,108,112,113,108,107,110,111,108,108,111,115,115,112,112,111,109,111,108,107,110,111,111,110,109,108,105,107,110,110,109,108,109,110,108,111,111,109,108,108,109,108,110,109
107,107,110,112,111,110,111,110,111,109,106,108,109,110,112,112,110,106,108,111,109,108,111,112,109,110,114,116,115,113,112,113,111,110,110,111,109,108,109,108,109,111,108,109,111,110,109,107,108,109,107,109,111,108,106,108,109,110,111,110
107,108,111,110,108,107,109,110,109,108,106,105,108,111,112,112,110,108,108,111,111,109,111,111,109,113,116,114,115,116,113,109,108,110,111,109,106,108,110,109,108,106,108,110,110,108,108,108,108,109,107,106,108,105,105,111,113,111,109,109
109,107,107,108,108,107,109,108,107,109,110,109,111,113,111,108,108,109,109,111,110,108,109,110,110,113,114,115,117,119,115,109,107,111,112,111,109,109,109,109,107,106,108,110,110,108,109,110,108,108,108,108,107,107,110,110,109,111,110,108
108,109,108,108,109,111,110,110,110,109,109,113,113,111,109,109,109,108,111,113,110,109,111,112,112,113,115,118,117,116,114,112,111,109,109,110,109,108,110,111,111,111,108,107,111,109,107,110,109,108,110,111,109,112,113,108,105,108,109,108
109,109,107,110,111,110,109,111,114,110,109,112,109,106,108,110,109,109,112,112,108,109,112,113,112,112,112,114,114,113,115,116,115,108,107,110,110,108,110,111,111,110,106,107,113,109,104,108,109,108,110,111,110,110,111,110,109,109,109,109
110,109,108,107,106,109,110,108,108,108,109,108,106,107,110,109,108,109,109,110,109,110,111,111,110,112,114,113,113,117,116,115,114,107,109,113,110,109,110,109,108,107,105,107,113,111,107,109,110,111,113,110,108,108,109,112,112,112,109,107
108,111,110,104,104,112,113,107,105,107,109,108,108,111,111,107,108,109,109,111,113,112,111,109,110,110,111,113,115,121,120,115,113,110,111,110,105,106,108,107,109,109,108,109,110,111,110,109,108,110,113,110,105,107,110,113,111,110,111,109
108,111,109,106,103,107,111,113,112,110,109,109,107,110,110,109,110,109,108,109,110,111,110,110,111,110,111,116,118,122,121,115,112,111,111,109,107,107,109,110,109,110,108,108,109,110,109,109,108,107,109,107,107,109,110,112,108,107,109,110
112,112,108,107,106,107,107,111,113,109,107,109,110,109,111,111,110,108,108,107,105,107,109,110,110,113,116,119,120,120,119,117,114,111,111,111,112,110,107,110,108,109,108,106,107,109,109,109,107,108,108,105,111,114,109,107,108,108,109,110
112,111,108,108,111,110,106,107,109,108,109,110,112,110,109,109,111,110,110,110,106,107,109,109,112,113,114,116,116,121,119,118,117,113,114,114,114,111,106,110,110,110,108,107,108,111,111,106,106,111,109,108,112,113,106,105,108,107,108,110
110,110,106,109,109,110,110,109,111,110,111,109,108,109,106,109,112,112,111,111,110,112,113,111,112,111,113,117,117,117,113,115,116,114,112,112,113,111,109,110,111,109,106,108,110,112,110,104,106,110,109,109,110,109,108,107,112,110,109,110
108,110,106,106,107,111,111,109,109,111,110,109,105,107,107,110,111,110,109,109,110,112,114,112,112,114,114,116,119,117,114,116,116,112,112,111,108,109,112,112,109,108,110,111,110,109,107,105,111,110,107,107,110,108,108,108,110,107,108,109
110,111,110,111,109,109,110,108,109,110,109,109,105,107,111,110,108,109,108,107,108,112,113,111,113,115,112,110,118,118,115,116,116,112,114,111,109,108,112,112,109,109,112,113,109,108,109,108,113,109,104,109,111,107,108,110,109,107,107,110
111,109,111,110,110,110,111,110,110,108,109,110,108,111,113,108,108,111,111,108,110,111,114,112,113,116,116,117,124,123,123,121,120,118,117,112,110,111,111,108,108,109,110,112,108,109,109,107,110,107,105,110,111,108,108,112,108,109,106,107
109,107,108,108,107,107,109,108,107,109,111,110,110,113,113,110,109,111,112,112,113,109,112,114,115,117,120,125,128,129,128,131,127,120,116,113,110,115,111,107,110,111,109,109,108,110,109,110,109,110,108,107,110,111,108,109,108,110,108,108
107,110,110,113,110,107,108,109,109,112,113,110,111,113,110,112,109,109,112,112,111,110,111,111,115,114,123,137,140,142,139,142,138,127,117,114,110,113,111,110,113,112,109,108,107,107,107,111,109,111,111,106,109,111,110,108,109,112,109,105
109,109,109,112,111,109,109,109,112,111,109,109,110,111,109,110,111,110,111,109,109,112,115,113,120,120,133,153,157,155,153,162,161,142,119,116,112,111,113,111,109,110,109,108,106,107,107,108,108,112,113,109,107,108,107,108,107,112,112,105
109,106,104,105,109,109,105,108,111,107,107,110,107,109,110,107,111,109,109,109,111,112,115,114,118,119,138,157,158,154,153,158,162,145,120,116,115,111,112,112,110,110,109,108,108,109,111,111,110,112,111,108,104,107,108,108,106,107,110,109
107,107,107,107,111,108,104,111,113,108,109,111,107,107,110,109,110,109,110,109,111,112,113,114,118,121,134,148,150,145,146,141,142,135,116,115,116,115,112,114,114,110,109,109,110,108,110,113,109,108,108,108,108,112,111,107,109,106,107,110
109,109,108,107,109,106,104,111,111,109,109,107,107,108,109,113,111,111,112,107,108,112,110,113,120,119,122,133,135,131,137,132,128,125,118,115,114,113,110,112,113,111,111,112,109,106,109,110,109,107,107,110,111,111,107,110,109,106,108,111
109,111,109,107,107,105,108,111,108,110,110,108,108,109,109,109,109,112,112,106,106,112,110,113,115,115,117,125,129,125,127,127,122,119,113,111,113,111,110,112,112,110,111,113,108,106,111,109,111,108,108,110,109,107,106,107,108,109,110,108
109,112,112,111,110,107,109,112,108,109,111,112,110,108,107,105,108,111,111,108,110,112,112,111,111,115,117,120,121,121,121,118,117,116,113,110,111,114,113,114,110,110,108,111,110,108,110,110,111,108,108,111,110,107,106,106,108,109,111,109
105,108,108,108,109,111,109,108,109,106,108,111,109,106,108,110,109,108,110,110,110,109,110,111,112,114,114,118,120,121,118,115,117,118,114,108,110,113,113,111,109,110,107,111,115,110,109,110,109,107,106,111,111,111,108,108,109,110,112,110
106,107,105,109,110,110,108,105,110,108,107,109,107,108,110,111,110,107,110,110,112,111,108,108,110,114,116,118,118,115,117,118,118,117,112,112,113,109,110,110,111,111,109,109,112,108,108,108,107,108,106,109,112,112,109,108,109,109,111,108
108,107,106,108,109,108,107,107,110,111,108,109,110,111,110,109,110,109,108,109,112,111,105,105,110,112,111,115,119,118,119,120,116,114,111,110,110,108,109,110,110,111,110,106,109,109,107,108,109,109,107,107,108,110,106,105,110,109,110,111
108,107,107,109,110,108,107,110,113,110,108,110,112,113,108,107,109,109,107,108,108,109,108,110,112,111,109,113,119,119,119,119,115,115,115,112,110,111,111,106,109,112,109,108,111,110,108,109,111,108,108,106,105,110,107,106,111,109,109,111
107,108,109,110,109,106,107,111,111,109,107,107,108,111,109,108,109,109,110,111,111,110,111,111,108,110,112,114,118,120,119,117,116,117,114,113,113,111,110,106,110,112,107,107,111,110,108,110,111,110,109,110,108,111,109,108,110,108,108,109
107,106,109,110,109,107,109,110,108,109,107,104,107,111,111,110,110,109,109,111,111,108,108,109,108,110,112,113,116,116,116,116,115,114,112,113,113,110,108,108,109,108,108,109,111,111,109,109,111,111,110,109,110,111,109,110,108,105,111,112
110,108,107,109,111,110,108,107,108,112,110,107,111,113,113,110,109,110,109,108,110,107,108,111,109,111,111,110,113,113,114,119,120,117,113,113,113,110,109,108,108,109,111,111,109,108,108,108,109,109,109,107,111,112,109,110,109,106,109,108
107,105,108,112,110,109,108,106,108,110,109,110,112,112,110,108,108,110,110,110,110,109,111,113,112,111,111,111,115,118,119,118,117,115,110,109,111,111,111,111,109,109,110,109,105,105,111,111,107,107,108,108,111,111,108,109,109,108,108,109
108,108,109,110,107,108,109,108,109,107,106,109,112,110,107,107,109,108,109,109,108,111,112,109,108,110,113,114,114,118,118,115,116,116,112,109,110,111,110,110,109,108,107,109,109,109,112,111,105,107,111,111,110,108,108,108,108,110,110,110
109,108,108,110,111,109,108,109,112,112,109,107,108,109,108,108,108,108,110,108,107,111,112,109,108,109,110,111,112,113,114,116,117,117,114,111,112,112,110,109,110,109,107,110,113,109,107,105,103,108,111,109,107,106,108,108,109,112,109,108
112,110,108,109,110,109,110,111,112,112,109,108,109,109,110,109,107,109,109,107,105,108,110,109,109,109,110,112,115,116,118,119,115,115,114,111,114,112,111,113,112,109,106,109,111,108,109,106,104,108,109,107,106,107,108,106,108,112,110,108
113,110,106,108,109,110,111,110,109,109,108,109,110,109,110,109,109,108,105,105,107,106,108,110,109,111,111,110,113,115,115,118,116,116,114,111,111,110,111,112,111,109,107,109,112,110,111,109,107,109,110,109,110,111,108,107,109,112,112,109
112,110,108,109,108,107,111,109,107,107,107,108,108,109,111,110,111,109,105,107,110,108,108,112,112,111,110,107,112,115,117,121,116,114,114,112,112,113,111,107,109,111,111,113,112,109,109,110,108,108,110,111,109,107,108,109,109,111,112,108
112,113,112,110,109,109,110,108,109,108,107,108,110,112,111,108,110,111,108,110,111,109,110,114,111,108,108,107,111,115,115,117,118,116,111,111,111,112,111,106,107,111,112,112,108,105,109,111,108,107,108,110,110,111,113,112,112,113,113,111
109,115,113,108,109,110,107,106,110,109,109,109,108,110,110,107,107,109,109,112,109,107,110,111,108,108,111,107,107,112,112,113,115,115,111,111,110,110,112,108,107,110,110,108,105,105,107,109,109,107,108,111,112,111,110,109,112,109,110,109
110,113,110,106,108,108,108,109,110,112,111,110,104,108,112,109,108,106,108,110,107,107,109,108,107,108,112,111,110,112,111,109,112,113,111,111,109,110,113,110,108,109,108,109,107,106,106,107,109,107,108,111,110,108,107,109,111,107,108,110
109,110,112,108,108,108,108,111,111,110,110,110,104,109,112,109,110,107,107,109,108,108,108,109,110,108,109,111,110,108,106,107,110,109,110,109,110,111,112,109,110,108,108,111,108,107,109,107,109,108,109,109,107,106,109,107,108,107,107,109
109,109,113,111,105,106,110,112,108,106,108,110,107,110,111,110,110,109,109,111,111,110,109,110,109,106,108,112,110,109,110,110,107,109,111,109,109,109,111,110,110,110,107,109,105,108,109,106,109,108,109,110,110,108,107,104,108,111,109,109
112,110,110,112,109,107,108,108,109,107,108,111,107,111,112,110,108,108,111,111,110,110,111,109,107,108,110,111,110,112,111,105,106,108,109,107,109,108,109,112,111,111,110,112,108,109,109,109,111,107,107,110,110,108,109,108,108,111,111,107
110,108,110,111,109,107,107,108,108,106,107,110,107,111,110,108,107,107,112,108,106,110,111,108,108,106,106,110,109,110,109,110,110,110,107,109,112,110,108,111,110,111,111,113,111,109,109,111,109,104,106,111,109,108,109,108,109,109,110,109
107,106,108,109,106,107,109,110,109,107,108,108,109,110,108,107,108,108,110,108,106,110,110,106,110,110,107,109,107,108,104,105,111,111,109,112,111,106,109,109,109,109,107,107,108,107,108,110,108,106,108,111,109,111,111,107,109,108,109,108
107,107,110,109,110,111,109,109,110,108,110,109,110,110,109,107,109,109,110,108,106,108,109,108,112,111,109,110,109,109,108,107,112,109,107,109,107,106,111,106,110,111,108,105,108,110,109,110,110,109,110,110,109,109,111,108,108,108,108,111
110,107,112,110,111,111,109,109,110,107,109,108,108,110,109,106,107,109,110,110,106,106,107,108,109,107,107,111,112,109,109,112,111,108,107,108,109,111,111,109,112,109,109,107,108,110,108,106,107,109,110,110,107,108,110,107,107,111,108,111
108,108,111,110,109,110,108,108,111,108,108,108,107,108,107,106,106,110,110,112,108,107,110,108,110,111,110,109,111,110,108,107,108,109,107,107,109,109,108,110,111,107,109,110,110,107,107,106,108,110,109,108,109,109,111,106,109,111,107,110
105,108,111,110,109,111,107,107,110,108,109,110,109,109,109,108,106,111,111,112,110,110,110,108,112,112,110,109,110,110,110,107,108,111,110,109,106,110,107,107,108,107,107,110,112,107,108,110,112,111,110,110,110,111,110,107,109,108,107,108
107,109,110,107,107,111,108,106,106,108,109,109,108,109,109,110,108,108,109,107,108,110,109,107,108,108,108,110,109,106,109,107,107,112,112,107,105,109,108,107,109,109,106,105,108,109,108,108,109,111,111,109,108,109,108,108,107,106,113,108
108,108,108,111,109,110,108,106,108,110,110,107,108,108,107,111,110,106,108,107,109,110,112,107,106,108,109,110,111,107,108,109,107,108,109,106,108,109,107,110,111,109,106,107,106,108,108,106,108,109,109,107,106,109,113,112,111,107,110,108
110,111,113,114,110,109,108,110,110,111,112,109,110,109,108,111,106,106,110,111,111,111,113,109,105,107,109,109,110,109,108,112,111,110,110,108,109,107,108,110,108,108,107,111,109,108,109,109,110,106,107,110,109,111,112,111,110,110,108,107
110,111,112,113,108,108,108,109,109,111,110,108,107,108,111,109,105,108,110,112,109,109,110,109,107,108,111,108,110,111,107,109,109,109,109,110,107,106,110,109,107,109,108,109,109,109,110,110,108,106,106,108,108,111,109,109,108,110,108,111
110,110,109,108,107,109,108,108,110,111,108,108,106,108,112,109,106,108,109,110,108,108,112,113,110,107,110,109,108,109,108,108,109,110,109,109,107,109,111,109,107,110,109,109,109,106,106,109,106,107,108,107,110,109,106,107,108,110,108,111
112,111,110,111,110,110,107,107,112,109,109,112,108,108,112,108,107,110,110,108,106,107,110,110,108,107,110,110,107,108,111,109,108,110,110,111,109,109,109,109,106,109,110,110,108,105,105,107,107,110,109,107,110,108,106,107,107,109,110,109
106,109,113,114,112,110,109,108,110,110,110,112,109,108,110,107,108,111,112,108,106,108,108,109,109,108,110,112,108,109,109,107,108,109,110,108,106,108,108,108,107,110,110,108,109,109,108,107,108,110,109,105,110,111,108,106,107,108,109,109
106,109,110,109,108,108,107,108,108,109,108,109,110,109,110,108,109,110,109,107,107,110,108,109,108,108,111,110,108,108,108,107,109,108,109,108,106,110,113,110,109,110,108,107,111,111,108,107,109,108,107,106,106,107,108,107,108,109,108,107
109,109,108,107,107,108,108,106,106,109,109,109,109,111,110,108,110,108,108,108,108,111,111,109,107,110,111,109,108,111,112,110,107,105,110,112,110,110,109,108,109,108,107,109,110,109,108,109,111,110,110,110,108,108,109,110,109,107,111,111
107,106,110,109,108,111,110,106,108,110,109,106,106,111,111,107,108,109,110,110,109,109,109,108,107,111,113,109,110,110,109,110,107,108,113,111,108,109,106,107,111,108,107,110,110,108,107,109,111,110,111,109,108,108,108,109,109,108,111,112
105,107,113,112,109,111,111,110,110,109,108,106,106,111,113,109,105,107,110,112,108,106,107,108,109,111,110,107,110,110,106,108,110,111,112,110,109,110,108,109,112,110,108,110,108,107,108,108,107,107,109,108,106,107,110,111,110,110,112,110
108,108,110,110,109,109,110,108,108,109,110,110,110,110,111,110,106,106,109,111,111,110,110,108,108,112,112,110,109,108,110,108,105,106,108,110,110,110,109,109,111,110,108,109,108,108,109,108,106,106,111,109,105,109,112,109,107,110,112,109
109,104,106,110,109,108,110,107,107,109,109,110,110,109,108,109,109,109,108,109,112,110,108,107,106,110,112,110,109,106,110,111,107,108,111,111,109,110,109,107,109,109,110,111,109,109,111,111,109,108,111,109,107,110,111,111,110,109,109,107
109,104,107,111,110,109,108,109,112,109,106,107,109,110,109,111,112,110,109,110,108,106,107,108,108,110,112,110,109,108,108,108,108,111,113,109,105,108,109,107,108,108,110,111,107,106,111,111,108,110,111,109,109,108,109,113,112,110,111,110
107,105,109,109,107,108,108,109,111,109,107,107,107,109,109,109,108,107,110,111,109,110,109,106,110,111,109,109,109,108,106,107,109,111,112,108,106,109,108,109,109,107,108,108,106,109,109,107,107,109,110,110,108,107,111,112,107,106,110,107
110,112,111,108,107,107,108,110,109,107,110,109,108,109,109,108,107,106,108,109,110,109,107,106,109,111,106,107,108,107,107,109,111,111,109,107,108,110,109,110,109,109,110,108,108,112,111,108,110,109,110,111,108,108,109,111,108,105,110,109
109,108,109,108,107,106,109,113,112,109,110,110,109,110,109,110,107,108,110,108,109,110,110,108,111,112,107,107,108,108,109,111,110,108,108,108,110,109,109,110,108,110,110,108,107,110,110,109,111,108,109,109,110,109,106,107,107,108,111,109
108,107,108,112,109,105,109,110,109,107,108,109,108,108,109,109,106,110,113,107,108,109,108,108,111,112,111,108,109,112,111,111,109,108,112,112,110,108,108,109,108,109,108,109,108,109,109,110,111,107,107,108,109,107,106,106,104,109,110,106
106,106,105,110,108,106,109,108,107,107,108,110,111,107,108,109,107,109,111,107,107,107,109,110,109,109,111,110,109,107,104,110,111,107,108,109,107,107,109,108,109,109,108,110,110,106,109,112,110,108,108,109,111,107,106,108,109,111,112,110
108,107,107,111,108,106,110,109,109,109,109,110,111,107,108,111,107,110,110,107,107,109,110,110,109,110,111,110,107,106,105,112,111,104,103,105,109,112,110,107,109,109,108,108,107,104,109,112,108,108,110,109,110,109,107,108,111,110,109,109
