28,49,70
106,106,115,110,108,111,107,105,108,110,111,108,108,111,108,112,112,109,111,110,113,109,108,114,109,108,112,107,105,111,108,112,111,114,111,107,110,113,109,108,108,112,111,111,113,110,114,113,106,109,111,109,110,111,111,110,111,111,106,109
111,111,113,110,112,110,113,112,107,105,108,110,109,113,110,108,107,111,112,112,111,110,112,111,112,112,107,112,114,113,112,109,108,110,113,108,110,110,109,109,109,110,113,110,105,109,108,107,110,112,107,112,113,110,112,107,108,110,110,111
110,108,107,111,114,111,107,106,108,110,108,108,113,111,113,111,104,109,111,112,109,112,111,112,115,114,110,112,108,111,113,111,109,107,112,111,108,108,110,110,111,111,113,112,109,104,110,109,108,109,116,113,108,108,109,111,109,115,108,108
108,109,107,109,107,108,102,114,109,110,114,109,112,110,109,109,110,111,109,110,109,110,109,109,113,112,113,109,109,118,112,109,114,115,114,114,110,108,114,113,111,110,111,112,112,110,116,106,112,108,109,112,112,109,106,110,108,112,111,110
108,114,109,111,108,105,110,111,111,112,109,107,109,112,111,106,108,112,107,111,112,107,110,112,113,112,113,110,113,112,112,113,112,108,111,111,111,115,111,110,107,106,109,107,107,116,115,112,111,114,110,107,110,112,110,107,106,109,109,109
111,108,111,111,111,107,110,108,109,111,111,113,112,111,111,113,112,113,109,112,105,106,108,113,114,116,114,110,113,113,116,113,115,116,111,109,110,114,110,112,110,110,109,108,109,108,109,115,109,108,110,112,108,111,111,109,111,109,108,104
110,106,108,105,109,110,112,114,111,109,110,109,109,110,112,113,109,112,110,109,112,115,108,113,111,112,114,119,117,118,116,115,113,112,108,110,111,115,115,110,111,116,115,110,114,109,112,112,110,107,111,104,106,109,111,106,110,109,110,110
110,109,110,113,112,110,112,114,112,114,109,115,109,111,110,105,114,105,114,114,111,112,111,112,112,117,117,120,115,117,116,116,118,116,109,111,111,109,108,110,110,111,110,112,112,107,109,108,108,106,108,110,113,110,107,114,108,110,108,110
108,106,114,112,110,104,106,109,110,111,111,107,111,115,109,107,112,109,110,110,115,114,118,117,115,115,119,122,118,122,125,122,117,114,114,113,115,112,108,110,107,109,110,107,107,110,107,113,112,108,109,113,106,109,106,111,110,111,112,110
108,106,108,108,108,105,107,107,111,106,108,110,111,114,112,111,111,113,111,112,110,112,115,113,117,118,118,120,119,126,117,122,126,120,118,117,116,116,112,116,114,111,113,111,109,109,110,109,111,113,112,113,113,109,108,111,109,109,113,108
110,111,111,112,109,111,109,109,108,108,108,111,114,110,105,111,114,109,111,114,107,114,108,113,122,121,122,122,124,118,118,122,120,120,116,115,113,111,110,113,111,112,107,107,109,108,109,111,110,111,111,108,108,109,109,109,109,116,111,109
112,111,114,112,113,112,109,111,110,111,111,108,109,109,108,110,109,110,114,115,112,111,113,115,119,117,120,121,125,117,117,121,121,116,115,122,115,111,109,110,109,110,110,111,114,112,111,111,108,109,112,113,107,109,114,110,110,114,105,110
109,111,108,111,109,109,110,104,112,110,112,111,106,107,109,109,108,113,113,114,114,119,122,119,119,119,120,121,124,125,121,122,122,125,127,117,111,111,118,116,113,112,113,109,111,108,110,113,110,110,109,114,112,112,110,109,108,106,109,112
107,107,108,114,106,109,108,105,115,113,109,110,112,112,110,108,112,114,115,114,113,115,118,118,125,123,119,122,127,125,125,130,118,120,119,116,118,110,110,112,112,112,115,107,110,111,108,108,110,112,110,109,108,111,108,111,109,109,114,108
112,107,110,108,108,113,109,109,110,109,110,109,106,112,112,114,113,106,111,111,114,115,117,117,122,119,124,125,127,120,125,124,123,119,121,115,115,115,112,109,112,111,109,115,116,113,110,110,112,112,112,110,115,113,113,113,108,112,111,106
109,109,113,111,109,113,110,108,108,109,113,109,107,107,104,111,120,110,113,112,115,118,120,126,119,128,129,124,123,126,121,119,120,117,118,113,116,117,112,111,113,115,113,110,108,109,109,113,112,110,110,111,105,109,114,113,113,111,105,112
111,110,109,110,108,108,108,109,107,110,111,107,116,112,114,110,114,111,113,114,117,117,118,120,119,124,122,123,119,120,119,127,124,121,121,120,116,114,110,108,114,115,111,114,116,104,105,112,114,115,108,112,110,109,111,108,105,107,111,108
108,110,110,111,112,108,106,105,111,112,110,115,114,112,112,109,114,114,109,113,115,116,122,119,121,123,122,121,124,122,123,124,124,123,117,110,113,113,112,109,113,107,110,111,109,108,111,112,107,109,110,109,109,111,109,110,109,107,111,109
112,110,110,112,110,109,112,112,108,112,110,107,113,111,107,113,112,111,112,114,114,121,120,117,118,119,121,116,118,120,126,119,124,122,121,114,110,116,111,112,110,109,110,112,114,108,116,111,106,106,110,109,113,115,111,109,108,111,115,115
113,111,107,110,109,111,111,110,112,116,111,112,110,104,111,112,113,111,115,116,119,119,120,122,119,118,118,118,118,121,120,127,125,125,121,117,116,115,114,107,106,115,113,113,112,111,110,106,113,111,111,109,111,109,111,105,109,110,108,113
111,111,108,109,109,112,108,110,111,109,113,114,113,110,108,111,113,111,114,112,121,121,113,121,124,126,121,118,121,122,122,125,124,117,117,118,119,113,112,114,114,109,111,112,108,111,108,108,109,112,110,114,110,109,111,111,108,107,106,107
110,109,109,110,114,106,108,113,114,109,115,109,108,112,103,112,111,115,114,111,117,122,125,121,120,120,119,125,123,124,120,124,124,117,117,117,116,109,115,114,114,111,109,110,112,114,113,110,115,115,109,111,110,111,111,111,110,110,105,107
111,109,110,111,112,114,110,109,109,106,114,112,107,105,106,110,111,110,112,115,117,117,124,124,122,118,123,124,123,123,121,128,123,124,122,116,115,115,113,108,108,113,115,110,110,109,110,111,114,111,107,108,108,106,113,110,112,109,106,110
109,111,112,113,110,110,109,111,108,108,110,108,110,112,110,111,109,111,114,119,118,118,122,123,127,123,126,122,124,121,123,123,123,120,113,116,115,116,112,108,107,111,112,109,114,113,109,107,107,108,110,109,109,112,112,109,110,110,113,111
104,110,114,111,114,112,111,112,109,108,108,111,113,108,107,114,110,111,111,119,118,119,121,119,124,116,123,124,122,124,125,126,123,118,116,117,115,108,108,112,112,113,110,113,112,109,110,109,114,111,116,109,111,112,107,110,109,110,113,114
110,110,109,109,113,109,108,111,108,110,112,116,108,109,111,116,113,114,115,116,116,120,122,117,121,117,123,123,122,124,124,121,120,117,120,117,114,109,111,113,114,112,108,113,113,110,109,111,109,111,112,110,109,110,114,110,106,102,107,109
112,110,108,109,111,111,106,112,113,111,108,115,115,107,111,114,110,115,117,116,119,122,121,124,121,124,122,119,122,127,123,125,120,118,115,112,115,114,112,108,106,110,110,111,108,111,110,109,109,110,109,107,108,112,108,113,110,109,108,107
111,115,112,113,112,109,113,111,111,111,108,111,111,109,114,109,110,113,110,114,120,118,121,119,118,122,121,114,121,127,119,127,122,122,116,114,117,115,111,113,112,108,113,114,110,111,113,111,112,110,108,112,111,108,112,115,112,111,108,110
111,109,110,114,109,104,107,108,105,105,111,111,106,114,113,114,112,116,119,119,122,115,124,121,122,120,122,122,122,122,122,126,124,118,118,113,109,110,112,111,112,111,113,111,111,109,110,110,114,114,104,109,110,107,104,107,107,111,114,110
109,104,109,109,109,107,107,113,110,112,108,104,108,115,110,116,115,109,116,117,117,121,121,123,122,118,122,124,121,123,124,128,127,117,113,115,119,112,116,115,111,115,109,107,114,111,113,110,107,111,113,108,112,111,107,105,110,114,108,106
111,116,113,106,111,113,109,113,114,109,114,113,113,107,113,113,114,114,114,113,118,119,119,120,120,119,124,118,119,124,125,125,123,119,118,119,118,114,116,113,110,110,109,114,113,107,110,113,111,111,112,107,108,106,107,110,111,105,107,110
111,108,111,108,107,109,111,109,111,113,108,113,114,112,109,108,110,114,114,116,119,119,121,121,123,123,127,125,124,122,126,122,120,116,116,119,111,109,111,108,113,111,110,113,110,108,111,111,108,110,108,111,107,107,109,113,111,107,112,113
112,108,111,111,110,113,113,110,109,109,110,112,110,108,115,117,112,114,120,119,121,121,118,122,118,119,122,127,122,120,124,127,129,121,118,120,112,110,110,110,111,108,110,109,111,116,113,109,108,112,111,112,110,113,109,112,111,112,113,103
107,111,115,110,111,109,109,106,109,114,116,109,108,110,116,107,119,115,119,120,125,123,123,125,124,121,121,124,126,124,126,127,120,114,117,114,108,111,110,113,112,112,110,107,111,107,111,109,106,109,113,109,108,107,108,114,110,114,109,110
109,112,110,107,112,108,104,109,110,109,110,109,108,110,106,111,116,119,118,121,122,118,120,117,118,123,124,124,125,124,126,123,122,117,114,113,114,111,109,115,111,109,113,110,107,113,112,105,114,109,115,116,111,108,110,115,108,109,109,110
111,108,110,108,111,111,107,109,110,108,113,110,110,112,113,113,109,115,117,121,122,124,123,123,120,122,123,120,121,125,125,124,121,116,119,115,115,113,113,113,114,110,109,113,110,111,108,107,110,108,114,112,111,109,106,110,112,107,107,112
112,111,104,107,112,110,114,112,112,113,111,110,111,110,112,109,109,117,120,119,124,126,124,120,123,123,124,127,124,127,122,123,127,120,117,113,114,112,108,112,113,111,111,110,112,110,108,111,106,107,112,107,112,110,107,110,110,111,108,106
113,113,107,110,111,109,110,109,111,112,110,113,114,109,106,114,118,116,121,120,127,125,124,121,123,117,119,119,123,124,124,122,126,115,115,117,114,113,113,111,110,113,115,113,109,109,109,113,111,112,114,108,111,106,117,111,111,109,109,112
109,106,110,110,109,111,107,110,109,105,109,109,110,111,111,112,115,117,114,124,126,122,124,127,121,124,122,125,125,128,124,121,124,122,122,120,113,112,110,112,111,109,114,112,111,113,114,113,113,111,111,112,115,110,105,114,115,115,110,114
113,107,108,112,109,110,110,107,107,113,115,112,113,111,112,111,110,115,115,122,124,119,123,120,122,126,122,125,128,132,124,123,122,117,117,117,113,109,109,115,115,108,110,107,112,111,110,109,112,112,112,114,106,112,107,110,108,115,110,108
106,114,110,109,115,109,105,116,110,110,111,108,116,113,109,113,116,119,120,121,120,122,130,127,121,121,119,123,129,128,129,124,116,122,121,113,116,112,113,112,110,114,108,112,114,109,109,110,111,109,112,111,108,107,108,111,113,108,108,111
106,111,111,110,111,110,109,110,108,112,111,106,108,112,114,110,114,123,119,118,127,122,122,123,115,123,128,126,125,126,130,122,123,123,117,112,113,111,115,114,106,110,109,107,109,109,110,109,111,108,107,108,112,112,108,110,114,111,112,110
108,111,112,107,109,110,106,110,110,110,108,112,107,109,112,114,112,111,121,117,121,127,120,117,123,120,125,124,122,125,124,120,124,117,116,116,113,111,115,111,111,115,111,111,109,110,110,110,111,110,111,109,105,111,112,113,105,112,112,108
110,107,108,109,107,110,105,112,110,111,114,111,108,112,112,109,115,111,116,116,122,125,120,122,123,122,126,122,121,128,126,125,126,121,118,117,120,112,113,110,114,110,111,106,112,112,110,110,111,114,114,112,114,109,113,110,109,110,112,111
109,112,107,111,106,106,113,109,103,103,109,110,109,110,110,112,114,117,118,118,119,118,121,120,114,118,127,126,126,124,125,127,126,127,120,114,119,116,114,111,112,109,107,110,108,112,113,109,112,109,107,111,111,110,114,109,109,113,113,111
110,108,111,110,108,111,107,108,113,108,109,112,113,109,107,112,113,113,114,119,122,121,123,124,120,129,125,117,128,125,129,130,125,127,119,115,111,114,110,110,110,110,112,109,111,112,111,112,112,107,109,111,110,109,110,113,116,110,113,109
113,114,114,109,109,114,112,110,107,107,109,112,107,114,113,109,109,114,114,116,117,122,117,117,125,119,122,116,118,130,127,127,121,119,120,118,111,110,114,109,108,115,117,106,112,108,110,112,111,110,110,110,113,108,109,111,111,105,111,112
108,110,107,111,112,110,110,110,114,109,111,112,114,112,112,115,109,110,114,123,121,125,117,118,124,120,121,121,122,127,126,127,126,121,120,120,113,115,113,110,111,111,114,108,110,107,111,116,110,103,110,117,105,112,110,107,111,110,109,112
106,109,108,110,111,110,109,112,110,108,111,111,112,109,110,110,110,116,117,117,118,116,115,121,119,124,125,121,125,124,127,128,127,126,122,118,111,111,112,115,114,112,106,113,109,113,115,104,113,110,110,109,107,111,111,113,111,110,108,111
110,112,108,111,108,107,111,108,106,110,110,109,108,110,112,112,114,111,116,116,120,120,124,125,125,123,129,128,122,126,137,127,131,124,123,116,112,112,112,115,110,115,111,111,112,109,106,108,109,114,116,112,113,115,112,110,110,111,106,107
112,114,106,103,107,106,114,114,108,109,110,112,113,110,110,109,111,111,113,114,116,127,119,121,122,130,124,130,129,135,130,132,131,124,117,116,117,113,112,112,110,112,113,113,112,111,111,109,107,111,108,107,113,113,106,104,111,110,108,108
108,108,107,110,110,111,111,105,113,112,112,111,109,113,110,112,110,113,114,116,118,113,120,126,126,118,124,124,127,129,125,137,134,127,124,124,120,114,110,110,111,113,114,112,109,113,111,111,110,109,107,112,107,112,111,108,111,109,106,104
108,106,111,109,108,108,110,109,114,112,108,109,108,111,109,114,111,115,113,111,119,119,127,124,123,125,125,123,126,133,132,128,132,128,129,123,116,114,110,113,115,114,112,108,110,110,106,110,111,110,110,106,108,108,111,109,111,115,107,111
113,108,108,104,110,110,110,109,108,109,110,104,108,109,112,115,113,115,115,116,117,117,125,127,120,119,124,125,125,127,128,130,131,127,126,119,119,109,114,112,111,111,115,111,108,109,110,109,113,110,109,112,115,113,111,106,112,111,103,111
108,109,107,116,113,110,111,115,109,109,113,112,110,111,114,109,109,112,111,116,117,116,121,125,123,129,121,125,122,122,130,134,127,126,117,115,118,111,110,109,112,108,110,112,111,112,115,114,110,111,112,112,110,107,111,110,110,108,110,111
114,109,107,106,108,110,109,111,111,109,111,112,112,114,108,109,111,107,109,114,121,119,123,118,123,122,121,127,129,126,126,127,126,128,123,119,115,114,112,112,112,109,113,112,111,113,111,106,106,107,111,108,111,109,113,107,109,103,109,114
111,108,107,108,112,113,112,113,107,108,112,111,113,111,112,114,112,106,112,119,119,120,116,118,120,114,119,126,126,128,132,128,125,124,124,119,118,116,114,110,111,112,111,111,111,112,110,110,116,110,111,110,112,111,110,107,111,113,111,107
109,112,110,111,110,109,110,109,111,115,113,111,109,111,114,113,109,112,115,116,110,115,120,123,123,125,128,127,122,124,119,120,125,121,115,116,113,115,113,111,110,111,108,110,112,113,106,108,104,112,110,110,107,107,107,109,115,104,107,111
108,111,108,114,114,110,109,106,108,110,113,112,112,111,110,110,111,114,115,113,108,119,118,121,122,126,125,120,123,127,123,126,124,125,120,112,113,113,110,117,113,109,109,110,112,111,105,110,116,113,108,107,107,109,113,111,106,110,116,112
108,111,111,109,106,110,111,108,106,107,111,110,113,109,111,110,112,112,110,117,115,121,120,122,122,119,117,119,119,124,120,125,129,123,122,125,123,113,111,109,114,114,112,111,110,108,108,114,111,107,109,109,109,112,113,114,107,113,113,108
112,113,111,113,113,110,107,109,110,113,111,109,109,116,110,113,115,108,115,115,119,115,125,119,121,120,121,126,123,121,124,126,123,122,123,123,117,114,113,111,111,109,113,109,112,112,111,111,106,111,111,113,113,105,106,111,108,107,112,106
105,114,108,110,109,109,107,112,112,109,109,112,111,111,112,114,112,114,117,115,115,115,120,122,122,121,121,119,119,120,124,123,123,125,120,113,112,115,115,117,106,109,111,112,113,115,111,112,109,109,111,109,106,113,110,112,109,105,109,109
109,112,109,110,112,106,108,109,111,109,111,110,112,112,109,111,111,108,112,115,110,115,122,126,126,120,121,125,116,125,126,118,123,120,117,115,121,117,115,112,108,114,110,109,111,115,113,111,113,110,111,108,108,108,109,111,109,112,112,112
109,109,105,108,111,107,110,109,107,108,108,107,110,110,107,107,110,111,112,116,115,115,121,123,120,118,122,117,121,124,126,123,130,122,124,123,116,118,111,108,113,113,112,112,106,106,107,109,107,110,113,107,102,104,112,110,110,109,107,114
112,107,109,112,110,111,111,109,108,111,111,112,108,103,113,113,110,115,114,110,119,121,114,126,121,120,118,117,125,126,120,121,123,125,123,117,113,113,113,111,112,107,106,108,108,110,111,112,108,111,110,110,112,105,103,109,111,112,109,110
105,102,113,108,109,112,109,115,113,110,107,111,111,111,107,109,112,114,111,112,113,117,119,118,121,126,121,121,124,122,123,124,119,122,121,120,118,115,119,115,116,112,112,112,113,108,117,111,112,108,112,110,114,111,112,111,106,106,110,108
110,109,111,112,112,110,112,107,103,112,109,111,110,112,114,109,114,116,110,111,112,111,120,123,121,120,122,123,119,121,121,118,121,125,119,124,115,118,115,113,112,113,112,110,114,112,109,106,109,110,111,108,107,111,110,112,109,111,114,113
110,113,111,113,108,113,114,107,108,114,110,116,113,108,109,113,114,113,115,114,117,113,117,121,122,119,118,123,122,126,126,121,125,122,120,120,118,113,112,115,108,113,107,110,109,109,111,112,113,109,108,111,112,111,109,113,111,113,111,110
110,110,112,113,108,110,112,114,108,107,111,113,111,109,111,114,107,112,112,113,116,113,125,118,119,119,124,120,126,124,117,122,127,117,120,116,110,111,114,114,116,111,109,112,107,106,109,107,111,114,109,109,108,109,109,111,110,109,108,106
111,110,106,112,112,109,108,109,111,111,114,107,106,113,115,114,115,112,111,116,111,118,123,118,123,119,121,124,125,123,119,123,123,124,122,120,121,115,113,112,111,114,117,111,108,111,111,108,112,110,111,111,108,107,113,110,107,111,111,110
112,111,108,111,108,113,111,107,111,106,108,108,107,114,112,106,113,114,115,112,116,118,119,126,125,122,117,119,126,126,125,123,125,123,123,120,125,119,113,116,115,117,112,109,113,110,107,112,113,109,113,110,110,107,113,107,109,107,106,109
111,106,107,107,110,107,103,109,109,111,112,110,112,113,112,110,108,108,116,120,114,115,122,118,123,126,120,118,125,123,126,121,122,122,124,116,116,120,110,115,115,111,111,111,112,113,106,109,113,111,109,111,113,115,108,109,113,109,111,110
110,112,111,108,107,110,110,113,109,112,112,107,111,110,110,109,113,110,112,115,114,117,126,122,118,127,122,127,125,118,122,127,128,127,122,122,117,115,110,112,115,112,112,111,111,109,112,114,114,110,109,110,112,110,112,113,109,110,111,113
108,107,112,113,111,110,106,114,111,111,107,110,108,111,113,109,112,112,110,110,120,121,120,121,124,127,123,122,120,119,125,126,121,121,122,119,115,113,115,118,113,113,117,110,111,112,113,106,110,112,110,115,111,106,108,106,117,110,109,112
110,113,106,106,108,111,111,108,107,116,111,115,110,111,108,113,111,107,117,117,114,120,120,122,119,118,127,125,120,123,128,126,119,121,125,119,120,114,115,113,111,115,113,112,109,110,109,112,108,106,110,109,109,113,111,114,111,110,109,108
104,109,112,109,107,111,113,111,109,109,107,109,113,112,110,113,111,107,114,116,114,118,119,121,123,127,124,119,122,121,121,122,126,126,118,120,119,121,113,112,111,112,112,116,106,111,113,112,112,110,114,112,109,110,106,113,109,111,110,110
110,109,110,109,112,113,107,107,113,112,111,109,111,113,109,112,115,114,111,115,119,116,113,128,120,127,124,127,126,124,119,119,125,129,123,121,113,111,111,115,114,113,110,112,110,112,113,111,111,112,110,109,109,109,109,112,109,110,108,112
107,108,110,112,111,110,110,107,111,108,111,113,109,110,108,111,108,112,116,114,119,120,118,119,119,120,118,117,120,122,126,127,128,123,124,119,115,122,120,115,110,111,112,113,109,109,107,114,111,109,109,112,113,107,111,113,111,109,113,111
110,110,107,110,110,110,109,107,108,110,105,106,111,108,112,109,109,107,109,113,113,118,121,117,119,123,120,118,122,122,124,127,124,123,123,122,119,118,116,116,112,112,114,120,113,112,110,111,112,108,107,111,113,107,116,109,113,110,111,108
112,111,110,107,111,110,110,108,107,109,105,107,111,109,113,111,115,116,112,111,114,116,117,120,120,125,122,122,122,124,122,125,128,123,123,126,125,116,114,114,115,108,113,106,117,110,108,114,112,107,111,114,108,111,108,107,108,107,109,111
112,113,109,113,113,113,107,106,110,111,109,107,108,112,111,111,111,113,116,118,120,116,121,122,119,124,120,123,126,128,123,131,132,127,129,121,118,119,114,114,109,114,114,110,111,109,109,111,108,110,107,106,112,112,108,112,112,111,111,114
110,111,107,110,111,109,108,115,114,111,113,113,111,112,110,113,112,109,109,116,113,114,123,117,119,120,118,122,121,131,125,125,127,127,122,119,114,120,114,112,109,110,109,107,109,110,109,110,111,109,109,110,111,111,110,108,107,112,113,106
112,111,110,111,110,113,107,107,105,109,111,110,116,108,105,110,108,107,110,113,116,115,117,116,117,123,119,121,124,124,126,131,125,124,129,120,114,114,116,115,112,113,113,112,114,108,109,111,111,110,111,111,113,108,108,109,109,110,107,111
111,105,111,109,107,117,110,112,107,108,108,107,110,108,112,114,113,110,114,111,113,112,116,121,123,119,118,121,122,123,128,130,127,126,118,118,115,113,112,115,113,116,113,113,110,111,108,116,106,112,110,114,109,110,110,111,110,109,105,109
107,111,112,113,111,113,110,107,111,114,108,112,108,109,110,110,109,112,116,115,107,109,113,115,123,117,120,123,123,121,132,125,122,127,121,118,119,117,109,116,111,113,111,111,109,110,108,113,112,113,111,112,112,112,109,112,114,111,114,110
106,114,113,106,108,108,108,111,109,110,110,106,103,108,110,114,112,112,114,114,112,121,117,117,113,121,122,120,120,126,121,123,126,125,126,121,113,119,113,109,111,112,110,111,112,112,111,108,111,112,106,104,109,108,107,109,107,110,115,113
111,108,110,115,112,110,108,108,111,109,111,109,109,106,112,107,106,112,111,110,111,112,115,120,118,120,115,120,115,121,121,119,122,119,128,121,112,112,110,113,115,115,116,114,113,113,111,108,109,110,108,110,107,107,109,107,103,106,111,111
111,108,108,111,110,105,110,113,114,110,111,113,114,111,112,109,112,109,109,112,113,111,118,118,116,118,120,117,117,121,118,118,120,124,120,119,118,112,114,117,115,115,108,109,113,112,106,108,113,112,109,111,109,112,112,107,113,112,111,118
109,107,104,111,112,106,113,112,109,111,108,110,107,109,109,109,108,112,114,112,113,113,114,115,116,116,116,118,121,120,124,125,124,121,120,120,116,115,112,110,110,111,112,111,109,108,111,111,113,112,110,109,106,109,110,109,108,105,108,110
113,111,110,108,113,113,112,110,105,109,108,105,109,110,110,109,110,107,110,109,109,111,109,112,115,115,117,123,124,127,125,125,130,124,122,115,112,114,112,111,115,111,109,113,109,108,110,109,109,111,110,110,112,109,107,108,109,110,110,104
111,111,113,111,109,111,111,110,110,113,108,113,112,113,109,106,115,118,114,112,108,104,112,120,111,119,112,120,123,126,116,121,122,120,118,118,114,109,113,110,109,116,111,109,108,112,109,114,110,109,105,107,109,109,108,111,107,110,109,109
107,108,111,108,107,113,112,110,113,116,110,110,108,109,108,108,109,110,109,108,113,117,114,117,115,117,118,119,120,118,121,119,117,115,116,119,115,113,114,109,110,112,111,110,112,113,108,108,108,107,107,110,107,109,110,111,110,110,109,111
113,110,109,108,112,112,109,112,113,109,109,109,111,107,107,108,111,110,110,110,108,110,116,118,120,116,121,120,118,119,120,115,117,116,116,117,117,113,108,108,114,110,110,112,110,108,108,111,110,113,112,112,114,108,110,107,108,114,110,110
109,110,107,106,113,110,112,112,108,108,110,113,111,110,114,110,108,111,110,113,113,113,114,115,112,116,117,115,118,123,119,118,115,112,115,114,115,113,115,113,114,113,108,112,108,109,109,112,107,109,110,109,108,111,112,111,114,112,111,106
104,110,114,116,112,110,112,111,110,110,111,111,110,111,115,115,112,109,111,111,109,113,112,111,115,116,114,119,116,120,117,120,117,115,113,113,111,110,109,109,111,114,110,109,109,108,109,108,109,107,108,109,107,112,110,111,110,111,109,105
108,111,111,108,110,111,108,108,111,107,108,109,110,110,109,113,107,109,110,113,108,114,112,111,117,119,114,115,121,116,119,113,114,116,113,113,114,113,109,108,112,111,110,110,109,112,111,109,112,112,109,113,111,111,106,106,108,110,103,107
110,113,112,111,115,107,107,110,111,109,108,109,108,107,111,111,108,112,115,112,113,111,112,114,110,111,115,113,115,114,116,113,115,113,110,110,115,110,109,109,112,110,110,111,110,111,110,115,113,113,115,110,108,108,111,106,106,112,110,109
110,115,111,107,109,114,107,111,109,113,112,113,116,113,108,108,108,111,113,111,113,112,116,113,108,114,113,110,113,113,109,111,115,116,114,111,115,114,116,112,111,111,110,112,108,108,107,108,110,107,114,109,106,109,107,111,111,107,109,111
110,108,110,112,111,109,110,112,112,108,108,113,110,109,107,108,108,110,112,112,113,109,110,110,108,117,108,108,112,110,107,113,111,112,109,112,115,113,107,111,112,113,112,111,109,109,109,106,108,112,109,106,111,108,108,109,108,110,108,106
104,104,111,116,113,107,110,112,110,112,113,106,108,107,109,109,110,109,112,108,113,112,109,110,108,110,108,112,114,113,112,113,111,111,111,112,113,109,108,108,110,108,109,112,111,112,110,114,110,105,109,113,107,105,108,108,112,110,108,111
