32,53,74
113,112,106,111,115,113,114,113,108,107,110,109,114,111,114,111,111,113,116,119,112,114,109,113,111,110,110,111,109,109,113,109,109,108,107,109,112,113,112,109,109,112,111,111,107,112,115,111,113,107,111,113,108,110,111,111,110,112,107,113
110,112,114,112,113,110,112,113,112,111,113,111,111,111,109,113,113,116,106,114,112,118,110,110,112,112,110,116,114,112,116,112,109,113,109,110,112,112,107,111,111,109,108,110,108,109,110,106,110,109,112,107,110,108,108,110,110,110,109,109
113,107,110,107,111,109,108,110,113,111,110,109,109,115,110,113,109,109,105,115,111,116,115,111,112,112,107,113,110,111,111,111,108,111,111,109,109,111,107,109,106,106,109,111,114,110,112,108,114,105,111,110,112,109,111,113,110,110,110,110
113,111,111,111,112,111,110,107,112,111,110,114,111,114,109,111,113,117,117,115,114,110,115,114,113,115,111,116,112,111,111,112,114,111,116,112,110,113,111,112,109,111,113,107,107,106,113,112,118,110,110,107,110,108,107,111,109,106,107,113
109,111,109,110,108,109,110,105,109,113,110,111,116,114,114,111,112,111,115,115,118,111,116,117,113,115,112,112,112,115,114,111,114,107,115,112,108,112,113,113,110,112,111,110,109,108,110,110,118,113,116,111,111,109,106,108,114,115,110,112
111,112,112,114,110,109,114,115,109,111,116,113,113,111,115,112,115,117,117,113,117,116,118,118,115,114,119,119,111,113,112,110,113,108,115,113,112,116,112,112,110,112,107,114,111,111,108,107,112,109,114,114,113,111,113,108,110,111,105,111
111,108,109,115,111,113,113,112,105,109,111,112,110,107,115,113,110,112,116,116,116,118,118,122,120,117,117,120,121,116,115,115,116,114,114,116,110,112,112,114,112,118,109,112,108,109,110,110,112,112,113,112,109,111,110,108,112,113,107,108
113,109,108,108,107,112,110,110,109,112,111,114,116,112,115,116,113,117,121,122,118,124,123,125,123,121,122,121,122,116,114,110,112,113,112,116,115,110,108,107,110,111,111,111,111,111,111,109,110,109,109,113,114,113,107,113,112,112,109,112
109,110,108,110,110,114,112,109,113,111,113,111,111,110,112,118,117,119,120,128,121,121,125,129,130,129,127,116,114,113,114,112,118,117,118,107,111,114,114,113,113,113,116,112,111,113,110,107,113,111,107,108,108,114,109,111,109,113,112,112
110,112,110,113,108,110,112,108,115,111,112,112,111,113,113,117,121,124,121,125,128,128,128,130,132,128,128,125,120,123,124,118,114,112,115,110,113,104,112,111,111,110,112,111,107,110,112,108,112,109,107,108,108,113,109,110,110,113,107,109
113,107,107,110,109,108,112,111,114,112,107,112,112,116,120,120,121,123,128,127,128,128,127,134,135,131,126,127,123,124,120,120,113,115,117,109,110,106,115,107,109,110,110,110,107,110,115,111,113,112,114,111,109,108,109,110,109,111,110,110
112,109,109,113,111,113,113,111,109,112,110,114,115,113,117,117,122,124,130,132,137,134,136,143,133,133,135,135,125,121,119,120,115,116,119,113,111,109,113,111,112,111,109,109,115,113,110,110,109,108,110,111,115,112,110,108,114,110,110,111
111,116,107,110,111,116,115,110,114,111,112,114,112,116,120,121,121,125,132,132,140,127,134,140,136,134,135,133,130,127,125,112,116,114,116,115,114,113,114,110,110,110,113,111,110,110,110,106,106,110,109,110,109,107,107,102,111,111,111,110
110,109,110,113,111,113,113,107,112,113,111,113,112,118,119,123,124,126,132,132,141,135,130,133,133,130,133,131,131,126,130,124,121,116,116,110,111,111,113,114,117,114,109,111,112,109,111,112,111,110,109,111,110,110,111,112,112,107,112,109
109,108,109,111,110,112,115,112,109,111,112,115,114,116,120,127,130,128,131,129,130,132,136,140,142,135,135,136,132,124,126,129,119,119,116,112,114,110,110,110,110,113,113,111,112,113,111,112,114,113,106,111,111,113,112,115,116,112,113,113
110,112,109,110,107,110,114,112,112,113,107,111,114,116,117,123,129,129,132,133,132,133,136,136,138,136,135,133,138,132,127,121,116,120,117,112,115,112,112,111,113,114,114,110,106,103,111,109,105,113,110,109,108,111,110,109,110,112,111,111
112,111,110,114,111,111,112,112,111,114,110,109,112,120,117,122,125,126,134,135,137,138,137,132,130,134,137,132,133,132,127,122,122,117,116,114,114,110,112,110,110,109,112,113,112,108,112,109,110,106,110,113,111,112,114,111,108,108,108,108
111,107,109,112,112,111,112,116,116,113,111,114,114,115,121,124,125,127,136,135,137,139,136,131,135,139,139,139,132,130,129,127,125,123,121,117,112,115,115,114,111,113,115,111,112,111,109,112,116,111,108,111,109,110,114,114,111,107,109,106
113,112,110,112,111,110,114,112,111,112,115,113,117,118,121,122,129,127,133,139,135,132,133,135,137,138,137,138,135,140,125,126,126,125,117,118,117,114,112,118,113,114,112,109,109,114,112,113,107,113,113,112,111,111,111,110,115,114,117,111
112,112,108,109,111,112,115,110,111,112,115,114,116,119,118,122,131,130,127,135,136,132,133,138,139,136,138,133,127,133,124,127,117,117,114,113,113,107,109,117,113,111,107,113,109,111,114,116,111,111,105,106,109,111,109,109,112,110,110,109
114,114,114,112,113,112,114,108,111,108,111,115,117,118,116,122,125,131,131,131,136,134,134,133,139,136,141,139,137,136,129,130,125,125,121,119,114,112,108,114,113,110,111,112,108,107,111,111,108,113,111,113,109,111,108,112,113,113,108,108
105,110,112,112,112,109,113,113,115,112,113,113,112,120,119,125,122,129,140,129,130,132,133,131,138,137,139,138,140,132,129,123,120,122,115,119,114,116,107,109,111,109,115,112,114,115,116,112,109,112,110,110,107,111,111,110,106,115,111,111
110,113,113,111,112,113,109,113,113,113,113,124,112,111,117,127,131,125,131,134,134,135,135,137,140,139,138,133,136,135,130,125,116,118,115,125,119,116,114,114,114,115,114,111,113,114,114,115,110,112,110,108,110,113,112,109,107,111,110,113
111,105,112,111,109,115,109,110,111,115,111,121,120,119,121,122,126,132,132,134,133,134,133,133,136,141,138,135,134,138,132,129,123,123,113,116,113,112,113,109,108,111,106,109,110,112,114,115,109,108,109,112,114,112,112,111,109,111,111,110
114,112,110,110,111,110,109,115,114,115,111,115,114,120,115,122,127,136,135,131,133,136,139,134,137,139,137,143,133,137,133,131,126,124,119,122,116,115,112,116,111,112,109,113,110,107,112,112,115,113,115,113,110,110,111,111,107,110,111,108
108,117,111,112,113,107,108,117,114,115,115,113,120,119,118,121,125,134,141,137,143,141,135,132,136,139,134,134,132,133,126,126,124,122,116,115,113,115,112,119,112,109,111,114,114,111,113,111,114,110,107,110,109,109,111,110,109,112,114,106
109,111,107,112,111,107,109,115,114,114,118,113,118,113,120,121,128,131,132,136,134,137,137,141,140,142,145,142,142,136,131,129,125,123,120,117,113,115,109,110,112,110,114,113,112,106,107,112,114,112,113,115,111,111,113,112,110,107,113,110
108,111,105,110,109,110,113,113,115,113,118,117,118,115,121,122,126,130,135,138,133,137,141,139,142,141,136,135,137,132,132,130,123,121,117,114,111,118,115,114,115,112,114,112,112,107,110,111,112,108,112,111,109,110,111,107,108,107,114,113
108,110,110,110,110,110,109,115,117,112,112,114,114,112,116,123,130,130,136,139,138,138,141,140,144,146,145,142,141,130,127,126,124,123,119,117,114,117,112,111,115,115,110,106,114,112,110,108,116,111,108,111,113,111,114,112,111,111,112,108
115,114,114,108,113,112,108,109,112,112,115,114,117,119,120,126,129,131,137,138,139,140,140,139,141,144,146,141,145,133,135,130,125,123,119,116,113,113,118,113,110,112,110,110,112,109,110,106,111,112,108,109,113,111,109,107,111,109,108,105
109,110,110,109,113,109,109,110,113,113,114,115,120,118,119,128,130,139,139,138,142,141,142,144,146,146,143,140,139,135,146,135,121,125,123,119,114,115,115,111,112,115,115,118,111,108,116,113,113,113,110,108,110,111,112,105,112,111,115,104
108,112,107,106,112,115,115,113,110,113,112,115,115,115,120,124,128,133,133,138,144,145,142,139,146,143,146,147,146,138,137,131,116,117,121,119,110,114,115,121,115,115,111,116,115,111,111,110,117,110,108,109,111,110,115,110,114,105,114,109
109,114,112,112,108,109,112,112,110,114,113,116,115,120,122,122,129,133,137,141,141,135,137,140,140,142,149,140,140,134,128,126,132,118,115,119,115,112,111,114,107,107,107,112,113,114,112,109,116,110,113,110,112,109,111,105,109,111,116,114
107,107,111,112,110,107,113,112,108,106,113,120,113,118,122,124,129,135,135,135,140,138,142,144,140,137,141,137,139,139,134,125,125,117,117,111,119,121,114,116,118,113,115,118,113,106,110,112,111,110,110,105,108,112,114,113,109,109,108,109
112,108,112,112,113,112,114,116,117,115,111,116,115,118,120,129,131,133,136,141,135,135,140,141,146,150,147,146,139,135,133,126,127,122,121,115,115,111,112,115,114,110,110,108,111,111,111,113,112,116,114,114,114,111,112,110,109,112,114,112
113,112,115,112,112,112,112,108,112,114,115,118,118,122,120,123,125,125,134,143,141,138,136,143,141,140,136,144,137,133,133,130,125,122,119,118,122,113,111,115,116,114,112,107,109,110,115,116,114,112,109,111,110,110,113,107,108,106,110,108
106,111,109,106,111,109,115,113,112,111,109,114,115,121,125,131,136,133,139,135,140,137,138,145,140,141,141,145,135,132,128,130,122,120,119,115,119,114,111,111,115,113,114,111,113,110,113,114,112,110,106,109,115,115,110,113,112,105,113,112
112,115,111,106,112,109,110,114,113,116,111,115,116,119,117,121,124,128,135,131,139,135,140,143,143,141,142,138,136,138,133,132,123,120,122,117,121,118,115,115,114,114,116,115,115,112,112,110,114,116,108,110,107,111,107,113,112,107,110,109
109,107,112,112,116,110,107,110,111,114,113,113,114,119,124,128,127,136,136,133,142,136,142,138,142,137,140,142,135,129,134,130,115,115,120,114,113,111,110,111,112,112,113,109,112,110,112,113,111,114,111,113,110,115,109,110,112,111,112,105
112,110,108,108,111,110,114,117,115,116,120,117,119,118,122,127,126,136,139,137,140,131,135,135,142,139,139,138,140,130,132,134,121,122,122,120,119,119,115,109,108,108,113,107,111,112,111,113,109,111,110,106,107,109,107,108,110,110,115,107
108,112,114,113,115,114,113,114,113,110,112,113,118,118,120,125,130,139,139,137,136,129,136,140,141,133,143,141,139,136,137,129,123,118,117,117,111,116,113,111,113,114,114,111,108,108,110,113,110,114,116,110,113,113,112,110,106,102,109,109
108,110,113,111,113,114,111,113,114,107,115,117,119,119,123,123,125,133,132,135,133,130,135,137,141,134,140,142,139,129,128,119,120,117,116,113,112,115,113,112,112,113,107,111,114,111,109,113,109,108,117,111,111,109,107,111,114,114,113,113
108,109,112,110,109,112,112,110,114,107,114,114,117,122,127,130,133,137,136,134,137,138,135,135,139,139,139,139,142,134,130,125,119,118,118,115,114,110,111,110,114,116,110,113,114,111,107,114,115,111,111,107,111,108,107,110,115,111,110,108
110,111,112,107,107,109,106,110,117,115,115,111,117,121,126,126,129,136,136,133,136,131,138,137,137,142,143,138,139,139,134,130,118,116,117,113,114,114,115,114,113,112,110,112,109,112,113,114,112,108,110,114,119,111,109,109,110,111,111,108
112,113,114,112,115,117,112,114,115,114,118,117,124,120,127,137,137,138,132,135,134,129,139,138,135,139,142,137,133,134,130,129,121,118,121,116,116,118,109,118,116,114,112,111,109,112,107,107,115,108,108,111,116,113,111,109,106,109,110,115
111,110,111,110,108,107,107,104,112,110,116,114,123,119,127,130,128,134,134,136,135,137,139,138,138,143,140,142,144,134,128,123,122,120,122,117,111,116,112,115,109,112,111,113,109,113,111,110,111,109,112,107,110,110,109,113,114,110,108,111
109,110,110,108,112,117,111,110,114,109,117,112,121,123,128,127,133,140,139,138,135,139,142,142,139,143,143,140,140,130,130,124,119,114,118,120,114,114,111,113,111,115,111,113,114,112,110,113,106,111,116,110,112,113,109,108,110,112,111,106
107,112,113,107,104,111,110,117,115,113,115,115,117,122,129,131,138,141,137,140,140,137,142,141,136,136,142,142,143,134,133,126,127,122,117,117,114,116,112,112,108,112,115,112,113,115,110,117,106,110,113,111,111,114,110,111,109,108,111,110
109,112,113,114,112,112,109,106,110,111,109,115,119,125,131,129,139,137,138,142,146,133,133,133,138,140,140,136,135,132,136,120,120,119,115,116,108,111,109,112,115,110,112,116,113,116,110,115,108,111,109,114,115,114,109,110,112,112,113,113
114,109,103,110,110,111,111,109,113,111,114,117,121,123,131,135,140,139,146,139,134,135,139,134,135,133,138,134,131,128,133,125,124,118,120,119,111,114,115,115,111,113,111,115,113,113,110,112,106,112,108,106,112,113,112,109,110,110,110,108
117,116,110,108,111,110,113,114,114,112,115,116,119,118,128,133,133,135,138,141,139,136,138,136,136,136,139,134,137,129,128,118,117,115,114,114,117,113,111,117,112,115,109,108,113,109,104,116,111,109,109,113,111,112,113,109,110,112,113,110
110,108,110,108,114,113,110,111,115,114,111,118,121,119,126,126,131,139,138,137,138,139,136,138,140,135,135,136,140,134,131,126,126,122,117,113,118,118,113,114,110,112,114,108,111,112,110,112,108,109,110,111,107,111,113,110,108,111,115,109
112,112,115,111,107,110,109,105,110,114,110,113,122,118,128,128,133,139,135,135,134,138,140,139,141,141,139,131,133,134,125,121,118,115,120,114,113,114,111,113,114,110,113,110,118,112,110,109,112,112,111,112,109,112,111,113,109,108,114,111
112,112,109,115,114,111,114,112,111,112,119,116,120,121,130,125,132,135,134,140,135,133,136,135,135,137,137,133,138,138,126,126,120,114,117,114,113,114,112,112,111,108,114,108,117,110,113,110,111,109,108,109,108,111,106,112,112,111,109,109
111,109,107,111,115,111,110,111,114,111,113,115,115,118,123,125,132,134,136,147,141,138,138,143,139,139,138,134,136,133,129,128,123,123,118,120,115,112,110,111,115,114,116,108,113,114,115,109,114,112,110,111,108,111,109,113,108,109,106,109
112,113,109,102,113,115,111,112,119,119,118,120,116,124,124,134,137,137,141,140,140,140,131,138,140,139,144,136,136,133,131,128,124,120,115,114,109,110,112,111,114,114,113,111,111,113,107,113,116,114,106,110,110,111,110,114,112,114,112,111
108,112,115,112,110,111,113,109,109,111,111,113,118,127,121,134,133,135,142,136,135,136,134,136,142,136,140,139,138,130,128,128,125,121,121,119,118,115,114,110,111,111,109,114,110,112,113,112,112,117,107,111,110,108,109,110,112,111,107,103
108,111,112,110,111,110,111,113,113,115,115,114,115,122,123,129,127,133,142,140,139,146,148,137,141,135,136,136,140,139,131,126,121,118,119,114,114,118,115,111,112,113,110,116,113,110,115,109,109,114,112,114,113,110,109,109,116,114,113,109
111,112,109,110,112,112,112,115,115,111,113,116,120,119,126,133,130,134,138,138,128,133,136,135,137,136,145,143,140,138,129,130,128,126,123,121,112,115,114,111,110,111,110,114,113,109,114,108,110,111,106,107,109,113,112,108,112,113,113,110
111,111,109,110,111,111,110,109,114,113,114,113,116,119,127,131,134,136,137,142,139,137,139,135,137,134,140,140,139,139,133,127,123,125,116,114,116,116,114,110,111,113,111,112,109,108,115,110,112,112,108,114,114,113,112,112,110,111,115,112
113,111,108,109,111,109,110,109,111,112,115,114,119,126,125,128,133,134,133,140,137,131,136,136,142,142,142,142,137,136,135,125,120,121,118,116,119,113,111,110,112,115,113,114,113,111,115,112,112,116,111,109,112,111,109,114,108,110,113,112
114,112,108,110,113,111,113,115,116,110,112,119,115,117,120,129,128,132,137,144,138,141,138,138,138,140,139,145,142,135,138,129,126,123,117,115,115,112,116,119,117,118,110,112,108,110,111,110,112,113,111,110,111,112,110,113,111,111,110,114
108,111,107,111,109,115,115,110,114,116,114,120,120,121,122,133,132,132,134,140,138,142,135,135,135,141,140,142,146,135,137,130,122,119,116,119,119,112,116,115,110,116,114,113,110,110,115,110,114,114,110,111,110,108,111,113,111,110,108,110
107,113,107,110,108,112,111,112,112,112,113,113,111,118,117,124,129,132,131,136,140,140,139,135,137,139,140,142,138,135,139,134,124,123,117,112,114,112,115,116,115,111,112,108,110,107,112,108,108,114,111,110,113,112,110,106,111,111,108,108
106,113,110,112,111,115,113,112,109,108,115,115,116,123,122,129,132,132,132,135,136,137,136,132,138,137,142,145,144,138,131,126,124,128,121,114,118,114,112,106,107,109,116,111,109,109,111,112,111,111,108,108,110,110,114,110,112,112,108,111
111,113,110,106,112,115,113,113,114,114,114,114,119,119,119,123,133,130,129,132,139,138,134,133,138,139,146,140,142,141,136,132,126,123,119,111,114,111,111,113,114,115,114,112,112,114,112,114,115,112,111,111,111,110,108,112,117,111,108,109
112,108,115,108,108,111,112,114,114,112,109,115,118,118,126,123,125,128,130,127,140,133,137,138,141,140,149,140,138,143,139,130,128,123,119,118,116,116,113,112,112,113,107,108,108,111,112,110,114,110,113,110,110,114,111,109,113,109,112,114
112,110,114,111,111,113,109,108,110,123,115,114,115,118,123,127,127,127,135,129,135,130,136,135,138,139,149,151,136,141,133,122,119,120,117,121,115,114,113,110,113,115,111,115,111,112,113,103,113,110,107,109,110,108,110,110,111,104,105,108
113,108,109,115,112,115,111,110,103,113,112,110,108,118,120,125,128,133,138,138,139,134,137,141,138,131,134,143,135,136,135,129,122,126,118,119,115,114,110,109,108,111,114,113,109,107,116,109,113,114,113,112,108,107,113,111,115,109,107,109
111,108,111,116,110,112,112,113,109,113,117,116,117,123,120,128,129,132,137,138,136,137,136,137,137,144,142,146,138,135,128,123,120,118,110,117,116,118,115,115,115,109,111,112,115,112,112,109,113,109,114,112,110,110,109,109,112,108,106,106
112,112,113,113,114,112,108,109,111,110,113,113,115,118,125,132,131,131,142,145,142,142,140,141,138,141,136,144,139,138,132,129,124,121,117,117,114,116,111,110,119,117,112,113,112,109,110,111,112,105,113,115,114,112,113,110,113,113,114,110
110,113,110,107,112,112,110,111,113,113,115,113,120,120,124,124,128,133,139,142,138,140,140,139,139,142,147,144,140,140,136,127,125,122,119,115,113,118,114,109,113,118,114,114,112,110,111,107,114,110,109,113,111,110,113,110,112,109,114,109
110,109,117,113,111,117,111,111,111,116,115,112,119,116,125,132,136,142,140,147,142,142,148,140,140,142,148,138,138,136,134,128,126,119,117,115,113,117,117,114,110,115,112,112,115,113,113,105,115,113,108,112,112,110,110,110,112,108,112,108
114,109,109,113,109,113,106,114,105,111,114,111,117,116,125,129,128,135,140,144,142,139,147,143,141,136,144,144,136,131,129,129,125,118,116,117,116,113,114,119,114,112,116,111,113,112,113,109,111,111,107,108,111,113,110,111,114,111,115,116
105,110,113,116,110,111,109,111,108,111,112,114,116,116,124,125,128,134,139,141,146,139,139,140,142,139,134,138,136,137,136,130,126,119,116,117,117,114,112,113,112,109,113,111,111,108,108,111,110,111,110,110,105,108,113,111,106,105,108,114
111,107,107,103,108,109,110,111,114,114,113,116,116,113,124,124,135,138,139,148,147,139,139,146,142,143,142,140,137,139,134,131,131,125,122,117,116,114,109,108,113,113,109,115,112,114,113,112,112,111,110,117,116,111,110,110,110,117,110,111
111,110,113,112,116,110,110,111,110,114,113,115,119,117,118,117,131,137,137,144,144,140,139,140,136,141,145,143,142,143,131,132,128,121,118,113,117,114,116,118,114,117,110,115,111,111,109,110,111,112,107,112,107,107,110,112,110,109,108,111
107,108,108,109,115,114,112,110,108,114,113,113,114,120,121,126,134,131,135,146,143,137,135,138,138,137,143,139,136,136,132,132,127,118,115,114,115,112,116,117,110,115,112,112,110,110,111,112,111,110,112,113,110,111,112,112,112,113,109,111
112,112,110,109,108,108,109,109,111,113,115,115,119,117,120,121,131,129,130,142,142,139,138,143,142,134,142,139,142,140,141,133,124,122,120,119,117,113,113,119,115,110,112,112,111,111,110,111,114,106,108,113,114,108,105,109,109,111,113,115
112,112,110,112,109,108,113,111,113,111,115,114,116,113,122,129,131,133,135,146,147,141,139,138,140,131,134,136,140,138,143,134,126,122,117,116,116,114,113,114,116,111,111,110,106,111,110,106,110,115,108,108,113,115,111,111,111,108,110,112
108,110,110,107,113,110,113,110,114,112,112,113,116,119,119,126,127,134,135,135,142,138,142,138,143,139,144,143,146,141,137,132,129,122,119,117,116,112,113,112,115,114,111,111,111,114,109,114,109,111,112,114,108,112,111,107,110,111,108,109
108,106,112,109,108,107,114,113,117,111,111,114,111,116,114,126,132,130,133,135,147,140,139,136,135,137,147,142,145,142,136,135,133,124,117,118,115,112,113,115,112,111,113,111,111,114,108,115,115,113,107,112,109,107,110,107,111,113,115,113
111,108,109,110,109,109,107,106,117,112,115,117,116,120,118,125,129,133,138,135,145,138,138,138,132,138,144,150,147,143,140,135,129,127,118,116,116,118,118,117,113,109,112,114,114,114,110,112,113,114,109,110,110,108,109,109,110,107,108,112
111,114,111,115,113,110,109,112,113,113,109,113,115,115,116,117,123,135,139,135,140,135,141,143,141,140,133,143,140,143,139,132,126,126,121,118,115,115,115,109,109,113,112,106,109,112,113,107,108,111,110,110,111,116,112,110,111,112,111,111
111,115,111,112,112,110,107,109,110,118,115,109,112,118,120,124,121,130,136,136,138,130,136,138,139,138,145,147,141,145,142,137,127,122,124,123,115,113,112,113,114,107,113,110,109,110,107,108,112,110,109,108,110,113,107,109,112,109,107,110
105,107,109,112,113,113,110,110,111,111,112,113,112,117,117,125,125,133,135,136,139,139,141,136,134,135,138,140,137,138,140,132,123,123,118,119,114,112,111,115,116,110,109,111,108,114,109,108,112,115,113,112,111,112,114,110,112,112,111,107
112,111,112,111,107,110,115,111,112,113,114,117,112,117,117,123,124,138,134,134,141,138,135,139,141,136,134,142,142,139,137,130,118,125,120,120,121,115,111,110,104,113,113,113,112,118,111,109,107,112,110,108,114,110,112,107,109,110,113,109
113,110,108,112,110,111,115,110,110,111,114,112,111,117,115,123,126,130,134,134,142,135,135,136,134,136,138,144,141,141,137,133,122,127,119,117,120,116,114,114,111,113,107,108,114,112,107,113,113,114,111,105,114,110,111,106,107,108,108,112
108,110,112,116,112,110,110,109,115,113,114,113,117,120,117,122,130,133,143,140,141,136,139,139,136,137,133,137,137,139,132,131,123,124,114,110,112,114,117,112,112,113,112,112,111,110,113,114,113,113,115,106,103,110,111,108,112,110,108,110
113,112,112,112,108,108,109,113,113,109,113,106,115,119,119,118,131,129,134,137,139,138,137,137,139,142,140,139,136,139,132,128,119,118,117,112,109,111,115,110,116,114,113,113,111,112,113,109,108,108,113,110,106,112,108,111,108,109,112,109
106,108,109,107,110,112,109,112,108,109,114,112,115,113,122,122,127,131,137,133,139,139,140,140,130,140,136,136,137,136,132,130,124,122,118,112,111,112,115,115,114,110,114,112,110,111,113,108,113,112,113,113,110,109,104,111,111,109,111,107
110,112,115,110,111,116,113,115,114,116,114,109,115,108,111,118,124,130,134,136,143,138,136,140,135,142,133,132,136,138,128,122,120,120,117,111,113,112,109,110,114,110,118,111,109,109,113,105,114,110,109,112,111,113,107,109,114,112,116,112
114,111,113,110,108,111,109,107,107,111,119,110,113,114,115,121,127,129,129,135,139,138,137,138,136,138,133,131,128,134,132,124,123,121,117,110,113,114,115,109,112,109,114,114,114,113,111,104,111,110,107,109,107,107,108,108,108,105,113,114
111,109,114,108,107,110,115,110,112,112,113,109,114,109,114,116,120,123,122,131,128,132,137,131,137,138,135,134,136,132,129,117,117,114,113,112,114,112,117,108,113,115,111,110,114,113,110,113,107,111,108,107,108,110,111,112,109,107,108,106
112,107,116,111,111,106,113,107,111,112,113,106,113,115,116,116,114,122,124,130,127,127,135,131,137,132,132,128,128,123,120,118,118,117,114,112,113,108,112,114,114,109,109,109,111,112,109,115,105,104,108,109,111,111,108,114,114,116,115,107
109,103,113,111,115,109,112,103,107,107,112,113,113,113,110,113,114,118,121,122,128,123,130,131,132,128,128,128,127,119,122,120,115,114,115,111,114,112,110,113,112,111,109,112,110,112,108,116,115,111,110,110,110,107,108,112,112,110,114,111
112,111,112,109,111,112,114,111,113,114,109,110,115,114,109,114,115,110,118,118,124,122,120,125,121,122,125,119,121,120,121,114,113,109,110,109,113,109,109,109,107,110,112,109,106,109,108,108,112,113,108,107,112,110,112,110,111,108,110,108
111,113,112,110,109,114,112,110,112,113,114,111,110,114,111,112,116,115,116,115,117,124,119,125,119,126,124,118,118,118,116,112,115,112,113,112,117,116,115,111,114,108,112,114,110,110,116,109,108,114,114,112,115,111,110,108,106,106,106,110
112,111,110,107,107,114,110,106,111,110,112,109,107,112,112,111,113,114,112,113,113,116,112,122,117,118,116,115,118,116,113,111,118,111,115,112,114,111,112,110,112,107,110,110,109,107,110,107,111,110,110,113,112,111,110,109,108,109,105,110
114,107,109,107,105,104,108,107,113,112,117,119,113,111,111,111,110,115,112,110,113,114,110,113,114,115,120,115,115,117,117,111,113,108,110,110,115,110,112,113,109,112,110,113,114,112,112,112,113,113,108,112,111,110,108,113,115,112,106,110
