36,49,62
106,107,113,109,111,106,105,108,108,109,108,109,110,107,107,112,108,110,107,111,112,108,109,111,107,110,111,110,109,107,108,111,111,107,106,108,109,106,108,109,109,109,105,107,105,106,106,111,110,109,110,107,106,111,109,107,108,108,106,106
108,109,110,107,110,107,108,109,110,107,109,107,107,109,107,110,106,107,107,111,109,111,110,110,105,106,107,108,110,108,109,110,106,111,107,111,108,107,108,109,110,108,108,111,110,109,108,109,110,106,107,110,101,106,110,107,110,111,110,110
107,107,110,111,105,108,111,107,110,109,113,110,110,107,105,111,108,108,111,106,106,108,106,106,109,105,104,111,110,107,106,108,109,114,108,110,110,112,110,109,111,111,108,109,110,109,109,107,109,109,109,108,110,111,109,107,108,107,107,107
107,107,109,104,106,109,110,110,111,108,108,107,109,104,105,108,110,108,105,107,108,109,108,106,107,111,109,110,107,106,107,109,109,108,109,107,106,110,111,109,103,111,110,108,110,110,108,110,114,111,109,107,113,108,109,108,107,107,112,111
108,108,111,103,105,103,105,108,108,104,110,111,114,103,109,109,111,114,109,113,112,110,110,113,106,109,108,108,111,114,112,108,106,106,106,107,108,106,110,113,107,110,108,106,106,109,107,104,106,107,110,108,111,109,109,107,105,108,113,103
108,111,112,106,111,110,108,110,112,106,110,108,112,104,110,107,107,111,109,113,114,109,110,107,110,110,110,106,110,108,108,109,110,110,109,109,105,103,110,110,109,111,106,109,112,112,110,106,108,108,108,108,106,107,105,108,109,106,108,108
106,111,111,106,109,106,110,109,109,107,110,112,114,106,110,109,108,110,105,106,107,104,114,107,107,105,110,107,114,111,106,112,113,107,111,108,108,110,111,108,110,113,107,108,110,108,110,107,107,105,107,109,107,113,109,107,109,108,107,110
107,106,110,110,113,107,113,109,105,109,112,112,109,110,108,107,106,109,107,106,107,108,110,105,112,111,113,110,111,114,107,105,110,105,112,104,107,112,112,108,106,109,105,109,109,109,112,109,108,109,107,106,108,109,109,112,108,106,106,108
107,109,109,108,109,105,111,109,106,108,108,109,106,109,106,108,108,110,110,111,109,107,107,107,111,108,104,108,110,107,107,107,115,107,112,112,105,106,107,110,111,113,106,107,106,106,111,112,108,107,111,109,108,104,108,109,106,105,109,111
106,108,106,106,111,110,109,109,108,111,110,112,106,110,109,107,106,111,107,113,113,105,107,106,109,108,109,105,111,109,110,108,110,104,108,107,107,111,105,107,105,105,107,108,108,108,108,108,108,106,106,110,109,106,110,110,108,105,110,109
107,109,110,108,112,112,111,108,107,110,105,105,103,107,112,113,106,109,107,111,112,113,108,105,111,106,110,106,112,106,110,110,109,108,110,107,108,110,105,110,106,105,108,110,111,106,109,110,108,110,108,111,105,107,109,113,113,108,107,106
109,108,110,106,108,109,112,108,108,108,109,107,107,110,110,109,107,109,110,111,106,108,108,104,107,107,113,107,112,103,108,109,106,108,108,110,113,110,108,111,109,106,106,107,111,106,110,108,106,101,106,108,110,110,103,106,111,109,105,109
110,107,112,113,113,108,109,104,108,104,111,111,109,107,107,110,107,108,109,109,109,109,110,108,107,107,111,106,110,109,111,110,108,112,108,101,106,105,109,107,107,110,107,105,109,104,106,110,116,112,113,107,109,109,107,110,111,109,107,107
111,110,108,108,111,106,108,103,109,103,109,110,111,106,106,111,107,108,108,107,108,111,111,107,108,110,110,108,107,103,106,107,109,106,108,107,109,108,107,108,107,108,104,101,105,112,109,108,105,106,109,108,113,113,110,110,111,109,111,110
110,110,108,107,110,109,109,105,110,109,110,107,107,108,106,109,109,109,106,108,110,110,114,110,106,110,107,109,111,108,112,109,109,107,109,112,107,110,106,111,106,108,108,104,104,105,105,109,111,112,109,107,106,108,109,109,109,103,104,106
108,108,109,105,106,106,106,107,106,104,114,108,109,111,105,107,108,109,107,107,112,108,108,111,106,110,106,109,108,104,111,112,109,108,105,109,106,114,106,110,109,109,110,107,107,102,108,107,107,109,109,111,109,110,112,108,111,106,105,104
107,109,107,107,111,109,110,111,110,105,112,109,110,109,108,111,109,109,108,108,110,110,113,114,106,109,110,112,111,107,110,110,106,113,111,107,105,109,106,108,107,112,113,112,109,107,111,106,104,107,105,107,102,109,111,105,111,113,112,108
108,112,114,109,108,108,109,108,108,106,111,108,108,109,106,110,110,109,108,110,109,110,110,108,108,105,107,105,111,109,110,108,107,106,111,110,104,106,108,110,108,110,107,111,108,109,110,105,106,108,104,109,107,113,109,104,104,104,107,108
108,105,107,108,108,109,106,109,106,106,111,111,107,111,106,108,110,106,103,108,108,109,110,109,111,104,110,108,114,107,106,107,108,107,114,111,109,105,107,107,108,109,110,110,108,108,111,107,110,109,106,107,103,103,110,109,105,108,113,109
110,109,107,108,107,110,107,111,105,106,107,112,108,107,108,110,113,109,107,111,112,106,110,108,111,108,110,106,111,112,111,113,109,109,112,102,110,109,113,111,109,107,107,107,110,103,103,104,109,110,111,110,110,104,112,114,106,109,107,104
110,109,106,107,107,109,108,112,107,109,106,107,108,111,108,106,107,109,110,112,117,106,110,108,107,107,107,106,106,111,107,107,110,108,111,105,110,108,107,110,109,109,107,110,116,108,107,108,107,108,111,111,111,109,110,108,107,113,111,105
109,110,108,110,108,106,107,110,106,109,109,110,106,111,109,108,107,104,105,106,111,106,111,112,110,113,110,109,107,112,110,108,110,107,115,111,107,108,109,112,110,112,109,107,110,108,108,109,107,108,108,110,106,106,109,108,109,108,113,111
114,113,110,109,110,109,106,108,107,105,112,111,105,105,106,104,112,109,110,109,111,112,112,114,109,112,112,113,114,108,109,113,111,108,105,106,108,105,106,110,111,112,113,107,109,109,113,113,106,107,106,106,106,108,106,107,108,110,111,112
108,106,106,105,107,111,110,107,111,107,109,108,110,114,112,106,109,110,109,106,111,111,109,114,113,112,111,109,116,111,111,110,111,110,107,110,114,110,106,109,108,106,110,108,108,108,109,111,108,107,109,106,107,115,109,107,100,106,109,107
111,109,111,108,107,106,114,111,108,107,110,105,107,107,107,111,109,111,112,110,113,111,111,111,115,115,111,109,117,114,111,113,113,110,107,104,109,109,109,108,109,112,109,109,109,109,104,108,112,107,108,111,108,110,110,113,109,111,110,105
112,108,107,111,111,104,107,111,112,108,110,105,112,110,108,110,107,111,112,108,109,111,117,115,113,115,115,114,115,114,110,115,116,114,112,110,110,112,110,109,111,111,108,109,109,108,104,107,109,108,107,107,104,107,109,112,108,106,108,103
107,111,106,110,109,105,104,106,110,108,111,108,111,111,107,108,108,114,114,112,113,112,116,114,114,119,120,119,113,116,117,115,115,111,107,109,112,117,110,105,104,105,107,112,110,107,106,107,104,106,108,112,108,109,107,107,108,113,115,105
108,109,104,110,107,110,107,112,111,106,109,110,110,111,108,109,108,113,111,113,116,114,114,119,122,123,117,122,120,118,117,114,114,115,116,111,110,111,110,108,110,107,104,110,108,106,108,113,106,107,105,107,101,110,107,106,101,106,111,107
110,110,106,110,106,111,106,106,108,103,107,108,108,107,106,109,109,114,114,116,114,120,117,117,121,124,119,123,122,125,119,113,116,117,118,113,111,111,108,110,115,110,106,114,113,111,108,109,109,110,108,109,103,113,109,109,107,109,112,110
104,112,111,110,108,111,110,107,109,108,109,109,110,109,113,112,107,110,110,114,115,122,119,117,121,128,129,125,124,125,124,118,119,115,114,116,110,111,109,111,111,108,105,109,110,109,109,109,110,110,109,108,103,111,109,109,109,106,110,107
107,107,107,108,112,111,106,108,109,110,111,110,112,107,110,108,110,115,112,112,112,117,123,118,120,122,129,124,125,121,126,116,120,117,110,113,110,108,109,110,110,108,109,108,107,104,107,110,110,109,107,108,107,109,108,109,114,110,111,107
109,107,108,107,106,111,111,114,112,110,108,106,113,113,113,109,109,114,113,113,119,118,119,118,123,119,126,123,124,121,124,116,117,119,113,114,117,110,107,107,108,107,111,110,108,108,108,112,108,107,107,108,108,111,109,107,108,105,104,103
108,110,109,109,105,106,109,111,111,109,110,109,109,110,106,108,111,118,116,111,116,121,121,121,126,121,125,126,122,123,124,122,120,120,117,114,116,110,108,110,111,111,115,108,105,106,106,114,108,108,112,110,107,102,109,111,111,117,113,110
109,111,106,108,109,109,114,111,107,107,112,111,108,112,111,109,110,114,119,116,120,121,119,116,119,122,127,125,119,121,118,121,119,118,119,116,112,112,112,113,113,109,112,111,110,109,108,114,107,108,111,108,112,105,105,109,107,103,105,108
106,109,108,109,110,104,104,110,107,108,105,106,109,108,114,115,114,115,119,120,122,118,127,124,121,121,126,125,120,120,116,119,119,117,112,114,113,115,111,107,110,105,111,110,110,109,108,113,110,107,109,103,108,108,105,105,111,107,110,110
109,109,107,106,109,108,106,111,105,110,110,107,109,111,108,108,113,116,118,118,124,120,125,124,121,125,120,120,124,125,123,122,121,122,117,115,112,113,110,103,113,108,114,108,111,111,110,112,109,108,112,108,111,112,109,107,109,108,111,109
106,109,109,109,111,109,108,108,108,110,112,112,108,112,110,110,116,114,118,118,125,122,121,122,115,124,124,121,123,120,121,120,122,122,118,116,114,112,110,102,114,106,109,107,108,107,105,107,108,110,110,107,109,110,112,108,103,105,108,107
105,108,110,104,109,109,113,107,109,110,107,110,109,115,114,107,114,117,121,120,124,121,123,124,123,124,120,117,119,118,120,121,121,116,119,117,112,111,109,104,116,109,108,111,110,110,104,107,112,110,108,107,110,105,108,112,109,109,111,110
111,106,111,103,109,108,111,109,111,115,112,114,109,111,114,111,111,117,121,119,117,115,121,118,124,124,121,124,122,119,119,121,118,118,120,112,114,118,114,106,108,107,109,107,104,108,107,110,112,109,106,106,111,106,110,111,106,105,110,108
110,107,115,109,110,107,109,108,105,109,109,114,112,113,112,115,114,120,124,126,129,125,125,123,125,119,116,121,121,120,123,122,118,124,121,116,118,115,112,109,108,109,110,108,106,108,103,109,111,109,104,102,106,106,108,110,111,109,111,106
110,107,109,109,110,110,112,109,107,111,109,109,110,112,108,111,112,119,117,121,130,122,120,119,125,119,117,121,123,121,122,121,120,126,122,112,118,112,108,113,112,109,109,109,112,113,111,113,106,110,106,109,109,108,108,108,109,106,108,102
107,110,108,106,106,107,110,106,105,109,108,106,109,112,110,111,111,113,118,122,130,128,126,125,125,119,120,123,123,120,118,117,119,122,123,112,113,115,111,111,111,109,110,106,111,108,109,109,106,111,104,106,106,106,106,109,107,106,114,106
108,112,109,109,109,109,109,107,105,109,112,109,108,111,112,113,118,117,124,123,126,125,121,122,122,120,121,120,118,122,121,119,119,116,119,118,114,113,113,111,110,108,110,110,115,110,109,109,107,113,111,111,105,105,105,107,107,109,109,110
106,111,106,110,111,112,109,109,111,115,110,111,110,112,109,109,115,115,123,124,124,124,122,121,122,121,119,118,120,126,121,121,126,121,119,121,116,115,115,115,114,108,109,109,110,111,108,107,107,110,107,109,106,106,109,109,112,109,106,106
110,110,108,111,105,109,108,109,105,113,106,108,108,112,114,113,117,119,120,120,120,122,122,123,124,123,120,116,120,122,122,125,127,123,119,118,114,110,105,111,112,109,106,107,112,116,113,108,109,108,103,109,109,107,110,107,108,106,109,110
110,109,111,113,107,109,108,110,105,112,108,110,110,110,109,115,119,119,115,124,126,129,124,124,121,122,124,119,125,122,117,122,121,119,121,117,115,117,109,110,109,109,109,107,109,108,110,107,108,108,108,113,113,108,107,107,107,107,108,108
111,111,110,110,113,111,109,113,108,110,107,108,109,114,108,114,119,119,115,121,120,119,120,124,122,120,120,115,124,124,128,132,123,118,122,118,117,112,110,111,112,112,108,109,110,106,104,107,109,107,107,108,107,110,109,111,107,108,107,108
106,108,107,106,108,110,107,108,107,107,110,109,105,109,110,115,115,115,114,118,121,121,122,124,124,123,128,121,121,116,126,131,128,123,126,120,119,115,110,108,110,109,105,109,113,110,106,109,109,108,108,106,106,106,105,110,109,111,111,110
108,114,112,109,111,108,110,111,108,104,109,108,109,109,106,113,114,117,117,116,120,125,124,123,119,116,118,120,124,121,121,126,128,124,127,121,121,120,113,110,110,109,112,108,110,111,106,106,108,111,110,106,109,110,110,112,111,105,108,110
106,113,108,108,113,106,107,109,107,111,108,106,115,114,111,115,112,115,120,119,122,126,123,124,122,119,118,118,120,118,119,122,124,121,125,122,118,112,113,115,113,107,113,106,108,110,109,108,102,107,107,109,108,108,105,104,107,106,109,111
110,112,109,108,107,107,108,112,110,113,113,104,109,113,112,116,110,113,119,119,122,121,122,125,116,121,119,118,123,123,126,123,125,121,119,121,119,117,118,111,110,106,114,108,110,110,104,110,105,110,105,110,107,107,106,108,108,108,112,107
109,109,107,106,108,111,109,111,109,108,110,110,109,110,107,114,112,116,119,120,122,121,127,120,117,125,120,118,119,117,120,116,121,123,124,122,119,118,118,111,112,111,111,110,110,114,108,110,105,115,111,112,109,112,110,110,112,107,112,108
109,109,111,108,107,106,110,108,105,110,109,108,110,109,108,116,116,118,118,120,120,120,124,122,122,121,121,122,123,126,121,118,123,121,120,116,112,114,116,112,111,109,110,110,107,110,109,110,103,110,110,107,105,108,106,103,106,106,109,108
111,106,110,112,110,105,107,111,109,109,108,106,111,109,109,113,111,112,112,120,119,120,118,119,118,119,121,123,116,120,118,122,125,122,123,125,117,114,114,111,113,109,108,107,106,110,111,112,108,109,112,106,108,109,110,109,109,108,107,107
110,106,107,108,107,109,111,106,107,105,110,110,110,106,110,110,114,117,119,120,117,119,122,121,121,124,124,123,118,122,126,125,126,121,122,124,121,117,117,111,112,110,109,111,107,110,108,107,107,107,109,106,111,107,106,107,108,109,110,104
110,110,113,112,108,114,113,109,113,108,109,108,111,114,113,109,111,112,113,113,119,120,121,120,120,119,125,123,119,117,123,125,129,123,119,121,125,117,110,110,116,113,112,111,110,113,111,109,112,105,109,106,110,111,107,107,105,106,111,105
110,111,110,110,105,109,108,107,111,105,106,107,110,106,108,112,114,116,119,119,121,121,120,121,122,116,121,119,116,122,117,121,122,121,119,119,120,114,110,109,110,107,115,108,109,105,108,107,110,103,111,105,104,107,108,107,107,109,115,110
106,110,109,111,110,109,107,108,112,108,110,110,112,107,113,113,111,113,117,120,120,117,123,128,129,124,125,122,119,131,122,123,119,117,120,121,119,115,116,113,114,109,114,108,111,109,109,107,107,106,112,109,109,110,110,109,108,107,107,106
109,108,106,109,108,104,107,107,109,107,106,112,115,108,109,111,111,111,116,115,125,123,120,124,126,130,124,124,120,126,120,122,119,119,118,118,117,113,113,109,106,108,113,109,110,111,109,109,108,106,108,108,110,109,106,103,107,108,106,112
109,104,108,111,108,107,107,105,107,108,108,111,110,110,107,113,114,113,119,114,121,123,122,119,120,126,123,127,122,121,119,127,125,119,117,115,123,116,114,114,110,109,111,106,104,109,108,104,107,108,110,110,109,109,111,108,106,110,106,108
115,108,111,108,105,108,109,107,108,107,106,107,107,114,111,112,116,115,119,118,118,116,119,122,121,125,122,124,123,123,120,119,118,111,118,117,116,110,114,115,109,106,109,110,108,107,110,108,112,109,107,111,109,110,110,110,106,108,105,107
110,106,107,109,109,110,109,107,107,109,109,111,109,109,106,112,117,115,122,117,117,121,122,121,120,122,119,121,120,120,122,118,119,117,117,117,112,111,115,115,108,109,111,110,106,107,108,107,109,108,105,106,105,106,105,109,107,105,107,112
108,113,107,106,111,108,107,107,106,110,112,112,109,110,106,113,114,115,119,110,119,122,119,116,124,123,120,121,124,122,124,125,120,118,114,113,111,109,110,111,109,109,109,112,108,107,108,105,109,106,109,107,109,111,107,106,111,108,108,108
106,109,112,106,106,111,111,108,108,107,106,110,111,111,106,109,109,115,122,118,125,125,123,125,126,123,130,125,125,125,119,121,117,115,113,112,113,110,107,109,107,109,109,111,109,106,111,108,109,105,110,106,110,109,112,109,110,108,107,105
111,106,109,112,105,108,105,104,109,107,107,109,110,108,111,110,107,112,110,112,117,116,119,122,123,120,122,127,123,125,124,126,122,117,118,112,113,113,109,113,109,109,112,112,112,108,109,106,109,107,106,103,111,108,109,111,108,105,107,105
108,108,107,111,104,108,110,108,111,109,109,110,111,108,113,112,108,112,111,118,117,123,126,123,123,123,122,127,118,122,126,126,124,117,120,111,114,114,108,112,112,107,107,110,107,108,109,107,111,111,104,101,107,108,107,110,109,107,107,113
107,111,106,110,110,108,110,108,107,109,109,107,108,106,106,109,108,112,114,119,117,125,128,124,119,121,131,132,126,123,124,124,124,113,116,114,114,113,108,108,109,110,109,109,106,110,108,105,111,115,111,107,108,108,102,106,105,107,107,108
106,110,106,108,110,107,111,109,107,110,106,106,109,107,109,115,114,108,112,116,113,119,126,126,121,121,124,124,124,123,124,126,132,121,121,121,113,110,112,113,109,109,105,107,106,107,108,106,109,111,108,107,108,108,103,108,109,109,108,105
107,103,106,109,112,108,108,107,108,110,109,107,108,108,111,108,111,110,111,115,113,119,121,117,122,124,127,127,126,126,128,126,126,123,121,117,113,111,114,114,110,114,112,112,112,108,109,106,110,110,107,105,108,110,108,108,110,108,109,106
106,105,109,108,107,106,108,112,109,108,114,110,110,107,112,106,108,113,116,113,113,120,121,116,121,122,125,128,126,125,130,124,121,120,125,114,116,112,111,110,108,113,107,109,113,105,107,106,106,105,107,106,105,111,110,108,110,104,104,105
111,109,105,108,108,109,108,109,108,108,108,111,110,103,110,107,110,110,112,111,113,115,115,118,123,123,121,128,128,122,124,122,127,121,122,112,117,112,113,109,107,107,106,113,113,104,108,112,107,106,107,107,105,107,109,106,109,105,107,108
114,109,106,113,113,109,110,111,110,110,106,106,110,110,110,107,108,105,109,108,110,114,115,118,119,120,117,121,122,121,121,116,123,113,118,115,112,109,112,111,110,108,103,109,109,107,109,109,109,108,106,104,104,105,110,106,108,109,110,108
108,105,107,108,109,106,108,108,111,109,109,107,109,109,106,116,110,106,113,108,114,113,113,117,114,118,118,117,116,118,123,118,122,112,117,116,112,109,107,110,109,110,112,113,109,108,110,109,108,110,111,113,108,103,108,109,110,107,109,110
108,106,110,110,108,106,107,107,110,108,109,108,111,108,106,112,108,109,112,108,113,107,108,114,108,109,116,116,117,116,119,114,116,109,111,113,110,111,109,110,112,108,105,107,105,105,105,106,108,106,104,106,107,104,106,103,111,110,108,108
111,108,107,108,107,109,109,108,106,109,109,105,110,108,108,109,105,110,112,108,114,108,103,115,113,114,117,114,114,112,114,113,117,111,108,112,109,108,110,107,107,110,105,108,110,108,111,106,109,106,109,110,109,110,111,106,107,107,109,114
108,108,110,111,110,108,108,111,112,111,106,104,111,108,104,110,111,109,108,106,112,111,105,115,110,111,107,109,110,112,113,111,111,108,106,111,110,107,108,109,108,110,106,109,108,105,113,109,110,105,110,106,107,110,109,111,113,107,108,112
110,107,107,105,107,109,107,107,108,112,108,106,113,110,106,103,112,111,108,108,111,105,108,113,107,114,109,110,108,107,113,111,109,108,106,110,109,111,111,114,110,108,105,111,111,110,108,107,110,105,109,108,112,107,106,105,108,106,102,106
108,108,111,111,106,108,109,110,107,111,109,104,107,106,110,109,111,111,107,106,111,111,108,109,108,110,109,114,112,105,112,112,111,111,109,112,107,106,106,106,108,107,103,107,111,112,110,113,111,108,108,105,109,109,110,106,110,113,112,111
106,108,107,110,107,106,109,110,102,109,108,106,108,107,108,109,106,110,111,109,113,112,106,106,108,112,109,110,109,105,109,107,109,109,109,113,112,111,115,106,106,108,105,107,108,107,105,105,108,110,110,106,106,107,108,105,106,109,106,109
106,110,109,110,109,109,112,112,106,115,106,109,112,113,107,109,104,107,109,107,109,107,107,108,103,109,109,116,115,106,106,106,110,104,107,106,107,106,113,106,106,110,110,109,110,109,111,109,111,108,107,111,110,108,109,109,111,113,110,110
107,107,108,111,107,104,106,108,107,109,106,111,106,110,107,114,108,111,109,108,109,108,109,112,108,107,105,107,108,106,110,110,111,108,112,106,107,103,109,108,106,107,109,105,109,108,108,105,109,110,106,107,110,110,106,105,107,108,106,106
109,107,105,106,110,107,107,109,113,111,104,108,106,108,103,105,102,108,110,107,108,109,109,112,109,111,114,111,110,106,109,109,107,106,110,112,111,108,108,111,111,108,112,109,109,108,110,108,108,108,108,105,105,112,109,108,108,109,108,108
110,105,109,108,111,109,110,105,108,111,107,109,109,107,111,110,108,104,109,110,107,107,106,107,106,110,104,103,104,107,111,111,109,109,109,112,108,109,105,108,110,106,107,108,107,106,109,111,111,107,109,107,107,110,105,104,109,110,111,108
110,106,111,110,108,108,112,109,109,110,107,105,111,107,106,107,114,105,111,113,111,110,107,106,108,109,109,111,107,108,108,109,110,109,106,108,105,108,107,109,110,110,107,108,106,107,106,104,110,104,107,106,112,111,107,106,112,105,108,107
110,104,107,108,108,107,109,112,111,108,109,108,111,109,107,109,112,105,111,105,104,105,108,109,110,109,110,111,109,108,105,104,107,111,113,111,110,111,111,108,105,108,107,106,107,108,107,109,109,105,110,108,113,109,109,108,114,110,109,107
108,107,109,107,108,106,109,104,110,112,104,108,109,106,104,103,107,107,115,108,108,109,110,108,107,108,105,107,111,107,111,112,109,106,107,105,107,102,109,108,107,107,106,108,112,109,105,110,107,106,106,103,106,107,105,102,105,108,104,109
111,109,112,107,107,110,113,110,105,110,107,108,106,108,110,108,108,105,110,107,107,108,109,107,109,106,106,106,110,109,110,107,113,109,110,112,115,109,108,105,107,109,107,106,111,112,108,106,110,109,112,110,107,107,108,109,109,112,107,102
110,106,109,109,108,110,105,112,112,105,104,107,110,110,108,111,107,104,102,108,108,108,110,107,110,106,109,106,111,107,109,108,112,107,106,106,109,109,107,106,109,108,110,107,110,105,105,108,111,105,106,109,107,107,107,108,110,108,111,105
111,106,107,108,108,112,109,104,109,113,107,107,111,112,106,107,106,110,109,111,108,110,112,111,111,109,107,107,118,110,108,104,106,107,108,106,105,108,110,110,111,101,108,105,109,111,106,106,106,109,105,107,109,111,106,102,110,107,110,108
110,112,104,104,102,108,109,108,108,109,106,106,108,112,104,108,111,109,109,113,107,109,108,113,105,106,106,104,108,109,110,105,107,110,109,110,110,110,109,106,108,106,113,109,106,109,108,106,103,106,104,108,105,109,107,107,110,106,106,108
115,115,108,111,110,108,108,112,110,110,110,107,107,112,104,112,110,109,106,110,109,110,102,113,107,107,105,105,105,108,111,107,106,110,110,105,107,107,111,108,107,109,106,106,110,106,104,109,105,106,108,110,110,110,107,108,106,106,105,110
107,111,111,110,109,107,107,107,107,107,110,109,107,112,110,107,105,112,108,108,109,113,107,108,107,109,107,109,106,112,108,108,103,105,108,109,108,107,110,110,104,105,112,107,112,107,103,108,112,111,109,104,112,109,108,111,107,108,104,109
109,112,109,111,107,107,104,105,109,107,106,106,106,102,105,105,107,109,108,105,108,106,109,106,113,111,106,111,102,106,109,112,108,108,108,113,112,109,107,108,105,106,111,101,106,107,107,103,108,108,107,103,108,107,106,108,109,108,105,108
110,114,104,105,108,114,110,109,110,108,108,106,114,116,111,105,103,104,109,107,113,106,111,107,109,107,101,110,110,107,108,103,107,110,108,110,109,109,106,105,108,110,113,107,108,110,109,104,106,106,107,107,107,107,106,106,110,108,107,109
106,111,115,107,107,110,109,110,111,107,105,106,108,108,109,111,109,105,109,108,114,108,106,110,107,107,108,106,106,108,110,105,110,109,109,108,105,108,111,105,105,107,110,108,103,110,108,109,110,111,112,111,108,112,110,106,107,110,110,111
103,107,107,106,110,108,106,109,112,109,112,109,108,110,111,112,109,109,109,108,110,112,105,112,106,104,108,107,101,107,105,102,109,104,106,109,103,105,110,109,108,106,107,110,109,111,107,109,110,107,107,108,106,109,105,106,109,110,107,109
112,113,109,109,111,108,105,107,109,104,114,106,106,107,106,107,107,109,106,108,108,107,103,112,111,108,109,108,106,110,108,109,111,106,105,110,108,107,108,106,107,104,107,105,104,106,108,106,107,109,115,109,106,108,106,106,108,105,109,109
107,110,109,105,108,111,107,103,110,106,108,106,110,111,109,107,105,107,105,106,109,108,109,105,106,109,106,107,113,111,108,107,104,104,104,104,106,109,111,110,114,107,110,109,107,108,108,105,106,110,111,105,106,110,110,109,111,107,108,109
104,108,108,106,108,104,105,104,106,109,107,106,109,109,104,108,108,107,109,111,108,106,107,108,111,109,107,104,104,108,107,107,110,109,109,104,105,106,107,106,111,107,107,108,106,105,106,106,107,106,106,106,107,109,110,110,108,107,109,110
107,109,111,110,106,104,104,108,111,111,107,108,109,110,105,108,111,108,106,110,109,108,107,105,109,107,108,113,104,108,109,107,109,106,110,106,109,109,110,110,109,107,108,106,107,108,111,109,109,105,109,112,111,110,102,110,108,106,109,108
