38,53,68
112,115,110,109,113,110,106,108,105,107,108,109,109,112,111,104,103,114,108,109,110,102,108,107,110,107,111,112,109,108,107,106,107,109,110,108,110,106,110,111,111,112,108,111,109,104,114,110,111,110,114,111,105,107,113,105,105,109,111,108
108,112,110,108,108,114,110,109,110,112,103,107,110,117,106,107,110,108,107,109,107,108,111,111,111,108,112,107,107,109,107,115,110,110,110,108,111,110,107,106,112,111,106,109,107,111,113,108,108,109,110,108,106,112,107,107,111,105,108,104
107,108,110,112,116,113,109,111,115,111,110,116,114,109,106,111,111,109,110,107,109,113,105,110,109,108,111,106,110,111,111,106,106,110,110,111,108,108,108,108,114,109,111,110,110,111,111,112,115,111,109,111,108,110,106,108,114,106,106,111
105,106,114,108,104,108,108,111,113,109,108,110,112,105,109,108,107,111,114,112,109,107,107,106,108,113,112,108,110,110,110,108,110,107,106,106,107,110,107,108,111,112,110,102,112,108,106,107,108,108,106,107,110,107,107,111,109,110,113,111
112,113,112,109,111,108,108,108,104,108,116,111,106,104,112,111,108,110,109,113,113,109,115,111,105,108,111,112,110,114,111,109,109,111,110,103,108,109,110,111,104,112,108,108,109,109,112,110,105,111,110,109,110,113,107,110,105,108,111,110
111,107,108,108,108,106,112,106,107,112,113,108,109,111,108,109,109,107,107,109,111,112,110,110,113,108,106,110,109,110,107,105,106,108,115,111,112,110,108,110,110,109,105,113,107,107,109,111,103,110,111,109,109,111,108,109,110,116,110,109
107,108,108,108,110,115,110,108,107,109,107,104,107,108,106,110,110,111,112,114,108,106,109,107,109,112,114,108,114,106,107,110,111,107,108,115,117,112,110,109,109,111,107,112,108,111,107,108,108,108,110,113,111,110,102,102,113,109,108,111
107,110,108,109,114,109,110,113,111,113,109,112,113,109,108,114,107,112,108,111,108,109,109,111,110,108,112,110,110,107,109,107,107,110,109,112,110,105,110,112,107,111,110,110,109,108,112,108,105,106,107,108,100,109,105,109,111,109,109,109
110,111,115,113,110,105,112,109,113,108,107,110,110,112,110,111,107,107,109,106,107,114,108,109,107,113,112,110,108,112,110,114,110,112,108,106,109,106,106,108,107,112,106,108,109,102,108,108,111,111,111,108,108,111,109,111,103,107,107,107
111,109,109,109,110,109,107,110,108,110,114,109,109,112,109,108,110,112,110,109,113,111,105,109,110,112,104,111,109,110,112,107,106,110,113,109,113,111,112,110,108,112,107,117,108,113,113,107,112,108,111,114,110,109,111,110,109,107,110,108
109,114,107,106,108,110,108,111,110,112,106,106,112,113,108,112,112,114,111,108,112,111,113,111,115,111,110,106,110,113,110,107,110,111,108,111,116,109,113,112,110,113,110,112,109,107,107,105,107,111,110,111,108,111,111,106,108,112,112,117
111,109,107,110,109,111,112,110,109,109,105,111,106,106,108,109,112,107,107,114,106,109,112,108,107,106,105,105,110,109,102,112,110,110,109,107,105,109,112,108,110,108,109,106,106,111,113,109,109,109,108,111,110,108,110,112,104,109,110,106
110,108,105,110,110,105,105,105,107,109,106,115,112,110,109,109,111,110,111,106,104,108,111,106,111,111,105,111,109,108,107,112,110,105,108,107,114,108,109,105,107,108,109,104,107,110,106,110,109,110,108,106,106,109,109,107,108,105,107,110
104,107,107,105,111,110,111,110,108,109,106,109,109,110,108,112,110,110,109,107,111,112,106,108,111,107,113,114,113,107,110,112,111,112,110,109,108,105,111,107,111,104,112,112,111,110,110,108,106,108,113,111,111,109,107,110,115,110,110,108
113,109,111,110,109,110,109,108,109,109,108,111,112,118,111,111,108,111,111,114,107,112,110,108,109,110,111,109,109,113,112,111,113,107,108,107,112,115,112,108,108,110,112,111,112,111,109,107,112,115,109,108,108,109,106,111,106,107,110,114
110,111,111,110,108,106,110,110,109,108,113,108,111,109,109,109,110,107,108,108,110,110,109,109,109,111,112,112,107,113,111,109,107,112,111,114,107,108,114,112,111,113,113,112,107,108,110,110,110,108,108,107,108,109,110,113,114,110,110,110
106,108,108,111,113,108,110,111,110,108,116,113,111,108,111,110,112,111,109,110,110,108,110,113,110,108,109,106,111,111,109,109,106,111,111,113,113,111,108,109,111,107,111,111,109,107,111,113,109,107,108,107,109,110,109,112,107,102,108,111
113,112,107,108,108,108,110,109,109,109,107,111,111,112,110,112,112,112,107,114,108,108,104,105,113,107,112,112,111,110,108,108,111,110,107,107,105,109,112,111,105,109,111,106,108,108,108,113,113,109,110,111,111,112,107,108,104,114,111,106
110,110,108,111,109,109,114,110,112,107,107,109,110,109,108,113,109,106,106,110,112,118,112,117,117,107,110,113,110,110,111,107,112,110,109,112,110,110,111,108,109,111,110,107,109,111,107,105,110,112,112,108,108,118,114,110,111,105,110,112
110,112,112,106,111,106,106,107,109,108,109,111,109,106,109,105,108,112,112,114,112,112,110,110,114,111,113,113,113,112,110,112,109,113,113,111,110,112,109,107,113,106,107,102,107,113,110,105,109,110,111,111,108,105,110,110,113,109,109,106
109,111,113,112,115,107,106,108,110,111,115,112,109,110,107,104,111,107,110,112,104,109,113,110,111,111,115,109,111,111,111,114,110,109,109,112,107,114,110,109,109,108,111,109,108,109,107,110,113,107,106,108,107,106,107,110,112,104,110,107
109,113,109,110,108,107,110,111,108,107,112,108,110,114,110,111,112,109,112,113,110,111,111,111,111,110,109,108,113,111,114,112,113,110,113,117,109,109,109,115,105,109,109,112,113,109,109,110,109,110,111,109,109,113,109,111,111,115,108,109
109,111,107,109,114,107,109,110,107,106,110,110,107,113,111,112,110,111,112,112,110,114,111,114,110,110,112,112,115,112,117,119,115,113,112,113,110,109,113,113,108,111,108,104,113,112,108,110,109,107,103,110,112,107,109,111,109,114,106,110
111,111,110,108,114,110,108,111,110,107,109,111,111,111,109,110,109,115,108,110,113,116,110,107,113,112,111,112,114,116,117,119,117,114,118,115,110,108,114,107,108,115,114,111,107,107,112,113,111,107,111,110,112,109,110,108,110,111,111,112
109,111,110,107,107,109,113,113,107,115,111,108,111,113,112,104,106,106,112,112,114,113,113,109,111,112,108,115,117,114,119,119,119,115,115,109,112,112,111,110,111,111,109,110,114,110,109,109,110,107,110,110,113,109,113,108,107,108,110,109
110,109,111,110,110,107,110,112,109,114,115,114,110,114,109,110,113,112,115,111,111,114,111,114,120,121,114,114,116,120,117,119,116,116,113,113,112,115,110,109,112,109,111,110,113,111,111,107,110,109,111,114,107,109,107,108,110,108,108,113
110,112,108,109,111,113,113,109,112,106,106,108,110,113,116,114,110,111,112,114,113,114,114,116,113,112,116,119,121,121,122,125,115,114,114,119,118,115,110,107,107,104,112,108,112,110,104,108,113,110,105,111,111,110,111,110,112,111,112,112
111,106,105,109,114,110,107,107,110,108,109,109,108,109,114,110,113,108,108,114,119,117,117,116,124,121,116,116,119,118,124,116,121,122,121,112,116,111,113,104,114,114,109,110,107,108,107,109,107,108,110,111,111,110,112,108,112,110,108,112
110,111,113,111,110,110,107,110,113,115,110,113,110,108,114,112,111,110,111,112,112,116,118,118,121,118,121,120,122,119,122,119,123,120,120,116,113,112,118,115,114,113,112,112,110,112,115,112,110,113,109,107,110,108,110,109,109,107,107,110
107,107,107,108,109,110,113,116,109,112,115,114,111,109,110,114,112,110,115,118,114,119,119,125,122,122,117,123,122,119,115,123,120,120,117,113,114,115,109,112,112,111,113,110,107,105,110,111,109,111,110,108,107,111,105,108,110,102,105,109
108,111,108,106,107,106,109,111,109,109,111,108,113,112,110,105,111,116,108,111,114,121,122,123,122,123,112,121,122,118,121,123,119,115,116,117,117,112,111,109,104,111,109,110,111,110,108,110,109,109,111,110,110,111,112,115,110,105,110,108
109,110,108,109,108,112,112,109,106,106,108,110,105,109,110,113,106,111,118,119,115,118,115,120,123,121,120,123,116,115,123,121,121,120,119,114,111,117,113,113,108,111,107,113,112,112,111,109,108,109,110,111,111,110,109,105,109,109,112,109
109,111,105,109,110,113,115,112,113,113,109,111,107,113,110,109,111,109,111,115,116,120,119,121,120,125,122,123,119,125,124,117,119,123,121,118,118,117,114,111,109,109,109,116,109,115,110,110,109,109,109,107,109,109,109,107,109,109,108,111
110,109,116,110,108,111,109,110,114,110,111,109,109,109,110,113,113,114,112,112,114,121,125,122,119,120,121,124,120,119,125,123,120,117,122,121,119,117,115,114,113,111,117,109,105,112,112,112,108,106,111,106,107,108,110,108,109,115,113,109
108,109,111,106,110,105,110,109,108,105,110,109,109,112,112,114,107,114,113,117,119,123,119,124,124,122,120,121,119,113,121,126,130,120,124,122,116,118,117,117,110,110,113,105,106,107,106,111,109,109,110,109,108,108,112,110,107,110,108,109
111,114,106,106,117,110,113,110,111,112,109,114,113,109,107,109,115,116,117,120,121,121,116,123,120,120,122,118,118,117,121,122,125,128,123,124,120,113,111,110,110,110,106,112,113,110,112,111,109,112,105,113,108,108,111,109,114,112,110,115
109,112,104,106,109,107,113,113,104,111,112,113,112,113,110,112,115,115,113,114,120,119,115,127,121,121,122,119,118,124,120,124,126,123,120,121,115,114,116,115,113,114,110,111,112,110,108,107,108,113,108,112,111,109,106,106,106,111,110,105
110,105,112,111,110,107,110,110,109,114,110,110,110,113,112,112,108,115,113,118,119,120,119,116,118,123,123,123,121,121,120,127,122,125,121,122,118,118,117,106,112,113,114,110,110,110,111,108,109,108,106,107,109,107,104,104,105,108,111,105
109,110,111,107,110,112,104,107,111,107,113,109,107,114,116,111,117,114,117,120,117,114,119,121,123,119,122,123,120,122,119,123,122,121,118,121,114,113,113,113,113,108,113,116,109,108,111,109,106,107,113,112,105,114,111,112,107,106,109,111
112,111,110,110,109,114,110,109,109,110,110,112,114,114,109,109,108,110,123,119,117,118,120,126,128,123,126,119,126,122,123,123,125,121,128,118,115,119,111,111,111,111,111,108,109,114,108,109,107,111,112,111,112,111,104,110,109,112,109,112
112,109,106,106,111,107,111,111,108,110,109,113,114,111,109,111,114,111,120,115,122,123,124,120,121,120,125,117,124,123,125,125,117,119,119,116,113,111,111,109,111,111,110,113,110,112,108,110,106,107,110,107,109,107,112,112,107,107,109,111
110,111,108,112,113,109,114,111,107,111,112,109,108,107,111,113,116,114,121,117,116,119,123,125,126,118,118,119,125,119,124,123,119,121,119,116,118,114,112,111,112,110,111,110,110,110,111,110,106,107,108,110,109,109,111,109,115,109,110,110
113,110,109,114,107,114,112,108,115,109,112,112,109,110,113,116,113,111,119,119,115,118,120,116,117,119,122,115,120,121,126,122,124,124,125,117,118,115,115,115,113,112,110,107,111,108,107,109,110,112,106,111,115,108,111,107,109,108,107,108
112,109,111,110,109,113,108,103,110,111,111,111,114,112,112,109,112,118,117,120,115,129,119,122,124,123,122,124,123,124,123,123,121,122,118,116,113,110,111,110,109,110,114,112,112,108,108,112,113,112,111,113,112,111,110,111,108,108,106,108
107,110,113,113,110,108,110,112,109,112,112,111,113,110,117,113,113,115,115,121,120,121,117,117,117,122,121,118,123,124,123,120,122,122,117,117,111,112,113,113,110,111,113,114,116,110,104,105,111,111,112,109,105,113,114,113,109,111,109,109
110,113,113,113,111,109,109,112,116,111,110,115,112,110,113,113,115,118,118,115,116,116,119,119,122,123,122,120,131,125,127,119,123,119,123,117,114,111,111,113,111,109,110,112,113,114,113,110,110,109,109,108,108,113,107,109,113,113,109,110
110,112,113,107,115,111,113,108,106,109,114,113,111,113,112,112,113,114,112,116,119,114,116,123,122,121,122,130,125,124,126,125,124,119,116,112,115,113,111,107,113,111,113,111,111,111,109,110,109,108,114,114,106,109,107,109,107,107,112,110
109,107,110,110,111,105,109,112,113,111,112,109,114,112,109,115,111,114,112,119,121,123,122,124,126,127,121,124,121,121,118,119,122,122,115,118,119,114,110,111,114,108,102,108,111,108,105,108,110,112,109,111,112,110,109,105,108,111,107,107
108,111,113,109,108,108,113,110,102,113,113,109,114,113,110,110,111,114,115,122,125,120,117,123,124,125,127,130,124,125,119,117,116,118,117,115,111,110,115,112,110,108,107,110,109,109,111,111,108,109,107,108,109,107,108,108,111,109,107,107
111,108,108,106,110,106,110,112,109,113,107,111,110,112,111,114,116,115,120,127,122,121,126,125,128,128,128,128,128,125,122,125,125,117,121,120,113,111,112,107,109,108,112,110,104,107,111,109,114,109,110,110,109,106,109,111,111,109,107,111
110,111,113,107,113,110,109,110,111,112,107,110,109,115,117,118,118,120,117,128,129,132,131,131,129,126,129,128,128,129,126,121,118,116,113,113,114,112,113,113,112,109,108,108,109,106,111,108,106,111,113,110,107,111,111,109,107,108,109,113
106,108,110,110,111,113,114,111,108,114,112,114,111,111,113,115,117,119,122,127,135,133,125,136,134,128,131,136,136,130,128,124,119,117,113,113,108,113,110,111,112,114,115,113,107,109,112,110,111,110,106,107,109,112,110,111,109,108,107,109
107,114,111,113,114,114,105,109,109,110,113,116,117,114,113,115,117,121,123,122,131,129,132,136,136,131,131,136,137,128,132,127,121,121,115,115,118,112,105,112,114,111,109,114,111,116,108,107,109,109,108,109,113,109,105,105,111,114,114,111
113,110,106,113,109,109,114,109,110,110,110,115,113,110,115,117,114,118,125,130,129,136,144,132,134,127,133,133,128,131,133,123,119,117,114,118,117,113,109,113,111,114,116,111,111,113,111,108,110,110,112,112,109,112,111,110,113,112,111,112
110,109,113,111,108,110,107,109,111,113,110,110,108,111,113,112,119,119,121,134,134,138,132,131,134,130,134,130,125,125,131,125,126,125,116,114,109,116,111,112,113,109,104,107,110,110,105,110,109,109,112,106,109,110,110,112,112,107,108,111
111,108,109,107,108,112,108,113,109,114,114,112,110,109,115,114,112,118,121,126,129,136,131,135,133,131,131,129,127,127,132,123,121,120,120,115,112,113,109,110,111,108,108,114,113,113,109,113,109,109,113,111,107,107,108,111,104,107,112,106
108,109,112,113,110,108,110,111,109,106,107,111,110,115,118,114,117,123,120,128,125,126,132,128,125,127,132,127,128,131,131,124,119,117,117,113,111,111,109,110,106,111,109,108,107,113,110,110,107,113,111,112,107,107,108,107,110,114,108,109
110,109,110,109,109,108,110,110,113,111,111,113,114,108,114,118,114,120,121,122,124,126,126,124,129,129,125,125,129,132,130,125,126,124,118,117,115,117,112,111,110,112,112,115,108,110,108,111,108,108,106,108,114,112,112,114,113,109,110,106
111,110,110,111,110,108,109,108,108,112,113,110,110,113,113,117,112,115,121,124,125,127,130,129,128,126,122,132,127,124,130,120,126,117,118,120,117,117,113,112,111,110,110,110,111,109,114,115,114,109,109,111,112,112,110,107,110,107,113,110
110,111,108,113,112,111,112,112,107,111,115,114,112,114,114,117,119,122,123,123,121,123,124,129,125,125,127,123,124,127,125,121,120,122,124,116,115,112,109,113,115,112,109,109,111,107,106,108,106,107,107,114,108,103,111,110,109,111,113,105
111,109,108,107,111,110,109,107,110,111,110,112,112,112,114,114,110,117,120,123,123,126,125,128,127,121,126,127,122,126,127,127,124,119,117,113,113,110,110,110,112,113,105,110,114,112,112,110,104,110,115,112,109,114,113,108,107,109,115,105
114,106,108,111,114,109,112,111,110,111,115,110,113,116,108,113,111,121,121,120,120,124,127,121,125,126,123,124,127,126,125,129,120,123,125,115,116,116,111,112,114,112,113,117,113,113,111,106,109,108,114,111,109,109,112,106,110,112,109,110
110,104,112,113,111,106,114,111,110,111,108,111,107,107,112,117,119,115,118,124,126,130,124,122,128,126,124,124,124,126,128,130,124,120,116,114,112,112,114,113,112,110,112,110,110,112,111,111,111,113,110,107,109,110,110,109,111,109,105,112
112,105,109,108,110,110,110,109,111,108,111,112,107,107,112,113,112,115,121,125,123,124,119,125,120,120,123,125,120,128,127,125,125,126,123,117,116,111,109,109,110,108,112,111,107,112,107,109,111,113,106,109,109,110,105,109,106,102,107,110
110,111,111,112,108,110,114,112,109,113,116,108,112,110,117,115,111,115,120,117,111,116,118,119,123,123,121,118,123,124,121,127,126,125,115,119,118,111,112,107,113,110,109,112,113,114,108,109,112,108,107,109,107,111,110,113,110,110,113,112
110,113,110,105,111,111,109,105,112,115,108,112,111,108,109,113,115,117,118,116,119,123,121,122,121,122,127,125,124,124,121,118,130,125,120,116,114,115,110,111,113,113,113,109,106,109,112,110,105,111,108,112,111,109,106,108,110,111,109,109
106,108,115,109,113,113,108,108,109,114,112,113,111,114,116,117,117,118,115,114,121,114,116,120,122,117,119,121,122,125,121,119,127,123,120,118,110,113,110,111,107,107,111,111,109,106,112,105,110,114,109,110,110,110,108,107,112,115,115,110
110,107,109,111,112,107,104,105,111,113,105,107,109,109,111,110,111,113,115,116,112,116,120,119,122,116,116,120,121,126,122,119,123,122,120,112,113,111,111,113,109,108,106,108,110,109,111,106,112,112,106,108,107,112,109,105,109,108,109,108
113,112,107,108,108,108,108,107,109,114,109,108,110,109,113,114,115,112,114,119,118,117,116,120,121,121,117,123,121,126,123,122,120,116,118,115,117,117,112,114,112,110,108,109,108,113,112,112,111,108,111,111,108,108,115,108,108,107,109,107
108,111,111,112,104,109,111,115,115,110,109,112,111,114,114,113,112,109,112,113,115,118,116,118,116,120,117,118,117,122,125,128,124,120,116,114,112,114,114,111,107,112,110,109,105,111,108,109,107,104,112,108,108,110,110,105,108,112,110,109
109,108,110,108,106,107,110,112,112,113,113,112,106,109,110,113,111,113,116,119,122,118,117,115,113,114,119,120,122,121,122,120,120,121,116,115,116,113,107,111,110,113,111,108,107,110,109,109,109,108,113,110,109,109,105,109,108,107,108,113
111,110,110,109,107,110,111,113,108,112,110,112,110,111,111,112,112,110,113,114,120,111,119,120,120,121,123,123,120,120,121,125,121,117,116,113,115,112,111,113,111,111,108,110,111,111,109,108,107,110,108,105,113,108,106,106,109,108,106,104
110,112,112,109,111,112,110,108,111,110,106,107,110,115,115,113,108,114,116,112,115,120,117,121,121,123,112,114,124,115,122,122,120,116,118,115,111,111,110,107,107,108,111,114,109,106,110,103,107,114,106,106,112,107,114,109,108,111,108,108
111,107,110,109,110,110,108,108,110,111,112,103,106,107,105,112,107,112,114,112,115,123,118,122,116,114,117,118,121,120,126,121,124,117,112,111,112,110,112,112,108,111,110,107,109,107,111,108,107,110,110,111,106,110,111,105,106,108,109,113
112,111,108,109,111,106,108,112,104,108,113,108,112,107,113,110,113,112,113,117,123,117,121,118,117,120,120,118,117,121,124,119,118,116,112,111,118,109,110,107,107,106,111,111,110,108,108,107,112,112,109,108,107,112,107,109,107,107,115,109
106,108,110,109,109,110,112,108,109,110,107,106,111,107,114,106,107,112,114,118,121,115,119,119,123,116,117,115,115,113,123,116,122,114,110,111,107,111,115,111,112,110,107,108,105,106,111,108,111,110,112,107,109,107,106,111,113,108,110,108
109,109,108,111,112,110,113,112,113,112,108,112,112,110,113,110,108,108,114,114,117,115,121,121,119,123,124,124,121,121,123,117,117,111,114,114,109,111,109,110,112,108,115,109,110,111,109,108,110,108,112,108,111,115,111,108,107,108,106,112
109,109,112,107,111,109,106,111,109,107,107,111,113,110,112,112,112,108,114,112,113,118,124,126,118,120,117,121,118,116,115,115,113,118,116,112,116,111,114,109,112,107,111,106,112,112,111,109,108,109,107,106,109,107,108,108,108,110,104,114
116,114,112,107,109,106,107,110,111,113,112,110,110,111,108,111,108,109,115,116,117,117,114,120,116,115,119,119,119,120,117,117,113,112,110,116,113,110,117,113,110,109,111,112,109,107,108,109,108,107,104,111,106,104,104,111,107,109,105,112
110,113,113,117,110,112,112,112,110,110,109,111,109,108,107,108,108,111,117,114,113,115,116,113,114,115,115,114,116,116,110,112,110,108,110,112,105,109,110,112,112,112,112,105,108,109,110,109,109,111,107,108,107,113,109,109,109,109,109,107
109,109,106,108,111,113,109,113,110,110,112,111,113,115,111,109,110,114,111,111,121,113,115,115,115,117,111,107,108,113,115,111,109,113,111,109,113,115,111,107,110,112,109,111,111,108,110,109,108,108,109,108,111,112,112,111,109,107,113,113
109,108,106,107,111,114,109,109,109,109,111,106,111,112,104,111,110,113,109,113,112,112,114,114,108,114,119,116,112,110,110,112,110,107,111,113,113,108,114,112,115,111,107,106,109,111,114,109,109,107,109,109,106,105,108,112,111,107,112,109
107,110,106,111,108,109,110,112,111,109,109,105,109,106,108,112,109,113,113,114,112,112,111,116,111,117,115,111,114,113,111,110,112,113,109,111,109,110,113,114,111,110,111,112,108,107,111,111,111,105,114,110,113,108,106,108,103,105,111,112
113,116,107,108,111,109,109,106,109,109,108,110,110,106,108,108,105,106,111,108,108,115,111,112,110,111,111,111,113,112,112,111,113,109,109,112,109,105,109,111,107,110,110,107,109,110,110,106,109,110,111,108,111,106,112,109,109,109,113,110
107,112,112,113,114,113,111,107,109,109,113,110,108,111,108,109,112,112,111,114,109,105,112,110,109,110,113,111,112,106,105,107,114,112,111,109,111,111,110,108,110,107,113,111,109,111,108,107,108,113,114,107,109,109,112,110,113,104,113,107
109,105,110,114,112,111,113,111,111,108,106,109,110,109,111,116,112,111,113,112,111,114,111,109,114,113,111,109,112,107,112,112,113,110,109,107,109,113,111,111,109,107,110,107,108,110,110,109,107,106,110,104,109,114,101,107,111,110,104,108
112,111,114,112,109,108,107,113,112,108,113,114,111,106,109,109,104,108,109,108,111,110,112,110,107,111,110,112,115,108,112,111,111,110,112,111,111,105,107,112,115,115,115,109,109,106,109,108,111,108,108,108,107,108,112,114,109,108,111,115
109,113,110,108,107,106,107,110,106,106,109,110,111,105,109,109,111,110,110,110,108,109,112,113,109,114,114,111,110,107,110,112,112,108,109,108,109,110,112,109,111,109,113,111,110,109,108,109,103,107,114,111,109,111,110,111,109,110,107,108
109,109,111,108,106,109,110,115,114,110,108,108,109,111,114,110,110,110,110,108,107,111,111,108,110,110,112,111,108,106,114,108,109,115,106,110,110,107,107,109,107,105,108,108,107,107,107,109,108,109,111,107,111,111,109,114,109,110,112,107
108,106,113,113,112,111,108,107,109,109,113,111,110,117,108,108,111,109,106,109,111,109,114,113,112,108,107,107,110,107,111,111,106,110,107,108,112,113,113,109,112,113,111,110,105,112,110,113,114,113,108,110,113,110,113,110,107,107,110,112
113,111,108,109,106,108,111,110,112,111,115,115,115,115,112,110,106,110,113,107,109,112,109,113,108,111,116,112,109,114,110,110,112,113,112,109,110,106,108,109,110,109,110,109,111,110,109,110,105,106,105,113,111,107,108,107,110,110,107,108
115,112,108,108,112,109,106,110,106,108,110,112,110,110,110,108,111,109,110,113,110,112,113,110,110,115,117,111,108,110,112,114,107,110,111,110,105,110,110,110,108,110,113,109,113,108,107,111,110,109,111,112,111,111,111,114,114,109,107,109
110,111,108,113,107,107,106,108,112,110,110,105,108,111,105,102,112,111,106,107,110,112,111,107,106,101,108,108,114,110,109,111,110,110,113,111,106,109,105,107,109,111,107,108,107,109,108,113,108,110,112,106,109,111,111,108,109,107,112,108
107,111,108,113,111,111,109,111,110,105,110,107,110,109,112,109,108,111,110,109,110,108,109,107,111,110,112,112,110,108,109,113,113,110,110,109,109,107,109,108,109,112,107,112,111,107,111,110,108,112,108,106,109,109,107,109,110,109,108,108
109,107,108,106,105,107,109,108,106,109,112,110,111,110,112,114,111,115,109,106,107,111,109,112,112,111,112,110,109,107,112,112,108,112,114,110,108,109,111,109,112,108,109,110,110,110,113,113,113,108,105,107,109,110,108,114,109,109,104,115
109,109,110,106,110,107,108,111,108,113,112,107,109,111,108,109,109,109,109,109,110,110,109,114,107,109,109,110,107,106,111,107,113,114,113,108,107,113,112,107,109,108,112,113,111,108,108,110,108,108,105,107,109,108,106,112,110,109,111,109
111,108,110,108,112,112,109,110,110,109,110,107,108,109,105,108,110,104,104,105,112,109,106,111,108,111,109,113,112,112,108,106,108,106,111,114,110,112,108,111,109,105,111,108,111,108,109,112,112,112,111,113,108,109,111,107,105,107,109,109
111,108,113,107,108,111,113,111,109,111,110,111,111,110,113,111,108,112,110,107,108,108,113,111,111,114,112,112,109,108,110,109,112,111,113,108,104,109,109,110,112,107,109,109,107,110,111,110,111,109,110,110,110,111,109,108,114,109,107,107
109,107,109,106,110,108,109,112,107,111,110,109,106,109,114,109,111,116,110,108,111,109,111,107,108,112,109,110,113,110,107,110,115,107,111,112,113,110,115,110,108,111,106,105,111,114,107,108,108,110,110,106,108,109,108,110,107,111,111,110
111,109,115,110,110,107,108,110,114,104,108,109,106,112,112,109,108,109,109,112,111,112,113,108,110,109,110,112,112,112,111,110,106,107,107,112,112,110,113,111,105,111,107,113,110,115,107,112,105,103,108,110,110,110,109,108,107,114,108,104
