36,47,58
110,111,110,107,108,107,109,107,106,109,111,112,111,108,113,110,105,108,107,109,108,108,106,112,110,106,109,107,107,111,113,116,112,112,112,112,113,113,110,110,108,106,110,109,112,107,112,114,113,111,106,106,109,112,110,107,107,111,110,110
103,112,112,108,112,112,108,108,106,107,109,113,107,106,111,109,107,110,107,109,108,111,110,111,105,112,114,109,111,108,111,111,106,110,109,109,110,112,112,114,111,109,111,109,115,110,111,109,107,108,110,110,106,109,110,107,106,110,107,110
106,109,107,106,112,114,108,103,106,106,106,109,108,110,107,107,110,112,110,115,107,110,111,109,109,115,108,110,111,110,107,110,111,113,111,110,113,113,108,108,104,108,112,111,112,111,113,112,108,107,106,110,108,109,107,106,106,109,109,110
109,107,104,106,108,108,102,105,111,109,108,106,102,108,109,107,109,112,111,112,106,114,111,105,106,109,111,109,108,113,107,104,109,114,113,116,109,107,108,112,108,109,111,111,108,108,109,107,110,110,103,112,111,109,109,115,112,110,110,111
109,110,105,108,110,108,107,111,110,106,109,111,108,111,108,107,113,110,106,107,108,115,110,108,109,111,112,106,110,112,111,109,112,115,103,110,103,109,109,110,107,109,109,110,110,107,109,105,106,109,105,114,108,105,107,110,106,111,110,106
107,112,111,110,110,107,108,110,107,105,110,111,108,107,110,109,111,108,110,108,108,112,109,109,112,111,110,104,109,107,113,110,108,115,112,115,111,111,107,110,112,114,113,110,108,107,112,111,107,111,109,109,106,109,114,113,107,110,109,110
112,111,111,110,111,113,107,106,110,109,110,109,110,113,113,110,110,107,113,113,109,111,111,112,111,110,109,115,116,113,113,108,110,114,112,113,111,113,116,114,112,113,112,109,111,109,108,110,108,109,108,109,111,110,111,108,111,107,105,110
111,110,106,106,108,111,107,109,108,107,110,110,111,107,104,109,111,110,112,108,105,107,107,111,114,113,111,113,108,110,110,113,110,115,113,110,108,112,112,111,110,109,109,111,113,110,108,112,109,110,108,111,109,106,111,109,114,109,113,110
104,106,104,106,108,109,107,109,107,108,104,107,113,109,110,110,113,105,107,109,109,107,105,110,112,111,110,111,112,113,111,107,107,118,115,116,114,116,116,117,117,116,114,114,116,111,109,109,106,109,108,111,111,113,113,105,106,105,110,109
110,110,112,106,107,108,112,114,111,111,110,111,109,106,108,107,112,108,109,110,106,108,105,112,109,108,112,109,112,113,110,111,113,119,116,116,117,112,109,111,111,114,114,113,111,110,111,112,111,111,107,108,110,107,112,112,110,110,111,108
111,106,111,108,105,105,109,108,110,110,112,108,111,111,110,106,107,108,110,108,107,109,104,111,111,111,112,110,114,114,116,115,112,117,114,115,118,114,112,119,116,111,109,111,111,114,112,111,111,115,109,109,114,108,109,110,104,107,110,106
109,109,111,112,109,111,112,110,114,109,108,112,114,107,110,109,108,106,113,109,109,112,116,113,110,113,116,113,116,112,114,113,120,121,121,118,122,119,118,118,115,114,115,112,111,117,110,107,108,112,110,109,113,111,110,110,106,110,109,108
106,110,108,109,106,106,106,109,107,108,110,110,106,109,111,112,110,105,109,109,106,107,109,111,110,113,115,117,121,120,119,123,123,114,119,117,118,114,116,118,113,115,116,120,113,113,112,111,109,113,113,111,110,105,106,109,108,107,107,110
110,110,106,111,107,111,109,113,107,108,108,109,109,111,111,110,110,113,111,109,106,112,111,112,110,113,111,115,115,119,118,120,119,121,123,116,121,122,121,118,117,119,113,111,109,110,114,114,113,112,108,106,108,111,110,108,115,110,111,115
105,111,112,108,103,111,109,107,109,110,108,113,110,109,106,110,115,113,107,112,112,114,109,111,111,115,114,118,122,121,128,130,124,126,125,121,123,124,123,120,120,120,120,119,116,112,110,108,111,109,110,109,108,109,108,110,116,107,109,109
107,115,108,106,111,111,110,107,108,109,105,108,110,108,105,108,106,111,113,110,108,109,108,113,115,115,114,116,124,118,122,129,124,127,122,125,128,127,127,121,122,120,119,118,117,113,108,113,112,108,107,108,113,107,102,109,113,108,111,110
109,110,105,112,115,109,111,110,111,110,110,110,110,109,107,111,108,109,108,106,110,110,115,113,112,112,119,121,123,128,129,134,125,125,124,129,125,128,131,127,128,121,120,116,117,116,112,118,109,111,113,111,114,110,107,113,112,111,111,111
109,109,108,107,106,107,114,112,109,109,111,110,106,111,110,112,110,111,109,107,110,110,109,111,113,117,123,126,124,128,129,130,133,134,131,129,125,134,132,128,128,118,122,117,114,113,112,118,115,111,114,112,112,109,107,109,108,108,107,107
107,107,108,107,107,114,114,110,108,111,114,113,112,115,108,111,109,110,112,107,108,113,109,114,114,119,118,125,128,130,132,128,131,134,133,130,133,136,130,127,131,122,124,118,116,115,113,114,112,110,109,107,108,107,108,109,110,110,111,110
111,108,107,107,108,108,107,110,107,107,112,108,106,110,107,108,106,111,112,104,107,111,110,118,121,122,124,131,132,131,134,128,127,129,128,128,128,128,135,131,132,126,124,121,120,118,118,112,115,114,109,111,113,113,108,107,110,106,106,108
113,107,106,108,105,107,105,109,107,109,110,107,111,112,108,111,108,115,113,111,117,117,113,116,118,118,120,126,130,131,134,129,125,127,128,130,130,133,137,133,131,123,120,117,118,113,112,113,117,112,108,112,109,110,113,111,110,108,115,111
109,107,107,109,107,113,108,112,111,112,111,110,109,109,106,113,107,107,107,109,108,109,112,114,118,127,127,128,129,133,130,130,132,127,128,131,134,132,129,128,127,124,120,115,117,114,110,113,112,110,111,112,110,109,111,110,110,111,109,109
109,114,108,105,109,115,108,111,113,111,110,109,103,108,110,111,110,109,112,112,113,110,119,116,117,121,123,129,129,135,132,130,127,124,131,133,136,130,131,128,125,123,121,123,119,115,112,115,112,110,109,109,109,110,111,108,108,111,107,110
109,111,109,112,111,109,111,110,109,106,109,109,108,111,112,110,107,111,116,111,115,110,116,117,122,124,126,129,126,127,130,126,126,128,130,130,131,130,138,129,128,125,122,122,119,112,111,116,112,114,110,112,106,110,114,112,111,114,111,112
104,111,112,111,109,108,111,107,110,109,105,110,111,111,113,110,108,110,113,111,115,111,119,119,117,118,125,126,123,125,130,128,134,131,130,129,128,129,133,122,124,124,119,115,118,112,113,114,114,119,114,112,106,112,111,108,103,107,109,111
103,103,105,111,107,108,110,104,108,109,110,114,105,107,111,105,107,110,114,110,113,115,117,119,121,124,122,123,125,125,126,120,126,129,128,127,129,128,127,129,120,118,115,112,115,113,119,115,112,111,109,111,112,112,109,114,110,112,108,107
108,107,109,114,109,109,110,109,110,104,106,109,104,107,112,110,110,108,114,114,113,116,115,115,120,121,124,126,125,125,119,126,131,127,127,131,131,132,127,131,124,124,125,118,118,111,110,113,116,112,110,114,110,106,110,112,108,107,107,108
114,112,111,108,112,113,112,110,111,110,109,112,112,110,111,112,111,110,113,113,107,112,117,114,120,117,123,122,123,127,128,131,127,124,129,132,129,131,127,124,121,123,123,114,117,115,118,114,115,113,114,109,107,110,112,109,112,108,110,112
108,107,108,106,113,111,111,112,106,110,108,108,108,110,113,112,111,113,113,113,115,112,114,114,118,117,125,129,133,127,124,127,125,124,129,133,131,132,127,128,129,123,123,117,119,118,116,113,109,109,111,109,112,112,110,108,110,104,109,107
109,108,108,110,110,109,106,110,110,111,112,112,111,110,112,109,111,109,108,108,111,112,118,115,115,120,127,125,128,127,128,130,129,128,131,131,128,131,132,129,129,122,120,122,118,116,113,114,116,114,108,112,114,111,110,108,108,108,112,110
111,111,104,109,107,109,110,108,108,107,111,113,110,110,108,107,110,108,110,109,114,113,115,118,116,120,119,123,123,125,127,122,126,131,132,130,133,133,133,130,132,121,119,125,118,118,116,112,111,112,112,115,113,108,108,107,108,106,106,105
107,109,109,110,110,110,113,110,109,111,112,109,109,112,111,108,107,109,114,110,113,112,115,116,119,124,122,126,127,131,124,131,137,127,128,132,133,131,130,125,125,125,131,126,117,121,121,115,113,113,114,113,112,112,112,110,111,109,111,108
110,109,108,108,110,111,110,108,112,111,110,110,106,110,111,108,105,107,112,112,112,112,117,119,121,117,119,122,129,134,122,129,125,130,136,136,133,134,131,132,132,134,131,124,123,121,119,113,114,113,115,112,111,108,111,110,110,108,113,113
113,108,109,106,107,108,112,108,114,111,108,114,110,113,108,113,111,113,107,107,112,116,115,119,119,119,124,125,128,128,127,131,127,134,128,129,128,139,132,133,132,129,126,129,121,116,118,114,113,113,116,112,115,109,111,111,112,112,113,112
110,104,110,109,105,102,108,105,108,109,113,109,102,113,110,108,106,109,108,109,114,117,114,118,121,123,121,126,129,126,130,129,127,131,130,137,128,133,131,137,134,134,132,134,121,123,116,114,119,114,112,107,108,109,111,112,109,107,111,111
108,107,111,111,110,110,110,105,112,110,110,112,113,110,109,107,109,110,110,111,114,115,116,118,117,124,122,128,134,133,133,130,129,127,129,135,135,135,133,137,132,134,135,128,120,121,111,113,119,114,114,110,113,110,110,107,109,113,112,109
103,111,115,109,110,104,110,104,108,108,106,109,107,104,107,108,112,113,112,113,114,114,113,117,118,124,128,130,131,134,133,131,133,132,131,134,133,130,132,140,137,131,130,128,124,121,116,114,114,114,114,110,116,112,112,109,109,110,106,109
107,109,108,105,110,108,111,107,109,110,108,107,110,111,112,110,111,115,115,114,112,107,113,118,118,124,121,126,131,128,129,133,129,130,129,129,130,133,131,129,134,132,132,131,122,114,117,116,114,114,111,108,114,109,111,112,108,116,111,111
111,110,111,108,111,112,113,111,110,108,107,110,110,106,110,111,111,110,110,112,114,109,119,119,120,120,123,130,132,131,130,126,124,132,135,133,134,130,130,125,133,130,128,127,127,120,121,116,114,113,113,112,112,111,110,110,107,111,105,113
109,109,114,108,111,113,112,110,110,109,108,109,111,108,107,108,109,110,106,108,114,114,116,116,118,124,130,131,131,134,132,126,129,132,131,127,128,131,133,128,139,133,130,128,122,120,120,113,115,115,114,113,112,109,108,112,113,112,106,112
113,110,113,107,113,110,108,107,109,106,112,109,109,105,108,109,109,113,112,115,105,110,113,116,118,127,132,128,129,133,129,129,134,136,132,131,130,131,133,126,127,126,130,131,124,122,118,118,120,113,111,114,116,114,113,108,108,108,109,106
108,109,109,109,111,112,110,108,109,105,109,105,113,111,115,113,111,114,110,111,106,112,116,115,116,124,127,130,133,135,132,129,127,129,129,131,131,128,128,129,137,134,131,126,123,118,113,115,115,111,113,112,109,109,109,110,107,108,112,112
109,113,110,110,106,112,109,109,113,110,109,105,110,110,111,113,111,111,111,113,112,110,111,113,114,125,124,127,133,139,138,134,134,137,133,137,136,137,136,136,137,129,134,132,129,122,121,122,112,112,111,109,118,116,108,112,112,109,106,106
112,109,107,109,111,112,107,109,113,110,109,108,110,108,110,111,110,112,114,112,107,112,112,120,118,123,124,135,134,136,132,132,135,133,122,135,132,128,133,130,135,132,129,125,128,123,118,117,108,115,112,109,114,109,107,111,111,110,107,110
114,111,112,111,109,105,112,110,110,109,106,111,111,108,109,110,111,109,111,112,112,116,118,119,115,117,121,127,129,140,137,139,138,139,135,140,140,139,138,138,140,139,136,130,127,123,120,121,114,117,116,113,114,112,111,110,109,111,106,109
107,104,108,105,112,107,110,111,113,113,107,106,107,110,109,114,115,110,110,113,113,112,115,118,121,125,130,128,129,135,137,141,140,143,136,138,143,144,132,138,139,138,141,132,133,133,124,121,113,112,109,113,112,110,113,111,110,109,111,113
111,108,111,107,110,105,111,111,107,110,114,110,110,109,108,110,110,107,112,113,113,115,111,116,114,119,125,126,136,139,141,138,139,148,142,142,138,142,142,142,139,133,139,135,131,122,120,118,116,116,117,117,113,111,113,109,113,112,112,111
107,108,108,110,114,109,113,112,108,110,107,106,111,108,109,110,113,106,109,112,112,119,115,120,120,121,129,132,139,142,140,150,144,145,139,140,136,140,137,138,140,139,143,135,133,129,126,116,118,114,112,108,115,115,111,105,109,109,107,107
107,110,111,109,107,110,108,108,106,110,110,111,109,109,115,111,108,108,107,112,115,113,111,113,116,120,129,133,133,145,139,149,148,147,144,147,140,149,143,141,136,138,138,128,125,120,114,115,117,114,114,115,115,112,112,108,111,111,110,108
111,113,108,110,105,109,105,108,112,110,106,110,108,111,114,112,110,111,112,115,110,113,115,112,116,123,123,127,131,141,141,153,147,145,147,142,132,146,141,136,136,135,134,134,132,126,123,120,115,110,113,109,110,106,111,113,112,112,114,108
105,105,105,108,109,115,108,109,110,109,109,111,110,107,108,109,112,110,112,114,109,112,115,113,115,116,116,129,131,141,142,150,143,143,141,141,142,143,135,134,139,136,135,134,127,125,126,122,117,113,121,111,112,111,108,109,110,109,108,106
112,107,111,109,109,113,113,109,110,109,112,108,107,111,111,111,114,114,110,111,110,110,113,114,116,126,130,133,131,140,135,137,141,143,136,137,138,136,130,133,131,129,134,126,123,124,123,116,113,113,115,110,114,117,112,108,109,113,112,111
114,110,111,109,109,110,111,105,107,107,109,108,108,109,110,109,107,113,111,110,110,111,112,110,117,123,125,128,130,134,135,132,138,136,136,136,133,136,125,134,133,131,139,125,126,123,118,113,115,115,114,112,115,113,111,108,110,112,109,111
109,109,109,111,110,113,111,111,111,108,107,113,112,106,109,110,110,113,109,110,110,113,117,111,115,114,123,128,133,127,134,130,135,133,129,132,134,134,126,130,131,125,130,128,133,129,118,109,115,111,113,111,108,108,110,111,115,112,109,109
112,112,111,114,112,113,106,111,110,111,107,110,109,109,114,109,111,115,112,111,108,114,116,114,119,122,121,121,124,126,132,132,138,132,126,130,135,125,124,130,135,129,131,125,123,123,115,114,121,114,117,115,112,114,107,111,108,106,105,111
109,106,105,109,111,113,105,111,108,113,105,110,109,109,112,107,114,113,106,108,114,116,116,113,118,120,118,122,121,130,130,131,130,130,124,127,130,128,134,129,133,131,133,126,122,122,114,119,117,113,116,112,111,115,113,113,110,112,109,112
113,106,105,112,109,111,112,111,106,115,110,114,109,111,113,110,113,112,111,113,112,111,110,111,117,118,120,123,125,129,131,134,128,132,133,132,133,129,131,129,133,128,130,128,123,118,118,122,115,112,114,113,116,108,110,110,109,106,106,108
112,112,109,109,107,109,110,107,106,107,106,114,107,107,109,111,110,108,112,111,109,118,120,118,117,116,120,117,126,128,131,131,132,128,127,125,128,126,131,128,134,130,129,125,125,124,120,116,113,110,109,113,114,108,111,108,110,112,112,105
109,110,112,111,113,111,109,108,111,110,109,112,111,111,111,112,113,109,114,116,111,113,116,113,117,120,127,124,129,126,128,130,136,130,130,131,132,132,135,132,132,132,132,124,126,120,116,116,120,117,117,114,115,111,112,109,109,109,114,104
108,106,108,109,109,111,113,107,107,106,111,109,108,108,109,109,113,108,111,112,113,115,118,114,120,123,122,117,128,133,131,131,137,132,136,136,132,134,131,130,138,136,134,127,134,123,120,120,118,115,118,110,111,105,107,111,112,110,113,103
106,109,109,111,108,110,113,108,109,109,109,104,114,117,110,107,110,110,113,111,113,117,120,118,123,120,122,125,131,129,131,133,132,131,137,135,135,136,127,131,135,124,130,129,132,122,122,121,112,114,114,110,113,110,108,108,109,107,107,108
106,112,113,110,108,108,108,109,114,113,109,106,110,110,109,107,110,111,113,113,110,114,117,118,123,128,128,133,136,131,137,140,136,137,139,132,133,138,135,137,137,133,139,127,125,122,123,116,111,117,112,110,109,115,114,110,112,109,107,109
105,113,112,107,109,114,110,109,110,110,112,112,109,109,113,112,111,111,110,109,112,119,117,117,122,130,130,135,138,138,139,135,134,132,135,134,138,134,134,137,135,135,136,130,128,120,122,116,111,115,112,110,110,111,109,110,112,108,111,111
110,110,108,110,113,113,111,111,108,107,108,107,107,113,109,110,111,112,112,111,113,116,115,120,128,133,129,138,140,136,141,134,135,137,135,136,141,137,136,135,131,138,131,124,126,126,122,118,115,114,111,111,118,113,112,111,105,107,114,111
111,111,109,107,109,107,106,110,110,109,109,109,107,113,109,109,111,110,113,114,115,116,116,120,123,129,130,136,135,136,143,139,138,136,136,139,143,141,139,139,136,136,131,126,122,123,116,113,116,113,110,111,113,107,110,111,111,112,112,111
109,106,104,107,108,109,112,109,107,107,109,106,106,110,109,111,113,107,112,112,112,113,117,123,125,136,137,141,137,136,140,137,136,138,142,142,143,134,132,126,135,140,134,126,120,121,115,113,116,112,109,113,112,110,110,107,108,110,111,108
113,112,110,113,108,111,110,111,111,109,111,113,112,114,111,109,111,107,112,117,116,115,122,124,128,139,135,141,144,138,145,144,139,138,138,138,140,135,150,146,135,133,128,124,125,122,118,118,116,110,110,110,109,106,112,107,106,109,109,107
111,106,110,111,109,112,110,113,112,109,111,107,107,111,111,112,114,109,110,114,111,116,125,130,131,138,139,140,137,132,143,141,140,135,136,136,141,131,132,134,126,135,130,122,117,112,113,113,114,109,108,109,112,107,111,107,110,112,111,107
105,109,114,108,108,108,110,113,113,109,110,109,113,111,115,112,116,113,115,119,113,120,122,123,130,137,140,146,142,140,141,135,138,136,133,133,135,131,128,131,132,133,125,123,120,118,121,116,118,118,114,112,113,108,116,108,108,111,108,110
107,110,110,108,111,110,110,108,108,109,108,113,112,107,109,105,113,114,114,112,115,123,128,123,129,138,143,144,136,139,138,133,137,133,133,136,132,132,131,134,131,127,123,123,121,117,114,111,110,112,110,109,112,108,110,108,110,110,107,108
112,113,116,109,109,109,107,108,108,106,106,112,111,110,113,110,112,111,111,113,116,118,124,132,133,137,142,142,136,136,139,137,137,132,130,131,128,127,125,127,128,122,126,123,120,115,110,115,113,112,110,113,110,105,115,114,109,111,114,110
104,106,110,108,111,110,110,112,112,106,111,113,112,111,109,113,114,113,113,118,119,123,120,132,134,140,141,138,141,146,139,139,128,132,132,131,130,130,124,120,125,123,122,114,114,115,115,115,115,111,111,113,110,109,115,111,106,108,110,108
104,111,111,112,110,108,108,111,110,107,110,108,112,113,111,115,114,115,118,119,121,124,123,131,130,144,140,142,143,145,132,135,133,132,129,127,126,134,128,124,124,122,120,120,117,116,114,110,113,110,110,113,113,111,113,113,112,115,110,114
108,110,108,110,112,110,109,107,107,111,111,106,112,116,113,115,114,109,110,112,121,122,127,133,136,145,140,141,139,137,137,141,135,129,132,129,131,129,120,124,122,118,115,116,114,114,111,110,117,115,110,107,106,105,108,109,108,105,108,113
111,113,110,111,114,110,108,105,105,109,110,110,113,112,107,112,115,112,111,117,119,119,132,131,137,140,136,139,135,133,139,133,131,130,128,127,130,123,126,125,120,118,115,111,113,116,115,111,111,108,109,114,113,109,114,112,111,109,116,111
111,107,107,108,113,108,106,111,108,112,110,112,111,109,111,111,111,113,120,121,116,118,127,125,136,134,139,141,135,134,132,131,135,133,128,131,131,121,123,118,121,120,115,114,114,111,110,108,110,111,110,110,111,108,114,110,107,108,107,112
109,106,110,108,110,110,115,113,105,109,108,110,110,111,112,112,112,111,117,115,115,127,129,134,137,132,139,135,138,139,135,133,131,130,131,130,129,127,123,123,118,114,111,118,119,116,114,109,108,107,110,109,110,107,113,109,107,110,103,109
109,109,111,108,111,106,109,112,110,113,110,108,110,109,111,112,114,114,118,114,115,120,120,127,130,130,134,130,133,131,133,134,133,134,136,133,134,129,121,118,118,123,115,116,112,114,111,110,110,110,115,108,110,105,108,103,105,110,104,110
111,109,111,112,114,110,111,109,108,111,104,110,112,110,108,111,116,109,112,114,118,119,126,127,134,132,130,126,129,129,133,138,132,133,135,134,131,126,122,121,115,115,113,119,112,111,108,106,110,108,110,109,112,107,110,112,111,111,107,105
106,104,107,106,106,108,114,109,111,109,108,110,106,113,111,113,113,110,114,112,122,126,127,125,131,127,129,127,133,134,132,135,133,134,137,135,130,124,126,125,120,120,119,115,113,110,114,111,111,109,105,108,107,111,114,111,109,107,113,112
110,109,111,111,107,104,110,106,109,108,113,111,106,111,112,111,109,109,112,115,119,117,126,129,129,125,131,129,132,129,129,131,131,135,136,128,131,126,127,121,120,119,121,112,118,113,112,108,108,111,110,110,109,107,107,109,111,107,111,100
107,108,109,111,110,111,116,108,109,114,115,111,110,116,111,108,114,110,110,117,121,123,122,124,131,129,128,132,126,122,131,134,134,135,135,132,132,125,125,119,122,115,114,114,118,107,111,113,110,113,112,109,108,105,108,110,107,106,108,105
111,108,110,109,114,111,107,108,109,107,109,108,107,110,109,110,113,113,118,117,115,121,122,127,128,132,125,127,124,130,135,129,130,131,131,132,125,127,125,119,117,110,112,114,111,108,111,110,108,112,107,108,111,113,111,107,105,107,107,109
107,106,107,107,110,109,107,111,109,107,111,109,108,113,111,111,108,111,113,115,116,118,129,130,124,128,123,125,125,130,130,123,139,134,134,134,127,129,121,119,118,112,110,115,109,115,112,113,114,113,107,109,110,105,106,107,105,108,109,110
104,106,110,110,112,110,110,110,112,112,110,109,108,109,106,110,110,114,115,112,115,115,123,124,127,134,132,132,133,135,135,126,139,134,133,130,127,125,119,120,120,116,112,115,111,113,109,112,106,106,107,107,108,103,110,109,106,110,114,113
113,109,111,106,112,108,112,111,113,110,111,111,108,113,112,113,113,110,113,110,116,114,117,123,126,130,131,134,130,131,131,128,135,130,125,125,125,121,116,114,113,112,112,112,111,116,112,112,108,110,107,110,110,108,112,110,110,111,110,107
110,107,113,111,113,104,105,108,111,107,108,106,107,115,110,110,112,109,115,112,117,118,121,131,131,131,130,130,121,125,123,125,129,130,122,126,124,119,115,109,113,112,109,109,112,111,113,112,107,106,110,113,109,105,109,109,116,109,106,104
109,107,112,114,108,110,114,112,108,111,112,112,110,109,106,113,111,109,115,113,113,119,117,122,122,125,126,127,129,128,131,126,123,130,124,125,118,113,119,116,113,115,113,113,112,108,113,111,108,111,113,107,110,109,111,111,109,108,111,108
114,113,109,108,108,110,108,111,107,109,106,108,108,110,107,111,112,112,110,115,114,114,109,124,123,125,121,121,127,123,130,124,127,123,116,120,110,115,117,119,111,111,111,112,109,107,108,106,106,108,109,106,114,112,110,111,107,113,110,108
109,106,106,111,113,110,106,108,107,111,109,109,108,112,109,114,111,107,107,117,111,117,120,123,118,125,120,122,122,121,122,118,118,113,116,117,108,113,106,115,112,107,110,114,111,110,112,107,110,109,106,104,114,111,109,110,106,106,110,108
109,108,109,112,111,106,109,111,108,112,108,112,112,114,109,114,110,110,109,113,111,117,112,119,116,119,120,119,112,114,116,120,114,111,115,116,111,110,109,115,113,110,110,112,111,111,108,105,113,109,110,108,114,109,110,109,107,112,114,110
109,112,108,110,109,109,107,109,106,112,109,110,103,109,109,112,109,110,113,117,113,112,111,116,117,116,115,117,117,116,111,117,113,115,115,114,115,114,112,109,112,110,111,114,114,113,110,109,112,108,109,109,110,107,108,109,109,111,108,109
105,110,105,108,107,111,105,111,108,109,110,114,110,109,114,111,109,109,112,109,108,111,116,111,116,114,111,113,106,113,112,111,110,117,113,113,111,111,111,105,112,106,105,111,112,107,107,110,109,109,108,108,110,111,108,112,111,109,107,110
111,113,108,110,112,112,109,111,105,111,109,112,114,111,116,111,104,107,113,111,116,111,111,110,116,112,113,115,110,115,112,112,112,113,116,114,106,106,111,113,110,110,109,113,117,107,109,108,108,108,112,111,109,112,110,108,110,113,106,111
112,105,105,112,112,106,110,110,111,110,107,112,111,111,109,109,108,109,109,109,113,113,115,114,111,109,115,117,110,108,112,116,113,108,111,112,109,107,112,110,104,110,112,109,110,106,113,108,112,109,114,109,107,110,112,109,111,117,112,110
114,112,106,112,109,105,111,107,109,109,112,113,101,108,110,107,109,112,114,111,113,112,108,110,109,110,111,112,110,111,114,112,114,109,111,110,111,110,110,111,107,111,112,111,108,108,111,105,112,109,108,108,111,109,109,107,107,109,107,106
108,108,108,108,104,105,108,110,109,110,110,110,108,111,110,106,108,107,111,113,113,111,114,114,108,109,107,110,112,112,110,111,111,106,110,107,110,111,108,109,109,113,104,109,111,111,112,111,112,112,111,112,113,110,110,110,110,109,109,108
110,108,109,108,110,112,110,110,109,111,112,106,106,111,112,113,113,107,109,107,108,109,112,110,109,110,106,108,105,110,111,110,109,110,112,107,109,111,111,108,106,113,109,111,110,108,110,112,107,110,111,110,109,110,107,109,109,109,107,112
112,110,108,107,107,111,108,113,109,107,109,109,112,111,106,112,108,107,110,109,111,114,113,109,108,111,109,112,112,109,107,113,113,108,111,111,113,105,109,109,106,108,105,108,107,111,110,113,109,110,111,114,110,112,110,112,111,113,109,113
114,112,110,109,108,115,110,109,104,104,108,108,110,108,108,110,105,109,107,108,111,110,108,111,110,110,108,107,112,108,107,111,104,108,114,110,110,106,108,110,109,109,110,113,107,110,109,108,112,115,110,106,103,109,105,104,110,110,107,111
