38,53,68
110,107,108,109,108,110,109,108,110,103,108,108,110,113,108,112,108,108,111,108,111,107,111,113,115,110,116,112,110,114,114,108,111,114,109,107,109,109,110,111,108,111,111,109,108,113,112,108,106,111,111,111,112,115,108,112,111,109,111,112
108,108,110,114,108,111,107,106,109,109,112,108,103,111,110,109,108,109,110,107,111,111,112,109,109,108,111,113,108,106,109,109,108,105,111,109,111,102,112,112,110,109,112,106,108,111,113,112,108,109,114,111,110,105,108,109,105,107,107,108
112,107,111,111,109,107,109,108,110,110,109,110,112,108,107,110,111,108,111,110,109,111,109,109,109,108,111,113,110,108,108,111,111,108,110,107,110,105,110,108,108,111,109,107,112,111,111,111,109,105,109,111,109,111,114,108,110,111,109,111
112,111,108,110,110,110,109,110,110,112,108,107,111,108,109,113,112,105,111,107,109,107,109,109,111,114,110,107,112,107,111,114,110,109,116,115,114,110,107,108,108,112,111,117,113,110,113,112,108,109,111,109,110,116,110,112,114,110,109,106
112,113,109,111,109,115,112,113,108,109,110,110,111,111,112,110,106,109,112,108,117,108,109,108,108,115,110,109,110,109,110,107,108,108,108,101,112,109,108,107,108,111,108,110,110,110,109,110,109,111,110,110,113,111,108,111,116,112,110,108
110,110,109,110,111,109,108,109,107,111,110,110,106,108,104,105,109,107,109,105,107,112,106,111,111,107,111,110,108,107,112,108,110,109,110,105,111,112,110,111,109,110,108,107,111,111,110,113,111,112,113,113,109,108,110,107,111,112,112,109
103,110,108,108,107,106,108,107,106,111,106,109,112,112,113,107,108,109,110,107,111,112,107,108,108,106,109,108,111,109,109,113,109,112,111,111,109,111,112,112,110,113,111,110,109,108,113,111,109,109,113,116,113,110,111,116,112,104,108,111
109,110,112,109,107,110,106,107,110,110,106,107,109,104,112,112,112,113,109,108,107,114,108,112,107,112,108,108,111,110,104,108,112,113,108,111,107,110,110,112,110,110,111,112,107,105,108,113,115,113,109,109,116,114,106,113,111,111,111,111
110,108,108,109,107,107,107,107,110,107,108,109,110,109,105,107,106,109,108,109,108,114,108,110,102,114,109,108,103,111,111,109,109,112,109,108,107,109,111,112,108,110,115,109,109,113,108,111,111,112,111,113,110,112,114,114,111,116,113,114
109,109,107,110,110,107,109,107,107,109,108,107,110,108,108,112,110,110,111,114,108,111,110,109,110,112,110,106,105,110,108,111,109,111,104,108,110,113,111,112,113,108,108,108,111,113,115,110,109,117,110,114,117,111,115,115,118,116,113,113
106,109,114,108,109,110,110,112,110,109,106,111,108,108,110,110,107,108,110,112,109,111,110,107,112,109,110,107,109,109,107,108,111,110,111,107,106,111,107,114,112,109,112,110,110,108,110,111,110,116,115,119,113,109,120,116,116,114,116,114
110,107,112,110,109,111,111,107,110,114,114,109,108,112,109,113,113,109,105,109,110,115,112,107,111,112,113,114,115,109,112,108,111,106,113,112,109,109,109,112,111,114,111,106,116,111,113,112,111,118,115,117,122,124,126,126,126,120,123,119
108,109,111,108,108,113,111,109,109,106,106,106,108,110,109,107,107,108,106,114,106,112,109,108,107,108,112,109,110,110,109,110,114,112,111,112,108,110,113,112,110,111,116,110,113,109,115,113,109,116,123,122,127,128,126,132,133,124,126,121
106,108,112,110,110,106,109,108,108,107,107,109,109,109,109,108,111,112,110,109,108,116,105,110,112,106,112,111,111,113,110,113,109,109,113,113,108,110,107,110,111,110,111,109,113,112,113,113,116,121,125,130,134,137,140,133,134,131,130,121
107,105,110,108,109,106,110,110,108,109,105,107,112,113,107,110,113,115,110,109,110,109,112,111,111,108,110,110,108,114,107,111,112,111,110,112,111,112,110,114,111,111,112,109,111,117,113,116,119,126,130,140,149,153,152,145,145,138,135,138
107,105,106,110,112,111,107,110,110,107,106,107,108,114,109,107,109,111,106,106,111,107,108,110,110,108,108,109,108,108,112,108,107,114,110,115,112,113,111,108,108,111,111,113,107,109,114,122,120,135,140,153,157,162,156,158,156,148,143,142
109,111,111,108,109,109,105,104,110,109,108,107,104,107,110,108,114,111,112,109,110,113,113,111,117,113,114,113,110,108,111,109,112,114,110,110,108,109,112,114,108,113,109,116,116,115,116,124,128,139,152,156,153,169,165,157,154,152,139,139
109,109,113,109,110,109,113,108,107,111,108,109,109,103,111,106,111,112,108,110,107,105,112,109,111,113,111,118,112,110,113,108,109,112,111,111,111,109,109,113,113,111,109,115,111,117,118,119,128,138,146,149,152,158,157,155,159,151,147,142
107,109,108,110,106,108,105,109,110,110,106,107,105,110,105,107,111,111,109,108,106,108,109,115,109,109,109,110,109,109,110,110,112,114,115,115,110,107,113,112,111,113,113,113,113,115,119,123,125,133,143,149,147,155,151,150,145,147,151,147
109,111,108,113,107,113,111,111,108,110,108,109,112,111,107,108,109,109,109,105,111,111,109,110,109,109,110,110,107,114,113,114,112,112,112,109,114,110,111,117,113,108,109,110,116,115,115,125,124,126,135,150,152,150,149,155,151,137,136,144
110,114,113,113,110,111,110,110,110,110,112,105,110,109,111,109,108,109,110,109,109,111,114,109,111,115,111,110,108,110,109,113,111,113,117,115,116,117,116,113,115,117,112,116,119,117,111,120,121,125,131,140,143,149,149,141,145,142,143,145
109,112,104,104,108,110,106,110,108,107,114,110,109,112,113,109,109,112,111,114,114,113,109,109,111,111,116,115,111,111,114,113,117,115,113,118,114,108,110,112,112,116,116,116,114,117,119,118,123,136,138,137,146,148,143,146,147,144,142,147
105,110,112,110,112,111,109,110,112,108,106,107,109,107,105,106,108,110,111,110,105,108,109,109,110,108,106,112,111,112,116,118,118,117,120,120,117,121,124,117,117,120,116,114,113,117,116,118,126,132,135,140,141,147,155,154,143,142,147,148
105,111,112,109,109,110,109,109,113,104,110,111,111,108,108,108,112,111,110,112,110,108,112,114,112,111,110,112,111,119,116,119,121,117,126,125,124,125,123,116,119,123,112,112,116,119,118,120,124,131,137,147,153,156,148,153,158,157,152,154
111,111,105,106,111,112,107,105,110,110,111,107,113,109,108,109,107,112,115,110,110,109,111,110,109,109,115,113,114,113,120,121,120,125,131,119,122,123,123,122,121,123,120,115,114,114,117,120,126,131,137,144,149,153,155,155,158,161,160,160
110,109,115,110,109,108,110,111,108,107,110,108,111,107,105,110,109,112,113,110,112,107,111,110,114,110,115,116,120,119,124,128,121,126,124,125,126,130,128,128,128,122,120,118,115,119,120,120,126,134,137,141,147,156,166,162,160,165,166,163
106,106,111,111,110,112,110,110,111,108,106,109,108,109,107,109,109,106,110,108,111,112,111,112,114,115,115,115,116,122,123,128,126,126,126,130,131,131,130,126,128,127,119,119,119,116,118,121,127,134,139,143,152,160,161,161,167,175,170,162
108,112,110,110,108,110,111,110,109,110,109,109,109,105,108,108,111,107,110,111,112,112,109,110,110,114,114,117,124,119,122,121,127,127,130,127,131,132,133,129,121,125,121,119,117,117,118,120,129,137,144,138,149,163,163,167,176,182,169,166
107,108,106,107,110,108,110,111,105,110,109,111,109,108,112,110,107,110,111,105,109,110,114,108,106,113,122,113,121,122,124,123,125,126,126,128,125,130,128,126,122,124,123,121,114,118,119,123,132,137,139,142,149,158,161,175,176,176,170,168
106,110,113,110,111,109,107,110,111,116,111,110,108,114,110,108,113,107,112,111,109,112,115,111,115,114,119,120,124,122,132,121,126,128,126,130,130,125,122,123,129,124,123,120,119,121,119,120,122,136,139,147,147,163,179,180,177,179,179,169
108,110,108,110,113,109,110,109,109,109,110,112,108,107,108,111,111,107,106,112,109,112,108,113,110,114,116,121,128,123,127,120,130,125,128,125,131,127,127,133,123,122,124,122,118,120,119,120,127,131,134,149,148,160,167,175,184,180,186,174
111,108,104,106,104,108,107,106,109,110,109,110,110,107,109,108,108,111,112,112,108,111,110,115,113,119,120,120,127,126,126,122,127,124,127,131,123,129,128,120,123,124,123,121,114,119,119,119,124,129,139,149,150,153,163,171,177,180,184,173
111,113,109,110,109,109,111,110,108,109,110,108,116,110,109,110,106,108,114,114,113,108,111,111,115,118,120,122,118,124,129,129,121,125,122,128,119,121,134,130,129,124,124,122,116,113,114,119,125,131,135,144,153,158,163,170,174,175,170,172
107,106,113,108,104,111,111,109,110,109,107,108,107,109,109,107,108,110,109,113,115,109,109,114,115,117,117,126,126,130,128,134,125,121,126,124,126,120,127,130,124,119,118,121,116,114,116,121,120,131,133,139,144,154,161,164,173,174,171,172
112,106,107,112,114,111,107,109,106,110,106,111,112,106,110,114,112,109,112,112,107,113,113,113,119,121,124,127,123,130,128,126,129,128,128,126,131,128,131,128,122,128,123,122,118,121,117,117,121,128,140,145,149,149,152,159,164,167,162,165
114,108,109,108,113,109,108,106,108,111,104,109,107,109,111,106,109,111,109,107,112,109,109,113,115,116,119,123,126,121,120,128,127,131,126,121,128,123,122,127,122,122,121,118,120,121,122,117,126,124,130,139,143,148,144,148,156,153,154,165
108,107,114,103,115,106,108,109,105,108,106,108,109,110,107,115,112,112,113,110,114,114,107,118,119,117,115,127,131,132,129,126,122,123,127,130,127,124,124,123,123,124,119,116,115,113,115,117,120,124,127,128,128,132,143,135,141,144,149,157
111,107,106,106,109,109,107,109,107,112,111,107,107,107,109,113,110,106,109,110,109,114,111,113,112,121,123,126,120,125,126,125,125,120,126,127,125,127,129,120,120,119,118,116,117,113,113,114,117,124,122,122,125,123,132,130,137,136,143,156
108,112,110,111,107,110,111,112,109,109,115,110,107,109,108,109,109,111,108,108,111,112,112,108,114,118,114,120,121,127,126,125,127,127,124,127,125,121,125,124,122,123,122,121,120,112,118,116,111,115,122,122,122,121,121,127,130,136,146,156
106,109,114,108,110,109,109,110,110,108,109,114,109,114,113,112,106,111,108,111,109,106,113,114,116,116,113,122,125,128,126,124,128,130,126,128,127,130,123,125,125,121,120,118,120,118,114,113,116,113,113,115,121,120,119,121,125,136,144,148
109,109,110,110,110,102,108,108,106,108,104,112,112,111,109,110,110,112,109,110,116,111,107,110,117,121,116,122,123,126,128,126,125,124,125,122,127,126,120,124,118,123,123,120,120,111,113,107,111,113,113,114,116,119,121,119,127,132,133,138
110,108,110,112,111,106,109,111,106,107,108,107,110,108,111,111,111,109,112,110,111,113,108,109,113,117,119,121,122,125,123,123,127,121,129,126,129,126,128,132,131,127,123,120,121,117,120,110,116,111,108,113,109,112,110,113,120,130,132,135
111,108,107,109,105,108,109,109,111,109,111,111,109,110,106,107,110,109,109,106,110,116,107,114,115,121,120,119,122,126,125,119,121,128,127,124,127,124,125,123,124,124,124,123,122,114,112,116,113,114,115,118,113,115,116,121,116,124,132,130
113,108,110,112,109,113,113,108,113,114,110,110,107,108,108,113,111,109,108,112,113,114,114,114,118,123,125,119,126,131,127,125,124,125,127,126,127,124,124,126,132,130,128,120,122,117,109,113,109,109,115,112,111,115,114,116,120,114,122,125
107,106,108,108,110,112,112,104,106,111,107,112,107,108,111,110,110,112,107,110,111,113,111,109,113,119,121,119,127,127,116,125,127,126,127,121,129,126,128,123,121,130,128,121,122,123,118,113,113,111,115,117,113,112,112,112,118,117,116,122
106,110,108,107,112,109,107,111,108,106,109,109,108,109,112,111,113,110,109,108,108,111,107,112,113,123,124,124,121,125,125,128,121,122,123,122,126,122,127,128,125,129,127,120,119,113,113,112,108,110,111,112,110,111,116,112,108,115,114,113
110,110,104,108,108,112,111,109,112,109,107,107,113,110,111,111,112,110,111,110,109,107,112,114,118,115,120,126,118,129,127,125,121,123,126,122,121,121,123,118,125,123,123,123,119,121,115,112,114,115,110,107,111,110,112,114,111,110,114,116
110,113,105,108,109,108,111,108,111,110,104,106,108,110,108,112,108,111,110,113,117,114,114,109,110,114,120,122,119,128,126,123,128,121,125,115,127,124,122,122,127,127,121,117,117,119,118,112,115,108,114,112,116,113,112,116,118,112,116,118
109,108,114,111,109,107,112,108,110,108,111,107,109,108,109,112,110,110,111,113,113,112,112,114,115,116,122,125,122,128,127,121,125,124,124,123,129,123,126,124,119,119,123,122,127,118,113,113,118,116,122,110,112,109,114,110,117,114,111,110
108,109,113,111,109,110,112,109,108,107,109,104,114,109,112,106,109,109,111,110,111,111,110,114,117,117,120,129,125,125,128,127,127,117,123,128,122,119,124,126,122,127,122,120,123,117,113,111,111,111,110,106,109,113,111,110,110,110,109,114
102,111,110,108,110,107,106,111,109,112,112,110,105,106,109,109,112,112,109,107,110,112,113,114,118,114,118,125,127,128,129,125,128,131,123,119,121,121,127,129,125,124,122,123,119,114,116,112,117,109,107,112,108,110,113,112,113,111,111,108
104,108,107,110,111,112,109,110,110,109,112,113,108,110,111,111,109,112,109,107,108,111,113,108,113,117,126,119,127,124,123,123,123,124,122,127,126,122,126,123,123,128,125,124,122,117,116,110,113,113,110,112,115,112,113,111,111,111,114,108
106,110,113,110,109,111,109,108,111,112,109,108,113,112,108,110,108,112,117,116,115,108,107,113,119,122,121,124,131,134,124,120,121,126,123,123,123,118,121,124,127,127,125,124,120,120,114,116,111,110,109,110,112,112,111,114,110,114,110,110
107,107,106,110,109,109,109,110,110,110,108,106,110,111,109,109,109,104,110,111,108,111,111,108,114,123,125,126,122,129,129,128,127,118,120,122,129,128,129,126,124,123,120,122,120,118,116,116,113,109,116,115,109,109,110,111,107,111,110,107
108,103,107,109,108,110,111,110,109,109,109,109,108,111,110,109,117,112,109,114,112,107,113,112,113,118,123,126,125,127,127,122,119,119,123,121,127,120,123,127,121,126,121,120,121,119,118,116,115,108,113,110,112,109,110,113,109,108,114,109
109,108,108,109,108,106,110,111,112,112,108,109,108,112,106,107,109,109,108,109,104,106,111,114,118,123,119,121,127,128,124,127,128,127,124,125,125,124,126,125,128,128,125,122,126,117,113,114,111,113,113,109,106,107,108,108,113,109,112,112
113,109,108,109,108,112,111,108,112,110,108,105,112,112,111,114,110,110,114,115,114,110,112,112,117,122,116,117,125,128,127,126,124,120,125,122,125,125,124,119,125,129,127,125,127,115,114,114,110,111,114,113,111,107,111,109,114,112,109,112
109,109,108,109,110,106,110,108,112,108,112,104,107,105,104,108,112,110,112,112,111,111,111,108,112,117,118,118,125,124,120,123,125,120,120,124,126,126,128,126,128,127,124,122,118,117,118,114,111,107,113,112,113,109,115,106,112,111,111,113
107,111,110,110,110,107,111,112,106,107,110,111,109,111,112,110,109,109,110,114,109,113,113,111,112,117,116,120,122,121,126,123,124,127,120,119,125,125,126,125,126,130,125,117,118,115,117,115,112,113,113,113,108,108,112,106,109,110,109,109
111,109,108,109,106,108,106,109,110,109,105,109,108,112,109,113,111,111,109,117,103,110,112,113,113,117,120,122,124,126,127,123,121,120,124,122,130,130,127,126,129,128,127,125,122,114,114,115,108,109,107,114,108,105,105,106,107,108,112,113
109,106,107,110,110,108,111,113,112,113,110,110,109,109,108,107,105,109,109,112,110,111,113,115,112,118,120,120,120,131,129,132,123,125,125,126,126,130,133,129,130,123,125,122,124,116,118,113,112,109,108,106,109,112,108,107,111,112,110,112
109,109,106,110,110,109,111,109,106,109,112,111,110,110,110,109,114,112,111,111,114,111,113,115,114,111,119,127,124,130,120,129,121,122,117,124,128,129,130,131,130,123,123,118,123,111,118,109,110,109,114,111,111,112,113,109,103,109,109,112
111,109,109,112,110,110,111,113,112,108,108,111,111,107,112,110,106,107,109,114,111,113,112,112,118,115,124,125,125,124,123,128,124,126,124,118,121,131,130,125,128,129,129,125,118,116,111,108,116,114,111,112,110,110,106,109,108,110,110,113
105,109,110,106,107,110,110,107,113,107,107,111,112,109,112,110,109,111,110,110,107,114,113,106,118,116,124,124,130,125,126,127,128,123,122,122,127,132,128,132,128,131,120,121,118,119,113,112,112,112,112,115,111,109,111,110,116,109,103,111
107,111,110,110,111,109,113,107,106,109,108,105,109,109,109,109,112,112,111,113,110,110,114,113,112,111,123,123,125,126,127,125,122,127,124,130,128,126,121,123,128,128,123,128,123,118,115,113,112,110,114,111,113,110,113,111,110,115,106,101
110,106,113,113,107,106,112,115,109,109,112,110,115,109,107,110,110,112,110,104,108,105,109,116,116,115,118,120,123,129,121,124,123,132,127,131,127,127,127,131,126,125,128,127,117,121,116,110,114,110,109,110,107,110,110,114,107,113,115,109
112,108,112,109,109,106,106,114,111,105,112,109,108,114,114,110,106,109,111,105,110,111,108,108,115,119,121,126,124,129,129,130,122,116,121,119,123,128,121,124,130,130,121,127,121,113,117,113,110,113,113,113,107,111,111,113,112,105,111,110
107,110,108,106,108,107,115,110,109,113,107,112,107,109,110,112,109,108,112,110,110,111,113,109,112,115,115,117,125,130,129,126,127,121,128,127,123,121,126,124,126,124,126,120,117,118,114,115,112,108,109,110,109,111,115,111,110,108,111,109
106,108,109,106,111,103,113,110,107,108,107,108,111,106,112,109,111,113,115,107,115,112,113,111,111,114,121,124,123,125,130,126,130,124,127,123,122,119,125,126,124,126,125,120,119,117,110,118,112,108,106,108,111,111,112,111,109,108,108,109
110,111,109,109,107,110,112,109,111,109,106,104,109,109,112,112,110,108,110,104,108,108,108,114,112,115,112,119,120,123,132,126,127,125,122,123,127,125,127,122,123,126,120,125,118,117,113,113,110,113,113,110,112,109,108,114,113,106,113,107
102,107,105,113,108,105,107,110,110,109,108,117,114,111,110,111,110,105,111,112,110,114,114,116,113,118,119,121,125,127,128,124,127,125,128,127,122,115,116,123,128,119,118,124,120,119,116,109,112,115,108,109,108,111,111,111,108,107,114,107
109,108,110,113,109,107,113,111,113,112,109,111,111,108,108,107,109,110,108,110,113,107,108,109,109,111,117,123,124,128,129,132,134,130,123,128,121,119,124,127,126,122,125,125,119,116,118,115,111,109,110,110,110,108,106,112,110,108,111,110
108,108,109,109,110,109,111,107,111,108,109,108,110,111,113,106,108,108,110,108,108,106,108,114,116,113,115,122,122,132,130,127,125,127,126,128,125,122,126,125,122,127,124,122,118,115,112,114,114,111,108,106,110,114,109,108,109,112,111,112
107,109,110,110,113,109,111,109,108,109,110,108,111,104,112,111,114,113,113,114,112,112,111,113,115,118,117,126,124,122,127,128,123,119,122,125,125,129,130,126,123,127,121,122,120,117,115,116,113,111,107,111,107,114,112,111,111,106,106,109
107,109,109,106,112,105,112,112,108,109,109,106,107,109,113,114,110,108,109,109,110,109,112,115,112,117,122,125,126,126,129,135,131,125,134,124,123,127,125,128,125,122,115,118,119,114,113,111,113,112,110,107,113,112,111,110,112,108,110,108
107,110,106,104,105,106,107,106,102,110,110,113,108,111,107,108,110,109,109,107,111,110,106,113,116,114,120,124,124,125,124,124,125,124,126,124,128,129,125,123,126,124,122,116,117,119,117,113,111,107,108,106,106,110,108,107,112,109,111,105
110,110,114,104,106,111,110,109,110,113,106,108,109,109,109,114,108,109,106,107,107,110,107,113,115,114,116,123,124,127,134,127,127,127,124,127,129,123,126,132,131,128,126,125,121,115,109,116,106,108,113,116,107,111,112,107,112,113,109,108
113,109,109,107,114,107,110,112,110,114,112,109,110,106,107,116,107,114,111,109,108,112,113,112,111,115,115,113,115,125,127,125,126,122,118,125,131,127,124,126,129,126,122,119,116,112,112,113,108,112,110,108,111,110,111,110,111,115,109,110
110,112,108,111,110,109,108,114,104,107,109,111,109,114,109,110,107,112,108,109,116,110,111,109,115,120,115,123,121,125,123,129,125,123,123,121,122,126,128,124,125,123,122,116,119,111,115,118,108,108,110,111,112,108,108,107,109,109,106,110
107,107,107,108,112,109,108,110,107,108,105,111,110,116,107,109,110,111,113,110,110,108,111,111,112,114,112,114,120,121,123,131,125,131,125,120,122,130,131,125,120,121,116,114,114,108,112,116,110,110,112,104,109,108,109,106,112,112,110,109
109,110,114,107,105,110,111,106,112,114,110,108,109,113,110,108,106,107,109,104,111,109,112,110,109,111,113,115,118,118,124,126,121,123,126,129,125,124,124,125,120,123,116,114,112,115,111,111,109,110,116,110,104,108,112,110,106,110,110,111
108,108,109,107,106,109,106,111,113,109,114,109,114,114,115,115,112,109,108,107,111,108,106,110,107,111,111,110,116,121,116,123,125,125,123,122,123,122,121,123,119,119,115,121,114,112,113,113,108,110,112,110,103,112,114,110,109,111,108,108
106,112,110,112,109,108,107,110,114,112,108,106,110,110,112,112,110,113,110,107,106,115,113,112,114,114,111,115,116,117,118,117,123,117,119,123,120,126,121,117,118,117,113,116,110,110,113,107,110,110,108,111,109,109,109,106,110,110,110,110
108,111,107,107,112,114,110,106,113,111,107,108,109,110,109,108,107,115,112,105,109,108,110,109,112,111,113,114,114,113,120,116,120,123,122,121,125,124,120,119,116,112,113,113,111,112,112,112,113,112,117,107,109,107,108,107,109,112,109,107
108,107,108,102,106,110,107,108,110,112,111,106,107,109,111,113,107,110,112,107,104,105,111,110,107,109,110,108,115,114,107,114,114,116,114,114,118,117,112,112,116,113,110,109,115,112,112,106,106,110,113,108,109,108,108,112,110,109,107,106
111,110,111,110,107,111,106,111,110,106,109,113,117,107,106,111,104,109,106,107,108,108,109,104,108,107,113,115,111,119,113,116,118,117,110,113,113,114,112,112,113,113,110,111,110,109,113,114,109,112,108,108,113,110,110,112,108,107,111,112
112,107,111,109,106,108,106,107,107,109,108,105,107,112,107,104,107,109,109,107,105,110,113,114,112,109,108,110,107,108,110,113,116,114,112,115,109,116,119,116,113,106,108,111,108,109,111,113,110,107,105,107,111,110,112,107,112,110,108,107
111,108,107,108,109,110,114,109,108,113,111,113,106,109,109,112,110,108,107,112,114,106,108,112,108,112,111,108,112,111,108,106,111,110,110,116,112,113,104,110,117,112,105,111,109,109,111,108,112,108,109,112,111,108,109,110,110,107,112,107
109,107,108,109,112,110,109,110,111,110,110,108,107,108,110,105,104,106,110,109,108,108,113,109,109,110,111,109,112,112,109,107,110,111,107,111,106,108,109,107,112,113,104,108,113,113,110,110,113,110,109,111,106,109,109,106,109,106,105,105
111,106,111,106,115,110,106,103,106,106,109,111,108,106,113,111,108,107,112,111,107,112,115,106,109,108,108,106,107,106,112,113,113,112,112,109,110,114,110,108,110,112,110,111,110,112,115,111,109,108,107,108,108,110,111,108,110,107,109,108
113,113,114,108,110,112,109,110,113,110,110,110,106,112,109,108,106,109,110,111,111,113,109,109,107,110,110,108,114,112,111,111,108,106,111,109,108,110,114,111,108,114,109,109,108,108,108,109,114,106,107,107,107,108,109,109,109,111,109,111
108,110,109,107,105,111,109,108,109,109,107,112,110,109,112,116,114,106,110,105,109,111,111,108,108,109,109,109,109,110,103,108,107,106,110,115,110,103,108,113,110,110,108,111,111,112,110,109,109,108,107,107,106,112,108,112,112,111,108,107
108,109,115,115,111,112,110,111,114,108,109,113,108,106,109,112,109,109,111,108,108,108,111,108,111,116,110,107,108,109,108,108,111,112,108,111,113,110,108,109,107,105,104,110,113,108,112,109,108,112,107,109,111,109,105,110,109,111,109,106
111,108,112,113,107,108,109,106,105,105,109,112,108,115,109,111,112,108,108,114,113,110,111,110,106,110,113,113,111,112,110,112,113,115,108,105,108,113,109,109,113,108,109,112,114,111,107,105,106,114,112,111,114,109,111,109,108,111,112,110
108,106,112,108,108,108,107,114,109,110,105,104,107,111,109,109,109,110,110,108,111,107,111,111,108,105,110,113,112,112,105,111,109,107,109,110,109,109,115,112,110,111,108,109,108,106,106,108,110,109,107,109,107,106,109,112,112,112,113,112
107,110,108,101,109,107,106,110,110,110,111,110,109,111,109,110,115,110,110,108,110,111,108,109,112,107,103,107,107,110,107,106,107,108,109,105,109,114,112,113,115,111,109,107,106,112,114,109,108,109,112,111,109,104,109,115,107,110,109,106
107,108,110,107,106,109,111,109,113,110,108,109,107,109,111,106,110,110,109,111,110,109,111,113,111,114,106,110,109,110,109,109,110,109,108,107,104,108,107,112,112,106,113,106,104,112,108,107,107,110,112,113,113,110,111,113,108,106,106,111
107,105,112,112,108,110,109,107,108,112,109,109,113,108,108,108,108,106,107,107,112,106,109,113,109,112,109,110,113,107,112,112,110,113,111,108,109,110,107,113,111,106,113,113,109,111,108,111,109,110,105,102,106,109,107,109,110,110,110,112
110,113,113,108,108,109,107,115,108,112,109,110,112,109,113,109,109,111,111,108,115,111,106,110,110,107,111,105,110,111,108,110,111,111,111,109,111,108,106,107,108,110,103,112,112,109,111,112,111,107,108,109,113,109,105,106,104,110,109,108
113,108,108,104,108,108,109,112,110,108,109,110,111,107,112,108,114,111,110,109,107,110,107,102,110,109,111,111,107,110,106,107,110,110,113,109,108,112,110,108,110,114,106,111,105,103,113,110,110,107,111,110,108,107,107,106,113,113,109,112
