32,51,70
106,109,108,112,110,112,110,114,105,110,108,108,107,107,109,106,107,106,106,107,109,109,110,112,107,109,106,108,109,105,110,109,107,110,111,108,108,108,107,109,112,116,111,107,110,109,108,106,110,105,108,112,103,104,104,109,112,110,110,108
111,105,107,111,107,112,106,107,107,107,107,109,111,108,112,108,111,111,108,106,106,106,110,113,108,109,108,104,110,107,108,111,110,111,113,109,109,112,109,110,110,110,114,109,109,108,110,107,109,108,106,110,108,109,110,108,108,109,106,107
109,106,111,106,106,104,106,106,112,109,106,110,110,107,103,107,111,114,108,109,108,110,110,110,108,108,112,108,110,108,109,109,108,103,105,106,111,110,106,108,114,109,107,108,112,110,111,113,108,111,113,106,104,111,117,108,105,111,109,111
107,110,111,108,110,109,111,110,108,108,109,113,112,110,106,109,105,106,109,109,108,104,107,108,110,110,110,108,107,108,108,107,111,114,111,111,106,108,107,106,107,106,108,108,110,107,106,110,109,105,107,111,110,106,109,115,108,110,109,108
111,113,112,113,109,104,104,108,107,110,112,108,106,108,106,112,107,109,111,109,111,109,109,110,108,106,106,108,107,109,111,108,111,107,104,108,110,110,108,105,106,110,111,112,109,107,109,108,110,105,107,110,109,109,105,111,109,109,109,112
105,107,116,111,109,111,116,112,105,106,108,109,103,113,111,113,110,110,107,103,106,106,106,113,110,105,108,111,107,106,113,110,113,111,110,112,113,112,109,106,106,115,105,108,108,112,108,106,109,108,107,102,109,110,109,110,112,107,106,108
109,110,114,106,108,110,108,107,106,110,107,110,108,106,106,110,110,109,111,109,110,111,106,106,110,110,110,112,109,107,107,104,105,114,109,106,106,111,106,108,110,112,108,108,106,107,108,110,105,106,111,111,108,107,108,105,112,110,107,106
108,114,111,108,107,111,110,107,108,107,110,107,107,104,107,111,110,109,110,107,107,108,111,108,110,108,107,109,109,111,110,107,110,110,108,110,109,115,111,115,111,109,110,110,112,109,107,111,112,107,109,108,105,108,110,107,109,110,109,108
107,112,108,113,106,110,110,107,109,107,107,110,110,109,112,114,112,112,113,103,104,104,109,106,111,108,108,106,109,106,107,107,109,110,109,111,107,108,105,107,107,107,108,106,106,109,105,112,114,108,112,111,107,112,112,101,108,109,110,108
107,111,114,112,106,112,114,111,111,110,105,106,110,106,107,106,112,111,112,108,109,108,108,108,112,109,109,108,109,107,107,110,112,111,107,106,106,110,110,107,108,113,107,108,106,111,104,108,108,109,106,106,113,113,113,110,109,109,112,105
110,105,111,105,109,108,107,106,108,111,110,104,110,108,106,113,109,110,109,107,109,114,113,107,109,106,108,108,109,113,109,105,106,113,111,107,109,109,108,107,111,112,107,110,106,112,111,106,104,107,110,106,107,103,107,110,109,109,110,108
105,105,112,107,112,111,108,108,112,111,107,108,108,107,105,111,109,112,109,111,106,104,108,114,110,106,109,109,111,109,113,108,103,108,110,106,109,110,109,104,106,108,108,103,105,101,106,99,104,108,107,104,104,103,110,111,107,108,110,108
108,109,109,110,109,107,103,102,106,108,110,110,111,111,111,109,112,110,107,107,109,114,110,114,114,111,113,109,111,109,107,111,110,110,113,109,107,104,106,109,112,109,114,106,109,108,111,111,110,110,108,111,111,109,110,110,106,110,110,109
105,107,107,116,105,113,109,113,113,110,106,102,105,110,104,109,113,109,109,110,109,112,108,110,115,108,109,109,104,110,108,110,108,108,114,106,109,107,109,109,109,108,109,113,111,109,111,107,105,108,105,107,109,109,107,105,107,106,108,109
111,110,106,112,105,105,106,108,110,110,109,112,106,110,111,110,107,108,104,109,106,111,113,113,113,111,113,116,111,117,111,116,113,110,112,112,114,109,108,110,110,108,108,107,106,106,111,108,110,111,106,104,108,107,110,107,113,110,109,109
109,105,105,105,108,106,110,108,110,110,108,112,108,106,112,106,106,107,106,108,108,108,109,108,113,115,111,112,109,109,109,115,112,109,111,106,109,110,110,111,110,105,102,103,112,110,110,106,108,109,106,109,111,108,107,106,109,109,106,106
110,107,110,107,112,111,104,106,109,107,108,105,110,106,109,110,114,108,113,108,111,109,109,106,111,112,120,117,117,112,111,112,114,115,115,114,112,110,111,106,113,109,109,109,110,108,105,110,105,109,113,112,112,110,107,107,106,110,107,113
108,109,111,109,108,110,110,111,105,110,111,111,113,114,105,108,111,109,107,110,117,110,115,116,115,116,124,122,119,120,122,120,121,117,110,111,111,111,114,111,111,105,110,111,112,112,106,109,110,107,110,112,113,115,109,113,110,107,105,108
103,113,109,108,104,109,108,113,103,107,106,108,108,116,108,108,104,112,111,108,111,113,120,119,113,117,122,121,120,122,122,117,116,116,118,114,112,111,111,111,110,107,107,108,107,108,111,107,113,108,104,111,106,102,103,104,108,105,109,107
105,109,109,108,106,110,110,112,110,109,110,106,109,107,112,112,106,110,113,110,114,114,116,118,120,121,118,117,123,128,124,118,117,117,120,118,114,112,111,109,111,107,111,108,111,108,108,107,109,112,109,105,110,112,107,107,112,108,108,106
110,109,109,110,111,111,106,109,110,108,110,107,109,107,113,112,111,112,114,112,112,114,111,118,124,118,119,122,117,115,122,124,120,120,122,118,117,107,118,114,112,110,113,107,112,113,112,108,106,108,108,108,109,101,105,108,111,107,108,110
106,103,108,106,107,116,110,107,109,110,108,110,114,112,108,109,115,116,113,115,113,121,120,118,118,120,124,118,119,126,120,119,120,119,118,115,117,107,114,111,109,106,115,110,106,111,112,109,110,106,106,108,112,112,111,113,112,110,108,110
112,109,110,110,107,115,109,106,110,110,109,111,113,106,108,106,111,113,111,115,114,118,122,120,116,117,119,121,121,126,122,120,121,119,116,114,115,111,113,111,113,109,112,107,107,108,108,109,110,107,109,109,104,107,112,106,105,109,106,107
106,112,113,114,106,107,109,110,111,107,108,107,111,108,109,104,109,109,108,122,118,117,118,120,122,119,114,117,120,120,123,120,119,117,116,123,117,113,110,109,115,111,110,107,112,117,110,105,107,107,104,108,111,108,113,110,106,108,106,105
107,113,110,110,105,111,114,111,110,109,109,107,108,109,114,113,110,110,110,111,116,123,126,119,120,122,121,115,122,122,123,123,121,122,115,123,118,116,111,110,112,110,112,111,112,114,111,107,109,109,108,109,111,108,109,108,109,110,107,110
107,109,104,108,109,107,109,115,113,115,111,110,113,109,109,112,112,110,117,117,118,118,121,116,119,120,120,117,118,123,122,120,120,120,117,119,111,116,111,108,111,112,110,110,112,111,113,109,109,104,107,112,111,106,107,111,109,111,107,111
108,113,111,108,111,110,110,109,107,106,111,108,114,107,107,108,111,109,111,120,114,117,124,120,120,121,123,127,122,122,123,115,117,122,118,120,116,114,107,105,109,112,109,109,109,108,108,116,113,111,107,106,106,109,106,109,110,110,108,109
109,107,108,110,110,112,114,108,108,110,108,103,110,105,113,108,112,116,111,116,119,123,125,124,124,124,121,115,116,121,125,122,121,119,119,118,111,111,112,116,111,111,113,110,108,111,104,108,108,106,109,110,107,107,109,110,108,108,110,106
109,107,105,106,110,112,112,111,108,113,111,110,111,109,111,108,110,114,110,113,119,118,117,122,119,118,120,125,120,117,123,121,124,123,120,117,116,120,112,113,112,109,110,112,111,110,113,109,106,106,110,107,106,102,106,105,107,109,111,108
107,112,109,105,104,107,108,112,112,110,112,108,108,118,111,110,110,111,113,115,119,119,119,122,121,122,120,116,121,120,117,116,118,121,116,118,115,112,111,114,115,111,109,110,112,105,109,108,108,108,111,108,108,105,107,111,107,106,112,112
102,107,110,112,107,110,107,106,106,110,110,110,108,110,107,114,111,108,113,113,116,118,117,118,119,123,123,116,123,119,121,123,125,123,118,116,119,114,113,109,111,111,107,105,109,113,113,104,108,104,110,110,113,113,113,111,105,108,107,110
107,109,106,112,106,105,110,116,112,108,107,109,109,109,112,110,111,113,111,110,117,118,114,114,117,117,118,118,122,119,120,119,120,117,117,118,113,114,114,109,109,113,111,110,110,105,106,103,109,107,107,110,112,110,109,106,105,112,110,111
108,105,106,106,106,107,108,109,107,107,110,108,110,108,109,109,109,110,113,115,117,119,119,114,116,122,119,125,122,124,121,121,121,117,118,123,115,112,110,112,103,104,111,114,112,112,114,110,107,108,106,109,105,105,108,111,104,109,108,106
108,108,112,109,113,112,105,109,110,111,108,108,109,108,107,108,107,110,114,115,113,112,115,120,118,122,120,122,115,123,121,115,118,120,120,118,114,111,114,111,107,105,108,106,107,105,110,111,108,109,107,109,106,107,105,114,108,107,108,106
107,106,104,109,110,110,108,115,110,110,110,109,108,109,109,110,113,110,117,117,112,119,117,117,114,120,124,124,118,124,122,117,116,123,122,114,118,117,116,112,111,112,110,105,115,107,107,110,111,114,112,107,112,113,109,111,106,107,111,109
110,112,109,110,109,113,108,109,108,110,109,108,107,108,110,110,110,114,115,113,113,116,118,122,121,119,121,121,114,119,120,122,119,116,117,121,119,119,114,113,107,108,111,108,109,106,106,105,111,108,108,110,110,110,106,109,108,111,110,105
110,108,107,109,104,106,105,109,109,108,110,108,108,111,109,110,112,113,112,117,119,115,114,123,120,120,123,123,125,119,121,120,117,121,117,119,121,118,120,114,113,107,106,110,110,109,106,106,107,106,112,115,105,108,102,113,109,105,108,108
111,107,107,109,111,110,109,115,110,107,104,106,109,110,110,106,110,115,113,114,117,116,114,121,116,117,124,116,116,120,119,120,118,120,121,112,118,116,116,107,108,112,108,105,105,110,110,112,109,108,106,107,109,111,110,110,109,105,113,109
109,111,106,108,106,107,107,111,103,111,107,110,109,111,105,106,109,113,115,110,117,115,119,123,121,116,122,119,119,123,121,116,121,123,125,119,116,117,115,114,113,111,112,107,111,112,108,107,104,101,107,108,112,109,110,106,108,105,106,108
108,110,105,111,109,112,109,113,107,112,109,107,108,109,107,106,112,108,112,110,116,120,122,116,123,124,124,122,124,121,121,118,121,123,119,120,118,118,119,115,109,105,112,109,109,110,109,110,111,110,111,110,108,108,107,106,112,109,109,110
109,108,107,108,107,110,108,111,108,107,107,109,106,107,112,108,112,113,114,116,116,118,122,120,119,123,120,120,121,120,123,119,119,123,124,116,111,113,114,115,115,110,110,108,110,110,108,110,110,111,109,108,103,107,110,103,110,112,109,108
110,107,111,109,108,111,108,108,112,107,111,108,108,108,111,112,115,113,111,116,115,114,121,124,116,118,121,122,119,118,121,120,123,118,122,118,118,116,113,113,116,111,111,114,111,112,115,110,108,108,108,112,112,111,110,106,108,108,107,107
108,110,109,106,109,109,110,108,114,107,106,108,110,108,110,111,115,111,110,113,120,115,119,125,121,123,126,123,125,123,125,125,122,119,119,121,125,117,117,112,110,113,112,111,108,107,110,110,108,109,108,111,109,103,107,111,108,105,107,107
105,106,104,109,111,109,110,108,110,108,107,113,113,108,108,112,112,110,115,117,117,117,116,123,123,121,120,121,122,114,125,122,120,123,120,118,119,115,120,116,109,115,112,105,112,108,109,110,110,110,107,105,108,110,108,108,108,109,107,108
109,111,105,107,106,113,111,113,109,110,110,108,110,115,104,105,112,114,112,113,113,118,119,112,115,124,124,120,128,121,125,118,120,126,122,117,120,112,113,116,112,114,112,109,115,113,107,101,106,110,109,108,105,108,108,111,109,106,108,108
110,109,108,107,107,109,104,109,108,109,110,113,107,110,114,114,107,110,111,109,114,115,121,123,120,120,119,121,123,119,123,117,115,122,124,115,118,120,122,116,113,113,108,113,110,107,110,112,110,109,110,109,108,110,110,111,111,108,110,112
111,106,110,109,108,110,110,114,111,110,105,109,108,106,105,113,110,112,113,111,117,118,120,120,120,125,126,122,125,120,118,121,121,119,122,119,119,119,114,112,110,111,109,112,110,108,109,107,108,104,109,110,109,108,107,108,108,109,107,113
111,111,111,111,110,106,103,110,111,114,105,105,113,109,111,113,113,113,116,115,117,119,121,125,127,128,123,120,124,121,123,120,118,115,119,120,120,121,119,116,112,110,110,109,107,108,111,109,114,115,109,108,109,110,108,109,110,106,108,105
106,113,110,110,111,109,108,109,108,108,109,108,113,106,106,107,108,109,112,112,114,123,119,117,120,127,125,124,128,126,126,121,121,122,122,118,121,115,116,115,115,110,109,109,111,112,116,111,107,110,107,112,114,110,105,106,107,109,111,110
108,108,109,113,111,104,109,108,106,107,107,110,114,115,112,108,107,109,114,117,117,121,120,123,123,127,122,120,125,122,120,125,119,120,125,121,119,125,117,110,110,112,113,110,110,107,112,114,106,111,109,111,111,112,112,112,108,110,106,107
107,104,109,109,113,105,108,108,109,109,108,105,112,110,111,114,114,113,114,112,110,118,115,121,123,124,125,124,122,121,123,129,125,122,121,119,116,118,119,118,114,115,112,109,117,109,106,111,106,110,110,108,107,100,107,110,105,107,114,110
107,111,111,106,112,106,106,109,108,110,114,105,109,109,108,114,110,108,110,114,121,120,114,122,128,128,127,132,127,126,123,126,124,126,129,123,124,120,124,114,112,112,111,112,111,111,116,112,111,112,110,110,109,111,108,104,112,108,115,108
109,110,106,102,108,113,108,108,108,109,114,108,110,110,108,109,108,112,113,112,116,124,124,121,125,127,121,125,129,131,127,132,129,126,127,123,125,123,119,116,112,113,113,111,104,109,111,111,110,103,105,112,105,112,110,110,113,109,115,109
112,107,109,110,110,105,108,109,109,112,111,109,111,112,112,107,112,112,113,117,116,117,121,123,128,131,126,132,137,135,128,126,129,133,129,127,125,117,117,119,113,113,115,116,113,113,107,107,109,107,105,107,105,110,106,107,107,109,109,110
107,104,108,114,110,106,108,114,112,111,106,111,111,111,109,108,113,106,106,110,116,118,121,125,128,131,131,130,130,128,124,131,132,130,124,126,123,119,123,116,111,113,112,111,111,108,108,112,114,112,111,108,107,108,108,111,107,112,109,115
112,108,105,110,104,110,107,105,108,110,109,112,105,108,108,111,108,112,114,118,116,117,119,121,129,126,124,120,125,129,123,124,123,120,127,123,121,122,120,116,116,109,110,108,108,108,109,108,112,107,109,109,108,108,103,112,109,114,111,108
110,108,107,106,108,111,109,107,109,108,112,113,107,110,112,114,108,115,113,116,113,116,119,125,130,120,121,122,121,120,122,123,123,125,127,118,121,119,117,114,116,110,108,112,111,112,112,107,108,112,112,111,108,110,110,109,104,113,110,105
105,106,105,104,109,109,112,105,109,113,113,116,108,112,110,111,111,109,108,117,115,119,120,120,122,123,125,121,121,126,122,118,120,124,125,124,120,122,119,110,112,115,108,113,109,110,112,111,107,107,109,111,111,108,109,112,109,112,108,111
107,110,112,111,109,107,114,110,108,108,107,111,111,114,116,114,117,112,113,113,117,120,125,129,121,124,123,123,114,121,120,119,123,122,120,120,117,113,115,115,113,117,115,113,111,109,110,110,108,103,109,110,111,110,110,110,108,109,104,109
111,112,108,110,109,108,109,109,109,108,109,109,110,106,111,111,111,110,116,116,117,120,120,125,125,123,121,131,120,120,123,121,121,120,122,117,117,112,112,115,115,113,107,110,112,112,107,108,112,108,110,107,109,108,112,106,103,107,108,109
107,110,105,106,106,112,111,110,109,109,112,108,107,110,111,117,115,113,116,115,112,117,120,119,126,129,121,125,120,118,114,115,115,119,120,116,121,118,111,110,111,110,109,108,106,111,110,108,106,106,111,110,109,112,116,113,114,110,113,109
104,112,111,111,110,113,107,111,107,113,110,111,110,110,107,117,112,115,116,116,120,119,127,127,126,129,124,123,116,122,118,122,121,121,118,116,115,117,114,116,114,113,106,109,113,110,107,108,106,109,108,108,108,105,110,105,107,105,108,109
106,110,105,108,107,112,111,111,113,114,107,110,111,110,103,110,111,114,115,118,116,113,119,129,118,121,121,123,119,121,117,119,120,122,125,124,117,120,115,113,114,110,112,113,112,110,108,110,110,108,110,110,107,109,110,107,110,107,104,109
106,110,105,107,109,109,111,104,104,111,110,110,112,116,112,114,112,111,117,119,120,119,121,125,122,124,114,122,117,120,117,118,122,123,122,120,111,116,117,116,116,115,111,108,109,106,112,107,111,109,108,106,108,107,107,106,108,111,107,106
109,106,108,108,110,107,111,114,113,108,109,112,107,109,107,107,115,115,118,114,123,123,120,124,124,121,118,119,117,120,122,125,119,124,119,118,116,115,117,117,109,116,112,112,118,112,108,109,106,106,109,108,115,110,109,106,108,106,107,106
107,106,108,111,109,107,110,112,111,104,109,109,107,109,109,110,116,115,119,119,121,124,123,122,123,119,120,116,118,124,120,116,117,124,118,120,121,115,111,115,112,111,112,110,112,111,107,111,110,108,110,106,113,110,108,108,110,109,114,112
109,109,108,112,106,105,109,107,109,107,108,110,106,109,110,111,116,114,118,119,120,122,121,120,121,119,123,119,121,117,121,125,120,117,119,119,123,117,116,117,114,108,109,110,110,109,107,108,109,105,110,106,112,111,100,107,108,106,109,112
113,106,106,106,109,105,108,109,110,112,110,108,108,107,111,107,108,115,117,111,116,122,119,123,117,118,122,119,119,116,121,121,120,120,120,118,119,111,114,113,107,112,114,106,110,110,109,109,110,105,110,109,109,116,110,111,108,111,108,110
107,110,111,106,111,108,110,114,112,112,107,109,112,106,108,110,107,114,120,115,118,124,123,127,121,121,120,116,120,121,124,118,120,122,119,115,113,114,114,115,106,110,109,107,107,114,111,107,111,108,108,108,107,112,110,109,108,112,108,105
112,112,108,109,108,109,108,109,109,108,107,108,111,114,110,114,110,112,117,119,123,121,117,116,119,125,122,117,117,121,120,118,121,121,121,115,115,115,112,112,109,114,112,109,103,107,112,108,112,113,109,115,112,111,110,110,106,107,109,108
111,113,110,108,112,108,107,107,109,108,111,109,108,110,103,112,109,114,116,116,117,122,121,118,120,120,118,121,123,120,117,123,124,120,114,120,119,114,115,116,108,109,110,109,109,108,117,110,109,110,107,110,107,110,107,108,104,105,109,109
105,100,107,109,112,108,111,106,105,108,108,110,109,113,112,113,114,113,118,116,111,118,120,118,121,122,121,116,117,123,119,119,122,123,119,116,115,111,116,112,112,113,109,112,111,109,112,106,108,112,110,108,105,112,110,110,106,103,108,109
106,109,115,108,111,111,108,107,109,109,106,110,113,106,111,111,116,114,118,119,120,123,123,121,119,123,124,121,118,122,120,117,122,118,123,118,117,112,117,113,109,108,109,110,110,110,114,105,104,108,110,108,113,115,107,107,113,108,107,109
109,109,110,107,108,104,107,109,109,108,112,112,110,109,113,109,112,121,116,120,120,123,124,124,122,126,117,117,119,116,125,118,121,119,116,114,116,112,113,111,110,112,107,107,108,110,113,108,111,110,111,107,107,112,112,106,109,109,108,110
109,109,106,107,109,103,108,111,109,105,107,113,111,106,114,110,113,116,112,119,119,121,119,122,120,123,119,117,121,117,124,117,118,124,120,110,115,118,114,112,111,113,111,113,109,107,107,113,112,106,106,108,106,108,107,104,107,110,108,108
106,112,110,112,110,103,108,106,110,109,107,109,109,107,113,111,116,120,115,119,120,121,118,120,123,122,122,117,124,120,122,121,117,123,123,118,115,113,108,112,108,110,109,105,108,117,114,109,108,111,110,109,108,106,106,111,109,111,112,105
107,113,110,108,110,110,110,112,112,110,110,108,114,110,113,111,110,114,120,119,125,127,122,122,120,120,117,118,119,120,122,123,119,120,117,119,117,114,112,112,108,113,110,107,108,106,110,106,109,112,109,109,108,109,107,108,110,107,109,109
105,110,114,106,106,107,108,106,108,106,109,107,108,111,108,108,111,116,121,117,117,119,120,116,118,127,118,121,121,118,119,124,122,122,123,118,115,116,115,112,109,110,110,110,108,107,111,107,108,106,105,107,111,112,115,110,109,105,106,104
108,107,111,109,111,108,108,113,110,109,109,111,111,113,111,113,110,109,110,120,119,123,125,124,126,128,121,119,119,122,122,118,120,117,123,116,113,116,109,109,111,108,107,106,106,106,106,104,111,113,113,108,107,106,107,108,107,110,110,106
110,108,113,107,109,108,107,109,109,109,110,108,108,110,110,114,114,115,119,120,122,122,119,123,127,123,124,122,122,124,125,122,126,119,121,119,111,118,110,107,110,113,111,107,106,109,116,113,106,105,109,108,107,107,106,108,111,109,108,110
108,105,107,107,106,108,104,108,114,111,108,106,109,111,111,110,112,117,121,119,122,120,119,124,127,122,119,121,121,121,124,123,124,122,115,114,112,116,112,110,113,110,111,113,110,110,114,113,105,112,110,109,109,110,108,104,108,109,106,106
108,107,108,115,108,110,108,108,110,108,112,107,106,108,111,109,109,113,115,119,117,123,124,126,124,125,122,123,123,120,120,120,120,119,115,111,115,119,112,109,112,109,109,113,115,116,109,109,113,113,111,113,111,108,112,104,107,112,109,106
111,109,107,107,107,111,109,111,112,111,109,108,106,107,111,108,109,114,115,120,117,118,117,122,120,120,120,118,121,123,115,119,120,115,117,114,116,116,109,113,114,112,109,108,109,111,108,109,113,107,111,108,110,104,106,107,110,110,107,108
112,107,111,112,109,107,108,110,104,108,108,106,105,107,111,108,105,109,114,116,116,120,119,120,119,120,119,122,124,120,117,117,117,115,115,111,109,109,109,108,108,111,110,108,110,111,110,105,105,106,108,105,111,107,108,107,107,109,110,111
110,108,110,108,110,109,109,111,109,107,108,106,107,110,110,114,111,112,110,110,114,115,115,119,112,118,117,123,121,114,116,119,118,115,119,111,112,111,109,108,106,108,110,107,108,107,110,106,114,112,108,106,107,110,110,105,107,113,111,111
108,107,105,108,111,109,111,110,109,110,108,105,105,108,108,109,111,110,109,114,115,116,116,119,114,115,114,112,117,115,114,112,111,108,114,112,108,110,111,106,104,113,112,106,111,109,110,108,109,107,108,112,107,105,106,108,109,106,108,113
111,107,108,112,110,108,110,110,111,109,105,111,110,107,109,106,110,110,108,109,109,113,114,115,113,112,117,112,115,115,109,107,112,111,108,108,105,107,109,109,109,111,110,109,115,114,109,107,108,112,108,108,106,106,110,110,108,104,109,108
106,107,108,108,106,102,105,108,109,110,111,112,105,106,110,112,113,111,107,109,107,110,111,114,115,113,114,109,108,112,114,112,112,114,109,108,109,109,111,112,112,108,107,107,108,106,103,109,107,108,110,108,110,111,106,107,107,104,110,110
107,107,105,109,111,112,107,109,108,106,107,111,112,111,106,107,106,109,113,110,107,115,108,111,113,110,110,111,109,107,107,110,111,110,107,105,107,108,109,108,111,109,108,112,108,113,108,111,106,107,109,106,107,114,110,109,112,106,108,107
108,109,107,110,106,107,109,108,106,104,107,106,106,107,111,107,106,106,113,110,105,112,107,110,111,109,108,111,110,109,112,112,109,108,111,113,109,110,108,106,110,108,109,117,111,108,110,107,108,110,103,106,105,107,108,113,114,108,110,108
109,110,108,106,111,110,113,110,109,109,109,104,105,105,110,107,106,106,107,115,105,111,107,111,107,109,105,107,108,105,102,109,107,105,107,110,108,109,108,109,112,109,109,109,110,107,110,107,107,109,108,111,107,110,105,108,108,109,110,108
111,108,108,105,106,107,105,109,109,109,107,110,112,112,109,109,105,109,106,112,109,108,105,111,109,113,108,114,116,108,107,110,109,112,107,108,106,107,109,105,108,106,106,106,111,108,108,110,106,110,113,112,109,110,108,113,111,110,112,110
108,108,108,109,111,110,109,113,110,111,109,111,106,106,110,110,108,112,110,110,110,110,111,109,110,108,111,107,107,112,110,108,105,109,110,108,108,108,110,106,108,108,109,107,106,112,112,108,114,113,108,109,106,109,112,114,107,106,110,112
109,113,108,105,105,107,103,109,108,109,112,110,109,106,110,109,109,108,111,112,108,110,108,109,111,107,111,110,108,111,105,109,110,105,107,109,109,110,109,107,109,107,106,110,112,107,108,106,108,108,109,110,106,109,106,112,108,103,103,101
110,109,109,109,103,111,104,108,113,109,105,102,109,107,109,113,107,112,108,110,107,111,110,107,108,112,109,110,106,110,110,107,106,110,109,108,110,108,108,107,109,112,111,106,107,105,110,109,109,107,110,114,106,111,108,111,112,108,108,108
107,110,109,111,106,108,110,109,110,109,113,107,110,106,110,113,109,112,108,110,107,112,108,108,103,106,106,111,109,109,112,108,111,110,107,105,106,108,109,109,108,108,108,105,112,108,109,108,109,111,111,110,107,107,104,109,114,115,114,111
109,109,107,104,110,109,105,106,105,107,109,109,108,105,111,109,113,106,109,110,109,111,108,108,109,107,108,109,111,107,111,106,108,109,109,108,112,115,109,108,109,109,108,108,110,107,108,105,105,109,114,109,109,108,111,114,105,104,109,109
106,110,113,107,109,107,110,116,109,111,106,106,110,108,112,109,111,103,110,112,109,109,109,103,109,108,104,106,111,107,110,106,107,107,107,106,104,108,103,106,106,111,108,107,108,107,108,108,109,109,109,108,109,108,103,111,105,104,109,109
108,109,111,109,112,104,109,111,105,106,104,110,108,109,105,106,110,111,104,110,112,114,112,108,114,112,107,107,107,111,108,107,108,103,107,109,104,108,109,111,108,111,107,106,110,112,111,110,112,109,108,109,109,110,108,109,109,108,111,106
110,107,106,107,108,107,111,111,105,110,107,112,109,110,109,111,109,109,102,112,106,109,112,108,108,110,110,109,108,111,109,111,111,109,106,106,107,112,109,112,107,109,108,109,111,108,107,108,109,107,108,109,111,109,107,108,109,104,108,102
