51,60,69
116,112,114,118,119,122,120,119,114,115,116,111,116,117,117,115,116,113,112,114,119,118,117,117,118,116,112,115,114,113,115,115,110,120,117,116,119,117,108,115,111,119,109,120,114,116,112,119,115,112,117,114,115,116,116,116,117,113,115,116
115,117,119,112,113,115,117,118,115,117,116,114,120,113,113,115,113,118,118,111,117,114,113,113,119,118,113,113,115,112,117,112,112,110,118,112,115,117,110,115,115,110,119,117,116,120,110,113,115,112,118,119,118,119,117,111,117,114,115,114
118,112,115,112,118,112,117,116,118,118,114,123,114,119,113,113,120,117,116,112,113,114,115,114,114,118,122,115,115,114,117,119,123,116,114,118,115,117,116,118,116,116,116,113,114,115,117,117,113,115,117,117,116,111,114,118,116,112,114,115
118,115,117,117,117,113,116,111,115,114,117,116,115,116,113,114,121,120,117,118,113,117,115,116,116,113,110,113,115,115,114,117,117,114,112,122,115,115,117,116,113,112,109,114,116,114,115,118,118,116,116,113,116,116,112,118,120,114,113,118
114,118,114,112,117,118,113,108,112,119,114,113,123,114,116,117,112,118,116,117,116,114,113,116,114,110,110,115,111,112,117,118,117,117,117,111,113,118,114,110,116,117,119,115,116,120,116,116,112,113,117,117,115,114,114,116,118,115,113,113
119,117,117,116,117,115,112,115,117,113,114,119,115,117,117,117,115,115,110,113,120,115,115,115,118,119,115,113,116,117,113,114,114,113,118,112,115,119,115,118,112,108,116,113,111,115,116,114,116,116,115,118,113,114,119,116,113,114,119,119
114,116,115,115,114,116,123,122,115,117,117,114,116,116,115,115,114,117,114,121,120,115,115,111,111,117,120,120,120,116,114,116,112,114,118,117,116,115,111,112,112,114,111,114,117,116,113,112,118,119,115,118,116,117,119,112,119,120,118,118
116,116,113,111,114,116,113,114,115,118,117,117,118,114,118,114,112,116,118,114,117,113,113,116,110,111,112,115,117,111,119,114,113,116,115,116,113,116,115,119,119,115,117,119,118,117,117,115,113,113,119,119,115,117,116,113,117,113,115,113
118,118,118,115,119,119,111,112,114,112,116,119,116,116,117,117,117,112,117,118,117,111,118,116,115,110,115,115,113,114,118,112,116,110,118,110,117,118,117,116,116,117,119,117,116,111,120,116,119,115,112,112,116,114,120,122,120,118,115,113
116,117,115,116,117,113,111,111,118,115,112,119,114,121,113,122,118,118,116,114,116,116,122,118,123,115,117,114,118,116,115,114,111,115,111,115,115,118,117,115,122,113,116,115,118,110,114,110,114,117,119,116,116,115,116,115,117,117,112,115
112,121,117,118,113,116,118,117,116,116,118,115,116,117,117,121,114,115,114,114,110,115,112,114,113,114,116,118,112,114,120,116,119,117,113,118,110,114,112,117,118,111,115,114,114,115,113,115,113,114,120,118,114,114,119,120,115,111,113,115
112,116,117,113,120,115,119,119,113,117,121,112,114,115,110,115,111,113,115,115,112,112,115,115,116,116,115,116,115,116,117,112,117,116,119,114,111,113,113,117,112,112,115,117,116,116,117,116,115,117,115,117,117,118,118,115,117,116,117,115
118,114,114,115,115,113,117,116,113,118,116,115,120,115,112,114,115,113,113,119,117,112,116,117,116,116,113,112,115,115,114,115,115,114,110,115,118,114,113,114,120,116,116,119,118,120,118,117,122,115,111,116,118,116,113,116,114,113,115,115
112,119,115,115,119,117,117,115,119,115,112,118,118,116,121,116,113,111,119,118,115,116,112,115,117,115,116,115,114,113,114,113,114,115,117,115,117,114,116,114,116,115,113,116,114,116,116,118,116,116,114,116,116,113,111,115,112,118,117,118
116,117,116,117,114,115,115,112,116,119,117,113,113,115,119,116,113,116,115,115,117,115,114,118,116,111,116,118,119,116,114,116,117,112,112,115,115,111,118,112,118,114,117,118,115,116,118,117,115,117,116,116,116,115,122,119,117,117,115,117
115,113,112,118,112,111,118,118,114,114,117,119,115,114,114,112,116,117,112,118,118,117,110,115,116,119,113,115,109,111,117,121,113,119,115,116,111,110,114,115,113,109,124,115,113,114,110,115,113,115,116,116,115,115,115,117,117,116,111,113
120,114,115,116,116,119,116,117,113,117,114,117,114,114,118,114,115,120,114,115,121,119,115,112,112,116,118,116,115,116,116,117,119,118,114,119,116,113,117,116,119,119,115,116,115,114,112,118,117,121,116,119,116,113,117,116,116,116,117,116
114,115,115,114,117,113,115,115,112,115,119,116,114,116,118,116,112,114,114,116,117,113,117,116,117,116,120,120,115,119,112,118,114,116,112,116,117,119,117,114,116,117,116,114,115,116,116,117,109,114,113,114,117,118,118,114,114,117,118,111
112,113,115,110,116,119,117,112,120,113,114,119,114,116,115,115,115,115,111,111,116,115,114,121,116,117,115,114,113,115,114,114,115,116,121,118,113,116,115,118,110,116,122,119,114,118,116,113,114,118,117,119,116,115,117,114,115,117,114,113
115,115,115,117,117,117,122,115,118,117,115,110,121,114,117,117,112,115,119,119,116,115,113,115,117,116,115,119,118,119,118,115,116,111,114,116,117,110,112,119,116,114,115,114,113,115,113,116,120,117,114,119,113,111,117,121,115,115,113,116
112,110,114,115,115,115,110,118,116,116,112,115,122,116,111,114,112,114,117,114,114,116,116,115,116,115,118,117,116,119,118,117,117,117,117,116,117,115,119,114,112,119,116,114,119,115,114,115,116,113,113,115,114,117,117,119,116,114,114,116
116,115,116,119,117,116,117,116,113,113,114,118,115,117,116,115,114,119,118,114,120,119,116,117,118,115,118,116,117,118,115,115,116,118,117,118,114,119,121,117,117,108,114,111,119,116,116,119,116,114,116,114,117,118,116,113,116,111,116,117
118,119,117,119,116,116,114,113,116,118,120,115,116,119,118,116,115,117,115,112,117,116,116,114,114,114,111,117,115,116,113,114,116,113,113,113,113,118,117,111,117,115,122,118,111,113,121,119,116,118,117,117,115,116,114,112,112,117,119,116
116,113,112,113,116,113,114,113,117,118,120,113,115,111,116,114,116,115,112,113,112,114,115,117,114,119,114,113,117,117,115,115,116,114,113,115,115,113,115,112,119,115,112,118,113,117,116,114,118,117,116,111,117,116,115,117,119,114,114,116
115,115,116,113,119,113,115,116,120,114,117,111,115,115,114,111,114,111,118,116,118,119,116,116,119,110,115,114,111,118,118,111,116,117,119,114,115,117,118,115,115,117,114,112,118,117,111,108,113,114,113,116,114,115,118,119,115,114,115,115
111,114,111,114,114,112,114,119,118,117,111,119,121,116,116,113,114,115,116,114,117,113,116,114,116,115,122,118,119,119,115,116,116,115,118,111,113,114,116,116,117,116,119,115,115,119,114,118,114,115,116,117,115,117,121,113,110,115,115,112
117,115,114,118,116,115,117,117,113,115,112,116,116,115,117,119,119,117,115,115,118,117,117,119,114,115,112,113,115,114,115,115,113,115,118,117,120,116,119,118,114,116,117,111,115,120,117,117,112,110,113,115,114,114,113,114,117,113,112,114
117,113,116,117,116,117,113,110,115,116,118,116,113,113,111,118,120,116,113,116,112,113,114,117,117,115,112,114,117,114,118,114,111,115,117,116,116,114,118,118,117,116,114,115,117,115,116,116,117,112,118,116,114,118,114,116,117,113,119,120
119,119,115,116,118,113,115,118,118,118,116,115,116,117,117,118,117,118,110,112,116,115,114,115,117,115,119,120,115,112,112,113,113,114,116,116,114,116,114,113,117,114,109,118,117,114,113,115,113,115,119,112,120,122,112,118,109,113,120,114
110,112,114,118,114,111,119,118,118,118,118,117,121,120,120,114,112,118,118,122,118,114,114,116,119,115,116,117,115,116,112,117,110,113,118,111,116,116,114,113,112,109,121,119,116,114,106,113,116,116,114,115,122,116,116,118,116,120,117,114
113,113,113,115,112,115,117,119,122,118,116,115,115,115,116,115,115,113,116,118,113,114,112,116,116,115,119,115,117,119,119,114,115,116,112,115,115,114,117,116,115,118,115,116,116,115,115,120,116,117,117,117,118,113,118,110,113,115,114,118
119,118,116,116,115,113,114,114,112,114,114,118,116,119,115,110,116,116,117,116,117,111,117,120,115,120,123,114,119,115,116,113,114,117,114,113,116,110,114,119,113,118,116,114,116,109,117,119,118,117,116,116,117,112,114,114,116,113,117,111
116,119,119,115,120,118,112,114,115,117,118,114,115,116,119,117,112,115,117,118,114,120,117,116,118,123,114,116,117,118,113,117,115,113,117,120,116,115,115,116,111,113,117,116,117,112,115,114,118,115,113,113,116,120,114,114,114,114,115,111
117,117,112,118,114,114,116,120,116,117,113,114,117,117,119,116,116,115,115,114,116,113,118,119,118,117,117,119,116,113,118,114,116,116,110,110,114,114,120,119,114,113,106,113,115,120,120,115,114,112,119,118,117,117,111,119,116,115,117,120
116,116,114,113,117,113,115,111,113,119,114,118,117,115,118,120,117,119,120,116,114,117,118,117,116,117,117,116,118,121,117,115,118,122,121,119,119,117,115,113,115,117,116,116,113,115,114,111,115,120,117,114,118,114,118,113,109,113,118,112
111,114,115,113,114,113,119,117,116,116,113,112,113,111,111,115,116,120,121,115,117,119,116,121,122,121,116,111,118,120,113,114,114,116,114,112,117,114,115,116,117,116,119,116,114,114,115,115,116,114,116,111,116,116,117,115,117,114,114,111
120,120,115,113,118,117,113,118,116,113,115,117,115,115,118,112,117,118,114,113,115,114,120,120,117,115,115,118,112,114,121,115,113,112,114,118,116,113,118,121,117,112,117,114,112,119,118,121,113,117,124,119,116,114,114,119,112,113,117,112
114,116,118,115,115,114,112,116,114,112,118,116,114,114,111,118,116,114,116,119,121,119,117,113,117,119,113,119,123,119,117,116,114,117,118,114,118,121,114,113,117,116,112,116,115,118,115,112,113,118,113,113,114,116,116,110,116,116,115,117
120,115,111,116,114,117,115,119,115,117,118,112,114,115,120,118,119,115,116,118,119,120,116,115,124,121,120,116,116,117,118,121,114,121,123,117,116,118,118,114,115,115,120,117,125,117,116,112,117,115,117,115,113,118,113,117,121,116,111,115
120,111,115,116,116,117,114,117,118,116,119,115,113,117,114,119,122,116,118,114,118,117,114,124,121,123,124,122,123,123,124,119,120,120,116,115,116,114,114,119,117,120,117,119,117,112,117,120,114,117,113,118,117,117,118,113,116,118,118,115
114,118,115,119,114,117,118,113,113,115,118,117,116,115,118,122,117,118,121,121,115,116,119,120,119,122,124,124,121,120,123,120,120,117,119,113,118,118,113,118,119,113,114,112,116,117,117,117,116,118,112,118,116,114,115,117,114,117,115,112
119,118,113,112,113,116,111,120,118,115,118,115,115,117,114,115,114,119,116,118,118,122,124,124,126,128,130,129,123,123,122,118,117,120,122,119,119,119,116,113,118,120,116,113,114,116,118,115,115,114,115,112,117,113,110,118,108,115,114,118
114,113,120,114,114,113,113,113,119,117,116,115,114,120,122,118,114,118,119,124,123,118,124,132,135,141,140,143,136,128,125,124,121,121,120,114,117,114,113,115,116,116,118,117,118,118,116,116,119,118,111,113,112,115,114,117,119,118,116,118
116,115,117,117,114,117,121,119,116,115,114,113,115,115,117,116,113,114,118,119,118,118,122,136,145,145,142,143,142,131,126,128,122,118,118,117,125,117,117,117,117,113,119,114,118,115,116,113,113,118,113,117,113,114,117,115,115,112,121,118
117,117,117,113,117,113,110,122,119,117,119,118,119,119,117,118,117,116,116,118,124,122,127,136,150,144,141,148,148,142,130,125,126,121,121,123,118,116,119,116,116,122,115,120,120,117,118,116,116,113,118,111,117,114,115,118,113,115,111,114
116,117,118,113,115,113,111,114,116,114,122,119,116,117,121,123,120,120,123,121,123,117,133,137,140,148,146,151,154,141,131,124,131,124,121,122,116,119,119,114,121,115,115,117,114,119,115,120,123,116,112,115,114,115,117,119,119,117,121,114
118,115,116,114,111,115,124,117,115,115,114,116,118,119,116,122,118,117,120,124,120,124,125,136,147,146,151,155,156,140,135,130,126,127,122,122,116,117,121,115,118,115,118,113,119,119,118,118,121,117,118,115,116,116,116,119,117,119,112,116
120,111,115,120,117,115,115,113,119,117,117,116,119,117,118,119,116,117,120,122,124,125,123,136,145,148,152,151,149,153,138,131,126,127,123,123,122,117,113,116,117,118,117,117,117,116,118,115,110,116,117,113,115,115,112,113,117,114,116,121
116,111,115,122,116,113,114,112,111,115,121,120,117,116,116,118,119,118,120,117,120,126,129,139,136,152,153,151,150,144,140,130,125,127,125,122,121,121,116,115,118,116,118,119,115,113,113,115,114,117,114,116,114,116,116,114,119,116,116,113
116,118,116,118,116,114,118,116,116,119,117,120,118,117,117,113,117,118,119,120,122,119,125,133,147,157,152,153,154,153,143,129,128,128,126,124,123,120,119,119,116,115,115,117,124,118,113,116,119,114,119,117,113,114,118,117,109,110,119,111
116,122,116,114,115,117,117,116,117,117,118,119,115,118,114,114,119,120,120,119,126,131,128,135,146,149,156,157,156,157,142,139,134,127,129,122,120,121,115,118,115,114,113,114,115,120,119,113,116,116,118,117,115,116,115,122,118,120,120,116
115,113,117,114,117,113,114,118,119,114,119,118,114,110,119,127,116,118,115,117,125,121,124,136,140,151,153,149,153,156,141,141,129,131,122,129,126,121,116,115,119,119,118,115,114,116,119,112,115,118,113,116,120,116,115,115,117,114,121,120
117,118,113,113,119,118,112,113,118,112,116,120,120,114,118,115,119,114,115,121,126,123,122,130,137,154,155,147,151,153,148,141,134,131,127,126,118,116,119,121,115,118,118,114,116,115,121,112,118,112,117,114,114,116,116,120,114,116,114,115
117,119,117,111,112,118,116,119,117,115,114,117,120,113,116,114,122,123,119,127,116,124,131,132,134,143,151,149,147,149,147,141,131,130,128,123,121,121,120,121,113,117,112,117,115,115,117,119,115,116,119,115,115,117,114,117,115,116,113,118
114,114,121,115,117,116,114,116,117,119,118,112,119,115,121,114,110,117,117,120,116,126,126,128,135,151,156,146,152,154,149,140,130,130,131,126,125,116,117,118,119,116,111,119,119,118,117,119,115,114,114,114,118,115,113,114,118,115,117,117
115,111,113,116,117,115,110,111,113,113,115,118,119,114,119,120,119,114,117,120,122,125,126,123,134,148,153,150,156,156,153,139,134,130,127,128,125,117,117,117,120,114,112,120,121,116,116,116,115,114,114,116,114,115,113,114,118,115,119,115
117,116,116,116,114,117,116,118,114,111,117,117,116,112,118,118,115,121,118,121,125,122,125,129,133,145,149,145,149,156,154,141,137,134,130,129,127,122,120,120,122,119,122,116,114,111,116,115,113,109,115,116,119,118,115,114,114,121,115,114
112,116,114,115,115,116,117,120,116,116,118,117,118,120,120,115,116,115,116,117,121,120,120,125,131,142,149,149,148,153,151,145,138,131,125,124,126,122,122,119,123,116,116,116,118,118,114,117,116,115,110,119,118,112,117,114,114,115,113,112
117,115,115,111,115,115,114,118,115,113,116,121,120,118,108,116,119,116,117,121,123,118,123,127,129,141,144,150,151,153,152,144,136,131,124,127,120,121,121,113,112,122,116,119,114,119,112,122,115,118,118,120,117,113,113,116,116,120,115,121
115,118,114,116,121,118,121,112,116,115,109,115,115,117,117,117,114,115,111,118,118,123,125,126,127,141,148,146,145,154,153,143,134,128,128,126,125,116,120,116,115,115,122,117,122,121,116,113,113,116,116,115,114,115,113,115,116,116,110,118
114,119,117,119,113,114,115,113,118,120,116,115,115,117,122,120,119,118,122,120,119,123,120,123,132,138,150,146,148,158,154,148,140,126,131,128,131,122,119,115,122,115,121,116,118,115,114,115,118,113,115,116,113,119,120,116,116,115,117,119
115,115,119,112,110,118,117,111,114,111,115,115,118,119,117,117,118,118,119,127,120,122,127,126,135,138,150,151,151,154,154,149,133,133,128,124,123,125,120,122,120,115,116,120,114,112,118,119,118,119,119,115,115,115,115,119,116,111,114,115
113,114,119,118,117,117,118,115,117,118,118,114,114,121,119,122,118,115,116,123,114,119,123,125,128,139,149,155,150,150,161,154,137,132,130,131,130,121,116,119,118,117,118,114,119,120,113,114,114,115,116,118,118,114,112,113,115,122,118,113
118,119,122,113,113,120,116,116,109,111,115,118,118,116,117,115,115,124,125,119,118,124,123,124,124,134,150,156,159,158,156,148,141,132,126,126,119,123,119,117,117,120,120,116,116,112,114,116,113,113,116,112,117,119,112,115,123,120,120,118
122,119,119,115,114,115,112,114,119,122,116,117,119,120,116,117,121,118,119,118,123,125,124,127,128,144,151,155,157,148,163,151,140,134,127,127,125,126,120,119,120,117,116,119,111,115,117,113,114,112,117,112,120,113,118,115,118,116,118,116
115,119,116,114,114,114,116,118,121,114,116,121,120,117,114,117,115,121,123,119,122,118,124,121,125,143,142,153,146,152,164,153,140,130,131,128,123,117,120,121,117,115,119,116,111,114,119,114,118,114,114,115,116,112,118,113,114,117,114,110
112,115,119,116,113,120,123,115,117,113,116,119,118,117,117,115,118,114,120,121,118,118,122,125,131,131,136,150,144,151,158,154,139,129,130,128,127,126,122,123,120,118,117,115,115,114,114,119,115,119,117,110,115,123,117,117,114,116,115,119
116,115,111,112,116,121,115,114,118,111,113,120,112,116,120,120,122,118,118,115,118,122,123,120,137,129,140,146,147,150,149,144,142,132,126,130,122,126,120,118,121,121,115,118,119,120,118,117,113,120,116,116,115,114,115,116,114,119,119,110
116,116,115,119,119,119,114,112,116,117,114,119,117,114,119,114,112,120,125,116,120,126,121,116,121,139,139,142,144,151,155,150,139,132,128,130,122,121,120,113,115,117,118,118,115,119,118,118,116,112,113,118,118,114,112,117,115,114,114,113
112,113,117,112,119,112,115,118,111,117,116,115,116,114,120,116,120,116,117,122,123,121,125,124,127,135,141,150,149,148,148,150,141,130,129,126,127,124,120,121,121,122,117,113,116,114,116,120,121,116,116,117,115,112,112,115,113,113,117,120
116,114,117,113,114,114,114,115,118,124,120,118,115,116,118,120,116,115,115,122,122,119,118,119,128,132,141,146,146,144,152,155,142,135,129,126,125,123,121,121,116,121,119,118,118,114,115,114,116,120,115,121,119,117,116,116,116,118,117,113
114,116,114,114,117,117,116,117,114,114,114,118,118,118,117,122,122,117,123,122,116,121,120,122,127,131,141,142,147,151,158,152,136,132,130,127,124,120,117,121,118,115,113,119,113,115,115,117,113,113,114,115,119,113,116,119,116,118,110,119
121,113,113,116,117,117,117,118,114,113,114,115,117,120,116,117,119,119,122,117,117,120,118,123,123,130,141,144,145,149,157,146,138,132,132,126,127,131,125,122,116,117,118,119,116,116,115,116,117,116,117,117,111,113,120,115,111,113,113,113
115,117,115,115,117,118,118,114,114,118,120,115,116,115,114,118,119,116,113,119,119,120,116,113,118,130,138,149,141,149,156,142,136,133,127,128,125,120,123,121,115,116,117,118,115,118,115,111,114,113,114,119,115,114,118,113,117,114,115,117
115,115,114,119,118,117,115,117,117,119,115,118,116,121,118,120,115,125,114,123,120,116,126,125,121,128,137,146,145,146,148,154,134,130,127,124,121,122,121,124,119,120,116,116,116,114,114,113,118,113,112,119,115,117,112,115,116,114,118,119
115,115,114,115,116,117,114,113,118,126,117,114,114,120,120,112,117,115,119,120,117,126,126,125,122,126,133,140,144,144,146,138,132,128,130,125,121,122,123,119,119,118,119,119,118,114,116,114,116,111,114,113,114,115,111,114,114,115,120,115
113,117,115,114,115,115,113,117,109,118,116,124,119,115,113,113,115,118,116,118,116,118,118,125,124,124,128,143,145,147,140,135,132,123,123,123,120,122,115,113,118,114,115,118,116,115,117,115,115,116,117,116,119,113,115,118,115,117,118,114
119,118,117,118,118,116,109,121,114,118,109,113,118,118,117,117,121,115,115,120,116,116,120,117,123,125,124,131,137,141,142,135,128,124,125,124,122,123,118,117,118,119,115,118,117,111,113,116,117,120,116,113,118,119,115,116,115,116,117,115
120,114,117,117,115,111,113,119,115,116,115,111,116,115,116,117,114,113,119,118,112,119,121,118,116,123,126,127,131,133,130,125,127,125,124,124,121,123,116,115,118,118,113,110,115,117,115,120,117,112,117,116,111,118,112,109,117,116,117,119
117,113,113,115,112,111,115,118,117,110,118,120,118,116,115,115,120,120,117,116,118,116,119,123,121,124,120,125,124,121,126,125,122,127,118,120,121,125,119,116,120,113,117,115,113,114,116,116,113,110,116,113,118,110,118,112,113,113,123,117
116,117,115,115,115,111,115,113,112,115,118,113,115,116,115,116,119,122,117,120,119,115,117,118,123,116,122,123,121,126,119,118,119,121,124,118,121,115,118,118,117,116,118,118,115,121,116,114,110,116,122,118,118,119,117,119,118,119,117,115
117,113,114,109,113,115,118,122,118,114,119,114,117,117,118,117,108,118,120,118,114,119,123,112,116,117,118,119,122,123,120,119,119,120,124,121,122,112,115,115,117,116,115,114,114,119,112,114,113,115,117,122,114,116,115,118,120,116,112,117
117,121,114,119,116,115,116,119,116,114,119,117,117,116,118,116,123,116,114,119,119,111,115,121,119,116,120,120,119,117,114,115,114,116,119,119,118,116,116,117,121,116,115,119,117,111,114,117,117,113,111,113,113,117,113,115,115,114,116,114
112,118,114,121,118,115,111,118,113,117,113,116,117,117,112,119,115,116,116,119,119,113,118,117,116,118,119,120,114,114,114,117,119,116,113,115,118,122,117,115,118,119,117,116,112,115,118,117,117,116,118,118,113,113,115,113,112,117,117,115
111,107,115,117,119,117,111,114,116,114,117,118,115,115,115,118,119,115,116,118,117,120,119,118,120,115,114,116,117,121,120,120,122,117,120,118,116,120,119,120,116,114,114,111,116,115,110,115,116,116,118,116,117,119,115,116,115,117,118,112
115,115,122,113,117,119,114,115,117,119,115,120,120,116,114,114,119,111,116,119,118,117,115,119,120,118,121,116,118,120,120,118,114,113,120,120,118,119,117,115,116,117,115,118,119,113,115,112,118,117,121,114,117,113,114,116,116,113,119,118
113,110,114,110,113,118,118,115,113,114,112,115,116,117,118,119,114,116,117,118,118,118,118,117,115,115,115,114,119,120,118,118,121,119,115,114,115,118,109,118,114,116,118,119,112,115,114,120,114,114,119,116,119,120,116,118,114,116,111,117
113,110,113,116,115,112,118,118,115,116,112,112,118,116,117,114,120,117,114,117,115,118,118,118,113,119,116,121,119,123,122,119,118,118,116,117,115,121,117,114,115,115,116,117,120,111,115,120,120,116,117,117,117,114,112,118,116,118,116,121
116,116,118,114,113,113,116,116,118,119,121,111,117,116,112,116,119,113,111,113,118,117,119,113,116,122,118,114,119,116,118,116,119,117,111,114,119,121,119,115,115,118,118,115,116,110,119,116,115,115,116,120,112,115,113,120,118,115,113,118
115,115,114,113,123,122,115,115,121,116,121,116,113,116,112,118,112,117,113,117,118,117,123,114,119,117,118,112,117,115,118,116,118,116,113,115,112,115,116,116,120,114,115,117,111,117,121,117,114,117,116,117,112,113,114,114,115,115,120,117
114,119,119,115,112,115,113,117,116,112,118,111,115,113,119,116,118,114,118,117,111,116,119,113,119,118,113,119,117,119,119,115,117,117,116,113,117,113,112,115,117,117,116,114,116,113,117,116,117,117,114,111,112,112,113,116,117,114,111,114
117,120,114,112,113,114,117,115,114,116,118,116,117,114,114,116,115,121,121,109,119,117,114,114,118,118,114,115,117,117,118,117,111,113,117,114,118,115,115,114,110,116,116,114,115,118,118,116,117,112,115,116,120,119,116,116,117,114,116,117
120,114,114,119,121,118,113,114,115,115,114,118,116,115,111,114,118,116,114,117,121,118,115,110,115,116,116,117,115,114,116,117,118,119,118,118,117,115,119,116,119,117,114,114,114,116,113,116,117,117,116,117,115,110,118,115,113,115,117,116
116,115,114,114,118,119,114,117,114,114,114,113,111,114,116,112,114,117,118,122,119,122,116,113,117,112,115,116,116,116,115,118,116,114,111,116,115,117,113,111,116,116,119,120,117,115,122,118,121,117,115,114,116,114,118,117,116,114,112,115
117,115,114,112,109,113,118,119,116,115,118,114,113,113,119,119,114,114,115,112,112,117,115,117,110,115,115,112,115,116,117,121,117,115,117,121,111,117,111,114,110,117,115,115,116,116,111,114,115,113,114,117,115,115,115,117,118,114,119,117
117,115,119,118,118,116,116,115,118,118,117,115,119,118,118,114,117,115,114,118,113,112,113,111,118,117,113,114,114,117,115,111,116,115,119,118,115,115,118,113,114,119,119,115,116,114,114,114,113,120,113,120,109,115,113,113,110,114,117,118
114,111,115,109,113,113,114,117,117,116,113,118,119,117,116,119,113,118,114,118,115,115,115,111,118,112,116,117,116,117,119,116,115,116,116,116,114,114,115,113,120,117,120,116,116,116,116,114,119,118,113,117,119,116,114,117,118,115,116,116
118,116,112,112,119,114,118,113,115,118,118,120,108,118,118,115,113,117,117,118,114,117,113,122,114,116,122,115,119,119,120,117,120,117,116,115,114,116,118,121,115,115,115,115,117,114,118,110,113,118,114,114,117,112,117,115,116,121,117,113
122,116,114,119,118,115,117,118,112,116,115,105,116,114,118,118,119,114,117,113,115,114,117,117,115,115,114,116,115,114,112,117,118,114,118,113,119,119,116,119,112,113,113,118,118,115,117,118,118,116,118,116,112,119,118,115,119,118,119,121
119,110,114,118,119,117,121,120,114,118,113,114,119,117,117,121,120,118,117,114,114,113,117,112,114,118,114,114,117,112,114,115,110,115,116,116,117,119,114,114,115,115,118,120,116,114,111,112,118,114,117,117,115,114,118,114,115,115,116,118
113,115,121,117,116,115,114,111,115,115,119,120,118,119,119,118,112,118,119,113,112,116,115,114,116,117,115,115,117,114,117,114,115,110,115,120,115,112,113,120,117,117,120,118,113,117,115,118,118,116,114,116,116,114,112,111,116,116,118,115
116,119,116,112,113,116,113,113,116,116,112,116,116,114,117,115,117,114,110,115,115,117,114,111,114,120,117,117,115,115,114,113,118,112,117,113,116,115,114,120,119,116,117,116,115,116,113,118,115,120,116,115,121,115,116,118,117,116,118,115
115,116,117,117,115,116,116,117,121,117,114,123,117,115,118,115,115,111,114,120,118,114,115,118,116,115,114,121,116,122,116,117,112,115,119,118,114,116,117,108,117,111,116,113,119,120,112,114,115,119,119,113,118,115,117,117,115,113,114,108
113,112,111,117,117,114,114,114,116,115,116,115,111,113,119,116,115,118,115,115,114,115,114,117,118,114,112,112,117,117,118,114,113,115,113,121,119,116,115,117,117,114,113,115,116,117,113,117,118,114,114,115,112,119,115,115,118,114,116,112
116,119,116,112,113,120,116,115,112,115,121,112,118,115,118,117,119,112,117,114,116,115,115,115,118,116,117,117,114,112,114,110,116,120,110,117,120,114,115,118,118,117,112,116,117,111,114,119,116,116,117,116,116,117,114,113,111,114,116,114
116,115,117,111,115,116,115,113,115,117,118,116,115,114,116,116,118,115,121,117,113,117,114,119,119,119,118,117,115,115,117,115,118,115,113,116,117,117,117,114,114,115,114,117,118,113,117,118,112,118,122,117,115,113,115,117,117,120,116,114
118,117,119,118,116,117,121,115,118,117,116,117,116,115,113,114,114,112,115,117,116,116,113,118,112,115,119,118,117,114,116,116,121,113,113,117,118,122,118,113,117,111,112,114,114,116,114,121,118,118,116,115,115,114,114,116,115,113,115,115
117,118,111,114,114,118,116,113,116,119,118,115,113,116,117,122,117,112,117,113,117,115,114,114,113,117,115,116,114,114,114,117,121,116,122,119,115,116,114,111,118,119,121,114,110,115,114,119,119,115,119,115,118,112,120,113,119,113,114,116
116,117,115,121,122,115,116,117,116,116,115,120,124,121,117,116,116,116,112,117,118,111,114,117,115,113,114,112,113,118,115,115,114,118,116,114,115,113,117,116,115,118,116,119,119,112,119,114,112,113,120,121,116,113,118,112,115,116,116,116
117,115,119,121,110,112,114,115,117,116,117,113,114,112,117,115,116,117,113,119,117,119,115,119,116,111,117,117,115,117,117,114,118,117,117,116,114,117,110,116,113,116,115,118,120,117,119,113,115,117,115,116,121,112,118,115,119,115,110,115
117,117,116,113,116,116,113,113,113,115,110,113,117,118,113,119,116,118,119,112,114,117,111,113,112,113,113,112,118,115,118,118,117,113,115,121,116,116,111,116,119,116,111,114,116,118,114,113,119,116,121,114,113,116,119,122,114,116,115,117
119,118,116,115,116,114,115,121,113,115,114,121,113,119,115,115,112,116,115,115,115,114,115,116,116,118,113,122,113,114,117,111,115,113,118,118,114,117,118,116,113,119,117,113,115,115,120,116,117,120,117,113,114,117,116,117,115,114,117,116
113,116,115,114,117,118,118,115,116,116,118,120,114,112,112,116,114,112,116,110,114,117,116,117,117,114,121,119,116,116,119,117,115,115,115,114,112,115,116,115,114,119,116,117,116,117,117,117,114,113,116,118,118,118,115,112,118,118,113,112
113,114,113,117,114,118,110,112,120,117,117,117,114,112,115,119,118,115,113,115,118,116,116,115,114,120,114,113,114,117,117,115,114,117,119,119,119,115,115,115,115,119,120,116,113,111,114,114,115,114,114,121,117,115,110,114,113,115,113,115
117,115,116,117,115,118,116,118,117,113,114,116,119,117,114,114,116,113,114,115,117,116,116,114,115,117,114,116,114,116,117,116,117,119,117,117,111,116,118,119,117,116,116,117,117,116,116,118,113,117,119,118,119,114,115,113,113,118,113,117
118,118,114,113,116,116,116,117,116,119,112,112,118,119,116,113,117,113,111,114,115,118,113,115,115,115,119,116,114,115,117,119,117,114,114,116,115,117,118,115,110,113,113,119,117,119,117,113,118,119,115,110,115,115,120,121,110,117,116,115
114,116,117,117,115,119,119,115,114,114,115,117,114,118,114,115,115,117,116,117,119,114,114,119,121,119,114,120,112,108,112,112,119,117,116,115,119,113,116,115,118,117,114,113,116,115,116,115,116,116,116,118,112,117,114,114,119,116,115,120
114,112,115,123,115,116,119,117,118,115,113,115,116,113,117,114,116,116,115,117,115,114,118,119,116,118,115,117,115,112,113,116,117,115,115,119,115,114,117,114,115,115,117,112,112,114,121,120,117,118,116,119,118,118,115,116,120,115,115,119
116,113,114,115,119,117,112,115,115,117,111,116,114,118,115,116,115,116,117,114,118,117,117,116,116,115,112,117,115,116,112,117,115,118,115,115,116,114,119,114,118,118,115,117,115,113,117,120,114,112,116,112,114,114,115,118,116,114,119,119
117,118,115,119,109,112,120,112,117,111,114,115,113,117,110,119,117,117,116,120,114,113,112,120,114,115,120,112,118,116,116,118,116,117,120,118,118,113,115,113,113,114,116,117,116,117,116,114,114,113,115,113,115,116,117,117,114,115,117,116
