49,60,71
115,118,115,116,114,111,115,111,117,117,113,115,114,117,114,115,115,114,112,116,114,116,116,112,116,116,114,115,117,115,119,115,112,111,109,117,118,116,118,117,117,113,116,118,114,118,119,117,116,114,119,119,115,115,113,116,114,112,116,116
119,119,117,118,115,115,118,113,118,116,115,114,115,113,116,115,117,116,114,117,114,117,117,115,117,115,112,114,117,116,114,115,116,118,114,119,118,117,118,117,117,114,117,115,111,115,113,116,115,108,114,115,113,114,113,116,116,118,123,114
114,115,113,113,112,112,113,115,116,112,117,115,118,111,117,116,122,112,113,116,114,114,116,118,117,116,117,117,115,117,111,111,113,114,115,116,112,112,113,113,115,114,115,114,115,115,112,120,120,117,122,117,115,114,118,115,114,116,118,115
112,116,117,115,116,117,113,112,118,112,115,110,117,119,115,113,122,117,116,115,115,120,116,117,113,120,117,118,113,114,119,115,113,112,116,118,116,115,116,118,116,114,116,116,111,114,116,117,116,117,118,114,113,111,117,113,114,116,116,114
110,118,114,111,112,118,113,114,118,113,115,115,119,113,114,119,114,116,117,115,115,117,111,116,108,115,113,116,113,111,113,113,112,112,112,114,114,114,112,118,117,114,112,117,117,116,115,115,113,114,116,117,114,116,118,113,118,116,115,114
110,118,111,118,115,116,114,116,119,113,109,114,115,111,111,114,111,113,112,113,114,115,113,118,116,113,110,112,119,119,115,115,113,115,118,118,118,120,118,115,112,119,113,119,118,112,116,119,117,113,112,112,108,115,118,112,115,111,115,117
115,121,114,118,114,116,116,115,112,116,113,118,117,115,114,117,116,115,115,117,115,114,114,116,120,117,123,117,121,118,115,116,117,114,112,113,113,111,112,119,119,117,113,113,113,115,117,112,112,114,114,116,119,116,117,112,112,115,115,113
113,120,116,119,114,112,113,115,110,116,112,115,114,118,116,117,114,118,116,114,115,118,116,118,115,107,114,116,118,115,116,111,114,119,113,116,117,119,114,116,115,115,114,115,118,112,116,120,115,110,116,119,120,112,115,119,122,121,113,117
113,117,114,114,113,112,116,114,114,113,113,118,118,118,112,114,113,116,115,113,115,114,112,116,120,116,117,116,116,116,118,114,115,118,114,117,116,114,117,117,112,115,111,114,116,114,111,113,111,118,118,115,119,117,113,114,115,117,113,117
111,111,112,111,115,115,119,116,116,115,115,118,115,113,113,112,117,118,117,111,113,115,118,114,116,113,117,119,117,117,117,113,114,113,109,116,118,116,119,119,114,122,111,115,114,116,115,113,111,117,115,116,116,117,116,117,115,116,116,117
113,116,118,115,117,117,116,112,111,114,112,111,111,115,116,109,112,112,111,114,119,113,114,115,114,111,116,112,115,113,115,114,115,116,117,115,119,112,114,115,113,121,109,117,114,115,113,113,119,119,118,115,117,117,112,114,113,117,118,111
118,116,114,111,111,118,115,113,114,115,116,113,117,121,117,118,117,116,111,114,119,111,113,117,118,115,114,109,120,112,114,116,115,116,116,111,117,116,119,115,113,115,113,117,119,125,120,114,113,113,114,113,120,116,117,120,110,114,118,115
113,113,112,114,110,114,115,116,119,115,115,116,116,118,116,121,121,117,117,116,115,110,115,114,118,117,118,115,118,115,119,116,113,113,110,119,120,118,119,113,114,111,115,111,109,115,116,116,117,120,116,118,115,110,115,117,117,116,116,116
115,114,117,118,118,115,114,111,117,114,113,118,116,115,114,114,117,111,111,118,115,117,118,112,117,117,117,118,117,111,114,116,117,117,113,118,114,112,115,114,116,115,115,117,115,118,115,111,116,119,111,116,113,113,114,112,115,114,118,116
119,118,115,115,116,114,112,112,117,119,117,115,114,114,115,113,117,113,113,113,108,119,120,114,118,117,112,112,117,114,119,117,114,116,116,118,114,117,117,117,110,112,114,118,116,122,116,111,114,116,111,115,113,113,114,117,114,110,113,113
117,113,115,113,119,117,115,115,116,114,112,115,114,115,115,114,114,112,120,118,115,114,114,114,113,110,110,110,115,112,115,113,108,111,111,117,119,119,115,116,114,114,119,119,111,119,115,114,118,115,116,117,114,116,112,118,115,111,113,109
119,115,121,117,116,110,113,112,112,112,112,117,114,120,117,116,116,119,118,117,118,114,117,116,117,120,119,116,120,118,114,117,116,118,115,116,117,118,116,118,116,115,117,114,114,121,113,112,111,109,114,120,116,113,110,117,113,113,120,115
113,114,115,113,118,117,116,120,115,117,112,115,115,120,118,121,114,114,113,114,112,112,117,110,113,120,111,115,120,116,113,117,113,118,122,116,114,114,114,116,115,112,114,117,117,113,109,115,116,116,114,115,113,113,117,116,113,115,118,115
114,116,114,117,117,115,111,115,113,118,115,121,118,118,117,112,110,117,116,116,115,115,115,110,116,120,114,114,115,111,114,117,114,111,118,114,117,116,114,110,113,112,117,117,117,117,113,117,115,111,114,116,112,112,119,115,118,116,116,114
117,117,114,118,118,113,115,113,114,112,112,116,116,117,119,114,116,117,108,114,121,116,113,116,119,115,112,113,112,115,122,119,116,112,117,117,118,112,114,118,119,114,121,115,113,115,116,117,115,115,116,115,116,115,117,114,113,117,119,118
116,117,115,116,114,115,118,112,114,111,118,119,116,114,114,114,116,117,113,115,118,116,115,114,116,118,116,118,115,115,113,113,113,115,123,115,115,117,116,116,116,111,122,115,118,116,119,114,112,112,114,114,114,114,121,118,115,117,120,117
118,118,113,113,112,115,111,112,115,112,116,118,117,116,118,116,115,114,117,114,116,116,114,112,110,113,115,116,120,118,110,115,117,116,114,111,117,116,111,113,119,113,118,110,115,112,120,113,117,118,118,112,117,116,115,114,118,117,115,112
117,115,111,114,115,116,112,115,116,115,117,118,118,117,120,118,118,118,115,112,117,113,112,112,110,119,118,117,121,114,111,120,116,113,112,115,115,117,114,114,119,112,116,112,115,112,116,113,115,117,115,111,117,120,111,110,117,120,112,111
119,116,115,118,115,114,118,119,116,113,117,118,117,113,119,116,114,116,115,118,118,115,117,115,117,120,112,118,122,115,115,113,111,119,116,117,110,114,118,117,121,116,119,117,118,119,115,113,113,120,118,116,113,117,115,115,115,115,110,112
119,115,116,118,111,116,121,115,116,113,117,116,116,117,122,118,116,114,115,111,113,109,117,115,117,115,114,115,112,112,117,116,114,118,114,112,113,116,113,112,116,116,118,117,113,111,113,119,112,123,117,115,113,115,112,116,115,115,112,116
121,116,116,117,116,114,114,112,118,114,118,114,113,113,114,111,109,113,115,113,116,114,120,112,114,112,113,116,112,112,117,114,116,114,114,118,116,110,113,116,115,114,116,112,115,116,119,117,107,116,112,117,117,118,114,116,114,119,117,118
111,109,114,114,114,112,116,113,118,115,119,114,116,119,113,119,116,118,117,113,110,115,119,116,115,112,111,115,116,117,117,112,117,111,112,114,117,114,121,118,119,115,117,113,116,112,110,116,114,117,118,115,115,118,117,117,116,120,120,116
114,114,117,117,119,115,116,115,117,120,117,111,112,116,111,116,110,114,114,111,115,115,111,114,112,114,115,119,116,113,113,116,117,116,117,116,118,115,122,114,116,116,115,113,120,116,116,113,111,112,117,117,118,116,117,114,116,115,118,111
115,117,117,114,117,114,112,114,114,117,115,114,118,117,113,116,110,121,116,112,116,114,113,112,114,120,116,119,119,118,114,115,118,122,115,116,117,114,115,114,113,114,117,116,118,115,119,116,113,110,115,119,114,115,117,113,116,113,116,109
112,116,118,115,114,115,115,116,115,114,117,118,116,110,113,119,109,115,114,110,121,120,116,113,116,116,113,114,113,116,114,116,116,108,108,114,113,114,118,116,115,114,116,111,115,115,114,116,121,118,115,119,112,115,120,113,114,113,113,120
116,112,109,113,113,111,112,117,115,116,116,113,115,112,116,118,112,114,119,117,120,114,114,116,119,115,113,112,116,117,112,113,115,112,115,117,115,115,115,115,113,113,116,115,113,115,114,115,116,114,112,119,114,112,114,109,115,116,114,115
118,118,116,118,113,116,118,116,111,114,115,115,116,117,118,114,115,117,118,118,115,111,113,114,118,114,114,111,115,116,118,115,115,114,111,111,116,119,112,112,113,118,116,117,114,113,113,115,116,116,116,120,118,114,119,115,119,118,116,115
118,119,117,120,116,117,112,116,115,115,110,109,114,116,116,116,116,119,115,116,113,117,125,118,118,115,115,115,118,115,115,114,117,120,118,114,113,115,111,116,113,111,114,114,112,116,118,115,117,114,117,120,116,114,116,110,117,114,116,116
117,110,114,116,113,116,116,118,115,118,115,116,120,114,114,112,110,114,115,121,115,117,113,112,112,113,119,119,117,116,115,119,118,114,115,120,118,116,111,115,115,117,119,117,116,120,116,111,115,113,116,118,110,112,116,118,120,115,116,118
114,113,117,115,113,111,115,116,114,119,116,116,117,114,112,111,117,117,114,114,113,120,115,117,115,114,112,117,115,116,116,116,117,115,115,118,118,117,120,115,119,120,116,111,114,113,112,111,119,114,117,119,116,117,118,115,110,116,116,114
116,114,117,116,114,110,114,115,107,115,117,112,116,118,119,116,117,118,118,117,113,114,115,119,114,116,114,113,113,115,115,115,116,121,121,124,120,115,114,107,119,116,117,111,116,113,119,116,117,111,115,113,116,116,118,118,115,117,110,112
115,112,121,117,112,115,117,117,117,117,117,120,121,116,117,113,116,118,119,116,111,107,113,116,114,114,117,115,119,121,121,118,117,126,126,127,124,125,123,117,114,110,116,113,120,116,115,117,118,114,115,115,116,114,113,113,110,113,117,116
115,114,116,112,111,118,116,111,117,115,113,112,114,112,117,112,114,114,115,112,114,116,119,119,115,112,118,114,115,114,113,115,121,133,140,132,128,124,123,114,112,115,121,119,113,114,116,115,110,115,113,119,114,115,118,121,114,117,120,120
115,113,112,117,115,114,113,113,120,112,115,109,112,120,116,112,119,119,115,114,118,116,115,120,117,113,121,116,116,115,118,126,127,136,143,139,143,131,128,122,121,116,118,114,111,114,114,116,120,118,116,119,117,117,115,115,110,115,113,115
116,117,115,117,119,117,118,115,118,116,117,108,111,114,110,112,115,115,113,114,115,114,113,113,113,114,114,114,117,109,117,125,133,134,139,140,137,129,123,120,117,113,115,117,115,119,116,114,118,115,117,114,112,117,112,115,113,120,118,117
109,113,122,116,118,112,115,114,116,116,114,114,120,112,114,117,115,113,115,116,114,117,117,115,114,116,115,115,118,110,120,123,140,142,140,144,139,133,125,119,117,115,116,118,114,116,113,119,117,112,117,118,113,122,118,111,114,116,116,113
114,114,120,115,115,113,117,117,117,114,112,111,118,115,116,114,116,117,120,119,115,117,115,118,118,119,120,119,120,117,127,123,141,139,140,136,135,136,128,121,119,117,112,117,114,113,109,115,112,115,117,117,115,117,118,109,112,113,117,114
120,113,112,115,114,110,110,111,112,114,116,118,118,114,121,116,113,115,121,121,117,120,117,113,114,114,112,117,117,116,120,119,134,135,143,137,137,138,123,124,120,122,119,117,116,114,115,118,117,116,118,115,115,114,119,116,115,115,120,116
122,113,115,116,113,114,122,116,117,114,115,116,115,115,121,116,114,110,111,111,115,117,114,114,118,114,111,122,121,119,123,132,139,133,139,141,142,141,125,122,117,119,116,112,114,111,116,112,118,114,112,115,116,121,119,115,115,116,115,115
111,113,118,111,114,114,115,107,114,113,118,116,115,117,118,113,115,116,115,112,112,112,117,115,121,115,113,119,116,119,123,127,136,140,140,140,132,134,132,121,118,118,116,116,116,111,119,113,117,115,114,117,115,115,112,114,113,115,117,119
113,116,115,115,121,114,113,110,115,111,109,112,113,113,117,120,119,111,113,117,117,115,117,113,117,116,118,119,117,121,126,125,134,140,141,139,131,140,135,123,122,117,113,116,116,115,117,112,116,112,113,118,113,114,121,116,117,114,116,113
117,116,118,118,113,114,119,117,118,116,111,113,118,118,117,114,113,114,119,117,118,116,118,117,116,118,115,114,118,119,122,132,138,140,135,135,141,140,121,116,119,117,119,117,116,119,116,115,114,114,116,118,115,116,117,110,119,117,117,113
114,114,114,118,119,115,113,115,112,117,118,113,113,114,117,114,114,113,113,114,115,115,115,115,115,124,119,117,117,118,121,132,139,142,138,130,137,136,126,127,123,119,120,117,113,118,111,113,110,113,119,116,120,116,118,117,115,115,113,113
112,119,119,115,114,117,118,117,113,114,115,119,117,114,113,116,115,112,114,115,109,113,112,111,115,119,115,116,118,120,128,129,141,139,140,137,139,131,130,125,120,119,114,117,113,114,114,119,115,115,118,111,114,108,114,114,115,116,116,120
108,115,116,117,119,118,113,116,116,114,111,118,116,122,116,117,117,117,118,117,118,117,114,111,116,118,118,115,116,119,130,129,137,136,142,138,141,132,128,122,121,123,118,115,115,117,118,120,118,118,115,113,113,116,119,117,112,113,113,114
112,118,118,117,118,118,112,115,117,117,117,118,114,119,114,120,121,114,112,114,124,116,116,114,119,114,113,119,120,121,124,127,136,139,143,138,137,136,128,120,124,119,116,113,118,117,114,114,118,120,111,116,118,119,110,114,112,114,117,116
116,115,115,114,113,118,117,119,116,114,116,112,117,117,116,116,113,116,114,113,117,117,123,114,115,113,121,120,114,118,122,128,135,141,138,132,138,139,132,123,123,118,119,114,117,111,111,114,115,117,116,118,114,116,116,114,114,116,115,115
116,109,115,116,115,116,114,114,116,120,117,112,111,110,118,117,114,116,118,120,115,116,117,111,112,111,119,112,113,119,122,133,138,139,138,136,143,137,132,127,124,115,114,116,119,114,118,113,113,116,117,116,117,114,117,113,114,118,115,114
117,113,116,118,116,114,111,113,111,117,111,118,113,113,116,115,116,116,114,118,117,116,116,118,114,118,117,109,120,123,121,131,136,138,144,137,138,139,134,123,120,121,116,118,119,116,116,112,115,123,117,115,117,115,116,114,114,115,116,112
113,116,115,120,112,115,117,121,110,117,114,118,112,117,114,112,112,114,120,119,118,115,112,115,111,120,114,116,119,122,122,131,137,136,143,146,147,140,130,125,119,119,117,121,116,115,113,114,112,117,113,115,114,116,118,116,116,111,118,115
115,115,113,116,110,115,111,116,118,115,115,119,111,115,112,114,115,117,117,115,116,114,113,114,119,117,114,124,115,119,121,129,139,139,141,144,136,136,126,128,121,116,110,111,115,114,116,116,114,121,117,116,114,115,118,114,116,117,120,113
112,117,115,116,117,121,113,115,115,110,117,119,119,119,114,117,116,118,115,116,117,114,114,110,110,110,115,119,117,128,124,129,136,137,135,145,143,137,127,129,121,117,113,117,116,112,118,114,117,119,112,113,116,114,111,116,116,111,112,110
113,114,116,116,114,113,112,118,116,116,118,114,115,113,115,114,108,116,116,118,120,117,120,117,112,116,121,117,119,121,118,128,134,144,143,144,141,136,131,126,118,121,119,123,117,116,115,114,117,111,112,114,117,118,115,117,113,112,112,115
114,110,110,116,117,114,117,117,115,117,116,115,116,116,117,114,121,121,112,115,116,115,116,113,117,120,120,114,115,116,123,130,134,142,140,137,141,142,138,130,122,122,117,116,109,117,114,112,115,114,119,116,119,120,112,111,112,116,118,117
114,112,114,118,112,112,115,118,116,119,118,113,114,117,115,109,120,120,116,116,116,115,115,114,123,118,121,115,115,122,126,127,130,140,138,137,144,136,131,126,122,118,118,116,116,115,116,114,116,116,116,111,114,115,110,112,114,116,115,116
115,111,116,120,115,121,113,114,117,112,115,114,114,116,117,111,119,109,114,116,115,117,116,113,118,118,121,111,111,116,123,126,131,142,140,141,145,137,132,125,120,120,118,109,118,111,116,112,114,115,114,112,115,112,117,116,112,112,113,116
113,113,117,119,115,115,114,110,117,112,114,114,115,115,116,116,118,114,121,113,113,119,116,117,115,114,115,114,120,121,128,127,130,140,141,142,144,138,129,126,121,119,115,113,116,117,118,113,116,116,116,117,126,114,113,115,115,116,113,119
120,116,115,113,114,106,114,116,120,116,121,117,116,116,116,120,113,113,117,113,115,116,113,114,116,113,116,116,120,121,128,125,136,147,141,138,145,139,127,128,126,118,119,123,116,119,116,117,115,114,115,114,118,114,113,113,111,112,109,114
113,112,117,116,117,115,117,116,117,111,118,119,118,116,116,118,116,121,112,114,117,118,116,113,116,114,114,117,118,118,124,127,141,144,142,138,143,137,131,127,123,117,119,118,115,115,111,120,114,114,115,116,116,116,118,116,117,115,114,113
111,114,115,116,111,117,117,114,109,116,119,117,116,113,112,114,115,117,113,122,112,113,117,119,116,117,114,118,117,116,123,128,143,139,139,140,143,139,136,127,121,117,117,115,118,114,116,120,109,117,114,111,113,115,118,117,117,114,114,117
110,121,116,114,111,115,114,116,114,116,113,119,120,114,114,118,117,114,115,121,116,117,116,114,114,120,117,120,120,119,126,129,138,133,143,139,138,141,137,130,127,123,118,117,117,111,121,120,113,116,116,113,115,117,117,112,119,121,116,117
113,117,112,113,113,114,114,115,115,119,117,117,118,115,113,112,111,109,116,115,112,117,112,111,114,117,115,120,121,124,125,132,147,138,147,142,144,140,130,123,117,124,119,114,115,117,116,116,115,114,118,120,115,116,114,113,116,116,111,112
117,116,112,113,114,115,117,113,113,118,115,112,113,113,113,117,115,116,117,120,119,119,118,118,114,116,114,117,113,122,126,133,144,136,140,136,142,140,131,127,119,122,116,117,115,113,115,120,116,114,114,119,117,117,110,117,115,117,117,116
116,113,116,117,117,115,114,113,118,118,113,113,114,115,113,116,117,116,112,115,112,110,114,114,114,117,115,117,122,126,127,128,135,138,141,138,145,145,133,130,125,125,112,117,117,114,115,115,114,115,113,119,118,120,115,116,109,116,118,116
115,112,118,113,115,113,116,116,118,114,115,117,111,113,112,113,114,112,115,116,116,115,118,115,117,115,116,115,121,124,123,128,141,140,138,141,143,135,132,130,121,117,111,119,115,117,119,115,116,116,112,115,117,119,112,113,116,115,112,113
116,114,118,113,113,110,117,119,115,118,116,118,111,116,116,118,114,113,117,113,113,116,117,113,117,118,118,112,120,125,129,136,144,139,139,144,143,137,133,124,120,116,114,117,116,119,115,115,116,111,116,120,118,118,113,117,113,114,113,112
116,116,116,113,116,112,114,117,109,114,110,120,116,116,114,118,113,112,121,116,116,121,118,117,115,116,118,118,123,123,130,134,140,139,142,145,144,135,125,117,118,117,120,120,118,119,111,115,113,113,119,116,114,117,112,115,112,114,113,114
117,118,119,111,110,112,116,117,112,112,111,118,111,114,114,114,114,110,117,111,112,118,111,117,116,121,119,121,118,120,134,139,141,149,142,139,136,133,125,119,118,111,110,114,114,116,116,122,115,119,115,109,111,118,118,121,121,120,114,115
109,111,114,114,110,114,113,117,118,116,115,115,115,115,114,114,117,117,114,115,114,115,115,111,112,118,115,120,118,123,132,142,141,146,143,139,144,141,127,122,119,111,116,114,117,122,117,117,116,114,115,117,114,114,114,116,117,114,113,113
115,116,116,117,114,119,112,116,115,116,116,114,116,114,114,114,115,119,114,116,117,120,122,116,117,117,117,119,122,125,126,138,136,143,146,137,137,129,124,120,119,115,121,114,118,119,114,118,119,111,114,121,118,111,112,112,117,116,116,116
119,118,118,117,114,115,114,116,114,109,113,112,115,115,116,113,114,116,121,116,117,116,109,116,117,110,117,117,118,126,131,140,136,138,138,135,134,122,125,122,117,115,117,114,113,114,114,116,113,116,119,119,116,115,113,114,117,115,114,115
114,109,115,116,115,118,121,116,119,111,120,114,115,118,117,113,116,113,115,113,117,115,113,118,120,117,122,118,123,129,133,136,136,141,138,139,133,118,122,118,119,120,113,120,117,117,114,114,112,117,118,119,116,117,112,114,117,115,114,113
115,109,115,116,113,118,119,112,115,110,119,116,118,116,114,116,120,114,114,114,118,115,115,117,119,113,116,121,127,123,133,134,140,147,141,141,131,126,124,118,118,113,114,121,118,122,121,116,115,117,112,119,117,116,115,122,116,119,112,113
113,115,117,113,112,116,116,116,115,109,112,111,113,112,113,114,119,118,117,118,121,120,117,118,113,117,123,119,125,124,132,134,138,137,136,132,124,127,116,115,114,115,120,116,109,108,113,108,114,115,114,116,109,117,121,117,109,112,109,116
119,119,120,117,121,116,116,117,117,116,117,114,114,111,120,114,118,116,112,114,113,110,118,122,113,117,116,115,123,125,131,139,138,135,137,131,122,125,122,121,114,117,120,113,117,112,116,116,119,112,115,117,115,118,120,118,114,116,117,118
109,112,118,112,118,114,116,121,115,115,117,113,119,117,120,109,116,116,117,116,115,117,122,116,113,117,116,115,117,124,129,135,130,133,132,125,120,116,117,119,117,121,115,109,118,118,119,117,118,113,114,113,113,112,115,114,115,116,118,116
114,116,117,114,114,115,115,120,114,112,115,109,117,115,115,113,115,111,112,115,119,114,113,117,118,120,114,114,120,125,127,126,128,130,123,124,126,117,119,118,113,116,115,115,117,117,117,114,114,117,117,110,111,111,119,111,110,113,114,115
118,121,111,108,113,113,114,115,115,114,112,110,114,113,116,116,113,112,119,118,120,117,117,121,112,116,112,116,124,122,120,121,125,124,121,121,115,115,118,116,113,117,116,113,117,122,117,118,119,119,119,114,121,114,118,113,111,119,115,114
110,118,114,115,115,114,116,115,116,114,119,118,118,116,116,111,114,116,114,116,118,116,111,118,113,113,113,117,120,119,118,124,123,119,119,119,120,120,116,114,115,115,118,114,114,115,113,119,117,111,111,115,117,111,115,115,113,113,113,119
112,112,113,119,115,114,117,114,113,112,115,116,116,118,115,113,118,115,111,116,112,114,113,117,115,115,122,122,119,115,112,120,120,117,116,114,114,114,119,115,120,114,114,114,119,115,113,114,114,118,114,118,115,113,118,117,116,112,116,120
116,112,113,117,115,114,118,116,114,118,110,111,112,113,112,116,114,116,117,112,110,116,115,119,116,113,112,109,114,116,117,117,114,120,118,119,117,110,116,113,118,117,117,115,119,114,112,111,114,118,114,116,116,114,115,115,115,111,119,113
115,115,120,117,116,110,115,112,110,115,115,118,113,119,118,121,117,115,108,112,118,123,116,115,114,114,116,111,116,115,115,117,118,118,114,116,117,118,119,114,115,113,114,111,113,112,115,117,121,114,109,113,118,121,119,120,115,110,115,113
114,117,118,113,118,112,115,117,114,115,115,111,109,118,115,120,112,113,115,116,114,115,110,112,116,116,115,112,119,115,114,117,118,115,115,115,119,116,114,109,110,118,117,113,115,111,111,115,114,114,116,116,116,111,111,115,115,120,120,116
116,113,112,117,117,113,115,116,114,113,116,114,115,113,110,116,115,122,114,109,116,116,117,114,118,115,112,116,118,112,112,114,120,118,113,112,116,116,116,112,114,118,116,113,118,117,116,116,117,115,109,114,117,118,118,115,111,115,112,115
116,116,113,119,117,115,112,110,116,115,116,115,121,115,114,114,115,110,114,115,118,113,112,111,116,114,114,113,113,119,115,113,116,116,114,113,111,114,116,110,117,117,117,117,117,115,116,114,115,115,117,119,115,115,113,112,118,116,109,110
117,116,112,112,114,116,117,120,120,119,118,108,112,112,116,116,119,114,119,113,115,119,116,115,119,117,114,110,112,118,112,117,114,115,117,117,116,115,117,109,115,112,117,117,117,116,119,118,117,116,113,115,118,121,119,114,118,118,115,117
120,115,116,116,119,118,117,117,111,113,115,114,115,112,115,114,118,116,114,113,116,117,115,119,119,113,116,118,117,120,113,115,113,118,123,119,118,115,119,118,120,112,116,114,117,113,110,114,115,115,112,118,116,115,118,116,109,113,116,116
119,116,115,117,113,114,113,117,110,117,114,115,116,115,117,112,114,117,117,118,119,117,113,117,115,116,119,118,117,119,119,116,118,117,118,117,118,110,114,110,114,114,115,111,117,118,116,115,119,117,113,117,114,114,114,115,113,118,113,112
120,116,114,118,116,118,111,118,114,117,113,115,113,118,118,119,115,114,110,115,119,116,112,114,111,114,117,115,117,115,113,111,117,114,117,116,115,116,116,114,118,115,116,116,115,115,116,115,112,114,115,115,117,115,116,117,113,117,115,115
116,115,113,118,115,119,118,118,114,116,115,115,113,117,113,112,113,117,116,115,121,117,110,112,119,114,115,112,113,108,111,112,119,117,121,117,114,118,117,115,117,114,118,116,113,117,116,117,117,116,113,112,119,116,119,115,114,118,118,115
114,117,115,112,113,119,117,112,114,112,109,116,114,113,117,113,116,112,115,114,113,111,116,116,118,114,114,114,115,112,116,116,116,114,114,110,114,114,117,116,115,113,118,118,115,119,112,112,115,111,113,114,116,115,117,113,113,116,116,111
113,117,117,113,118,116,117,114,115,111,111,116,115,112,116,114,118,116,116,115,113,112,116,113,118,117,113,115,118,113,113,113,114,113,117,116,119,115,115,116,117,116,116,115,116,119,113,116,117,118,118,121,112,113,111,114,115,117,117,114
115,114,111,111,116,114,119,116,112,112,115,111,111,113,119,117,117,115,114,114,115,113,114,113,118,120,116,116,112,110,115,116,114,113,116,113,117,111,114,113,115,116,119,118,116,116,117,115,114,116,115,117,115,120,111,117,114,117,116,116
116,112,116,118,113,115,116,113,113,120,120,116,116,115,115,112,113,113,114,113,116,119,117,112,115,114,114,116,116,114,116,117,118,118,120,116,119,114,114,113,117,116,117,117,113,113,117,114,116,116,117,118,117,115,114,118,114,118,116,115
117,113,115,114,111,115,110,110,117,120,115,115,115,117,114,117,118,120,119,116,118,117,116,115,115,112,114,112,113,119,118,115,115,111,113,113,113,111,114,116,116,117,119,116,112,115,117,113,111,111,110,118,118,115,118,116,116,118,114,120
116,115,116,116,113,115,113,114,111,113,110,116,112,118,116,114,113,117,116,116,118,110,117,118,119,116,115,119,114,116,117,112,113,113,116,111,109,111,113,114,111,116,113,115,113,114,115,117,119,113,112,122,112,110,115,117,118,115,114,118
112,118,116,116,114,115,115,116,111,117,112,115,116,117,113,114,115,111,111,116,118,110,116,114,113,115,109,118,116,116,116,113,113,114,117,116,118,116,115,115,115,120,112,117,120,118,111,117,122,113,113,120,115,116,118,117,113,109,113,113
115,119,114,114,113,118,114,114,116,118,113,118,119,116,114,113,115,112,113,111,114,114,115,115,116,119,115,118,115,117,114,115,113,118,115,115,119,114,118,120,118,115,122,117,113,110,110,118,117,118,115,112,110,114,112,114,117,112,117,117
116,116,114,118,115,121,115,116,115,115,115,115,121,114,114,115,118,118,119,114,117,116,114,116,116,114,114,115,115,118,119,119,115,116,109,116,115,110,114,111,116,114,117,110,115,112,116,118,113,119,114,113,112,114,110,114,115,114,120,115
118,118,118,114,110,120,115,113,113,115,120,119,122,115,114,116,118,115,114,112,115,115,111,116,117,113,118,120,116,116,112,109,112,114,113,118,115,116,119,114,114,117,116,113,118,114,117,113,113,120,114,113,116,119,114,117,115,118,117,113
116,114,116,115,111,118,115,113,118,117,110,115,112,111,113,116,117,115,112,115,117,118,118,118,114,111,117,113,112,120,119,118,113,112,116,116,108,111,111,114,116,120,117,116,115,115,115,109,112,113,110,111,116,115,114,119,115,112,115,119
116,116,116,117,113,116,112,116,117,119,112,116,113,112,115,116,116,113,112,119,119,115,113,117,113,109,116,113,114,116,117,117,117,114,115,119,116,118,113,115,119,115,114,116,113,113,115,117,118,116,117,113,114,112,115,118,115,114,114,114
111,114,115,119,110,113,111,118,116,122,122,123,116,113,114,117,119,118,118,119,115,114,115,118,115,116,120,116,117,118,117,115,120,110,111,118,116,120,113,114,114,109,115,117,114,116,117,118,117,114,116,114,119,116,113,116,114,114,116,117
112,117,112,116,112,114,114,114,113,115,114,113,113,119,118,116,114,116,115,118,115,110,115,113,114,117,119,117,117,114,110,111,117,114,116,115,108,113,113,115,113,116,114,113,115,118,115,115,115,118,117,117,118,115,115,117,116,111,115,117
112,119,112,113,113,118,120,116,119,111,114,117,115,119,118,115,113,115,115,115,118,112,118,117,118,120,115,117,114,111,117,116,117,115,112,113,116,113,111,114,114,115,114,111,115,116,115,119,120,115,110,114,115,116,115,114,119,118,116,114
112,117,112,116,116,116,116,111,119,111,114,119,113,113,114,111,114,116,113,111,114,112,115,117,116,116,116,115,115,113,118,114,114,114,114,113,116,118,119,115,114,112,114,115,119,116,111,112,116,115,114,116,114,114,115,111,116,114,109,114
112,117,114,113,116,117,112,114,112,110,114,115,110,113,113,109,116,117,116,120,117,116,113,116,119,116,116,116,118,113,114,112,114,115,116,116,114,112,114,117,113,114,113,114,118,118,117,113,115,116,119,121,113,114,121,114,116,112,112,122
123,119,111,112,116,114,113,119,115,117,116,114,114,115,116,112,119,119,113,112,111,112,116,118,117,113,116,117,113,115,115,114,114,118,118,114,115,112,112,122,114,118,120,116,114,107,112,112,115,116,110,117,113,114,116,111,114,114,117,120
116,112,108,114,115,114,118,114,117,118,116,116,117,116,119,113,117,117,113,114,117,111,113,116,116,115,116,114,114,118,112,114,117,119,115,114,118,118,111,116,111,116,115,114,116,114,117,115,116,116,113,120,114,117,122,121,117,117,113,115
114,113,117,122,120,115,116,113,116,115,116,111,117,118,117,111,116,118,119,117,117,111,115,115,115,117,114,114,116,116,116,117,117,115,113,112,114,115,112,117,111,117,113,115,115,115,115,115,117,117,115,115,110,116,117,119,115,116,112,116
116,116,115,111,114,114,112,113,118,115,113,114,118,115,117,114,115,117,117,116,115,114,115,114,113,115,111,116,120,112,116,116,118,115,115,117,115,112,112,120,116,121,111,114,117,120,116,112,113,117,118,118,115,121,117,115,114,117,115,116
114,115,117,118,118,110,113,113,116,117,118,115,112,114,116,114,115,115,117,115,110,116,112,115,114,115,117,116,117,113,117,115,115,112,115,119,117,117,113,118,112,111,114,120,115,116,117,115,116,119,118,115,111,117,114,115,113,113,116,118
121,112,113,118,119,115,119,113,116,111,116,116,114,116,116,111,112,114,118,117,115,116,112,115,114,115,113,115,117,115,117,112,112,112,115,118,111,115,116,119,112,113,119,117,113,111,115,116,114,112,116,116,113,113,113,118,118,111,112,114
116,118,122,113,111,114,118,116,117,116,117,115,116,118,120,115,122,115,113,114,113,117,116,118,115,118,114,116,114,113,119,118,119,114,113,116,112,115,111,115,115,116,118,115,114,113,115,120,117,115,116,113,119,115,114,117,115,113,114,120
113,117,118,117,116,116,116,115,116,120,116,114,113,115,117,114,118,115,119,116,112,111,116,114,113,115,115,119,115,112,114,113,113,117,117,118,113,115,112,117,113,109,113,115,115,113,112,116,115,116,117,114,116,112,116,118,115,117,116,117
