55,61,67
118,113,114,115,116,111,116,118,115,114,121,113,117,112,111,114,117,117,119,115,109,111,116,114,114,117,115,117,116,113,117,116,114,116,119,122,117,113,116,116,121,115,112,118,117,116,115,112,115,115,111,113,115,114,116,114,114,111,115,117
115,113,123,112,111,114,116,117,115,116,117,116,116,114,116,113,117,114,110,116,116,118,118,116,116,116,116,115,113,114,114,115,116,111,112,119,118,115,121,115,114,112,111,113,112,116,117,113,116,113,116,119,117,110,115,113,115,113,117,119
114,108,115,114,111,112,117,118,116,116,112,108,114,113,116,114,115,112,113,118,116,113,113,113,120,115,112,111,117,114,116,114,117,116,111,118,112,115,114,112,114,118,116,116,113,117,113,112,115,113,117,113,114,115,115,116,118,117,120,119
115,111,113,117,118,115,114,118,119,115,114,110,117,119,115,109,115,117,111,112,116,117,110,113,117,116,114,113,116,109,116,117,115,115,117,119,109,113,115,112,116,115,115,120,110,114,110,113,117,118,118,116,114,113,112,114,111,112,113,116
113,115,115,112,111,113,113,118,116,112,114,118,117,115,118,110,114,116,112,113,115,115,114,114,112,114,112,117,118,119,113,115,114,115,113,118,116,114,116,114,116,117,116,112,110,116,116,117,113,111,113,112,115,113,115,115,111,114,113,114
119,118,113,114,117,114,112,118,113,117,110,117,112,110,119,113,115,113,115,116,114,111,117,119,116,114,112,115,113,113,115,121,115,119,115,116,117,116,112,112,116,115,118,115,113,113,112,113,113,116,114,112,116,113,113,118,115,116,115,121
111,112,115,116,115,112,118,118,112,118,113,118,116,120,119,109,115,117,114,113,117,114,114,113,109,112,116,113,114,113,116,112,118,115,115,117,114,112,113,118,119,113,121,119,116,117,116,114,114,115,117,118,118,115,112,118,117,111,112,117
118,115,116,118,118,113,116,115,109,116,116,119,114,118,115,115,114,117,116,115,114,109,112,119,113,111,114,112,117,113,113,115,119,114,115,116,117,118,116,118,117,113,111,110,114,119,115,113,115,113,116,119,113,114,113,114,111,110,116,111
115,112,119,116,118,115,114,115,112,114,116,115,110,114,119,117,114,117,114,120,117,115,110,114,115,117,116,116,114,111,115,115,112,114,118,119,110,111,117,118,115,117,119,115,118,117,110,113,114,117,115,114,113,116,112,111,113,119,117,116
119,117,122,116,114,118,119,114,118,116,115,115,117,112,117,114,113,115,113,117,118,113,112,118,116,114,116,113,112,118,118,117,113,110,112,114,116,114,115,115,117,117,112,117,118,117,116,116,108,113,111,114,114,114,113,111,114,115,112,115
117,114,113,113,115,118,117,114,117,112,118,118,116,113,116,114,117,112,115,115,117,111,115,116,114,116,119,116,115,117,113,114,109,113,115,115,117,116,119,119,118,112,112,116,114,114,116,114,109,112,114,119,116,108,116,115,117,115,112,113
113,117,116,115,113,116,114,116,116,116,116,117,111,116,120,112,118,116,121,115,115,112,113,111,114,118,117,113,118,113,110,117,115,116,118,117,114,115,114,117,115,111,114,114,116,115,115,118,119,115,113,117,118,115,119,116,115,115,113,111
114,115,113,115,116,116,118,116,113,116,119,115,120,116,114,119,117,113,111,115,116,112,117,114,115,113,117,116,113,114,115,115,110,112,116,119,116,117,115,114,116,113,116,116,115,114,116,115,108,114,116,116,110,113,113,112,116,117,115,111
114,116,116,113,115,112,119,113,117,118,117,113,118,117,116,113,115,116,112,111,114,117,116,112,115,117,119,116,114,112,114,116,115,113,114,111,111,115,114,114,115,114,115,113,116,109,115,117,118,118,118,118,114,116,115,116,110,114,118,111
116,115,119,114,115,113,119,115,114,113,109,116,116,121,109,111,118,115,120,113,113,117,114,115,117,118,119,112,118,113,118,115,116,115,114,109,111,117,120,116,115,113,114,110,118,114,116,113,115,116,115,114,114,113,115,116,118,116,112,119
114,108,112,117,113,113,117,112,115,114,117,114,114,119,112,117,111,113,115,114,117,117,116,112,115,112,116,112,113,114,118,110,117,118,114,112,117,114,112,110,111,111,113,115,119,114,118,114,116,111,115,114,112,114,117,113,114,116,111,118
118,114,114,115,112,114,118,113,117,112,114,112,115,112,113,120,113,116,110,112,113,114,114,114,115,116,117,115,122,115,117,113,117,114,116,116,115,113,115,118,117,115,117,114,116,113,110,113,115,113,117,115,113,118,109,116,117,114,112,114
116,119,115,113,115,111,115,115,113,111,115,116,118,114,116,116,112,117,115,117,118,115,113,117,115,109,115,116,113,114,114,112,114,114,112,118,117,114,111,112,119,117,113,108,113,115,115,115,115,114,115,113,111,119,116,120,111,109,110,110
118,116,117,120,119,116,113,113,118,115,116,114,115,111,113,114,113,119,120,121,113,114,113,108,114,116,124,118,116,113,112,115,115,113,114,114,111,115,115,118,116,111,117,117,118,114,117,114,114,118,115,116,116,118,114,118,111,120,116,114
113,113,111,112,119,117,112,115,121,116,117,113,113,110,114,116,118,117,115,114,115,117,111,113,115,110,114,109,112,114,115,114,115,112,118,116,120,115,113,116,120,113,118,116,114,114,111,113,116,114,109,115,113,114,113,118,115,113,114,115
112,118,114,111,115,115,115,114,112,108,113,118,117,113,115,117,114,115,112,114,118,120,113,120,117,110,116,118,114,117,119,116,117,118,114,109,119,113,116,112,115,117,119,117,116,116,116,115,117,114,114,117,119,113,114,113,113,108,114,114
117,115,116,117,111,116,121,117,113,116,115,116,114,113,119,118,113,120,115,119,114,114,118,120,119,117,115,115,111,115,113,116,117,118,113,114,113,114,116,117,120,116,116,118,117,112,117,112,117,116,114,114,116,111,117,112,114,110,118,117
117,116,115,118,114,115,115,118,116,116,112,118,118,114,111,115,115,113,113,115,115,115,111,113,111,114,116,113,111,116,115,116,118,119,115,113,111,115,115,113,114,112,112,117,119,117,115,111,119,117,119,116,115,113,119,117,116,116,114,110
115,115,116,114,117,118,118,119,115,116,113,118,117,115,112,118,118,115,116,110,112,120,117,118,122,118,117,115,116,115,115,112,113,120,115,112,113,112,111,112,116,116,116,114,116,111,112,113,117,113,112,115,113,115,120,113,112,114,111,116
115,113,120,117,114,112,115,115,115,115,116,113,113,112,117,118,111,111,119,117,114,117,113,113,115,110,114,115,117,115,115,115,116,116,116,117,116,118,119,113,113,110,115,117,118,114,114,117,114,108,112,116,118,117,117,116,114,117,123,119
112,115,115,115,115,115,116,113,117,114,122,114,118,113,115,116,112,116,117,115,112,116,112,116,115,118,116,115,117,117,112,114,117,116,117,117,115,113,114,114,118,114,115,117,117,112,119,115,117,115,118,115,114,118,116,114,114,114,112,113
115,115,113,112,112,112,117,115,120,112,115,116,118,118,116,118,114,116,110,119,117,115,112,112,114,116,114,114,113,116,114,117,117,113,115,111,113,116,115,113,117,116,112,114,116,117,118,116,114,117,116,116,118,109,107,111,115,114,111,113
114,114,118,112,115,116,115,116,118,115,112,116,114,115,119,118,112,113,112,115,117,114,113,115,116,117,114,113,115,116,114,113,115,111,116,114,114,119,112,117,117,115,111,115,116,118,115,115,113,118,111,110,117,115,115,115,113,114,113,114
118,119,117,111,112,113,114,117,113,117,114,113,116,118,117,115,115,113,117,114,117,117,117,122,119,114,116,116,114,118,115,113,117,109,111,113,110,117,113,118,119,115,112,114,115,114,107,116,113,114,114,119,117,115,116,116,111,113,117,109
112,115,116,115,114,117,115,118,116,115,114,116,113,115,115,116,114,113,115,116,112,112,114,113,115,115,117,114,120,118,117,115,115,116,116,111,114,118,121,114,114,116,117,115,115,116,117,119,117,119,118,116,116,118,114,112,119,118,119,115
112,114,110,109,113,113,116,118,119,112,116,119,118,110,112,116,116,115,113,116,116,115,114,115,115,114,115,113,119,116,116,115,113,114,119,113,114,113,115,111,113,116,114,114,117,117,115,117,111,118,117,112,115,113,112,116,113,114,114,115
116,116,113,116,119,112,116,111,117,115,120,116,116,111,116,112,114,113,113,114,115,114,114,115,111,118,118,115,117,120,115,115,114,116,117,117,113,114,113,117,118,116,113,110,114,118,113,119,114,119,116,116,117,111,109,117,113,115,115,113
111,114,113,118,121,115,114,113,119,119,116,111,113,109,116,115,110,114,115,113,115,117,116,115,109,118,116,113,111,111,112,111,113,113,114,114,115,115,116,112,115,116,116,117,120,114,117,117,115,118,115,110,115,118,115,114,116,116,115,115
113,114,116,119,113,117,113,114,113,118,118,117,117,116,116,118,116,115,114,114,120,114,116,115,114,116,113,116,116,115,116,118,118,113,116,112,118,108,115,113,114,115,117,116,116,111,118,117,116,114,117,113,117,117,115,118,115,114,117,111
119,118,115,118,114,120,117,120,113,114,118,115,111,113,113,115,114,107,121,112,117,112,112,108,117,120,113,116,118,115,114,117,116,116,114,117,114,112,120,114,107,113,114,114,113,119,118,115,114,113,115,114,114,115,113,108,117,116,122,114
111,112,110,119,118,113,109,113,116,113,118,117,115,121,114,112,114,112,117,114,116,115,116,111,112,114,116,113,115,116,118,113,113,114,118,118,115,117,115,115,116,116,115,115,116,114,111,113,117,119,117,113,113,116,117,115,118,115,116,116
114,114,116,121,115,117,118,115,117,116,113,117,116,118,113,117,118,119,114,118,117,116,114,119,117,112,110,115,116,111,117,111,115,113,115,112,117,119,114,116,117,112,116,111,113,116,117,118,114,112,114,116,116,115,111,114,117,116,115,121
111,114,112,117,115,114,117,117,114,114,115,115,117,115,111,114,115,118,118,118,121,118,112,114,115,120,117,116,113,118,116,112,113,115,113,109,113,114,111,112,118,114,114,117,111,113,120,120,115,112,117,113,115,115,112,115,114,115,118,115
117,114,118,116,113,113,114,115,115,113,111,112,114,116,113,112,114,116,117,113,114,112,111,119,115,115,119,117,111,118,115,118,117,118,113,116,117,114,116,113,115,118,117,119,118,117,115,116,111,111,116,111,113,121,117,114,107,110,115,110
113,115,115,115,115,114,118,117,115,116,115,119,116,114,115,115,116,113,115,115,116,113,115,116,115,116,117,115,113,115,113,114,111,117,116,118,115,114,112,116,120,118,117,113,114,112,113,117,113,112,116,118,113,112,104,120,118,111,114,115
111,112,112,119,115,118,115,115,117,115,111,119,120,119,115,107,114,117,115,112,113,118,120,120,118,120,115,111,120,114,113,113,115,117,117,119,113,118,120,111,120,111,112,115,115,115,115,115,116,121,119,115,112,115,118,117,114,117,115,118
117,117,116,120,111,113,108,115,114,113,114,112,119,120,117,112,116,116,115,113,112,114,115,113,118,121,117,113,115,114,120,115,121,116,114,117,114,113,117,111,116,117,117,114,112,115,111,114,118,116,118,112,113,115,112,112,118,118,113,116
113,116,116,117,114,114,115,118,119,111,113,117,119,111,118,115,116,111,114,118,119,115,114,111,116,115,117,115,114,115,114,119,118,112,114,116,114,116,117,115,116,117,116,117,116,119,121,115,111,113,118,111,121,115,117,115,113,113,118,120
112,112,116,114,118,119,115,116,116,113,114,114,116,117,116,113,115,115,116,115,118,115,118,112,120,115,119,116,114,119,118,116,112,113,116,115,118,119,118,112,112,113,115,113,114,117,116,113,113,116,116,112,116,116,118,116,115,115,116,114
115,118,115,116,120,114,112,115,113,113,115,119,113,113,112,113,118,119,117,116,119,120,119,117,117,118,114,111,115,115,120,119,120,115,117,114,115,114,115,114,116,111,119,116,115,117,117,114,113,117,115,113,116,114,116,117,115,111,114,115
114,117,109,117,119,116,113,112,116,116,111,114,113,115,118,117,115,112,116,111,112,115,112,116,108,117,114,118,119,116,119,117,117,115,120,118,118,117,117,117,120,116,113,116,115,114,116,114,116,117,115,116,117,117,118,118,115,115,116,112
115,118,115,116,113,112,110,118,115,122,115,117,119,119,115,116,117,113,114,113,117,115,113,118,118,117,117,118,117,119,122,118,119,117,116,119,118,115,115,112,115,117,120,120,115,110,116,115,117,115,113,116,114,116,112,112,114,117,117,113
116,117,119,117,120,116,112,115,118,117,111,111,109,110,115,115,114,119,118,118,119,115,118,117,116,115,117,116,121,124,122,118,118,122,120,118,117,118,118,116,120,115,119,116,115,117,118,116,114,115,113,116,114,115,112,114,114,111,114,117
117,110,115,116,118,114,116,118,115,114,111,114,122,116,118,113,116,118,117,113,118,114,121,116,117,118,122,122,125,127,127,132,129,123,122,124,120,122,119,118,118,116,117,119,116,112,115,114,114,115,117,116,114,115,118,120,115,112,117,119
118,115,115,117,121,111,115,116,117,113,110,120,116,115,115,116,119,119,119,115,122,118,117,118,116,118,123,128,132,138,142,140,133,127,122,123,120,119,119,113,116,116,119,125,117,118,121,114,118,111,112,115,116,113,112,115,113,112,118,117
114,117,113,115,115,113,116,118,118,117,116,118,112,114,113,115,117,112,114,115,120,120,120,118,119,123,122,133,141,145,148,142,141,134,124,118,122,118,123,117,125,118,113,115,117,119,113,111,118,114,122,118,113,115,115,112,113,116,123,113
117,117,114,115,111,119,115,114,112,118,117,114,118,114,113,112,115,119,123,121,122,119,116,116,120,119,125,137,141,143,150,142,143,130,130,121,121,120,114,114,119,117,118,115,116,119,116,113,111,112,117,117,115,116,114,117,115,112,116,114
114,118,113,116,111,117,114,115,119,120,110,112,113,114,113,116,118,119,114,113,113,120,117,121,123,118,128,142,145,139,153,151,146,131,132,126,121,121,118,120,120,114,118,122,115,115,117,114,118,119,117,109,115,116,112,114,118,120,115,115
120,122,117,111,115,116,114,116,115,118,117,118,114,119,117,119,115,115,115,114,117,122,120,123,124,124,134,143,146,148,150,147,145,131,133,123,126,124,115,121,121,119,117,117,118,116,114,109,113,111,115,115,119,116,118,115,111,118,115,113
112,115,118,113,115,111,116,118,117,113,118,115,112,116,114,116,118,119,118,115,115,118,118,121,125,131,133,142,148,153,151,149,145,132,123,123,126,121,117,118,118,116,116,117,115,111,117,119,117,112,111,115,115,117,118,115,110,119,116,113
115,116,115,116,111,115,118,117,116,111,116,114,116,117,117,114,114,121,115,115,118,120,121,121,121,124,138,150,151,151,156,158,144,130,123,126,118,114,123,120,117,119,118,118,118,117,114,110,114,112,115,118,112,113,116,118,114,117,115,110
115,112,112,113,112,118,116,116,116,115,113,112,116,115,118,116,118,121,116,120,123,120,122,118,127,130,141,151,154,151,157,155,142,134,129,128,127,123,125,117,117,118,116,116,114,114,113,117,114,116,115,116,114,115,115,120,117,116,120,113
115,116,116,116,117,115,114,112,112,115,116,115,117,118,113,115,117,121,116,117,120,118,122,123,122,131,140,155,154,152,159,153,142,131,129,122,116,117,122,125,122,115,116,118,120,115,114,116,115,111,116,114,111,117,111,115,118,114,115,111
115,116,118,113,111,114,111,113,116,112,117,116,119,114,115,118,118,118,116,116,120,118,124,123,117,136,150,158,156,161,163,152,141,133,131,123,117,126,117,118,117,111,115,116,118,117,120,116,119,110,117,114,117,117,113,116,116,112,115,112
115,113,116,115,119,119,114,120,116,110,116,115,118,112,118,118,117,116,112,116,123,117,115,121,122,129,144,158,159,160,158,154,147,138,132,125,125,125,116,119,120,113,117,114,120,114,115,112,114,113,113,111,112,112,111,118,113,113,117,121
116,116,119,115,113,113,112,112,110,115,115,114,120,117,117,114,116,116,117,119,117,115,118,124,124,134,144,160,154,158,165,160,146,131,130,123,125,120,119,121,119,109,119,120,116,110,115,117,110,115,119,114,114,118,114,120,111,117,115,119
114,116,118,114,117,113,114,115,115,114,112,115,110,116,120,118,117,116,122,124,121,121,121,124,128,134,151,161,157,161,165,158,149,133,129,119,120,118,123,119,120,117,116,115,118,118,114,115,110,113,117,116,115,112,114,116,109,115,114,122
112,114,114,113,118,112,117,119,117,116,114,113,114,117,114,115,120,119,115,120,118,121,121,126,130,128,153,161,166,164,164,158,151,134,126,125,120,118,121,119,120,116,118,113,115,117,112,116,117,112,114,116,115,117,115,118,112,116,114,118
111,119,117,116,117,113,114,118,117,117,109,113,117,116,116,117,116,115,118,116,116,119,117,126,130,129,153,168,159,163,161,158,149,134,128,121,120,120,122,119,117,114,113,113,113,116,119,119,118,115,119,113,111,116,118,116,119,121,117,117
115,118,109,115,115,117,121,117,111,116,119,116,113,113,114,118,114,117,123,118,120,117,118,119,123,138,154,165,159,164,158,157,144,134,126,123,126,121,119,117,119,121,115,113,113,116,117,111,116,116,115,113,117,118,114,115,114,114,116,115
118,115,112,116,117,116,117,115,115,114,112,112,116,118,115,115,112,113,119,119,119,116,122,122,124,130,151,167,163,159,158,156,143,133,126,124,120,122,122,113,115,115,116,117,116,115,115,111,113,112,112,108,114,118,113,114,121,117,112,116
116,113,117,115,120,111,110,113,113,117,120,119,115,117,119,115,116,119,124,118,116,117,121,124,127,131,150,158,157,157,160,161,149,131,126,127,115,118,118,117,118,115,116,115,114,111,113,113,115,116,116,115,118,122,118,113,114,115,115,117
118,117,115,117,121,113,116,118,113,115,113,117,115,118,114,115,115,119,114,115,119,118,115,120,126,134,149,153,160,161,162,165,145,128,129,125,125,120,112,118,119,118,114,114,115,118,116,115,113,117,118,117,115,113,111,110,115,118,113,116
118,116,114,112,112,115,117,118,115,113,114,117,113,113,112,115,117,119,115,114,118,119,117,120,123,130,151,160,160,161,161,155,142,133,128,124,123,119,123,117,114,115,113,118,116,116,118,124,118,115,112,119,121,112,114,114,118,113,112,114
117,112,115,113,114,114,115,118,115,110,113,113,113,118,121,117,117,118,122,119,117,118,121,125,127,131,145,161,156,162,158,153,145,133,122,121,120,117,120,114,116,114,114,118,113,115,110,112,114,114,114,115,113,116,115,117,115,112,117,116
116,115,118,119,120,115,116,112,108,114,115,113,112,112,115,118,117,120,121,121,118,120,120,118,128,135,153,163,152,158,160,154,139,124,125,121,121,119,120,119,115,114,113,118,116,114,114,119,119,120,115,116,116,115,111,117,117,119,113,112
116,117,113,115,115,112,113,111,113,119,114,113,114,120,119,117,115,114,116,116,114,119,119,120,120,124,140,153,155,159,161,156,131,122,121,121,120,123,116,121,118,117,115,117,118,115,113,112,114,115,112,114,114,113,113,116,116,120,116,116
116,117,112,114,114,116,114,112,113,114,116,121,116,114,113,118,118,116,115,118,116,118,116,119,117,126,140,155,151,154,150,142,130,131,125,125,122,121,113,118,118,118,112,114,113,114,116,122,117,112,117,114,114,114,113,109,114,113,116,116
116,116,114,118,114,117,116,117,117,115,114,119,115,118,114,115,114,118,118,113,113,114,116,120,116,119,128,141,144,141,147,135,132,126,121,116,120,121,118,115,115,118,116,116,116,119,119,118,115,113,117,109,117,118,115,116,121,118,118,116
117,118,116,118,115,115,117,115,114,114,113,116,115,117,115,117,116,118,116,114,116,117,113,113,115,122,123,129,131,133,127,121,128,124,119,119,119,118,115,114,115,114,115,116,114,118,118,107,115,116,114,112,117,114,111,115,116,117,113,113
117,122,113,113,112,114,113,113,113,120,117,115,118,116,112,114,112,114,114,115,115,120,120,121,118,121,121,130,118,123,123,121,122,121,119,118,114,119,117,114,119,118,115,118,111,114,115,110,117,117,118,120,116,120,115,112,114,111,113,118
111,115,118,115,114,118,114,118,116,117,111,115,113,112,118,112,114,117,116,115,113,120,112,118,115,117,117,120,119,119,122,122,117,114,113,115,112,116,117,113,114,112,114,116,114,115,114,112,120,114,114,122,113,115,115,116,116,112,114,117
115,112,114,114,117,113,113,121,114,114,112,115,115,116,115,105,117,118,116,116,116,120,108,115,116,117,119,115,117,120,117,119,119,115,115,118,114,113,113,114,115,116,115,120,110,115,115,116,121,118,117,119,118,116,114,116,112,117,118,110
122,114,119,114,116,112,116,114,113,116,114,117,115,115,117,116,115,118,117,114,116,118,112,121,115,121,119,118,120,119,116,119,116,116,120,121,112,114,114,114,112,121,111,114,114,117,117,117,115,115,119,115,116,117,118,118,113,115,120,118
113,115,117,115,112,109,116,114,113,117,120,120,116,114,120,119,115,118,116,115,116,115,116,115,111,118,112,112,112,114,117,115,114,115,113,116,113,116,116,117,113,113,113,116,120,113,114,115,114,113,112,114,110,111,112,115,113,113,118,110
117,116,117,120,112,120,115,117,116,117,117,112,112,114,116,113,119,113,114,113,115,112,120,119,117,119,120,114,114,115,120,119,116,120,120,113,114,117,117,118,114,119,118,119,117,112,115,117,118,117,109,111,112,116,114,113,113,112,118,115
115,111,114,115,112,117,118,117,111,113,116,119,114,118,116,111,117,112,116,116,119,117,115,111,116,111,115,117,117,115,118,117,112,117,119,116,121,119,115,111,114,115,110,113,113,116,119,112,112,111,111,113,113,120,119,113,115,117,117,113
117,113,111,114,116,116,120,116,115,116,117,117,118,117,116,113,117,113,110,115,118,115,114,115,116,111,115,119,117,113,114,117,115,117,117,114,116,114,116,119,117,114,117,113,119,110,113,115,118,118,113,115,114,119,118,117,115,114,115,111
114,109,111,113,119,114,112,117,117,112,113,112,115,115,122,112,115,118,115,122,113,111,118,116,116,114,115,114,113,114,111,117,121,117,115,113,117,116,118,115,113,114,117,112,123,118,117,119,117,116,112,116,115,120,114,116,113,113,113,115
112,112,117,114,116,114,114,116,115,117,109,117,118,114,114,116,119,113,116,115,114,121,116,113,112,112,115,118,113,115,116,117,112,109,116,117,119,120,119,112,115,119,116,115,118,117,111,115,117,117,112,112,116,119,116,115,114,114,110,114
116,115,119,113,117,115,115,120,112,118,115,117,113,115,113,112,113,117,121,113,113,121,116,117,120,118,116,115,114,122,117,116,118,115,114,112,116,112,113,115,117,117,106,118,119,119,112,117,118,117,111,114,118,116,113,122,119,113,113,110
113,115,117,115,117,117,117,117,113,116,114,117,111,121,118,115,108,115,116,114,115,115,119,119,115,112,118,118,118,118,117,118,115,116,118,111,116,119,116,116,112,115,112,116,116,116,117,118,110,110,116,123,114,120,114,115,115,118,116,110
111,116,116,114,116,115,115,110,111,115,114,115,117,121,116,114,115,117,113,117,113,112,116,119,115,116,118,115,112,116,115,118,118,117,114,121,112,117,118,112,113,114,115,119,115,116,117,113,117,114,116,114,112,116,116,116,111,115,115,115
117,116,111,118,117,108,110,114,112,114,115,119,115,110,112,111,115,115,118,115,110,114,116,117,115,114,114,116,118,117,112,115,116,117,111,115,111,116,112,111,116,116,116,117,114,115,117,114,112,110,111,113,119,111,116,114,115,114,117,120
114,116,118,115,114,115,117,117,111,116,113,117,116,115,120,116,115,118,117,114,116,114,117,115,114,116,115,114,114,113,115,116,115,119,114,115,116,115,112,115,111,114,115,111,113,114,117,115,123,115,112,112,119,116,118,119,113,113,117,120
113,112,113,111,111,113,115,116,118,117,116,116,118,117,113,115,117,112,113,120,116,111,117,114,114,114,113,115,118,118,115,113,112,115,117,115,115,114,122,117,117,122,116,116,114,117,121,114,115,112,116,115,112,112,114,114,110,114,116,115
116,115,117,116,114,112,113,115,116,114,113,116,113,116,116,118,118,115,114,117,119,117,116,117,116,114,119,116,114,118,114,117,114,119,114,113,115,115,117,111,113,115,115,116,115,113,117,116,116,116,119,114,116,117,118,113,114,113,114,119
119,115,117,115,119,116,112,115,116,116,110,116,115,109,114,115,110,112,118,115,116,109,114,118,114,113,112,115,118,113,110,115,114,118,118,116,116,119,114,115,116,117,117,115,119,114,118,116,120,110,115,117,118,114,111,115,113,113,115,121
112,115,114,112,121,114,113,113,112,117,117,115,115,111,114,119,117,116,111,115,117,110,113,112,110,116,113,116,116,114,119,119,123,116,118,120,117,119,115,116,117,118,112,109,113,116,113,112,117,108,115,109,113,110,111,122,116,116,116,113
116,115,112,112,116,115,118,116,117,115,116,113,114,113,113,111,109,117,114,115,114,115,118,117,117,114,115,116,115,112,113,115,116,111,121,120,117,121,116,112,113,114,111,118,123,115,112,115,115,113,121,115,117,115,117,114,114,111,118,119
116,119,118,113,110,110,115,116,114,113,116,115,113,115,114,113,113,114,116,112,113,113,114,118,120,113,114,114,117,116,115,114,111,112,116,120,117,116,118,118,115,117,114,113,117,116,117,119,114,113,114,115,112,111,117,111,118,113,114,117
113,120,116,117,117,115,116,117,111,113,115,114,114,116,119,118,119,115,119,119,120,116,115,114,113,115,117,114,112,106,116,116,111,114,116,117,113,114,116,110,111,116,113,111,113,114,113,114,115,111,114,116,115,116,115,114,116,116,116,115
115,123,116,114,113,115,113,116,116,113,111,112,118,114,111,115,117,118,115,111,117,118,116,111,114,116,113,114,115,113,118,116,119,114,115,116,118,116,115,115,115,116,117,117,113,114,115,112,115,112,118,114,113,116,112,113,112,116,114,114
118,113,112,115,120,114,114,114,117,114,115,113,118,118,114,112,113,115,117,116,115,111,115,115,116,112,112,115,117,113,115,113,113,113,116,116,117,117,119,115,118,117,113,118,112,113,119,120,118,119,122,110,111,114,113,113,111,116,116,114
120,113,116,118,116,111,112,112,115,111,116,115,116,114,115,114,113,114,115,113,114,112,112,113,116,114,117,117,115,110,115,114,115,116,111,118,116,114,120,114,116,117,119,113,113,112,116,117,111,119,118,114,117,116,114,117,120,115,111,115
115,112,115,115,115,116,118,120,117,119,114,112,112,119,118,119,116,111,113,112,117,117,114,113,115,115,115,119,121,114,114,116,115,115,116,116,111,112,117,114,117,113,114,116,117,115,114,116,115,120,115,112,114,116,114,112,113,115,115,115
117,115,116,113,116,116,113,109,110,112,116,116,114,119,116,114,115,116,118,117,119,118,114,109,113,115,119,117,112,118,118,119,117,115,117,115,116,112,116,113,110,119,116,123,116,116,118,115,116,116,114,115,118,119,116,118,115,114,114,112
114,116,113,115,113,112,115,115,114,113,122,119,115,111,116,116,114,112,113,113,116,119,113,118,117,114,117,116,113,117,118,115,114,114,118,115,118,114,116,122,118,118,115,119,115,115,116,116,115,112,110,111,116,116,117,115,111,117,117,116
114,117,113,116,115,117,116,122,120,118,115,114,113,114,116,119,117,110,120,116,115,115,114,119,117,111,112,114,116,113,111,117,114,115,117,115,115,115,112,117,116,117,115,115,116,113,113,112,111,116,114,119,116,118,114,116,119,116,118,112
115,111,116,113,116,118,117,115,114,117,113,111,112,111,116,112,112,113,117,115,112,108,113,119,120,116,119,117,112,113,113,115,114,116,112,115,116,118,113,117,116,115,116,115,119,117,118,113,119,116,112,108,109,115,115,114,113,114,114,116
117,114,118,117,120,117,118,116,113,111,118,116,115,116,114,108,115,112,115,115,114,111,113,116,114,113,113,113,112,116,116,114,116,117,119,117,115,112,110,112,114,116,114,111,111,113,112,115,122,115,115,118,119,117,114,117,113,116,117,120
117,117,118,115,117,116,115,114,111,112,117,116,116,119,116,110,116,117,115,113,114,116,115,116,116,118,114,114,113,114,116,111,115,114,115,117,113,115,124,119,113,116,113,115,113,115,114,117,118,118,115,116,112,117,115,117,116,114,117,115
115,115,114,115,116,115,115,116,112,112,114,110,113,110,117,119,107,112,119,120,116,115,115,117,113,114,115,119,114,118,116,116,116,119,117,120,119,112,117,114,118,119,118,117,118,117,114,116,116,113,113,117,119,121,118,108,113,117,121,114
113,120,114,114,121,114,113,114,117,114,114,113,112,113,116,117,113,120,110,114,117,117,117,117,114,112,115,116,111,115,109,111,111,119,118,114,112,114,114,109,113,110,115,114,123,116,114,115,118,113,111,113,113,116,118,119,122,118,112,112
116,118,116,116,116,113,114,115,119,117,112,114,112,115,113,116,113,117,117,115,114,116,115,121,111,114,115,116,115,117,113,109,114,115,115,116,115,113,114,113,112,111,113,113,119,114,114,116,115,115,121,119,113,114,115,112,112,111,115,113
117,116,112,115,113,113,115,116,117,114,111,116,115,115,118,119,114,109,117,113,116,120,115,116,115,117,116,114,113,115,109,114,122,114,119,115,114,115,116,112,110,113,115,115,117,112,113,119,113,116,116,117,113,115,116,113,111,113,118,113
108,116,115,117,116,116,116,111,115,118,116,118,115,115,117,112,111,115,118,119,117,116,113,111,114,109,114,119,114,116,115,116,115,112,115,115,116,116,119,115,111,112,115,115,116,118,115,114,114,119,113,114,113,120,114,117,113,112,114,114
119,113,117,119,114,112,118,114,117,112,111,118,116,117,118,119,116,118,115,119,117,120,115,117,113,115,116,113,117,113,117,118,116,113,114,109,114,115,116,119,115,116,117,116,113,113,111,115,114,115,113,119,114,116,114,116,113,117,117,115
115,113,116,116,116,116,115,110,113,116,119,118,112,116,116,116,112,112,112,118,115,117,111,118,115,117,115,117,122,115,126,112,112,116,117,117,115,113,114,117,112,113,114,113,115,115,113,116,116,114,117,118,112,114,118,119,114,116,108,116
119,118,116,116,114,115,114,122,117,117,114,114,112,117,115,116,116,112,115,113,112,113,114,118,120,124,115,116,111,114,117,111,114,115,116,116,115,114,117,117,118,112,112,115,119,117,113,115,116,111,115,116,115,115,118,117,112,113,111,116
112,117,116,115,116,117,117,115,113,118,112,112,114,116,116,111,115,117,118,113,117,118,120,111,117,114,115,118,114,114,112,114,117,120,120,115,116,113,113,114,113,109,112,114,111,116,115,118,118,112,111,112,116,114,111,109,118,117,113,117
112,114,116,112,111,114,119,114,116,115,118,117,115,114,119,115,117,112,115,112,114,115,116,115,119,115,117,115,116,119,117,113,115,116,114,112,115,113,117,118,118,115,114,115,113,117,117,118,115,115,114,119,114,115,122,113,114,112,114,115
113,114,115,114,115,114,113,115,116,114,115,113,111,115,115,114,120,117,119,115,118,113,114,108,113,117,118,115,114,116,115,116,120,117,115,112,112,116,117,114,116,116,116,113,116,116,118,114,112,117,111,114,111,109,112,115,117,114,112,113
114,118,116,115,116,112,116,118,116,118,116,117,112,118,116,119,119,113,111,117,117,110,112,115,115,115,112,112,115,115,115,114,118,114,111,117,113,116,119,114,114,117,113,112,119,116,115,114,116,115,112,118,116,112,112,115,110,114,115,118
117,116,115,114,116,114,115,116,111,114,112,118,115,117,110,112,115,116,115,116,113,113,117,117,116,114,112,113,120,118,117,117,112,114,119,119,115,113,114,114,116,117,113,115,116,116,120,121,120,113,117,117,114,112,121,118,112,116,111,113
