25,45,65
112,112,107,109,109,116,112,110,112,112,109,111,111,108,108,111,109,113,110,113,112,110,109,110,111,110,111,109,112,111,110,113,115,111,109,111,110,110,112,113,109,115,113,110,113,109,109,117,113,110,112,117,113,111,114,111,112,111,110,112
109,109,106,110,114,113,108,108,112,115,113,116,110,113,112,113,112,114,110,108,110,110,113,114,113,110,109,110,110,110,109,111,114,113,110,109,113,108,107,109,104,110,112,109,113,110,111,113,111,110,114,113,112,110,107,106,110,111,109,113
108,112,113,106,113,114,111,114,112,108,106,111,103,109,111,112,111,115,118,111,113,116,114,113,113,114,107,111,115,115,116,112,108,117,112,109,111,112,111,113,108,113,115,111,109,110,110,112,113,112,111,107,114,116,112,111,114,115,110,110
108,109,111,108,106,114,111,114,114,114,114,117,107,109,110,109,111,113,112,111,110,113,112,108,107,114,110,112,112,110,112,114,108,116,113,116,112,113,115,117,112,109,110,109,109,112,109,110,110,113,111,106,112,112,108,109,109,109,113,112
111,114,111,109,102,108,110,113,111,105,107,112,108,109,110,111,115,113,113,114,110,112,115,114,114,116,111,111,112,112,112,113,115,117,111,109,107,108,107,110,109,106,112,112,111,110,110,116,111,114,110,104,113,113,111,114,113,110,109,110
110,111,111,113,112,111,109,109,113,109,106,115,113,110,111,110,111,110,114,110,110,114,114,112,114,115,116,113,110,116,116,111,109,115,113,111,109,115,111,110,110,111,112,109,107,109,108,109,109,116,116,113,112,110,109,112,112,112,111,112
111,112,112,109,110,108,108,109,111,111,105,111,113,109,109,112,116,112,108,112,111,112,115,112,117,114,119,120,115,119,119,119,114,114,110,110,107,113,116,117,113,110,110,114,111,111,109,113,112,111,111,112,109,113,108,110,113,109,111,111
113,111,115,111,112,113,114,113,108,113,105,107,106,111,113,109,113,115,115,113,116,115,117,116,118,114,118,119,117,121,118,116,118,114,114,115,118,115,113,115,115,111,110,112,111,113,114,115,109,112,113,112,110,117,112,112,112,108,109,111
112,111,110,110,108,105,109,114,110,114,111,118,112,115,116,111,113,108,111,106,117,116,116,118,122,122,120,120,122,124,125,116,114,116,116,110,113,111,112,112,110,112,113,113,111,114,113,111,112,115,113,109,110,116,113,113,113,111,109,112
111,113,112,113,114,110,112,113,108,112,113,113,106,109,108,111,117,112,115,118,118,116,122,122,124,124,121,119,120,120,125,117,117,121,122,113,114,114,114,114,114,116,117,111,109,112,110,109,114,114,113,110,109,110,112,113,115,112,107,114
111,111,111,111,110,112,114,114,112,111,114,112,113,113,107,110,111,112,116,117,116,122,121,118,120,121,122,124,122,119,125,125,126,122,121,121,117,119,117,112,113,112,114,111,112,112,110,111,112,108,106,110,111,110,112,108,112,114,109,112
110,112,112,112,108,111,115,112,112,111,113,112,112,113,113,112,112,116,114,115,116,119,119,122,124,123,121,121,121,123,120,122,123,118,117,120,119,119,117,110,111,111,114,112,115,116,113,111,111,114,110,109,113,111,113,110,108,112,108,111
106,113,112,112,108,108,112,111,111,109,110,112,111,111,109,109,112,111,113,114,120,121,118,122,126,122,120,124,121,123,124,126,124,124,123,121,118,116,117,114,115,115,112,107,108,112,112,112,113,112,111,112,114,109,112,112,114,115,114,114
111,112,109,111,113,111,111,111,115,113,110,113,116,117,113,113,119,113,116,112,117,119,119,119,126,116,119,127,121,127,127,125,125,126,122,122,120,118,115,116,111,112,112,113,112,113,112,107,112,110,108,109,110,109,113,109,109,109,111,113
112,111,105,106,113,112,111,110,115,114,112,113,115,113,109,111,115,111,114,114,118,120,122,118,120,123,122,125,123,129,124,123,122,123,121,120,117,113,114,116,117,114,114,109,109,109,113,108,116,112,109,112,111,109,116,112,112,111,114,111
112,114,109,114,117,113,109,112,108,111,111,107,107,109,111,114,115,114,114,115,113,113,115,121,122,125,119,123,122,125,124,125,122,127,122,121,123,117,120,108,112,110,112,111,113,111,116,110,112,115,109,111,112,103,113,111,111,110,114,110
117,117,107,109,115,115,108,115,108,111,113,112,113,114,112,111,118,113,111,113,118,119,117,117,118,123,122,123,122,123,124,122,116,121,118,117,123,114,113,112,116,111,112,107,107,108,112,115,113,115,112,108,116,115,116,110,110,109,115,114
114,116,112,108,113,112,108,118,113,114,114,113,117,114,111,106,112,110,115,118,118,113,118,119,116,118,119,123,126,124,125,126,123,123,120,117,121,117,113,113,111,111,111,112,107,110,110,114,116,111,112,114,110,110,110,109,113,111,113,110
108,111,113,110,114,110,108,111,108,111,112,105,110,111,113,110,115,113,115,117,116,117,118,121,120,117,112,121,121,120,120,119,119,121,119,115,118,113,108,112,114,117,108,113,107,109,108,110,113,111,109,114,109,111,111,110,110,110,111,112
112,114,114,109,111,105,111,115,111,110,113,112,108,110,113,114,116,120,119,120,114,120,119,118,125,126,123,127,122,125,124,123,119,120,119,118,119,116,115,114,110,112,113,115,109,111,113,111,111,112,112,115,111,113,111,110,108,110,110,111
112,115,113,112,112,107,107,110,114,115,109,114,109,110,114,114,113,113,114,119,117,122,124,121,118,121,122,124,118,121,120,120,120,118,116,121,117,113,116,115,111,109,110,111,110,111,113,110,111,111,110,111,112,113,112,111,111,111,112,112
112,111,111,115,113,111,114,109,110,112,108,113,110,111,113,112,117,119,122,119,120,123,126,127,121,127,122,123,120,124,129,121,124,123,116,126,120,111,118,116,114,111,113,112,113,114,115,110,109,110,115,112,109,109,112,112,111,107,110,112
111,108,112,115,111,105,111,111,111,113,110,111,107,110,112,113,116,115,120,123,122,122,127,126,126,132,125,122,120,119,121,122,122,119,117,121,117,114,116,110,111,110,111,116,112,113,117,112,111,112,115,115,115,111,111,107,111,110,114,113
112,113,115,113,113,112,112,114,111,113,114,112,110,110,111,115,115,113,119,122,122,123,130,123,121,123,126,125,121,124,124,124,126,122,121,121,115,118,119,115,113,114,111,114,105,112,116,111,112,113,112,112,112,110,110,110,111,110,113,109
107,111,111,104,112,111,107,111,109,109,111,114,117,116,113,113,112,115,117,115,122,122,127,123,121,124,123,128,124,125,127,124,131,129,118,123,117,117,123,115,109,112,110,114,111,107,110,107,107,111,111,111,109,113,113,114,109,108,110,110
109,112,114,110,108,111,110,113,115,109,110,111,110,110,110,111,113,121,120,117,124,118,123,122,118,122,123,129,124,124,123,122,127,128,127,126,122,123,124,118,114,115,113,107,111,111,113,112,111,113,111,111,105,111,108,114,113,113,105,110
107,108,109,113,111,114,111,111,114,109,113,115,115,111,114,115,116,116,118,119,122,115,119,121,124,121,121,125,122,122,118,124,130,128,127,123,124,121,119,115,113,115,115,112,111,111,114,117,116,112,110,112,112,115,107,111,110,114,112,113
113,114,108,112,110,110,108,108,114,113,114,110,114,111,114,115,115,112,117,120,120,121,121,121,123,119,121,120,122,123,120,125,125,121,127,126,123,122,125,118,116,121,114,113,112,112,114,114,111,112,115,113,113,113,112,114,112,108,110,114
108,107,108,112,112,114,115,114,111,112,109,110,114,112,115,116,119,117,119,116,118,124,124,121,124,124,123,117,123,123,118,122,128,123,124,126,124,121,117,115,113,115,114,113,108,110,115,113,111,113,105,110,113,113,110,110,114,112,105,111
110,110,118,111,110,113,112,111,106,113,107,110,110,112,114,111,111,118,119,122,122,122,121,118,119,119,124,119,122,120,116,121,124,125,121,123,119,119,117,119,114,111,113,112,111,109,112,110,111,112,109,114,109,112,114,109,107,111,110,110
111,106,115,110,111,113,109,112,109,114,113,114,110,111,112,114,113,123,122,126,120,120,122,122,121,119,123,120,121,120,122,124,122,124,119,122,119,124,121,124,120,114,112,112,115,110,113,110,108,111,111,114,116,113,114,110,109,110,115,115
116,107,108,107,113,113,109,114,108,111,113,112,111,113,111,113,113,117,118,121,126,122,119,120,124,121,123,120,119,117,122,122,119,121,123,124,119,124,120,120,117,113,114,111,116,111,114,113,113,115,114,112,115,117,111,111,109,108,114,113
112,111,114,114,110,109,105,111,111,112,111,113,115,111,110,115,114,119,122,119,121,122,127,123,125,119,121,119,115,114,116,117,123,121,122,120,120,122,122,120,118,111,112,111,112,107,111,112,110,110,111,112,108,113,112,118,111,110,115,113
114,111,108,119,110,112,108,107,114,114,112,111,114,114,110,110,111,114,117,126,126,122,126,121,122,124,123,124,119,121,120,118,122,123,120,118,118,116,117,112,115,112,114,115,117,114,114,115,112,113,110,113,111,109,108,112,113,113,113,113
112,111,106,111,107,112,111,105,108,114,114,110,114,115,111,115,118,117,120,123,126,122,127,126,120,124,125,123,118,121,123,123,119,121,121,126,124,117,120,116,114,111,110,109,113,111,114,113,108,112,109,112,114,111,114,109,111,110,106,112
114,114,109,111,110,113,114,108,107,108,110,114,114,112,112,115,117,118,123,118,124,123,128,123,121,121,122,124,123,121,123,124,123,126,127,128,126,117,120,117,116,117,114,111,112,113,116,114,109,114,111,109,113,111,110,107,111,112,112,113
110,111,109,108,110,111,112,107,109,110,113,114,106,110,114,114,114,119,124,121,125,123,126,121,123,124,121,120,124,124,126,126,125,125,130,126,123,119,121,118,118,113,113,113,110,109,110,112,111,112,110,109,111,110,110,111,112,111,113,106
107,112,114,109,114,113,114,113,114,112,114,117,114,114,115,112,113,118,120,120,123,125,129,127,119,124,126,123,126,125,128,125,125,119,131,127,124,120,122,115,115,114,116,115,113,114,110,112,112,113,113,112,109,114,109,110,110,109,114,108
107,112,116,110,110,114,112,115,109,108,110,113,110,109,112,114,117,114,114,117,117,121,128,132,128,126,124,123,125,119,122,128,135,120,124,122,123,118,120,124,116,116,113,116,112,114,113,114,114,111,111,109,110,117,112,112,112,112,111,107
106,110,110,116,112,114,110,118,111,111,116,110,108,112,116,113,114,118,113,119,119,122,125,127,125,122,120,124,130,130,128,129,130,133,127,123,126,120,110,116,114,120,111,114,115,111,111,111,110,108,110,110,114,113,109,110,107,116,113,113
110,111,107,110,105,112,109,115,110,108,117,115,113,109,113,113,112,118,115,120,119,120,125,125,127,125,127,126,124,127,132,133,128,135,126,121,122,119,116,119,115,114,112,111,111,108,110,114,112,112,116,111,112,115,109,110,111,115,109,117
108,110,112,110,106,110,110,114,111,107,115,115,113,109,113,113,114,113,111,119,122,122,121,120,127,125,130,125,129,128,130,127,122,128,130,131,126,123,125,124,116,114,116,113,112,111,110,116,112,112,115,103,106,114,113,111,114,114,111,115
111,115,116,110,108,108,111,110,109,111,110,110,110,109,112,111,114,114,118,121,123,123,120,121,121,119,126,118,123,121,126,128,129,129,125,120,124,121,124,121,114,113,112,107,113,115,112,116,108,113,119,108,110,112,112,107,112,112,110,108
111,111,115,113,114,111,112,114,111,115,108,109,111,113,115,113,116,114,115,117,120,122,125,129,125,123,121,117,123,120,124,127,125,126,129,119,124,122,119,117,117,114,114,109,116,112,111,116,107,112,111,106,112,109,113,109,114,112,116,111
112,108,115,112,112,116,110,112,111,113,109,112,114,114,115,110,115,118,119,120,121,121,122,121,118,122,122,125,118,120,124,120,122,120,123,118,118,126,120,116,120,113,113,111,114,111,113,110,106,114,113,110,117,109,111,107,111,110,112,110
113,108,107,113,110,111,107,112,111,109,111,110,112,114,115,115,117,115,122,120,120,120,123,121,124,123,118,123,118,123,124,119,120,119,124,122,120,123,119,118,118,113,113,109,109,114,115,111,110,112,110,108,112,111,115,111,112,111,110,107
112,111,111,114,112,112,111,112,113,111,114,113,112,112,112,115,118,117,122,118,123,120,119,121,124,122,122,120,117,119,120,123,126,123,119,115,119,120,119,117,116,115,115,115,115,111,114,112,111,115,113,113,110,113,113,111,112,110,112,109
108,114,110,108,108,108,114,113,112,110,108,111,114,115,113,114,114,118,126,120,119,119,123,123,126,127,125,124,122,121,123,119,120,125,128,120,121,120,116,118,118,116,114,112,112,109,116,114,111,111,111,114,106,109,112,112,115,111,110,110
105,111,109,110,113,114,111,111,111,111,110,111,109,109,108,116,115,118,123,120,123,126,124,122,124,124,125,126,120,117,125,122,121,118,123,118,118,127,121,122,114,115,113,114,113,109,114,111,112,106,109,113,106,108,111,112,116,114,113,113
113,116,114,109,110,115,111,110,112,114,111,113,113,114,112,117,115,118,121,117,122,122,121,125,124,124,125,125,121,119,125,123,126,126,128,125,121,119,116,118,116,120,113,111,112,114,117,110,113,113,113,112,110,113,111,108,111,109,109,111
111,106,113,109,113,112,110,111,114,113,107,109,112,117,112,118,116,123,125,123,121,124,125,125,123,126,123,121,126,124,126,124,126,129,130,125,124,120,120,115,114,117,113,112,115,111,114,110,111,111,112,111,110,110,110,110,110,112,111,112
113,107,111,110,112,110,112,109,112,111,118,114,110,112,107,118,120,119,120,121,121,122,127,126,122,124,126,124,127,125,125,125,124,127,126,122,118,119,119,113,116,114,113,113,117,110,114,112,113,108,109,110,114,114,112,115,109,114,111,106
108,111,112,109,111,108,110,106,110,110,114,115,110,114,111,110,117,119,125,124,128,128,131,124,118,120,124,122,125,121,122,125,123,126,122,122,120,122,124,115,116,114,114,109,113,108,110,112,113,112,115,112,115,111,109,113,112,116,115,108
111,114,110,113,116,109,112,107,106,108,106,109,110,116,116,112,118,118,121,122,126,127,129,123,126,123,124,122,122,116,121,122,119,125,122,121,121,124,128,116,117,112,114,112,116,114,113,115,112,112,112,109,110,108,108,107,111,115,113,113
114,116,111,115,114,111,113,114,113,112,114,110,109,111,114,112,119,116,120,123,125,129,125,120,125,122,123,120,126,118,122,122,125,124,124,123,122,118,122,114,117,112,115,116,110,110,110,114,113,113,113,115,113,114,115,113,113,111,112,109
110,112,109,117,115,110,111,108,110,109,111,116,118,114,113,111,115,116,122,121,120,125,128,120,125,130,130,123,129,122,124,125,125,123,121,122,122,120,124,117,118,114,111,115,112,117,113,113,112,110,110,114,109,110,109,107,111,108,115,111
113,113,105,113,111,104,117,111,112,112,109,113,110,111,113,115,119,117,119,118,120,121,127,120,124,122,123,122,126,122,127,127,123,126,124,126,124,121,122,117,115,115,112,116,109,111,113,114,113,111,106,113,111,113,112,109,114,109,105,115
114,118,110,114,110,107,115,108,110,108,107,112,110,115,114,113,113,112,117,116,115,118,126,122,123,119,123,120,124,121,120,124,124,126,121,121,122,117,116,112,113,114,109,109,110,112,112,113,113,113,109,110,107,111,110,107,112,113,111,116
109,112,108,110,107,109,114,110,115,113,110,110,112,117,111,110,110,117,116,114,116,116,120,119,123,123,126,117,122,125,129,130,124,124,125,127,124,119,126,121,122,118,115,109,109,109,111,113,108,108,114,111,110,113,114,110,111,113,112,111
111,115,112,111,111,111,110,108,114,116,109,108,115,115,109,112,109,120,114,114,116,114,114,115,118,119,123,122,124,125,129,127,126,127,123,126,126,125,121,113,116,113,111,109,115,112,108,117,114,111,110,111,115,112,114,113,114,115,111,113
109,113,111,111,113,114,111,110,114,113,109,109,112,113,110,116,114,120,117,116,117,120,119,118,123,126,126,126,129,126,126,125,127,131,122,122,124,121,117,116,117,115,113,114,113,111,110,113,113,110,111,112,115,110,113,108,110,112,114,112
110,114,113,110,110,108,111,112,113,113,111,108,110,114,112,113,112,115,112,111,115,115,118,113,118,122,123,121,126,125,126,128,130,130,131,132,128,121,119,116,116,112,109,112,108,114,112,110,110,111,117,111,111,105,110,109,112,111,114,113
114,113,112,112,114,109,112,108,108,110,113,110,111,111,111,114,108,112,115,114,118,112,121,119,123,124,122,125,128,123,127,128,125,124,129,125,122,116,115,113,116,115,111,113,108,114,109,112,109,108,115,112,113,108,115,111,112,113,112,113
113,112,109,110,115,112,111,113,113,108,112,111,109,112,109,112,114,109,117,116,118,113,121,118,120,126,122,125,122,120,127,128,128,126,126,125,124,121,120,118,118,117,113,113,110,113,109,106,109,109,110,109,108,108,114,114,111,111,107,104
115,114,108,110,114,113,111,110,109,111,113,117,112,114,113,112,117,105,113,115,120,117,123,121,119,119,121,125,122,125,125,124,125,125,116,119,123,118,116,116,112,110,108,113,112,112,115,110,112,111,110,113,112,114,113,110,113,115,113,112
111,115,110,109,108,111,112,111,111,114,109,112,112,113,114,113,119,112,115,113,119,119,121,119,123,119,120,124,120,122,120,117,116,123,122,126,125,120,115,116,118,118,111,115,111,110,112,109,114,113,110,110,111,111,113,110,111,114,108,106
110,111,112,114,112,110,111,112,110,113,112,115,116,110,118,118,116,112,117,120,118,121,121,120,128,124,121,124,125,124,124,121,121,117,118,121,117,121,116,113,118,113,111,118,113,110,111,107,114,112,111,114,119,111,109,114,105,110,113,110
110,109,111,110,113,112,110,113,110,112,108,112,117,109,110,114,118,116,119,119,116,119,124,119,122,117,124,124,123,118,122,119,122,121,118,119,118,123,118,111,114,113,113,115,111,108,111,107,112,113,109,108,114,111,108,113,115,109,111,110
108,103,110,110,111,114,110,111,112,113,111,116,115,113,111,112,115,116,118,119,125,125,123,124,125,118,121,124,126,122,121,122,122,120,121,116,119,120,118,118,114,111,113,116,117,120,111,107,111,112,115,110,109,110,110,108,111,109,110,108
114,112,112,111,109,109,110,112,108,108,108,114,112,114,109,111,114,116,116,117,124,123,117,121,123,125,125,124,121,127,123,124,119,119,123,117,119,114,114,118,115,115,113,114,108,117,111,111,112,109,107,108,111,114,109,112,112,114,114,110
110,108,112,110,111,113,112,113,107,108,109,111,108,109,113,113,112,114,112,113,117,117,123,125,123,125,125,126,121,122,117,121,116,122,124,118,121,117,116,116,114,110,111,120,114,114,109,108,110,117,111,109,115,114,107,111,115,114,113,113
109,105,113,111,111,114,111,111,110,111,110,109,110,109,115,117,115,117,118,116,122,121,120,123,124,123,121,119,121,125,120,122,117,123,118,118,120,116,118,113,116,112,110,115,112,110,113,112,112,113,111,109,116,111,110,110,106,106,110,113
112,112,114,109,112,115,112,111,111,114,116,113,112,112,110,112,116,113,116,113,120,124,119,123,122,121,122,119,120,126,122,121,118,127,122,121,124,117,117,116,117,114,110,112,115,114,114,109,110,113,112,111,115,111,113,114,109,111,110,109
110,109,110,107,111,114,115,114,109,110,112,110,108,112,112,110,114,117,118,113,117,118,120,123,120,119,123,122,121,124,120,120,122,127,127,124,123,122,119,119,117,113,116,116,113,105,110,112,110,113,108,110,109,111,110,112,113,110,110,109
113,110,113,112,109,105,107,110,111,114,113,114,113,115,113,114,109,114,120,118,121,121,123,122,120,119,123,121,123,126,124,122,121,122,121,124,121,124,117,120,118,116,112,108,114,111,114,111,111,114,111,112,108,110,109,111,114,108,111,102
110,110,113,110,111,109,111,113,117,115,108,108,108,117,112,114,114,113,121,117,120,120,119,118,123,118,120,119,122,121,120,124,126,127,121,126,122,121,115,114,113,117,115,113,113,112,110,111,114,112,110,111,109,113,112,112,115,110,109,108
108,108,109,111,115,111,111,111,114,115,116,116,107,109,114,114,116,112,119,113,120,115,116,120,125,120,118,120,124,125,119,119,121,125,118,124,118,118,118,117,115,113,115,114,106,110,109,113,113,111,111,114,110,111,109,110,106,109,111,111
108,112,113,113,114,112,112,112,108,108,109,112,107,106,112,113,111,113,119,115,118,116,118,116,120,121,122,121,124,130,125,124,122,125,124,129,122,121,119,115,115,110,110,116,109,111,109,111,110,113,107,113,112,111,113,113,108,115,109,105
110,108,110,106,107,111,111,114,112,112,111,113,109,108,110,112,109,114,117,115,114,121,120,120,123,118,122,118,121,127,124,124,119,120,120,124,119,115,112,112,117,113,109,112,110,112,111,113,108,112,112,110,111,113,114,111,110,112,112,109
114,114,113,110,109,113,113,115,110,108,109,112,113,110,107,113,113,117,117,113,111,117,122,122,120,122,130,122,124,124,129,130,123,121,116,118,120,123,116,113,113,111,108,111,113,118,111,112,114,113,114,111,110,110,110,110,116,108,109,111
109,111,111,110,112,109,110,115,110,111,111,111,112,111,114,116,113,110,115,117,121,116,121,123,124,124,129,126,129,127,128,126,119,119,115,114,113,114,110,114,114,113,118,112,109,108,109,111,114,113,112,111,109,110,112,106,113,111,108,114
110,111,110,109,109,110,110,115,111,114,108,109,110,108,113,114,116,112,114,112,114,110,119,122,124,119,123,126,123,124,126,128,123,125,122,116,120,118,115,117,115,109,111,106,115,113,111,110,111,111,111,108,107,108,111,101,109,113,109,108
108,112,110,116,113,113,109,109,107,111,110,114,115,115,113,108,111,111,113,118,119,121,116,116,118,123,122,127,127,124,121,126,124,117,114,113,117,113,113,114,113,115,115,110,115,115,113,114,115,115,112,109,114,110,114,111,109,115,117,111
113,118,110,109,109,111,110,110,113,114,112,112,113,113,111,111,111,111,109,115,112,116,115,119,116,120,120,124,125,125,122,120,123,122,120,119,118,113,114,116,114,112,109,105,108,111,113,113,114,114,113,110,114,114,114,112,108,109,113,112
108,108,112,111,114,113,113,111,110,108,109,110,108,106,109,111,109,112,109,112,114,116,114,115,114,115,118,118,117,125,125,119,119,115,113,107,109,107,109,111,112,109,115,112,112,111,112,111,111,109,113,115,110,108,111,107,106,108,105,105
107,108,112,107,113,111,114,111,111,109,114,112,109,109,106,113,113,111,109,106,114,119,118,115,117,117,115,117,120,119,118,113,118,116,122,114,115,111,113,112,112,107,113,112,110,108,110,109,114,108,111,114,112,108,112,110,113,115,111,110
113,110,112,113,114,111,114,112,112,107,111,109,106,112,111,110,114,112,107,108,109,109,111,112,118,117,116,116,115,118,115,116,116,110,113,111,114,110,113,112,114,110,110,114,112,111,118,112,114,111,110,113,113,113,114,111,110,113,110,113
109,108,109,112,112,114,113,111,114,106,112,117,110,111,115,114,114,112,111,114,113,111,113,113,113,115,116,115,112,120,116,113,113,109,110,108,112,110,111,112,113,112,109,111,110,108,114,112,113,111,108,112,113,113,110,113,112,114,107,110
111,111,111,111,106,111,111,110,112,108,106,115,113,115,109,110,112,111,111,112,107,105,109,111,112,108,106,112,111,113,112,110,117,112,113,114,116,110,109,110,111,117,115,115,115,107,110,111,112,114,110,111,115,116,109,109,107,112,110,113
106,114,114,114,107,110,108,111,110,113,111,107,107,114,111,111,111,111,108,115,114,111,110,109,113,115,112,117,112,112,112,105,112,113,110,110,112,112,111,110,107,111,111,110,112,109,111,113,116,115,113,110,109,113,114,115,111,109,107,108
109,108,104,110,109,116,109,112,110,109,114,112,115,111,108,111,113,115,106,110,111,106,114,111,109,111,110,112,115,112,108,114,112,113,113,114,107,110,112,115,112,112,115,112,109,110,114,110,113,111,112,116,110,104,107,111,116,117,112,112
108,109,109,112,109,113,108,112,115,110,111,107,114,113,114,111,110,110,109,111,113,110,117,112,112,108,112,111,113,116,109,116,114,107,110,113,110,115,111,108,108,106,109,113,108,106,110,110,116,112,109,114,116,105,106,112,112,113,110,109
110,112,110,112,112,112,111,110,113,111,115,110,113,112,112,114,116,115,112,108,110,109,114,111,112,107,112,110,108,108,108,111,111,110,113,109,109,114,110,111,115,113,109,116,114,112,108,109,113,113,112,112,115,112,111,112,113,111,113,110
109,111,109,113,115,110,118,112,113,111,111,107,105,111,109,108,110,113,114,113,113,109,110,111,111,108,112,114,115,113,112,110,109,109,113,108,109,109,110,115,115,109,106,108,111,111,105,108,112,114,111,109,111,113,116,108,110,111,116,113
112,110,110,109,110,105,112,110,115,114,114,117,114,113,112,109,108,110,112,111,112,109,112,113,111,112,111,113,111,113,110,115,115,110,112,110,111,113,110,111,111,109,113,110,113,112,109,108,113,111,110,107,110,110,113,110,113,108,106,110
113,111,115,109,110,107,109,109,110,108,107,114,114,112,106,108,109,112,113,113,112,111,113,113,109,109,106,110,110,113,112,113,112,109,110,112,112,113,108,111,112,115,112,109,112,110,112,108,108,110,112,109,110,110,111,113,114,108,110,110
113,114,116,109,113,114,110,110,114,112,109,108,107,112,112,114,115,112,110,108,109,111,112,109,109,113,108,112,114,110,113,108,114,111,109,107,107,109,106,114,110,116,114,111,111,111,112,111,111,112,109,110,112,110,112,111,109,111,118,112
112,114,114,108,110,115,113,113,112,111,115,110,107,110,109,110,114,113,111,109,112,113,115,112,106,114,109,112,112,107,115,107,109,112,112,110,110,111,110,116,112,111,110,112,113,114,113,114,111,111,110,114,116,111,109,108,109,108,109,110
105,107,109,110,106,110,110,115,107,108,112,114,107,106,105,105,111,113,110,109,114,110,109,117,108,109,108,110,110,107,112,111,112,108,112,110,109,108,110,113,114,112,110,110,108,108,112,110,108,111,107,110,116,115,112,112,113,112,110,110
111,112,111,110,110,108,106,112,109,112,111,112,110,108,111,110,108,109,109,107,111,110,109,115,113,112,114,115,111,110,112,109,112,108,111,111,109,108,112,108,111,109,115,117,114,111,113,108,108,113,110,108,110,109,110,111,109,112,109,110
