31,44,57
111,111,115,114,115,112,110,111,105,111,113,110,109,112,116,109,112,114,114,115,112,116,110,113,112,118,116,111,111,112,115,112,110,111,112,115,115,107,112,109,112,113,111,111,111,107,115,112,114,111,108,112,112,111,112,111,108,109,113,111
114,115,113,110,108,110,114,112,109,113,116,113,109,111,115,113,110,111,112,115,114,116,110,119,120,118,123,119,115,115,116,110,110,112,112,110,117,104,109,109,111,112,114,115,109,106,112,110,109,112,114,113,112,112,109,111,108,109,110,112
117,112,111,115,114,113,111,111,114,110,113,112,109,110,109,116,111,112,114,111,114,118,118,120,119,118,121,120,114,117,115,113,114,116,110,112,114,113,112,109,109,112,114,113,111,109,111,115,113,109,111,106,112,114,109,113,108,110,110,114
117,111,110,112,113,107,111,116,112,113,112,111,113,112,119,108,112,113,110,113,110,116,125,118,120,127,124,121,120,120,113,113,118,118,114,116,115,113,115,115,109,112,115,110,111,110,110,114,108,108,114,112,111,112,109,109,109,111,109,111
113,108,111,109,112,107,108,110,106,113,113,111,113,108,113,110,117,113,118,115,118,117,121,120,122,121,124,124,125,123,120,114,119,116,114,113,111,108,117,111,110,111,111,111,114,112,108,111,110,111,112,107,111,112,112,113,113,114,115,107
112,112,113,109,110,113,109,113,109,113,110,108,111,114,112,114,114,111,116,114,120,119,122,119,123,132,127,125,123,121,123,118,120,117,117,116,111,110,113,113,113,113,110,110,110,115,112,113,108,111,112,109,110,112,105,107,113,114,110,111
114,109,115,114,111,110,110,111,110,112,114,113,111,111,110,113,112,112,117,118,123,115,122,120,125,129,126,124,123,124,126,120,117,121,119,113,114,113,113,114,110,109,109,113,115,111,110,114,110,114,114,110,106,110,113,112,109,115,112,110
111,110,110,111,111,110,114,112,109,110,117,114,115,110,110,112,116,115,115,122,122,117,123,124,124,131,129,122,122,126,126,121,125,121,121,117,121,114,110,116,113,113,110,111,114,110,109,110,110,111,111,108,114,110,108,109,111,111,113,113
114,117,112,106,110,111,110,110,113,106,115,114,111,109,110,114,114,118,115,120,121,125,124,127,124,124,124,122,124,126,123,122,123,120,122,118,120,118,113,112,114,112,110,113,112,116,110,108,118,108,109,111,119,108,113,111,112,113,115,111
116,114,113,110,109,113,113,111,109,111,113,111,113,116,113,112,115,116,117,120,122,125,123,124,126,127,126,125,127,122,126,119,121,125,119,119,118,116,117,115,113,111,114,113,111,112,109,106,112,107,114,109,113,109,116,113,110,107,109,112
111,108,110,109,109,114,112,113,110,111,114,113,108,113,114,110,113,113,119,117,119,125,126,120,125,126,125,126,125,124,129,121,123,125,122,118,114,116,113,113,113,108,107,115,114,111,108,110,111,112,116,110,106,110,113,110,114,108,110,107
110,107,113,114,112,111,113,111,110,111,114,113,115,112,115,108,115,115,121,122,122,124,122,120,123,121,120,124,123,124,126,118,121,122,124,114,114,117,114,114,114,114,107,113,109,107,111,113,109,107,113,111,107,112,113,108,112,114,115,111
118,106,109,111,115,108,114,112,111,108,111,109,111,108,109,113,120,118,117,120,128,121,118,119,123,123,119,119,119,125,127,121,119,123,123,115,115,116,111,110,113,116,113,116,110,111,112,109,117,113,112,110,111,116,109,110,109,112,114,109
113,109,114,111,113,109,109,110,111,113,113,112,108,113,112,111,117,117,113,126,129,122,119,120,121,119,122,122,119,121,119,118,116,119,119,113,112,115,112,118,105,113,108,107,113,109,114,106,115,109,113,112,109,113,111,114,113,113,109,106
112,110,115,113,111,113,109,110,111,115,113,114,107,113,114,113,113,117,118,118,122,128,125,123,121,117,118,123,124,117,124,121,122,121,121,116,116,115,106,115,111,111,110,110,115,112,115,110,109,112,115,112,113,112,111,110,116,113,112,107
112,109,112,114,110,114,111,111,108,115,111,113,112,116,116,112,116,119,122,123,127,128,124,122,122,120,115,123,122,115,125,117,119,119,116,113,111,112,112,112,113,111,109,111,111,108,112,113,109,110,109,112,111,113,110,107,112,112,109,108
109,109,111,108,111,110,112,112,110,109,109,110,111,109,115,116,116,115,124,124,125,129,126,122,121,125,116,122,120,115,119,118,113,110,108,113,115,112,117,118,115,113,116,116,111,111,112,111,109,109,113,114,113,112,107,111,111,113,110,113
109,108,111,111,113,108,114,114,111,109,111,110,112,113,114,113,113,117,122,128,124,125,124,125,120,122,120,120,121,117,114,115,121,117,108,112,117,112,116,115,109,113,111,110,112,110,110,113,114,110,109,112,113,111,113,115,109,109,110,113
112,110,110,112,112,111,109,114,110,114,113,112,113,113,109,114,117,119,115,120,124,122,117,114,121,125,120,114,118,117,121,114,117,118,115,110,115,116,116,112,108,112,111,110,113,112,112,107,112,113,108,110,110,110,113,118,110,111,111,108
114,112,112,114,110,114,110,116,108,111,112,108,110,112,108,112,116,115,116,117,120,120,125,120,119,120,117,119,120,119,116,120,116,118,117,116,115,113,117,113,109,112,113,115,112,114,112,112,112,108,113,116,110,107,109,113,111,112,110,109
117,110,108,112,118,110,113,118,111,114,119,111,112,109,113,114,112,114,116,114,117,118,125,121,124,119,118,112,115,117,117,121,115,120,123,123,120,115,118,115,109,113,112,115,113,115,107,109,114,112,112,111,112,108,109,110,112,111,109,111
112,108,111,109,109,110,117,112,112,114,113,109,112,114,115,113,116,118,114,117,116,116,120,117,116,117,118,115,117,113,116,123,119,121,122,121,115,116,112,114,112,114,115,118,115,113,113,112,111,113,114,110,113,111,105,109,111,109,109,115
106,111,113,116,108,106,110,109,109,107,109,111,111,111,108,110,116,113,113,117,116,118,121,116,117,121,118,116,117,117,115,118,123,124,128,121,114,118,115,114,111,113,114,111,110,109,115,114,112,112,112,113,109,115,111,109,106,111,112,114
112,111,105,112,110,112,112,107,110,108,107,112,113,114,116,115,112,113,114,114,115,119,118,120,115,118,119,115,117,119,118,117,121,121,123,118,114,117,116,113,113,112,113,110,112,108,113,113,112,117,108,107,110,115,112,114,112,112,109,112
112,110,108,111,111,109,111,108,114,114,112,111,112,115,117,117,116,111,116,119,115,119,116,119,117,114,118,121,121,118,122,117,122,118,124,123,119,116,123,116,114,109,111,113,112,109,109,111,111,113,111,113,112,114,113,112,112,111,110,110
113,113,107,113,112,108,114,107,112,111,111,109,108,111,112,115,116,116,119,119,116,116,121,120,119,116,121,121,123,114,121,121,122,124,119,119,121,117,115,118,116,112,112,111,110,112,109,106,112,111,109,113,115,106,109,114,110,113,110,110
109,111,108,111,110,109,114,116,110,110,114,110,110,112,108,112,113,118,114,116,118,116,119,121,119,118,121,121,123,121,121,122,119,126,124,125,123,120,119,118,115,109,116,114,111,117,112,111,113,116,111,112,111,110,109,114,116,113,107,108
114,110,109,110,114,112,108,110,113,114,113,110,112,114,114,116,112,119,111,115,117,120,114,119,119,123,117,119,127,125,121,122,124,128,118,121,124,116,116,118,113,107,114,114,110,113,108,110,108,110,111,110,106,113,108,109,116,111,112,106
109,108,116,113,110,110,113,106,112,114,112,110,112,110,110,118,109,115,113,117,118,121,120,119,116,122,122,118,122,119,118,126,120,129,126,123,123,121,122,120,115,119,114,111,116,114,114,107,110,107,111,115,109,113,114,107,111,105,107,111
110,109,111,112,113,115,114,115,114,113,112,109,114,115,111,108,111,119,118,122,121,121,122,119,114,110,125,124,122,124,123,124,125,127,123,124,124,123,118,115,111,111,115,113,112,113,120,111,111,105,108,111,109,113,115,112,113,110,109,110
108,108,111,110,108,111,112,112,107,113,112,113,112,108,112,110,115,120,120,113,118,122,119,113,119,123,119,122,124,123,127,126,122,126,127,122,123,124,120,120,115,112,110,112,112,116,111,112,110,110,109,109,111,111,112,111,113,113,112,110
111,107,111,110,110,117,114,109,107,111,109,107,117,112,113,110,112,117,117,117,119,118,119,120,119,124,121,123,124,120,121,118,122,122,129,123,124,119,115,117,118,114,107,111,111,111,111,112,110,109,114,110,111,110,110,105,112,114,111,110
113,113,112,110,114,113,114,115,113,112,112,111,113,108,113,115,110,115,117,117,121,121,119,122,120,121,118,124,121,123,120,121,121,122,121,121,121,122,120,114,111,112,114,114,112,110,114,115,110,107,112,111,108,110,109,110,112,114,109,113
105,112,110,114,114,110,117,115,113,111,109,112,109,113,110,113,114,115,117,115,115,116,123,118,118,115,122,122,120,124,119,128,126,125,124,124,117,125,121,117,114,113,113,112,111,109,110,114,113,116,108,112,117,110,108,109,111,112,113,112
112,112,107,110,109,110,112,112,111,112,112,116,105,114,111,112,117,119,120,115,123,118,122,126,119,119,126,119,123,117,122,124,121,121,123,125,116,119,118,117,114,116,115,111,110,112,112,116,114,113,110,108,107,109,110,113,117,110,112,111
111,111,111,115,108,111,109,114,111,110,109,114,110,112,112,115,117,117,120,120,118,126,120,119,119,118,122,121,123,121,128,120,117,122,123,124,125,120,115,113,115,116,117,115,115,110,105,113,111,111,109,112,112,107,111,108,109,117,114,111
115,110,112,115,110,112,110,109,108,111,114,111,109,110,109,108,120,118,119,121,116,121,119,117,119,118,120,125,121,121,121,123,124,122,120,117,120,122,116,112,114,111,116,111,118,113,113,111,111,110,109,115,110,106,110,113,112,114,111,112
111,114,108,110,110,109,112,111,113,113,113,111,109,114,109,114,114,114,114,123,130,118,119,119,123,120,119,122,123,118,121,122,121,122,118,118,123,118,118,117,117,109,117,113,112,110,112,109,113,114,111,110,108,114,111,109,112,115,104,112
110,113,111,111,109,107,108,106,115,111,114,115,112,114,107,113,113,117,114,118,120,124,123,122,128,127,124,120,123,120,121,118,117,125,115,120,121,118,121,118,112,115,116,114,113,109,112,111,113,114,115,110,113,113,111,113,112,109,110,113
112,110,111,109,114,109,109,112,111,111,109,110,113,112,116,116,113,113,119,117,119,120,123,126,123,125,122,122,120,121,118,120,121,125,117,120,120,117,121,119,114,114,112,113,114,112,110,110,111,114,109,109,113,116,108,111,111,108,110,108
113,116,113,110,111,110,112,112,112,115,106,108,110,114,111,113,116,118,120,124,120,120,121,123,122,124,123,123,121,122,128,125,124,125,119,120,123,117,116,118,116,111,113,108,111,113,115,114,112,109,111,113,112,114,114,111,108,112,114,106
108,111,111,115,112,108,108,110,112,113,107,114,108,109,114,114,113,113,115,121,116,121,125,123,125,126,126,127,122,128,122,124,125,123,124,123,119,122,117,116,114,113,114,110,109,110,109,110,117,111,110,106,114,113,112,110,115,112,110,109
111,110,106,106,115,113,112,111,114,111,113,112,109,113,109,113,115,113,118,114,119,126,124,124,134,128,126,132,122,128,127,129,126,125,129,125,124,126,116,116,114,113,111,112,115,113,111,111,113,108,112,112,109,114,113,109,115,112,109,112
111,110,111,109,118,108,112,115,113,113,116,111,111,112,108,113,112,110,119,113,123,127,126,127,126,137,126,121,123,127,127,127,132,130,129,127,122,125,121,119,115,116,116,114,112,107,115,111,109,111,109,113,110,112,112,109,113,110,111,113
109,112,111,110,112,112,111,111,109,113,111,107,114,110,111,113,112,115,117,117,121,125,129,132,133,137,130,124,129,129,129,127,129,128,129,129,123,122,122,121,120,112,117,118,113,108,116,116,107,113,114,111,108,111,116,109,113,109,113,109
110,115,110,111,109,113,115,111,109,113,114,111,109,114,114,115,108,118,119,116,119,122,129,130,131,128,131,126,130,131,122,130,127,126,126,122,121,119,115,114,112,115,115,113,114,114,114,112,107,115,114,116,112,108,110,111,108,113,116,111
109,114,109,113,108,107,114,107,108,113,107,114,111,110,111,117,109,111,116,114,114,123,129,121,135,132,126,127,124,127,124,124,122,126,126,127,127,121,117,118,115,112,114,110,112,110,111,112,109,115,115,108,110,112,117,112,112,116,109,112
106,112,113,113,110,113,113,113,115,109,112,110,109,114,110,117,114,116,115,116,111,120,120,118,126,123,124,127,124,120,121,123,122,122,124,125,121,121,120,118,119,109,117,115,109,111,111,108,110,116,114,107,108,110,112,107,115,112,107,111
109,111,108,112,116,113,110,112,114,106,109,113,109,112,110,110,113,114,111,118,119,124,121,124,120,117,126,122,121,121,124,125,120,123,121,125,120,121,118,115,117,113,114,113,110,112,108,108,114,113,107,109,113,109,109,112,111,108,108,111
112,112,111,115,109,111,115,112,109,110,114,110,109,113,113,111,115,117,120,114,119,115,121,126,122,119,126,124,122,118,121,122,120,120,119,121,121,122,116,115,118,113,116,113,113,111,109,112,111,115,109,110,114,112,110,113,111,109,110,113
112,110,112,117,108,109,111,113,114,110,113,110,108,114,111,112,115,112,114,115,122,123,125,123,121,116,119,120,117,117,121,123,117,119,123,122,124,119,122,117,117,112,115,116,110,113,113,116,111,110,111,112,112,113,111,114,113,109,113,112
111,112,109,112,111,109,110,114,108,111,113,107,106,114,112,113,112,112,116,119,121,122,115,122,120,116,119,117,116,120,116,120,123,124,125,126,125,117,123,117,112,114,112,113,114,112,109,111,113,113,110,114,113,114,108,112,113,109,115,108
111,111,109,115,110,107,111,111,113,114,115,108,110,111,110,111,113,111,112,116,121,118,121,127,119,120,122,119,120,116,119,117,121,125,119,121,118,116,115,114,114,110,110,114,115,113,109,114,110,108,113,112,111,113,113,113,112,110,113,109
111,109,110,114,111,110,118,113,111,111,111,113,115,109,111,115,114,111,114,122,121,122,124,122,117,122,123,121,122,119,121,119,121,122,119,119,118,119,113,117,117,116,113,114,111,113,110,116,112,109,112,112,112,110,111,112,112,113,110,112
108,108,110,111,107,110,113,113,111,110,108,111,111,114,113,113,116,114,116,117,117,120,125,120,120,121,114,122,121,117,118,118,119,117,118,115,117,122,111,111,110,114,115,113,112,113,114,115,109,110,115,110,108,115,111,110,106,116,113,109
113,109,108,116,107,107,112,111,111,111,111,112,114,108,108,113,111,111,115,119,120,122,121,118,124,115,114,123,122,118,121,118,119,120,124,121,118,118,115,117,117,113,107,110,109,109,112,112,111,109,114,110,108,112,109,113,107,112,113,111
114,111,105,112,117,112,114,113,110,108,112,110,114,110,107,114,113,115,114,119,116,123,124,121,125,119,126,120,123,117,117,122,119,117,121,121,117,119,120,115,116,117,111,112,112,117,113,109,109,112,114,110,111,108,112,111,107,111,108,117
111,111,112,112,113,115,110,109,109,110,114,110,114,110,113,112,116,119,117,118,118,118,121,121,119,117,119,118,122,122,121,123,117,119,121,120,115,117,116,113,114,112,114,110,110,110,112,111,112,114,109,109,113,112,111,113,112,113,109,113
107,109,110,113,110,112,108,115,110,108,117,108,114,114,116,111,112,113,113,116,117,117,122,121,123,118,115,120,123,125,120,119,117,119,120,121,120,118,122,119,112,111,113,116,113,113,116,113,112,112,114,118,111,115,112,115,110,112,114,115
115,108,109,110,107,115,116,105,110,108,112,112,115,111,111,113,113,114,115,117,118,116,126,120,122,120,122,119,121,125,121,115,119,121,117,123,121,118,124,116,112,113,110,114,112,113,108,113,115,117,108,116,110,110,109,113,112,111,112,111
104,107,109,114,112,114,116,110,114,113,110,111,113,113,110,110,115,106,116,112,125,120,120,120,123,121,120,117,118,120,122,122,123,127,119,121,123,124,121,114,112,112,111,110,112,108,112,109,110,113,112,108,111,113,110,110,109,113,111,112
112,116,110,107,111,111,109,107,111,111,112,112,114,114,109,106,119,112,116,114,119,121,119,120,122,122,121,122,118,123,125,122,128,125,119,123,119,117,120,122,116,112,112,115,118,112,113,113,110,114,110,105,113,114,111,110,108,114,110,109
114,115,113,110,115,112,109,110,113,109,109,112,110,110,118,113,113,114,117,116,115,121,122,122,124,124,124,126,124,117,128,124,127,122,124,127,125,119,118,116,116,118,110,108,108,113,110,113,107,112,109,110,109,113,112,111,112,107,109,111
107,108,110,113,111,111,108,109,113,113,111,112,109,114,117,113,116,117,118,120,117,119,118,120,124,117,122,119,129,123,124,124,125,123,122,123,120,123,121,117,112,115,115,114,107,114,111,110,114,111,112,112,110,112,109,111,111,111,111,108
112,108,111,110,107,110,110,112,111,107,106,110,108,112,115,113,109,122,121,120,117,119,121,120,122,120,123,121,119,125,127,122,123,126,120,120,119,127,117,121,113,113,112,111,112,113,110,109,112,111,109,110,109,114,112,111,112,108,115,105
110,108,115,111,110,108,110,111,110,111,108,112,112,107,113,114,110,114,119,119,118,120,118,116,123,120,126,123,124,123,124,125,123,125,120,118,123,126,119,120,115,116,113,109,108,115,115,112,111,111,111,106,110,113,110,108,115,111,111,108
106,113,113,109,108,110,109,114,114,112,108,108,110,111,111,109,117,117,117,120,117,117,118,117,120,120,122,116,121,121,123,120,124,124,124,124,124,122,118,119,115,113,113,111,110,111,109,113,115,110,109,109,113,111,108,112,111,111,111,109
106,112,112,114,111,110,109,115,113,109,112,112,108,111,115,113,113,115,115,118,119,119,116,120,121,121,117,116,118,116,119,121,125,124,126,124,125,124,126,115,111,119,111,115,113,110,111,113,111,114,110,106,110,108,112,113,112,111,114,116
112,112,113,112,110,113,110,112,114,111,112,110,111,112,109,112,112,110,114,113,117,121,119,124,115,116,120,122,116,116,120,120,118,122,129,116,125,118,119,117,112,116,113,115,112,111,113,109,108,113,111,113,113,108,116,110,109,109,110,113
111,107,110,108,113,112,112,109,113,111,113,113,110,111,114,113,116,115,115,115,121,117,113,123,115,118,118,120,117,113,117,122,121,121,125,119,121,119,122,119,115,112,114,114,112,111,113,111,109,111,109,111,112,109,115,115,108,108,113,112
113,113,112,108,111,109,109,110,106,108,114,111,114,114,112,109,114,115,118,118,113,119,123,120,119,122,118,116,120,113,112,124,120,119,120,117,122,117,115,118,116,113,114,111,111,112,114,110,107,113,110,111,110,110,115,111,113,113,106,115
110,113,115,112,114,111,111,110,110,108,112,115,109,111,116,111,112,113,111,120,118,119,119,120,119,121,122,120,117,119,121,119,122,123,119,118,124,121,112,116,112,111,114,115,115,110,112,113,109,109,111,107,109,111,113,111,109,115,107,114
110,108,112,114,110,111,108,113,112,112,108,114,110,106,109,110,112,114,113,118,124,122,123,123,118,118,120,127,123,116,119,118,120,119,119,123,118,120,116,116,112,110,111,115,113,112,110,116,111,112,113,116,109,110,110,115,112,108,111,113
114,111,115,118,110,112,105,111,108,112,112,113,111,115,108,109,112,114,116,121,120,125,124,125,123,121,119,120,122,124,119,122,123,122,121,122,120,122,117,116,115,110,110,112,108,107,107,114,109,115,113,111,111,113,111,113,113,112,110,110
111,109,112,111,112,112,110,109,108,109,114,112,107,115,116,114,119,116,114,117,116,119,122,125,124,124,124,119,118,118,120,123,126,124,119,122,118,121,113,111,116,114,109,114,115,112,111,110,109,111,108,112,113,112,107,113,110,109,110,114
112,109,110,111,114,112,110,109,109,113,113,112,112,109,112,108,115,116,119,123,121,118,125,124,122,125,126,119,123,120,124,121,123,122,120,122,117,119,115,113,116,112,112,115,114,112,109,111,110,114,106,114,109,113,108,110,111,112,118,113
111,114,113,108,113,108,106,113,109,111,107,111,114,111,112,113,114,118,122,115,120,119,119,125,122,124,122,123,122,122,125,124,128,126,124,114,115,119,115,114,119,114,110,109,110,115,107,115,109,113,112,117,111,109,114,112,109,112,111,109
111,112,106,110,112,109,115,111,108,113,111,110,106,108,114,112,116,118,119,121,121,117,120,128,120,121,122,127,123,120,123,124,123,119,118,116,118,113,113,114,111,116,111,111,110,114,109,113,112,110,110,112,105,108,112,108,114,110,112,106
114,115,111,112,113,112,115,110,108,113,110,111,110,114,117,110,114,118,117,120,123,118,123,120,118,123,123,123,119,121,122,119,121,125,115,123,118,115,113,115,118,113,115,113,111,110,112,112,112,117,116,112,106,114,115,108,112,111,111,109
107,112,112,111,108,109,112,111,108,111,112,111,114,111,114,113,113,113,118,120,121,118,123,121,127,119,120,126,124,121,125,124,117,120,120,122,119,116,114,115,115,110,111,109,113,111,116,113,111,107,112,111,115,113,110,108,112,112,111,115
110,108,105,110,113,110,111,112,110,112,110,110,110,110,118,111,116,116,117,120,115,123,120,118,125,119,127,122,123,124,125,128,125,123,121,118,115,114,112,114,111,110,115,112,105,110,110,111,112,110,113,109,108,110,113,113,113,108,111,116
111,111,110,109,114,113,114,110,112,115,110,112,115,111,109,112,121,117,117,119,120,125,123,124,122,121,121,119,126,122,122,123,120,122,123,119,114,117,111,112,116,112,113,118,113,111,110,112,113,109,113,113,112,108,111,113,110,110,111,109
109,115,115,105,111,113,108,109,109,112,111,110,107,110,111,113,116,115,119,120,116,120,121,123,119,126,126,127,125,123,122,120,119,120,121,121,120,118,115,111,109,111,114,113,111,110,114,111,109,116,109,112,112,108,110,109,113,110,110,111
111,110,111,109,104,111,114,110,108,111,111,114,110,112,111,113,113,116,119,121,117,124,119,124,124,122,127,124,123,123,119,121,122,121,119,120,117,118,117,111,114,113,115,111,114,112,115,112,106,109,109,111,112,110,112,113,112,106,111,109
113,111,108,107,111,108,112,113,108,111,113,109,111,118,111,112,112,116,116,118,116,119,122,123,122,119,123,122,122,122,125,117,123,122,115,123,114,114,114,110,107,113,117,110,111,115,108,109,112,116,113,105,112,112,109,114,108,107,113,110
109,112,113,112,115,110,111,111,107,109,110,109,109,111,109,112,113,112,115,119,120,120,122,120,121,124,123,119,118,118,126,116,121,121,118,124,118,114,114,111,111,112,113,110,110,112,111,111,108,113,112,113,110,116,113,109,107,110,111,116
110,106,110,109,108,115,112,112,111,110,109,110,111,111,114,113,111,117,114,117,123,118,124,122,117,125,125,123,121,126,123,119,122,121,115,117,117,113,112,114,115,106,112,110,108,111,114,112,112,111,109,111,108,110,112,109,111,111,113,115
110,114,115,111,108,111,111,112,113,112,111,109,113,111,108,115,110,115,113,114,117,121,124,128,119,119,121,121,118,121,124,122,120,115,118,116,112,113,115,111,114,109,110,112,112,109,114,116,112,112,110,112,110,109,108,112,109,114,110,111
112,107,109,110,116,112,111,106,110,110,111,114,113,111,112,116,113,115,116,116,118,123,123,122,123,127,123,123,121,119,122,120,123,117,120,120,119,114,109,112,111,108,113,114,111,111,114,112,108,112,116,111,112,113,111,117,109,107,109,112
111,111,115,114,106,108,113,112,108,112,112,113,115,113,111,110,111,114,112,112,116,122,119,122,127,129,124,125,127,123,121,121,122,119,117,116,117,113,110,109,112,113,113,111,112,107,113,114,110,112,114,106,114,112,112,114,111,108,112,113
111,114,110,113,112,117,114,113,109,111,114,109,110,107,114,110,110,112,113,113,112,116,117,118,121,124,123,125,123,124,123,120,119,115,115,113,113,108,118,111,114,115,114,111,110,109,114,112,108,111,112,112,112,112,111,109,113,112,113,108
110,107,110,110,108,111,114,113,109,108,110,110,118,108,109,109,112,112,111,114,114,117,119,119,121,116,118,121,118,123,117,122,121,115,112,121,113,108,116,112,109,113,111,113,113,111,114,109,109,111,115,109,111,111,115,105,113,112,110,111
109,109,115,114,109,113,116,114,112,112,110,109,114,113,111,115,114,112,107,114,112,116,114,113,114,114,115,120,116,117,117,115,115,116,110,114,111,110,110,111,109,114,113,112,109,113,110,109,112,108,113,117,112,108,113,109,109,113,113,115
107,112,110,110,108,111,114,115,110,110,112,112,113,114,111,109,114,110,108,109,110,114,113,111,117,113,114,117,113,112,115,113,115,115,110,113,112,116,108,110,110,116,114,113,111,112,110,109,113,113,109,109,111,111,112,112,107,109,111,114
112,109,111,110,109,112,109,111,113,114,108,108,115,113,110,113,121,113,112,105,111,117,108,108,114,112,115,113,111,118,112,114,111,117,111,108,109,111,112,111,111,107,112,113,113,109,114,111,106,112,113,108,111,113,112,109,116,113,111,114
112,112,111,114,109,112,109,111,109,109,110,110,109,114,115,111,113,112,112,114,113,114,111,107,108,113,112,114,113,116,111,112,113,110,114,110,116,109,111,114,113,109,111,111,111,109,113,112,111,108,112,105,114,113,113,108,110,114,110,110
108,113,107,117,110,109,107,112,113,110,113,112,107,112,113,113,116,113,106,110,110,110,116,112,108,114,113,112,116,115,113,110,110,113,110,108,112,109,110,110,112,110,112,116,111,107,111,112,108,113,113,109,111,110,110,116,109,110,109,110
111,112,110,112,109,113,110,109,111,113,112,113,110,109,116,111,112,113,107,115,109,108,109,110,111,110,113,111,111,114,109,112,107,116,112,109,112,113,107,115,111,112,111,110,112,112,109,109,106,108,108,108,110,116,107,115,113,113,108,113
112,109,114,109,112,112,110,116,107,113,110,111,114,109,115,111,110,113,112,111,110,113,109,108,113,112,114,113,111,113,111,111,109,107,113,110,113,117,113,111,109,106,112,116,107,110,114,108,113,110,110,110,111,114,113,115,113,113,109,112
110,108,113,110,114,112,109,111,112,108,111,110,113,108,109,108,107,111,111,112,110,117,110,111,113,116,112,114,109,112,117,112,116,111,112,110,112,111,112,114,116,106,104,111,111,111,115,109,110,110,108,108,110,106,109,111,111,110,109,110
