34,46,58
109,112,112,112,115,109,109,116,112,113,112,112,110,114,109,107,114,111,110,110,117,105,120,109,113,111,112,113,112,110,115,111,112,111,108,112,119,106,115,110,111,106,110,108,109,117,112,113,108,107,115,108,109,108,114,106,114,106,108,111
112,115,112,111,114,110,109,114,110,114,110,113,110,109,110,107,116,116,102,113,112,112,111,106,114,109,112,113,111,106,113,112,107,113,112,116,114,112,113,110,117,107,112,114,111,111,113,115,110,110,111,110,113,110,115,115,108,106,109,113
111,110,108,113,108,115,115,110,109,110,116,108,115,109,109,111,111,114,113,113,115,113,111,114,109,111,108,112,109,110,109,113,112,115,113,115,112,109,109,116,116,109,115,114,114,107,114,109,115,115,112,111,115,112,113,112,114,110,109,114
107,112,109,109,117,111,107,118,109,112,110,107,116,115,114,110,111,103,114,109,110,117,109,113,112,112,112,112,110,107,116,117,114,115,106,111,113,110,114,111,113,108,114,107,114,107,114,106,111,108,113,112,114,114,109,115,112,115,111,112
110,117,110,112,106,115,113,112,112,110,112,115,115,112,106,106,115,117,109,115,110,113,112,109,112,118,115,111,111,109,112,110,112,120,112,111,112,111,111,111,110,113,111,118,112,112,113,108,112,114,113,105,115,109,112,112,108,113,109,112
114,117,111,113,113,113,113,115,112,107,113,111,117,106,107,112,114,109,107,114,110,114,110,109,110,115,107,113,116,109,108,113,113,111,109,111,108,116,112,108,114,112,107,114,110,111,110,117,110,110,113,107,113,111,116,111,112,109,112,112
111,110,113,109,112,114,111,108,108,113,109,112,109,115,111,113,110,108,112,114,109,109,107,118,110,111,106,112,113,103,113,114,112,109,114,112,109,110,110,113,115,109,115,109,112,114,109,112,114,107,107,115,113,107,116,116,112,112,112,117
110,111,114,105,109,116,111,110,112,116,111,107,108,110,107,111,112,113,110,114,114,112,111,113,112,114,109,110,117,112,109,111,112,112,107,114,108,113,112,109,112,107,112,115,109,114,108,111,113,111,114,113,113,106,110,109,111,113,108,112
108,117,109,112,115,107,115,107,109,112,115,108,113,101,109,113,112,112,109,119,113,112,115,110,116,110,113,108,114,111,107,109,112,110,112,112,119,113,114,108,114,112,112,112,104,114,114,109,111,113,109,108,115,110,113,116,110,105,107,114
112,114,111,111,115,110,109,109,114,107,109,113,116,112,115,107,113,114,108,110,111,113,112,110,109,110,115,109,112,107,113,117,107,110,118,110,110,111,106,113,112,109,110,115,116,110,113,112,115,111,109,114,109,112,117,109,109,115,105,114
110,108,115,107,113,112,113,114,108,118,111,102,115,107,111,113,113,110,114,111,116,112,110,110,115,113,110,110,116,110,112,112,109,115,116,114,107,111,113,118,109,114,109,106,117,113,109,110,107,114,114,105,111,115,114,112,114,113,117,111
103,113,112,111,112,111,115,110,109,110,115,117,108,115,109,108,114,116,111,113,111,118,113,112,109,112,114,109,108,114,110,115,109,114,111,113,120,115,109,114,107,110,111,114,116,106,113,110,115,111,114,110,108,112,113,110,113,114,113,111
110,111,111,109,108,108,117,116,117,106,115,114,114,109,110,113,113,112,111,108,114,114,109,113,114,110,108,115,111,109,115,106,111,116,112,116,109,114,114,110,108,111,112,111,113,109,114,111,112,112,111,112,112,117,111,116,111,109,115,115
114,112,112,110,114,115,112,113,114,109,109,116,109,110,114,107,116,112,109,108,111,115,114,115,109,109,112,114,115,114,109,116,112,116,115,113,114,112,113,110,116,112,112,108,114,110,112,112,111,114,115,110,114,114,110,117,114,108,110,110
111,114,117,109,107,109,110,114,112,107,111,111,112,113,111,109,111,111,112,115,108,114,113,110,105,112,112,108,114,119,111,110,109,114,109,111,110,109,109,113,111,114,111,116,110,114,107,110,113,105,113,112,111,112,109,111,108,110,111,114
115,110,112,115,106,114,112,108,112,111,111,113,111,110,113,116,111,116,113,105,113,108,114,106,116,111,113,116,107,110,113,113,111,115,116,112,115,115,111,112,112,108,115,113,115,110,112,110,109,111,114,110,117,105,109,111,115,109,105,115
115,108,111,117,114,118,108,111,114,108,112,111,110,111,114,111,112,113,109,107,116,112,113,116,110,111,107,116,110,115,112,109,109,115,114,112,113,115,110,109,115,110,110,106,112,111,116,115,110,115,114,114,107,114,109,116,115,111,114,112
108,114,114,112,112,107,115,112,113,112,112,112,109,110,112,110,115,107,114,113,108,112,117,114,113,113,107,116,110,115,117,111,117,110,114,113,116,110,111,116,110,113,112,113,103,114,111,110,107,110,106,108,115,112,118,112,111,107,113,117
112,110,111,115,112,112,112,117,116,105,114,109,116,107,114,115,114,108,116,108,107,110,114,113,117,109,109,111,116,115,112,110,112,114,109,110,113,111,106,110,113,111,111,114,109,113,113,113,111,113,108,110,109,116,110,112,114,111,114,110
110,112,111,110,108,114,109,113,115,115,110,113,112,119,116,110,114,115,114,111,115,114,113,115,113,115,112,115,113,113,114,111,111,117,114,108,110,114,110,110,111,110,113,106,114,109,108,110,109,110,111,112,114,114,114,111,110,111,115,113
111,114,109,112,109,111,112,113,110,113,114,111,111,113,114,109,116,114,112,110,112,113,114,117,114,119,115,112,114,115,111,112,109,112,115,117,114,110,112,110,117,107,112,113,109,108,110,108,115,114,113,115,112,113,112,110,111,111,109,116
110,113,114,112,112,114,108,115,111,113,108,110,107,114,119,110,114,113,114,114,118,120,119,116,119,117,119,116,115,122,111,109,112,111,113,114,112,114,111,114,118,114,109,113,114,114,111,111,116,114,112,106,114,117,110,111,110,113,107,114
114,115,112,110,111,112,114,110,114,114,110,112,114,114,116,111,118,117,113,114,120,116,117,116,125,121,113,122,114,114,115,116,115,112,113,117,114,110,113,112,112,112,109,115,113,111,110,111,108,114,113,110,106,113,115,104,118,108,113,113
112,108,114,114,111,111,113,116,113,111,114,113,113,111,114,113,115,112,114,115,123,128,121,121,124,124,119,122,117,121,116,114,116,111,116,114,111,108,109,107,112,118,113,111,108,114,114,110,113,111,111,112,108,108,114,112,114,113,112,115
113,114,113,107,122,109,112,112,115,111,118,113,113,112,117,114,118,117,118,122,122,121,116,129,117,124,130,120,123,116,115,116,116,112,116,113,114,112,114,112,113,113,112,111,111,114,110,111,115,114,116,110,111,109,113,118,108,111,115,116
112,111,112,119,109,114,109,108,113,112,112,110,117,117,114,115,112,113,120,120,123,118,117,132,124,121,129,118,118,119,123,107,120,114,109,109,114,115,109,110,112,111,110,114,115,108,109,114,105,111,114,111,112,113,110,116,110,114,109,108
113,112,108,114,109,110,105,115,114,110,111,113,114,114,108,116,112,121,117,120,123,125,125,126,122,121,121,124,128,120,120,118,118,117,115,116,109,109,114,114,111,112,108,111,108,116,111,114,116,113,108,112,116,112,114,108,115,112,111,110
109,112,111,111,112,107,111,110,112,112,108,119,117,115,113,115,115,120,122,119,126,119,128,127,126,118,124,123,129,122,121,116,118,119,111,114,114,113,109,114,114,110,110,116,116,113,109,108,109,114,113,108,115,112,112,108,107,115,114,111
108,111,114,117,116,108,110,113,113,112,115,118,116,112,108,118,118,118,115,118,124,124,123,122,128,128,119,131,124,123,120,119,120,117,112,114,107,116,112,114,115,110,109,121,112,113,114,112,113,107,117,110,110,108,111,112,116,106,109,107
109,111,112,119,115,107,116,110,112,115,112,113,116,115,111,114,113,120,117,126,127,122,129,129,123,125,124,122,125,125,122,121,122,118,116,113,111,112,117,109,109,115,113,114,113,112,112,114,108,114,111,114,112,111,110,115,118,104,116,111
111,114,112,114,120,113,109,114,112,114,115,112,117,107,114,115,114,116,121,117,124,120,123,123,131,121,122,121,131,119,120,124,123,115,119,110,109,114,113,112,111,113,109,116,111,114,113,109,116,113,104,114,116,116,116,108,113,111,116,108
111,115,112,111,108,121,113,111,112,115,112,114,113,113,114,112,119,115,119,121,119,120,125,129,121,125,121,120,121,129,118,123,115,122,116,113,115,115,112,110,113,112,114,110,109,109,108,112,110,113,116,114,107,112,113,108,115,115,111,116
106,110,112,116,109,116,106,110,112,112,113,114,112,115,114,114,123,120,124,119,117,122,132,119,124,124,121,124,126,119,120,124,121,113,116,112,113,111,114,110,112,110,113,112,111,116,110,115,111,114,109,112,110,110,113,112,116,111,110,115
108,117,113,109,106,112,109,115,114,111,117,111,114,116,115,114,121,114,125,120,122,127,119,125,116,123,124,128,115,120,124,123,124,116,115,117,114,115,113,110,112,111,113,110,115,110,112,106,115,109,113,109,114,111,116,107,113,113,109,113
109,112,111,107,114,110,112,112,115,111,111,112,117,116,118,112,122,124,115,123,123,123,116,123,130,126,123,118,130,118,122,123,122,112,118,114,116,114,111,110,112,112,113,109,112,112,111,111,109,117,112,114,113,108,121,114,116,110,112,111
115,110,106,116,112,111,110,111,121,111,110,115,116,115,122,115,121,119,121,124,124,123,126,127,126,118,124,130,124,119,126,122,115,121,117,120,110,115,114,114,110,115,115,114,117,109,111,111,113,104,111,110,115,114,108,117,111,109,112,115
111,111,108,114,109,112,114,111,112,110,111,116,115,117,118,111,123,124,120,123,124,126,125,123,127,126,124,119,122,121,127,119,119,122,118,112,113,114,117,110,109,109,116,107,109,114,106,111,112,110,109,109,116,113,110,110,114,115,112,111
110,116,111,114,111,109,111,114,110,118,112,118,118,116,123,121,125,122,116,121,122,120,128,122,119,124,118,121,126,129,120,119,118,122,113,115,117,112,115,114,108,114,118,112,114,105,110,110,111,107,115,108,106,113,112,116,108,114,111,110
117,113,113,105,110,114,111,110,115,112,113,116,114,117,126,121,126,123,115,124,120,124,124,126,121,122,124,128,123,118,121,124,115,121,117,115,114,115,112,106,115,106,114,109,113,110,120,106,111,108,110,110,108,115,108,111,112,110,112,106
115,112,109,113,111,117,108,114,112,111,112,114,116,109,123,122,119,121,120,126,121,130,122,124,126,121,122,120,123,122,124,123,117,112,116,116,115,115,117,113,109,111,114,114,111,112,111,110,110,116,108,112,112,110,112,109,112,104,115,109
110,108,113,117,114,114,115,116,108,117,112,108,121,110,124,116,124,123,124,117,123,125,122,123,119,127,122,124,122,120,121,115,115,116,111,122,112,110,113,115,112,113,109,109,112,116,111,110,115,107,115,114,110,111,114,113,115,109,112,114
112,109,115,116,115,111,106,112,116,115,115,117,112,110,121,120,117,123,121,123,123,125,124,124,126,118,127,122,128,120,119,119,119,112,121,119,112,113,109,115,118,114,109,114,112,112,108,115,110,113,111,111,114,112,110,114,115,111,108,112
113,109,110,112,113,113,113,118,110,114,118,114,119,123,118,118,117,123,121,121,126,120,126,121,121,121,120,121,122,119,118,122,119,114,113,117,113,109,109,112,122,108,112,116,117,114,110,113,108,115,111,111,116,114,109,110,114,115,107,108
112,116,114,114,110,115,113,112,116,114,116,111,122,117,116,121,119,125,118,119,128,126,118,117,121,124,124,122,123,123,113,120,117,116,114,115,115,116,114,113,110,115,118,115,114,110,116,112,108,116,114,109,119,108,113,113,109,116,111,112
116,114,108,108,112,112,110,112,111,108,115,115,117,118,114,119,116,120,125,120,123,118,122,124,120,123,127,125,122,122,122,115,116,119,114,117,113,117,111,108,112,118,111,114,109,114,109,107,113,114,112,111,114,109,115,106,115,110,109,119
110,114,114,113,114,112,114,114,110,118,113,113,117,120,118,123,118,118,123,119,129,120,118,117,118,120,116,119,124,117,123,122,120,117,112,113,116,113,109,108,110,116,111,113,112,111,111,113,105,113,113,120,113,114,110,112,114,113,114,112
115,107,114,111,109,110,112,110,114,110,114,111,114,116,118,121,125,118,122,115,123,120,125,125,119,121,119,119,117,130,115,124,116,116,112,113,110,113,111,114,107,114,110,115,114,115,110,111,110,111,114,111,116,112,114,114,110,111,110,107
113,105,109,108,110,114,111,108,117,118,111,116,112,118,122,126,127,123,124,119,122,123,124,119,123,116,118,121,122,122,122,122,118,120,115,120,110,114,111,113,110,111,109,115,107,113,113,114,112,112,110,107,112,111,111,118,105,110,115,115
111,115,109,112,108,105,116,116,110,114,110,115,113,119,125,126,125,127,129,122,127,123,125,116,120,119,119,121,116,117,116,121,116,117,119,115,111,109,112,112,110,114,113,112,115,110,112,110,112,114,112,110,113,111,108,112,106,112,113,110
110,111,115,111,116,111,114,110,117,112,111,115,123,121,119,118,125,123,123,126,120,121,119,121,120,120,117,119,123,117,121,112,124,116,115,117,111,118,111,118,114,115,110,111,116,115,112,113,110,113,116,108,106,117,112,114,108,114,121,110
107,111,111,113,107,115,112,118,108,112,120,120,117,114,123,118,127,125,121,123,123,120,123,116,120,117,124,118,125,116,119,123,117,114,118,112,114,116,113,112,109,114,115,110,109,109,111,110,114,114,114,112,106,115,108,112,110,110,112,117
109,109,114,114,108,115,116,114,114,110,118,114,120,120,114,132,115,124,121,128,120,121,121,121,114,116,123,122,124,123,119,122,124,115,119,119,109,116,115,113,112,117,108,111,113,107,110,110,110,104,114,112,113,112,107,116,111,118,113,114
112,114,113,108,112,109,116,112,115,113,111,114,115,125,115,121,121,125,120,126,121,117,118,122,116,122,117,126,121,124,121,124,116,118,118,115,113,111,112,106,112,112,113,113,110,114,108,113,111,111,113,105,112,110,112,115,107,113,113,114
109,113,113,113,114,106,114,116,112,114,113,112,117,119,122,124,126,123,119,124,123,119,119,117,124,121,123,116,129,124,126,121,117,120,115,114,112,111,117,112,113,105,111,112,117,109,109,114,109,108,113,109,109,115,118,110,112,112,110,113
104,111,116,114,110,113,111,116,110,113,113,115,115,122,115,119,123,126,123,123,125,124,120,120,119,115,120,123,122,124,125,123,125,120,117,116,115,112,116,112,110,115,115,106,116,114,110,112,113,115,108,113,111,118,108,114,107,113,112,106
111,110,112,116,114,114,110,115,115,112,114,112,118,120,119,121,118,119,120,124,120,121,120,121,116,115,118,128,116,129,122,125,120,116,116,118,113,116,108,113,113,106,112,115,111,108,107,114,109,107,115,108,107,116,114,111,109,107,118,116
115,110,114,112,109,107,115,108,115,108,115,113,111,121,119,126,122,127,125,118,129,117,129,124,122,115,121,119,124,121,125,122,121,116,118,110,117,113,111,107,113,111,110,119,114,115,110,108,112,112,109,112,110,108,116,113,116,111,105,115
107,111,109,115,112,113,115,110,115,112,114,117,118,114,119,119,122,126,123,119,125,119,122,119,119,125,118,121,127,121,115,118,119,120,117,113,113,108,115,114,112,111,110,114,110,111,109,115,112,110,115,116,110,114,108,111,109,104,112,108
109,113,109,113,109,114,113,110,115,114,114,115,114,120,113,124,116,123,123,122,122,121,122,118,126,121,117,119,121,115,122,122,115,116,109,115,116,110,110,108,113,106,112,117,109,111,112,112,112,111,112,115,111,108,110,109,115,110,107,108
111,108,107,115,108,113,114,112,116,114,114,121,116,118,124,125,122,120,124,121,121,117,118,127,121,121,117,116,125,111,115,119,117,123,115,114,112,108,106,116,112,111,109,111,116,110,112,109,112,109,110,109,112,115,111,111,112,110,111,113
111,113,115,112,118,112,117,108,115,114,108,115,112,107,119,121,123,124,115,117,122,122,118,116,124,119,123,123,125,117,119,120,118,118,118,111,115,112,111,107,113,110,107,112,116,110,110,108,112,114,116,111,112,110,111,112,112,110,114,112
115,109,113,114,115,119,112,112,118,108,117,117,110,115,115,122,117,127,122,121,121,117,120,123,112,121,120,119,124,124,124,119,117,114,118,112,117,111,111,117,113,107,111,113,113,108,113,113,113,114,113,109,116,110,114,111,113,109,115,112
108,113,112,109,112,109,114,115,113,109,113,111,114,114,120,119,115,124,114,116,123,120,116,123,122,124,117,126,118,117,127,119,115,120,113,113,112,112,110,112,117,116,112,110,107,109,116,112,110,115,111,114,110,112,113,115,109,108,110,110
115,111,109,113,115,112,114,109,106,119,116,110,116,112,115,113,117,122,113,117,115,118,124,121,121,123,119,127,120,119,121,122,120,114,116,113,116,114,114,114,111,109,113,112,112,113,114,108,110,111,110,115,111,111,117,114,107,113,113,109
112,109,117,107,112,108,109,113,113,116,107,120,111,110,116,117,116,117,117,118,121,119,119,116,115,124,123,122,117,131,122,121,124,122,116,113,115,115,113,114,105,119,109,108,110,113,112,112,112,110,113,110,108,111,110,110,113,108,107,112
107,115,109,111,109,113,109,110,115,114,114,110,113,118,120,111,117,119,120,115,120,124,118,123,120,126,122,116,126,119,129,122,115,121,120,114,118,115,113,112,110,114,111,111,111,107,111,112,106,114,112,115,109,113,109,106,112,105,110,110
109,114,109,115,109,115,110,118,108,113,110,114,116,112,114,121,118,116,121,121,118,119,115,124,119,116,122,121,120,121,126,122,114,113,116,116,112,117,113,111,115,114,109,112,112,109,108,116,113,104,119,110,112,111,113,114,115,106,115,114
116,119,111,111,114,112,117,111,111,109,113,109,115,115,115,115,119,116,122,126,121,123,121,121,122,126,125,118,118,117,117,119,119,118,111,112,110,117,110,110,115,111,112,112,112,108,112,114,114,116,111,110,113,116,109,115,113,115,107,112
109,115,114,112,110,107,110,111,110,112,113,113,112,116,113,115,115,124,124,117,121,124,123,125,115,123,116,117,126,115,118,118,115,115,113,118,111,111,114,113,109,113,112,109,114,116,108,121,108,111,113,113,110,111,112,113,113,116,109,116
110,116,107,118,110,109,112,115,112,109,112,117,117,117,114,115,125,120,121,119,127,118,120,123,123,122,124,124,119,116,116,118,119,116,114,113,113,110,111,111,110,109,115,113,109,109,108,112,114,106,116,115,110,108,107,116,112,110,107,113
107,115,115,110,111,114,112,108,114,112,113,113,114,112,116,116,117,114,122,127,125,121,119,129,123,124,119,125,112,119,118,115,122,105,116,112,116,111,115,111,112,113,110,117,115,113,115,116,110,116,109,117,109,115,113,109,109,110,113,109
113,114,113,110,110,112,110,112,117,114,104,111,116,112,117,110,115,119,115,117,117,120,117,131,122,119,125,117,116,121,117,118,107,118,110,104,110,108,111,113,107,114,113,106,117,110,106,112,109,111,114,115,112,109,108,117,114,112,108,110
110,111,105,113,116,110,107,107,113,115,112,117,115,108,109,110,114,119,113,124,116,119,119,121,123,111,121,118,120,114,114,113,110,116,117,108,107,115,110,117,109,114,114,115,111,111,111,107,113,114,113,112,112,111,112,107,115,109,109,112
113,112,111,112,111,109,109,113,112,112,106,114,110,112,112,113,108,108,116,114,112,116,116,116,124,116,118,114,116,117,116,115,115,120,109,108,113,112,113,114,109,106,117,109,110,111,111,114,112,110,116,109,115,110,108,112,113,110,111,112
108,115,113,115,106,111,110,110,110,108,113,111,108,112,111,113,118,113,111,115,117,113,112,118,114,116,119,113,115,107,117,107,111,115,110,111,109,114,104,112,116,111,114,115,113,111,106,115,107,110,112,107,109,109,114,110,107,111,113,111
109,112,119,107,110,115,111,113,114,118,109,116,112,114,113,111,116,115,112,111,114,116,115,111,112,115,114,111,116,114,115,115,111,108,113,114,112,114,115,111,106,110,110,113,116,114,110,110,112,117,112,109,109,106,112,113,110,116,112,109
115,111,111,111,110,110,109,108,111,115,110,115,114,109,115,114,113,109,114,110,114,116,112,109,115,116,114,105,111,111,111,113,111,110,114,114,109,115,112,115,106,115,109,113,112,106,113,110,112,112,110,114,110,110,110,112,111,112,116,114
112,109,110,113,114,110,113,113,112,113,102,112,111,112,110,113,113,109,108,116,113,110,113,110,112,114,109,114,109,115,109,110,110,110,111,110,110,112,110,109,111,112,111,113,113,110,111,110,116,107,118,112,111,109,116,115,110,110,112,117
108,113,113,108,116,111,114,112,108,111,113,111,111,105,114,111,112,112,110,106,115,108,112,111,113,110,116,109,114,112,109,113,113,115,112,112,113,108,112,109,114,111,109,110,113,111,106,117,114,107,115,108,112,111,115,114,112,103,114,114
111,105,119,111,106,110,106,110,113,115,112,111,110,115,117,111,112,106,117,109,111,116,108,114,110,109,113,114,114,112,112,110,114,111,109,114,113,108,112,110,114,110,114,109,111,116,109,110,111,114,114,110,108,116,115,114,110,112,109,116
109,112,114,110,108,114,112,112,110,110,113,113,107,117,114,109,112,117,117,109,106,114,107,115,105,108,114,112,114,115,111,114,110,109,112,115,113,114,114,111,114,107,111,109,114,110,116,114,104,111,115,111,111,109,110,110,110,111,109,110
112,110,112,107,112,112,114,113,112,114,111,111,114,107,107,116,113,111,111,113,113,104,114,106,118,109,112,108,112,112,110,109,116,111,112,110,110,113,113,106,117,112,111,110,112,113,116,106,118,112,113,113,111,115,110,113,111,112,117,114
114,110,113,109,108,114,110,110,119,110,110,110,109,107,110,113,111,112,114,110,111,112,114,112,108,112,115,111,109,115,104,112,111,109,112,111,110,112,111,115,115,107,114,107,113,114,107,105,115,114,109,106,111,114,110,110,112,110,109,113
117,110,107,111,112,109,114,106,113,111,108,112,113,108,109,112,113,114,114,111,114,114,112,108,109,117,115,112,108,114,111,112,111,114,112,114,108,110,109,111,115,109,112,114,112,112,113,109,115,111,111,104,111,119,111,109,110,112,109,116
120,111,111,112,112,114,112,110,107,110,111,109,111,110,110,111,113,114,106,108,113,115,115,105,110,110,112,111,112,112,106,111,109,111,112,110,113,110,112,112,111,109,112,115,108,114,117,113,112,110,109,112,113,116,112,113,115,111,104,112
110,112,113,113,115,112,108,112,114,108,114,112,111,109,117,107,116,112,106,108,113,112,109,115,106,113,108,111,113,112,111,110,117,111,111,111,113,111,113,109,113,113,108,111,111,111,111,105,114,110,110,112,110,114,114,112,113,115,112,116
108,120,112,112,113,111,112,116,113,111,111,115,113,105,113,112,115,108,115,114,113,111,114,113,116,113,106,111,113,112,111,112,112,116,110,119,110,110,109,116,114,114,109,116,110,106,113,109,111,109,107,115,112,107,113,113,114,107,112,112
112,110,114,112,111,111,115,112,110,108,114,112,112,111,111,115,109,107,111,110,113,108,112,110,114,110,114,107,110,109,113,113,112,114,110,114,111,105,107,111,112,111,111,114,108,113,111,114,111,108,112,114,113,108,110,109,112,111,114,109
109,114,114,110,108,115,113,111,113,112,110,113,114,112,110,114,111,114,108,113,112,111,112,109,112,112,115,111,112,116,113,115,114,112,113,108,116,109,110,112,114,112,110,112,114,110,110,111,110,113,112,112,116,109,108,108,115,110,115,110
113,113,113,111,115,112,106,110,111,113,109,118,112,112,111,108,116,118,108,116,113,115,108,109,117,108,112,105,112,116,118,106,114,110,113,111,109,111,114,112,114,115,109,114,110,108,111,112,112,111,107,112,115,108,112,111,113,114,108,107
112,114,114,111,111,114,110,116,117,111,112,112,109,117,111,110,108,110,108,112,111,108,109,115,108,113,109,117,112,112,108,114,109,112,109,108,115,108,114,110,108,111,115,109,106,116,110,111,114,110,110,108,116,113,108,111,108,111,109,112
114,115,110,109,110,113,114,111,110,110,117,110,109,115,112,111,117,110,109,116,102,113,106,115,114,108,107,109,115,108,111,110,114,106,115,115,109,115,109,114,113,115,110,110,111,112,113,111,111,112,114,110,117,109,106,109,111,110,110,110
111,110,111,114,113,114,111,111,113,110,113,110,107,116,111,109,110,110,110,109,117,105,108,108,111,112,114,110,110,112,112,112,111,111,103,113,109,115,114,111,103,113,112,110,112,114,104,113,109,111,112,109,110,110,114,109,114,113,112,110
115,112,110,112,115,110,113,110,114,108,115,110,112,112,110,115,111,113,109,114,107,118,107,114,113,110,115,114,114,108,108,118,112,115,112,114,117,108,109,113,115,114,110,115,107,111,109,113,114,115,112,112,110,112,114,116,109,110,112,113
110,113,113,109,114,109,109,116,105,109,117,112,106,112,112,110,113,118,111,107,110,115,107,112,110,110,107,110,117,111,110,109,116,118,110,118,113,118,111,107,111,114,108,112,112,115,111,119,112,108,114,110,114,109,111,112,111,111,111,115
113,108,109,116,109,107,111,119,106,116,111,113,115,113,110,111,111,115,107,114,113,110,114,116,109,110,110,111,110,109,113,111,115,114,113,106,109,115,115,114,114,108,114,113,115,108,109,114,117,108,105,107,115,113,107,113,116,112,110,115
112,112,104,111,117,104,107,109,109,112,108,112,113,112,108,115,114,110,110,113,109,112,111,109,112,116,109,114,111,107,116,111,107,112,113,112,104,112,110,115,113,112,114,112,112,112,110,111,108,113,107,111,114,110,115,108,112,111,116,109
109,112,112,113,108,112,112,114,110,114,115,109,113,109,111,115,113,112,109,114,111,114,111,116,111,112,108,112,110,114,104,112,108,115,112,113,106,114,110,120,111,115,109,119,112,109,113,109,114,113,113,107,113,108,116,109,115,112,114,114
115,111,111,111,111,104,115,114,113,115,114,106,108,113,111,112,113,112,112,111,112,113,106,109,111,111,113,110,114,112,114,112,107,115,114,110,115,105,114,105,108,112,114,108,110,117,113,107,111,114,114,113,108,109,113,114,108,110,119,106
108,109,112,113,115,111,114,109,114,115,109,113,114,111,114,113,111,111,118,112,108,112,114,110,109,108,110,113,110,114,105,118,113,114,111,112,109,108,113,107,114,111,112,115,113,109,115,108,112,110,110,110,110,108,112,114,112,106,112,111
