23,42,61
108,111,113,112,110,114,110,115,114,114,109,109,110,112,111,113,111,112,113,115,112,112,112,115,114,118,116,121,115,118,115,117,116,114,114,114,115,112,111,112,113,116,112,114,108,114,110,114,116,113,116,114,115,115,113,111,113,107,108,115
112,108,112,111,107,118,112,112,113,109,112,112,114,110,112,117,115,116,113,113,111,119,112,114,112,117,114,118,116,118,113,116,118,115,115,113,115,113,110,114,113,111,109,113,107,113,113,115,117,114,115,111,113,111,109,110,113,109,113,117
113,114,114,111,111,115,111,109,112,112,114,109,113,110,113,114,112,112,111,116,111,115,112,115,110,117,118,114,118,119,115,118,117,113,115,115,113,113,113,114,106,110,111,111,110,111,113,109,108,107,110,114,115,117,111,112,115,112,111,110
113,111,112,110,110,109,112,115,118,108,108,108,113,110,113,113,113,113,109,112,116,116,112,114,116,125,120,119,128,119,115,117,118,116,118,115,110,110,114,116,112,112,114,109,109,114,114,109,109,109,108,111,111,112,110,115,116,110,111,115
114,110,114,109,112,112,111,112,111,110,114,114,114,111,113,113,115,113,114,114,117,120,119,114,115,125,120,124,126,119,118,120,121,121,118,118,115,115,115,116,113,112,116,116,119,114,109,115,116,117,111,114,111,112,109,114,108,107,111,110
111,108,112,106,110,112,111,115,113,112,111,112,111,111,111,111,116,112,111,117,115,119,120,123,125,125,121,126,125,122,123,123,120,119,117,118,118,116,113,115,113,114,113,111,111,110,111,115,112,112,109,115,114,113,108,114,111,115,110,112
110,112,112,109,112,113,112,110,115,115,109,112,109,112,113,113,118,112,110,117,115,119,119,128,122,122,122,123,125,122,122,122,120,121,122,116,114,109,113,114,114,113,109,112,110,109,108,114,110,110,111,112,110,114,116,114,110,111,109,116
110,107,108,110,110,114,112,107,112,112,109,114,114,114,113,112,115,108,112,118,116,119,113,120,123,130,124,125,131,128,127,129,126,124,121,121,122,117,114,111,116,115,112,114,113,113,113,118,109,109,113,115,111,113,111,111,114,113,110,112
113,113,114,114,111,109,109,111,115,111,111,111,114,112,109,111,115,114,115,114,116,123,121,125,129,132,126,129,130,128,128,125,127,126,123,124,118,118,117,116,115,112,112,112,112,115,113,115,116,115,113,112,113,118,116,116,113,113,112,110
113,115,112,110,115,114,109,109,110,110,113,110,110,108,110,108,109,112,114,116,119,122,122,126,125,131,126,129,131,128,127,124,130,128,125,124,115,114,118,115,111,112,116,112,111,113,114,111,114,109,112,111,111,112,110,108,111,112,112,116
114,111,111,111,112,112,111,108,109,118,113,111,115,114,117,111,115,116,118,118,119,120,123,129,126,131,135,131,129,123,126,127,132,127,124,123,118,114,116,117,113,115,115,108,113,113,112,113,113,112,115,114,111,111,113,112,111,107,108,114
113,112,111,116,113,109,110,107,108,117,111,109,111,111,109,110,114,114,113,114,118,122,126,123,131,127,127,124,127,124,126,128,125,122,120,127,124,118,116,116,111,114,115,116,113,110,114,112,109,111,110,112,114,113,110,113,110,110,110,115
110,113,113,109,114,113,114,112,115,112,108,108,113,117,116,117,109,111,116,122,118,124,131,124,132,131,134,129,127,125,126,129,125,124,123,125,115,115,115,118,116,117,112,114,109,113,113,105,113,111,107,111,113,111,110,112,106,111,111,110
113,112,112,108,111,109,109,109,114,112,115,108,111,113,112,119,113,117,117,116,116,123,121,123,130,132,129,128,134,130,128,125,122,121,122,121,120,120,117,119,115,116,113,113,111,116,114,113,114,112,112,114,109,111,110,113,110,114,114,110
116,115,111,111,112,114,112,109,112,112,111,108,113,110,109,112,110,116,112,115,120,123,127,136,132,133,130,126,129,119,129,126,125,126,128,125,121,118,119,117,113,111,113,115,112,114,113,113,109,112,111,114,110,114,112,119,113,114,114,109
111,116,112,113,111,113,111,111,112,120,113,111,112,112,113,116,115,123,119,117,120,123,125,128,127,130,132,130,131,127,127,121,126,128,124,116,117,118,115,112,116,112,114,116,108,108,113,112,110,110,112,111,110,114,110,110,106,108,110,110
107,114,108,113,111,108,110,113,109,113,110,115,116,115,115,113,112,117,118,118,123,123,126,126,127,130,130,130,124,133,130,126,128,129,128,120,118,119,117,113,115,110,114,115,110,108,111,109,114,109,114,111,112,111,112,110,114,113,115,111
107,113,108,111,109,108,114,117,109,112,110,114,114,112,110,109,116,118,117,116,123,120,121,124,127,128,128,130,125,132,122,121,125,124,124,119,120,118,117,111,114,112,114,114,112,112,116,112,115,112,114,112,115,114,116,111,114,111,113,112
110,109,109,111,105,107,113,113,112,113,113,116,115,113,115,114,114,114,112,112,122,127,124,124,124,126,126,130,131,131,128,125,126,124,125,118,120,117,112,113,120,112,113,115,111,112,114,110,111,110,110,115,116,110,111,108,111,110,111,112
112,107,114,117,114,113,111,114,113,107,114,115,115,113,115,115,115,117,119,122,126,117,118,121,122,126,128,125,127,121,125,124,125,125,129,121,120,122,118,116,117,110,111,113,117,114,111,110,106,113,110,115,111,110,113,112,115,113,107,108
113,114,114,109,109,111,108,109,109,109,110,106,111,112,115,117,115,115,118,119,118,115,124,127,128,123,126,127,127,128,131,127,126,123,125,123,119,119,117,113,114,114,113,112,114,108,109,116,111,116,108,113,109,109,110,113,111,111,111,111
114,116,110,108,111,112,114,117,115,113,109,113,113,114,114,115,115,117,118,114,119,122,124,123,127,123,128,130,130,131,130,125,129,126,126,126,117,121,118,114,111,112,113,115,111,112,112,113,110,115,108,113,112,112,112,111,112,111,115,116
113,112,111,111,114,115,111,109,108,108,112,109,106,110,111,113,119,118,119,117,121,117,121,123,133,124,128,126,127,125,126,127,132,125,126,126,118,121,113,113,114,115,113,115,111,112,111,113,113,110,110,113,108,114,118,115,110,108,109,114
112,108,111,113,110,115,114,109,111,110,114,111,117,115,114,117,116,114,118,116,122,124,127,126,128,123,131,126,128,125,123,124,125,127,124,126,120,122,113,113,114,117,113,116,111,113,118,113,114,112,112,113,109,111,111,110,111,115,111,110
116,111,111,114,110,113,115,111,114,112,117,111,116,112,111,115,112,114,116,115,123,121,121,124,127,126,127,127,133,132,130,133,131,131,124,125,121,121,118,117,116,113,109,117,110,110,112,111,108,110,112,112,112,110,111,112,115,114,113,113
110,111,108,113,108,110,113,109,112,114,115,109,115,110,112,115,112,116,120,124,124,123,127,126,129,131,129,131,127,124,123,130,130,126,122,125,127,121,120,117,115,110,115,120,113,106,108,117,114,114,116,113,111,106,112,111,112,110,113,115
111,115,111,110,108,114,113,107,110,114,112,108,114,112,111,113,115,121,119,121,126,123,127,129,127,127,126,133,130,126,125,132,132,131,130,128,124,120,117,115,113,112,114,113,111,111,110,113,111,112,110,113,113,110,114,110,113,112,113,111
108,108,111,111,113,115,110,113,115,116,112,110,114,111,113,116,116,119,118,119,127,124,128,136,130,130,130,125,128,130,133,130,125,128,129,123,124,123,118,119,119,115,116,113,115,118,107,108,112,115,111,114,112,112,112,112,114,111,114,113
110,111,111,110,117,116,110,111,109,111,115,117,119,116,114,114,117,118,118,120,125,128,128,131,130,131,134,128,130,129,129,124,127,127,129,126,127,123,120,116,111,112,117,112,113,110,110,111,110,109,113,113,115,117,114,112,110,107,111,108
113,113,109,114,120,115,112,112,108,112,113,107,110,115,112,112,112,113,122,122,121,133,127,131,130,129,132,129,130,132,131,132,132,128,131,126,120,118,122,113,115,118,118,112,115,113,112,111,114,113,116,110,114,112,110,113,114,107,109,114
112,113,108,112,112,108,111,113,107,111,114,112,112,111,113,119,118,117,126,128,126,138,133,131,130,126,127,126,128,130,130,127,127,122,124,121,124,118,119,114,117,117,113,112,113,112,110,109,111,110,112,110,113,109,107,108,112,110,110,115
110,109,110,116,112,109,110,111,109,113,113,111,117,115,114,116,117,116,122,123,129,129,129,128,130,130,133,134,132,131,133,130,128,122,126,124,121,121,120,117,118,114,112,115,112,112,110,110,112,110,111,112,111,113,114,110,113,111,109,112
109,111,111,109,110,116,113,114,113,114,114,111,114,113,112,117,115,118,124,124,131,133,130,128,132,131,120,129,128,127,125,127,129,125,124,120,118,119,118,117,117,113,112,113,112,116,115,113,111,111,112,110,113,113,108,114,115,110,113,116
112,111,115,109,109,113,114,114,110,111,113,112,114,117,117,118,111,119,121,121,125,128,128,126,129,131,129,133,127,129,127,127,128,128,123,117,124,117,115,114,116,114,114,113,110,113,114,114,112,110,110,108,111,116,108,112,103,109,109,108
115,113,114,112,112,109,110,109,115,112,113,114,113,117,117,120,114,123,121,118,129,133,134,130,133,132,127,129,129,130,128,125,125,125,124,118,121,120,120,114,114,113,115,117,115,111,110,115,110,110,110,113,111,111,110,117,113,118,113,116
113,111,111,113,115,115,117,115,117,113,117,113,113,117,112,118,114,120,123,124,130,126,128,125,133,133,122,124,126,127,126,127,129,126,121,122,120,119,114,115,116,114,112,110,109,111,110,112,108,115,111,112,112,113,113,112,108,109,108,110
111,111,113,112,105,108,105,108,112,113,114,112,116,115,113,116,115,118,119,121,128,129,132,134,129,130,129,134,132,133,126,126,130,131,119,119,119,122,116,114,114,110,113,115,110,113,109,113,113,112,109,109,110,111,112,115,113,108,110,106
111,108,112,111,112,120,117,114,112,113,110,111,116,112,114,116,118,124,126,126,128,130,132,134,125,127,129,131,126,127,125,131,132,126,116,120,118,115,114,113,118,114,114,114,111,114,110,115,112,113,117,111,112,114,111,110,110,111,117,113
113,110,116,112,111,109,110,113,116,114,109,112,116,116,116,117,118,117,119,123,125,129,130,132,128,128,122,124,123,129,130,127,128,123,125,127,124,119,118,118,121,116,112,109,112,115,113,119,109,109,114,110,114,120,115,115,107,112,115,115
113,111,113,110,114,113,112,113,110,112,116,113,114,113,115,118,121,120,124,130,128,129,130,129,134,133,129,131,126,134,132,126,128,125,126,123,119,119,118,113,111,108,113,111,113,111,112,118,110,110,114,111,114,115,109,117,113,115,109,109
116,115,111,106,109,109,110,113,108,108,112,112,115,110,113,117,115,116,125,131,130,130,135,131,129,128,136,134,128,131,136,132,129,126,123,126,121,113,117,117,119,118,117,113,114,108,117,119,114,112,114,112,109,112,112,112,112,113,112,117
106,110,110,112,114,112,114,114,113,116,112,110,115,116,115,120,119,119,122,124,125,128,131,133,129,127,128,129,134,129,128,126,126,123,115,121,125,118,117,115,114,113,111,110,113,109,115,112,109,109,112,114,111,111,114,112,112,109,107,111
109,117,112,113,113,110,110,112,110,111,110,112,112,118,112,118,122,122,126,125,128,130,126,129,125,128,132,132,132,130,129,127,125,127,125,121,116,118,116,116,115,109,115,111,113,116,116,113,113,114,110,111,109,111,115,112,115,111,114,110
113,120,103,111,112,115,110,113,114,112,113,113,111,118,112,118,116,117,125,121,126,134,134,134,130,131,131,126,131,132,137,131,122,125,127,123,119,117,117,113,116,116,115,113,116,115,112,112,112,114,113,114,107,110,112,108,113,106,108,112
112,111,110,118,115,113,109,115,114,111,112,113,110,110,111,120,119,120,124,124,129,133,130,127,129,131,128,128,132,126,130,132,126,125,122,117,122,114,117,113,113,112,113,113,115,113,115,116,116,114,110,109,114,113,113,113,114,114,113,116
111,112,112,108,107,111,117,113,112,114,113,115,111,114,115,118,118,119,122,125,131,125,127,131,130,132,128,127,131,129,131,134,132,126,124,121,122,113,115,114,115,113,112,111,113,113,113,112,111,109,117,112,109,106,112,112,111,113,111,116
110,114,114,110,109,113,115,110,111,112,113,117,113,120,118,116,118,120,126,128,131,126,134,126,124,127,129,128,132,129,135,130,128,125,124,121,120,116,117,118,118,117,115,114,111,113,111,110,116,111,119,113,113,117,113,110,107,111,107,110
110,111,108,114,115,116,113,112,110,112,112,111,114,120,115,113,122,125,129,121,133,134,138,128,129,128,131,132,137,129,131,132,129,128,125,121,120,119,119,115,113,116,115,113,115,116,115,117,116,113,118,112,115,117,110,114,113,113,113,113
109,108,110,113,113,113,109,112,109,113,113,111,119,116,115,114,120,124,131,130,135,130,135,130,128,128,131,131,131,128,131,135,135,128,120,117,117,118,116,115,113,116,112,107,113,112,113,113,109,108,118,113,110,112,110,116,113,110,109,111
111,112,114,111,110,111,108,114,112,113,113,112,119,112,117,116,121,125,127,131,133,132,130,130,130,130,129,126,125,125,130,130,128,124,122,123,122,121,116,115,110,114,113,116,118,114,113,114,115,106,113,109,109,114,114,109,107,115,114,113
117,114,116,112,113,115,113,115,111,112,114,111,112,113,124,117,121,125,125,131,132,132,129,135,131,126,126,124,128,129,135,135,132,127,122,122,120,115,113,117,114,114,111,115,116,114,113,112,113,110,113,112,113,113,116,113,114,113,110,108
107,106,111,112,110,108,110,113,113,112,114,110,115,116,119,116,117,125,127,135,136,134,127,129,125,127,127,126,132,126,124,122,127,128,120,121,123,118,118,117,115,115,114,113,112,108,107,107,112,113,111,107,111,111,106,110,110,110,112,110
109,117,115,114,113,111,112,114,112,110,112,109,115,117,117,123,124,125,127,127,128,129,129,131,131,135,131,131,128,122,126,126,128,125,115,117,117,114,117,113,116,116,112,111,114,111,113,112,115,115,112,109,111,116,109,115,113,109,109,114
107,113,112,110,115,114,115,115,113,111,111,112,111,113,114,119,122,121,126,127,129,130,132,136,124,129,124,128,124,122,126,127,119,125,121,124,121,115,118,112,115,115,112,111,110,107,113,112,111,108,109,115,116,116,112,116,116,116,110,118
112,110,112,111,110,111,112,112,111,109,110,111,110,116,117,118,119,121,126,131,132,134,131,132,126,128,126,129,124,122,123,127,122,124,115,119,116,111,117,113,113,112,109,108,112,111,112,110,114,111,111,113,112,112,113,112,110,110,108,113
117,111,114,107,110,114,105,108,111,112,110,113,116,118,117,117,120,119,123,132,129,127,123,127,128,129,132,129,128,125,124,125,126,126,121,122,117,113,119,115,113,113,112,112,117,116,116,111,112,111,112,113,113,111,114,109,112,114,114,113
117,110,113,110,115,115,113,115,115,118,115,114,119,118,113,119,124,120,123,126,129,128,126,132,132,130,129,125,124,126,125,125,128,121,120,121,121,114,115,110,114,113,111,112,111,112,112,108,111,111,112,109,111,111,114,110,114,112,112,112
115,105,109,112,110,111,114,116,111,112,112,113,114,119,115,123,121,124,130,128,130,133,126,131,130,130,122,129,126,130,128,125,128,123,124,118,120,114,119,112,118,114,113,114,113,113,112,112,116,116,117,113,113,107,109,109,112,109,111,114
112,109,113,114,110,115,113,115,112,115,114,114,112,116,118,120,118,122,130,127,127,133,128,126,126,130,125,133,123,124,126,124,125,124,124,115,119,113,119,114,115,115,116,116,115,107,110,109,114,111,114,113,114,110,116,114,114,111,113,114
111,109,112,112,115,117,113,112,111,112,114,113,120,120,112,117,129,124,126,123,123,129,129,130,130,132,122,127,129,127,131,126,128,128,126,117,121,117,118,112,114,114,110,113,117,110,116,107,111,112,113,110,111,111,110,109,112,113,115,113
110,108,112,113,114,111,114,115,115,112,117,112,115,112,112,117,124,126,127,129,127,130,129,128,126,128,127,130,134,129,133,130,130,124,124,119,115,115,115,116,114,111,113,112,115,110,114,115,114,116,114,111,113,114,114,114,113,112,113,112
110,108,108,111,107,108,111,110,113,109,108,109,114,113,119,123,119,123,121,127,126,134,128,129,132,133,132,134,137,129,134,131,128,127,124,115,115,119,116,117,112,113,117,112,109,110,108,108,107,112,111,113,118,115,116,112,112,111,113,112
113,111,113,114,106,114,116,111,115,113,107,114,120,117,120,120,124,132,127,130,125,125,121,129,130,132,128,133,134,131,137,130,125,129,117,117,118,118,114,115,112,112,112,111,112,114,112,112,112,112,113,111,112,108,117,113,114,112,116,115
110,112,111,110,109,112,114,109,116,118,111,119,114,114,116,121,124,127,130,133,125,125,133,131,131,135,128,136,133,134,139,133,121,125,120,117,116,120,117,111,113,114,114,116,115,111,113,112,109,110,113,114,117,112,113,106,111,114,119,113
112,111,109,114,117,114,113,105,109,111,110,113,112,117,117,125,124,126,127,127,127,128,130,128,128,131,130,134,131,132,131,130,128,131,121,113,119,115,113,108,115,112,111,110,108,109,114,108,107,117,110,108,111,113,117,111,111,114,112,106
112,113,111,112,110,110,111,109,116,116,116,116,120,118,117,119,119,125,126,126,124,124,126,125,126,127,128,126,126,127,131,130,123,122,125,116,116,111,116,113,116,113,115,110,111,112,115,110,109,118,109,115,116,112,114,109,107,113,109,109
110,114,112,111,113,113,113,111,113,115,116,113,114,114,120,119,121,127,127,131,130,131,137,130,133,135,130,130,132,132,136,136,129,121,125,121,120,116,116,116,116,113,114,111,115,115,118,116,113,117,111,114,115,110,112,109,106,113,112,115
110,112,112,111,111,111,114,113,113,115,115,116,118,114,117,120,121,124,128,129,129,124,130,128,129,132,130,130,127,129,128,127,124,118,119,117,115,115,113,114,117,116,115,112,114,114,110,108,107,108,114,109,114,116,115,110,109,117,107,108
109,114,114,111,112,114,110,111,117,117,117,115,115,110,121,124,122,124,129,125,123,121,131,131,127,124,126,128,128,132,133,131,126,125,116,120,118,114,113,117,115,112,114,113,110,110,111,116,115,113,116,113,115,110,113,107,113,119,108,114
111,116,107,109,113,108,108,115,115,109,113,115,115,115,121,122,119,121,128,125,127,132,129,134,128,125,127,129,128,128,130,131,122,124,116,125,116,114,116,118,113,112,113,114,113,110,115,115,112,109,113,110,108,107,115,108,111,111,111,113
114,117,113,113,112,109,116,111,113,110,114,118,115,115,120,123,125,124,122,130,128,127,124,131,129,130,128,128,131,132,124,124,124,124,116,118,113,117,119,117,115,114,110,111,112,111,118,112,112,111,115,113,113,114,114,110,114,114,118,110
111,113,112,114,115,109,115,114,119,117,111,112,116,116,122,115,118,122,124,134,132,130,127,125,128,130,122,126,126,128,122,124,124,120,117,117,114,115,117,115,111,109,110,116,114,111,115,111,116,111,112,112,110,113,112,109,113,111,114,113
112,112,111,109,108,110,114,112,114,112,112,111,114,118,119,114,120,125,126,125,125,128,128,126,132,131,125,135,126,128,121,123,123,116,114,114,117,114,114,116,115,113,114,113,112,114,111,109,112,110,111,111,107,111,114,113,114,109,109,108
111,111,111,113,106,110,111,112,111,108,112,114,112,120,121,122,120,129,131,129,130,132,130,127,132,127,120,123,123,130,126,126,124,120,117,113,118,117,114,115,112,110,116,110,109,114,110,110,110,115,112,111,109,113,116,116,112,107,107,111
109,115,108,110,108,114,110,113,114,111,113,116,115,119,120,124,122,123,123,124,126,128,128,123,120,122,126,128,126,124,123,120,121,124,119,114,114,113,116,113,114,115,113,112,113,116,114,116,111,118,112,108,111,111,110,111,109,111,108,110
112,109,107,119,115,113,114,115,114,111,115,116,116,120,114,116,119,122,124,127,124,124,124,124,123,126,124,130,129,125,125,118,120,123,119,117,118,116,113,109,116,114,109,114,113,116,115,115,113,111,107,107,112,112,109,111,112,112,109,112
114,110,110,114,113,109,114,110,111,116,120,113,109,117,114,115,120,128,124,125,125,128,127,126,124,124,121,125,126,121,125,123,121,121,114,115,117,117,114,113,114,112,114,114,107,114,114,109,112,111,109,111,115,115,111,112,111,117,114,111
112,112,113,111,111,111,116,112,113,111,111,113,112,114,119,117,121,128,123,123,119,120,126,128,126,125,127,126,125,121,127,125,121,118,114,116,112,112,115,108,107,109,111,112,108,113,114,110,112,114,113,114,113,112,111,112,107,115,108,109
113,111,113,111,114,111,108,109,113,111,112,115,115,117,123,118,123,125,121,128,125,130,129,129,129,126,128,132,132,130,124,117,119,116,115,118,118,118,119,113,111,112,111,117,114,114,114,110,109,110,110,112,111,113,113,115,112,116,111,109
112,110,110,110,112,115,112,113,113,111,107,113,115,113,118,120,121,120,125,128,126,132,128,128,130,128,124,130,125,123,119,114,118,116,118,116,114,115,113,111,113,111,106,112,110,110,114,114,112,114,113,113,109,110,109,112,112,108,109,111
111,110,111,112,116,117,112,110,109,117,112,116,119,117,118,118,121,128,124,121,122,122,127,135,133,127,124,132,124,124,119,116,118,117,116,114,111,114,114,108,113,110,109,114,114,114,112,109,110,114,110,111,115,117,110,111,115,112,113,116
117,111,111,105,113,112,112,113,112,115,113,112,115,117,118,120,123,130,123,122,125,120,122,124,125,127,125,131,124,123,119,120,112,114,116,117,113,113,117,117,117,110,109,109,109,112,111,110,114,113,110,111,113,113,112,113,115,110,110,112
113,108,114,112,119,109,111,116,115,112,116,113,116,117,117,120,119,127,126,130,128,128,129,125,127,126,125,134,126,119,122,122,111,116,116,120,116,114,112,111,110,111,115,113,108,110,112,112,116,111,107,108,113,109,108,107,115,111,113,113
111,114,114,109,112,109,111,111,110,111,114,110,115,114,111,116,115,122,129,129,124,124,125,120,126,129,129,124,120,121,123,123,120,118,116,115,111,113,108,112,111,111,115,114,112,110,115,112,114,113,112,116,111,109,115,110,113,110,112,110
107,116,112,111,110,111,116,111,112,115,115,113,113,111,112,122,122,122,124,121,123,124,125,126,126,128,132,130,129,130,125,122,115,107,112,111,112,115,107,113,114,112,111,111,110,111,116,110,111,113,112,116,108,110,109,107,110,106,112,111
113,116,106,112,109,113,115,107,112,118,114,111,115,117,113,121,124,122,129,130,129,129,123,128,127,122,124,127,124,122,117,116,114,116,121,116,116,116,110,114,115,112,108,115,111,110,111,110,112,115,115,115,108,116,113,112,114,108,112,110
114,113,110,113,107,110,111,108,114,118,113,113,114,113,116,118,127,126,131,126,123,125,125,125,125,127,129,127,127,127,123,118,121,116,118,114,113,117,114,115,113,111,112,115,112,114,112,112,111,111,110,113,114,114,113,111,111,110,111,110
111,110,112,115,116,111,107,111,111,113,115,118,114,117,121,117,119,123,127,126,125,125,125,124,126,126,125,126,125,121,117,114,120,117,118,114,114,117,109,114,112,114,114,109,111,112,113,110,111,114,108,112,110,110,110,113,114,114,111,113
111,112,115,115,113,110,114,116,112,115,112,111,111,116,116,120,125,129,121,126,125,130,131,129,131,132,123,124,119,116,115,121,120,115,115,113,112,113,108,116,109,111,110,110,114,113,116,111,109,114,109,114,112,113,111,112,112,111,107,113
109,113,111,110,111,115,115,117,116,115,113,110,115,119,113,116,124,123,118,130,124,128,124,124,124,127,128,130,126,122,116,114,116,113,113,111,112,115,109,108,110,112,117,114,112,109,111,107,113,115,109,113,112,110,110,109,109,112,110,114
112,115,111,111,113,115,110,112,106,109,112,110,116,116,112,116,125,123,121,124,121,126,127,129,131,123,126,125,121,119,116,115,117,111,114,114,114,113,112,113,111,105,114,109,111,111,115,114,112,110,107,109,107,108,113,111,112,114,110,114
113,114,111,112,112,116,113,114,112,119,113,111,113,116,116,119,119,114,121,128,127,126,132,128,124,119,126,124,121,118,114,115,117,114,117,117,114,112,113,113,111,111,116,110,110,109,108,110,110,115,109,110,110,113,117,113,113,113,110,112
112,111,112,110,105,108,111,115,114,110,112,116,114,115,118,120,119,120,125,130,125,122,127,128,128,119,120,121,117,120,118,116,111,113,111,113,109,111,110,107,107,110,113,112,112,112,111,113,113,113,110,110,108,113,111,111,111,113,111,114
105,110,114,114,109,113,112,112,112,112,115,114,116,116,119,120,117,123,125,128,122,127,128,128,128,121,120,123,119,117,114,113,110,118,110,114,109,114,114,117,112,114,114,111,109,110,112,111,105,109,112,109,107,111,111,113,110,111,110,111
109,113,114,113,110,113,111,113,111,113,114,111,110,114,118,120,122,125,123,132,123,126,126,125,123,122,123,121,120,118,112,116,108,109,109,118,113,113,111,115,110,113,108,109,109,114,114,113,109,115,112,113,111,108,112,113,111,114,115,110
106,106,108,108,110,112,111,112,110,112,110,115,113,118,119,118,117,123,124,124,115,120,124,123,121,117,120,118,117,117,115,115,115,117,111,110,111,111,113,115,114,115,109,113,116,115,109,110,110,115,108,114,111,109,114,112,110,113,110,113
111,112,113,114,114,113,110,108,106,111,110,114,111,116,113,116,114,117,117,120,121,122,127,123,119,121,128,120,117,118,115,108,113,118,112,115,114,114,109,107,104,109,108,110,112,108,113,112,110,113,112,114,111,110,111,108,110,110,110,118
109,112,112,114,115,115,110,109,107,113,112,116,115,116,110,115,116,118,116,118,120,121,123,118,116,119,120,114,114,115,114,110,115,116,113,112,108,116,116,118,115,117,111,110,109,108,113,112,113,111,115,114,113,112,115,112,111,113,115,119
110,113,112,113,113,113,114,117,112,113,110,115,109,110,110,117,119,117,118,116,118,118,118,114,115,111,111,114,117,114,111,110,112,113,113,112,114,111,112,113,114,109,110,110,107,111,111,115,113,107,109,111,111,112,112,109,105,108,110,112
114,115,108,112,114,112,111,112,109,107,108,115,111,118,112,114,113,118,122,114,117,119,115,113,115,115,111,115,116,112,113,111,110,114,115,114,121,115,116,110,115,108,110,113,111,115,115,111,109,108,111,115,115,111,108,114,108,115,111,113
