109,109,112,106,114,110,114,111,110,111,105,105,115,107,106,109,108,108,109,109,115,110,109,111,110,106,110,111,109,109,108,107,111,114,106,111,109,110,108,113,107,104,112,107,107,110,110,110,109,109,108,113,111,110,107,113,108,107,104,108
108,107,108,110,112,110,110,109,110,109,112,107,114,108,104,111,115,109,109,113,111,106,110,108,107,109,112,109,107,106,112,113,107,110,112,111,107,109,106,111,111,107,112,109,106,115,108,112,105,108,107,110,107,112,107,110,108,108,106,113
105,104,110,115,108,110,107,110,111,110,118,107,110,107,108,109,109,108,105,109,109,107,112,109,108,106,107,107,102,107,107,110,108,109,108,106,111,112,109,107,104,107,109,110,109,115,108,110,103,113,112,112,111,111,111,110,111,107,108,111
111,106,107,108,108,113,111,107,108,107,111,110,107,107,115,108,107,110,110,109,109,108,112,106,107,108,110,110,111,113,106,111,111,109,110,109,110,110,108,106,110,114,109,106,111,113,108,105,109,111,105,108,107,106,109,107,107,107,111,108
110,113,109,110,114,107,106,104,109,111,110,110,106,108,109,109,110,111,110,110,111,111,110,110,113,110,108,109,112,110,110,112,110,106,112,109,106,111,109,108,113,113,108,106,110,106,107,108,108,110,107,112,112,111,110,109,111,112,109,110
106,110,109,107,108,107,109,109,112,111,106,109,110,110,111,112,111,109,108,111,109,110,110,108,109,113,109,111,111,108,111,111,105,102,110,110,107,110,105,108,110,112,109,107,108,108,110,105,110,110,108,111,111,113,110,109,111,110,108,110
113,117,114,115,108,106,107,108,111,111,108,115,111,109,112,109,107,112,111,112,108,112,111,111,109,109,103,109,107,112,109,109,106,105,111,112,107,111,110,111,109,110,107,112,110,110,109,107,113,116,109,110,110,108,109,109,112,112,105,106
115,107,102,106,108,110,113,108,109,110,104,107,109,110,109,112,107,111,109,111,112,115,106,112,109,108,109,111,106,109,108,114,112,107,111,111,105,109,109,109,108,109,108,110,103,107,109,105,106,109,107,109,110,108,111,112,113,112,109,111
114,110,113,114,108,109,112,112,110,109,109,110,108,110,104,111,108,112,110,108,105,107,109,110,111,109,111,108,108,112,114,112,105,105,111,107,104,108,107,107,111,111,107,108,107,110,113,109,110,110,113,112,110,110,107,107,105,107,104,108
110,108,108,109,111,109,107,111,109,109,106,107,109,111,108,114,110,112,112,107,108,108,111,106,111,108,108,108,110,109,107,112,111,106,110,108,109,115,108,106,112,111,109,110,107,106,110,109,109,108,110,110,106,111,105,112,112,112,111,109
110,107,105,106,112,110,106,107,106,111,109,110,110,110,107,108,109,108,109,107,111,107,105,106,106,106,109,109,108,106,111,113,110,107,112,108,108,111,108,107,107,108,110,109,108,109,113,109,106,108,108,109,109,110,103,109,111,110,105,109
106,107,109,109,107,107,108,111,112,110,110,107,105,108,108,108,113,107,109,109,110,106,107,109,107,107,111,110,110,105,108,109,109,109,111,108,109,111,112,108,106,108,111,108,110,107,111,112,110,110,109,110,110,107,104,106,107,109,109,109
108,113,110,105,111,113,110,108,111,107,111,109,106,114,110,105,108,105,110,107,110,112,111,107,108,112,111,107,111,108,112,110,107,107,111,112,110,107,108,108,109,109,109,110,110,110,109,107,112,108,108,110,108,110,110,111,110,108,114,108
109,108,104,107,112,107,108,106,110,105,112,109,105,110,111,111,111,105,112,111,107,110,110,110,107,107,106,106,111,106,114,108,109,110,110,107,108,104,108,110,112,111,108,106,111,116,109,109,111,104,105,110,109,112,107,107,112,108,111,110
114,114,110,112,110,111,112,109,109,110,113,111,108,109,113,106,109,109,112,106,103,108,109,112,108,108,107,108,113,107,111,110,109,108,110,110,111,108,106,107,110,105,110,106,108,106,105,108,108,109,112,113,115,115,105,110,113,110,108,106
106,115,110,110,111,111,108,109,106,109,109,108,110,111,111,108,110,108,110,110,110,110,110,112,107,109,110,111,107,109,111,109,109,113,111,110,107,111,109,108,111,107,110,110,111,108,108,109,106,106,109,108,107,109,109,108,110,109,108,112
109,112,110,105,110,110,109,110,108,106,105,108,111,108,108,111,110,109,106,110,110,112,110,106,105,109,104,110,109,111,104,106,109,112,108,108,111,114,110,108,110,111,110,112,110,109,106,110,113,106,110,108,110,114,112,108,112,108,109,109
110,107,110,106,110,110,111,110,110,107,107,108,109,108,109,109,104,109,106,110,109,108,107,104,108,110,106,114,114,113,114,113,109,108,108,109,110,109,107,109,108,110,108,113,107,109,108,109,112,108,109,111,107,111,110,107,112,108,107,105
111,109,109,111,113,111,106,110,110,109,109,107,111,106,108,110,105,106,106,114,109,109,108,108,112,111,106,112,113,107,107,109,109,110,109,110,105,109,109,109,112,112,108,112,107,107,109,110,109,108,107,109,106,109,110,104,110,109,108,111
111,113,112,108,109,108,108,117,110,108,111,107,105,105,110,113,108,110,107,111,108,114,110,107,109,112,110,108,111,111,112,109,112,112,112,109,107,106,113,110,108,107,106,109,109,112,109,107,108,111,112,109,108,109,112,111,110,111,106,111
109,111,110,106,109,110,110,109,107,108,108,107,108,114,112,111,111,112,106,111,108,106,109,106,107,109,108,106,114,110,108,107,110,109,108,110,109,110,114,111,107,108,106,109,109,112,113,110,106,106,112,107,106,108,108,104,108,112,107,107
107,107,108,107,107,110,111,105,108,109,105,107,112,111,107,110,111,110,104,106,109,110,113,109,108,112,109,107,110,108,110,109,107,109,111,115,109,107,105,109,109,111,106,110,113,111,108,107,108,110,111,108,109,110,109,107,112,115,108,106
109,108,110,109,107,110,109,104,108,109,110,113,112,110,107,111,108,109,110,110,106,110,111,108,107,113,108,110,108,107,109,104,109,108,107,113,110,107,106,109,109,116,110,106,108,106,106,106,109,110,109,106,109,109,108,112,109,111,107,105
111,111,112,111,110,111,108,108,109,108,108,110,105,107,104,112,110,114,112,108,108,110,105,107,104,109,108,107,108,108,113,109,112,109,108,114,109,107,109,110,108,114,110,104,109,108,111,111,108,106,109,110,110,107,101,106,108,108,113,108
104,104,110,112,110,111,106,110,109,107,108,110,109,112,107,109,107,111,106,108,107,109,109,114,110,107,114,112,108,109,110,111,112,110,107,110,109,107,115,114,114,113,110,105,110,105,110,111,108,108,111,110,106,106,110,109,113,108,108,107
113,108,111,109,110,110,106,113,111,108,107,110,108,107,109,111,109,114,111,110,106,110,108,108,108,110,113,110,104,108,113,113,109,110,109,108,113,107,112,105,105,106,109,108,106,106,111,106,103,108,105,108,113,109,108,106,109,109,109,105
109,110,112,110,110,111,112,109,105,107,110,111,107,108,113,107,107,110,109,114,110,106,109,110,110,112,111,109,114,112,110,111,111,111,111,109,111,109,107,109,109,106,111,108,108,109,108,111,110,116,111,108,111,111,108,108,112,108,110,107
109,110,113,111,105,106,110,110,111,107,110,109,110,108,108,105,111,112,108,106,107,116,110,108,107,111,113,112,116,115,113,115,110,110,110,114,111,107,107,112,108,104,111,108,110,110,114,106,109,108,111,108,106,111,111,108,108,106,108,108
107,113,111,110,108,108,111,110,112,111,111,109,112,108,105,110,112,107,110,109,104,114,109,109,110,115,116,118,119,123,120,120,113,114,112,116,110,107,111,107,105,108,115,109,111,107,109,105,112,101,109,106,107,113,110,108,107,110,110,110
107,109,111,114,111,106,109,110,113,111,108,108,109,108,107,109,108,107,110,110,111,110,110,113,110,112,115,121,119,122,124,120,116,116,115,113,109,108,111,106,109,114,112,107,111,108,108,107,111,108,114,112,109,111,109,110,109,108,108,110
114,108,111,114,108,108,114,107,108,107,107,107,109,109,109,109,109,111,114,110,113,108,110,112,109,112,121,125,129,125,128,124,118,113,114,111,109,109,108,110,114,109,111,111,107,107,107,109,114,106,110,112,111,106,105,110,108,113,112,107
111,108,105,107,108,108,109,106,111,111,106,111,109,108,110,110,110,108,112,110,110,109,110,110,111,115,125,123,131,123,133,129,117,113,113,114,115,108,109,112,109,108,110,111,113,110,110,109,111,110,111,110,112,107,108,111,103,108,106,105
110,105,107,111,112,108,108,111,107,110,109,114,108,108,107,107,111,108,110,108,108,109,108,112,114,115,125,119,136,130,133,127,118,116,113,115,119,106,106,107,109,112,112,111,112,109,109,108,110,111,105,106,111,108,111,111,107,109,111,114
115,107,109,113,111,109,108,113,109,110,113,113,110,108,106,105,111,108,107,107,111,111,110,113,108,115,121,119,127,131,134,125,120,117,114,112,111,106,111,110,110,111,106,105,109,113,112,106,108,109,109,106,110,109,110,108,108,108,112,114
113,111,110,108,109,113,106,108,108,107,110,110,107,107,108,108,108,106,109,107,110,110,109,112,113,121,124,129,131,127,125,123,120,115,118,112,109,113,112,106,109,112,107,109,107,114,110,106,108,106,112,110,107,113,111,110,113,107,111,111
110,113,107,108,110,108,106,111,107,112,108,107,108,109,108,111,111,113,112,108,114,108,109,111,118,116,123,126,126,129,130,126,123,117,115,107,109,112,111,110,112,110,110,109,106,113,105,109,108,109,112,114,105,109,104,109,112,108,111,107
111,110,107,108,111,106,112,110,110,112,108,109,109,109,110,109,106,107,112,107,113,114,114,113,120,116,119,131,132,131,128,124,126,119,114,114,113,112,111,111,112,108,108,113,108,108,107,113,105,112,108,111,110,107,101,108,109,107,109,108
110,108,111,111,114,109,112,103,111,109,110,113,111,108,109,108,110,108,108,106,106,110,111,110,113,120,121,130,134,132,128,120,119,118,115,116,112,112,110,110,110,107,107,110,109,109,108,109,106,109,107,110,107,108,108,112,114,113,108,108
108,110,106,104,109,107,110,111,110,108,111,110,111,107,107,107,113,110,108,109,115,110,112,114,115,122,124,129,137,137,128,124,124,129,118,112,112,111,113,116,113,110,113,110,109,109,111,111,114,111,109,116,110,109,112,111,104,112,111,112
106,110,108,108,113,113,108,109,110,108,110,107,109,107,110,105,113,111,108,108,110,112,115,115,115,119,123,130,129,136,131,126,117,116,111,113,112,108,111,111,114,109,110,109,106,105,106,106,110,108,107,113,109,106,110,111,106,110,107,108
109,109,106,109,109,111,109,110,113,110,113,109,114,110,113,106,112,109,108,110,104,113,110,108,115,119,124,141,132,136,141,129,120,116,114,113,109,111,113,108,112,109,114,114,104,108,112,109,111,110,110,113,110,107,112,112,106,108,107,104
111,111,110,114,109,110,110,112,108,112,108,107,107,107,110,104,114,107,112,110,108,112,104,113,121,119,124,136,130,130,137,126,118,115,111,109,108,111,110,112,110,109,112,113,108,112,110,109,110,107,106,109,105,105,109,108,108,109,107,107
109,108,108,112,103,106,108,112,110,114,103,108,111,108,105,107,110,106,116,108,113,114,110,113,115,120,124,127,130,131,135,134,124,121,119,115,110,113,110,112,110,106,109,111,107,111,109,106,108,110,105,109,110,111,112,114,108,105,108,111
108,114,112,120,110,109,110,112,110,111,106,108,109,109,110,112,111,109,110,105,110,110,111,111,115,121,120,126,134,138,136,133,120,120,116,114,115,113,106,110,112,109,110,111,107,111,108,104,107,109,108,112,110,105,107,110,109,112,109,110
107,107,111,111,107,110,108,105,110,115,109,110,109,112,108,111,111,107,111,110,109,110,112,111,116,120,120,132,132,134,131,126,122,126,115,118,110,103,108,112,107,111,112,110,111,108,108,109,109,110,110,106,111,110,107,107,106,109,109,108
110,111,111,105,107,109,104,104,108,113,108,109,108,110,109,111,109,108,114,112,110,110,112,114,115,121,130,136,137,136,135,127,126,123,114,116,106,109,112,110,107,111,109,108,109,110,109,112,112,113,114,108,112,109,110,108,110,107,105,108
113,111,107,107,111,111,110,111,110,109,107,111,104,106,109,112,111,111,111,106,109,110,112,116,119,123,127,137,143,142,141,131,127,123,115,116,109,112,113,109,108,112,110,109,111,111,107,108,110,109,107,108,111,110,113,107,111,109,109,111
111,105,110,106,105,107,108,111,107,110,109,112,110,107,106,112,110,111,110,107,109,113,113,109,117,124,130,146,150,157,150,138,132,130,121,117,113,112,112,109,111,114,109,108,117,110,111,110,109,111,110,110,113,106,111,111,110,106,111,111
109,109,113,107,108,107,108,111,109,108,110,110,108,110,112,111,109,110,107,112,112,110,109,112,120,127,141,169,197,200,187,169,154,136,116,119,112,109,112,111,109,113,108,109,110,107,110,111,107,112,107,108,113,112,115,109,111,103,110,108
111,113,112,109,109,107,109,109,109,107,108,107,106,110,111,107,106,110,111,111,111,113,114,116,112,121,137,174,221,228,222,187,161,138,124,120,112,116,112,111,105,111,108,111,107,110,111,109,107,108,104,108,112,108,109,106,106,104,110,106
110,109,112,110,110,108,109,113,111,111,112,113,108,107,108,109,109,111,110,109,112,110,112,116,116,125,138,167,210,224,216,184,165,138,123,118,111,112,111,113,109,113,109,112,108,109,108,109,112,116,111,111,109,109,112,107,106,107,109,107
108,111,112,111,112,111,110,111,107,106,109,108,107,110,109,111,114,112,110,112,109,110,112,114,121,120,137,153,181,212,221,198,165,130,117,115,112,113,113,107,111,111,111,109,108,112,107,108,112,113,107,109,109,109,112,109,107,111,111,109
110,110,110,107,110,111,112,112,109,109,110,108,108,111,111,108,112,111,109,114,106,110,113,110,117,125,139,146,161,188,197,182,163,131,120,112,111,114,112,110,110,109,111,105,109,112,105,109,109,112,105,107,109,106,109,109,108,108,110,111
110,112,114,108,112,112,110,111,107,113,110,111,111,111,110,108,114,110,108,112,109,109,112,108,116,118,126,138,142,159,173,172,160,137,122,110,109,112,106,112,110,108,111,106,110,112,111,111,111,110,107,110,112,108,111,110,113,110,110,111
110,112,111,109,113,110,107,109,106,111,106,113,108,109,106,109,111,108,109,111,115,107,118,115,118,120,131,135,132,141,141,147,146,130,124,117,113,113,107,110,112,106,114,111,110,108,112,111,106,108,112,108,104,107,109,108,109,109,106,110
108,106,109,110,106,110,108,111,104,111,111,112,109,110,111,111,112,107,108,109,111,107,116,114,115,116,123,125,133,140,137,134,127,120,117,118,116,110,106,107,111,107,110,107,108,106,111,109,111,111,110,107,108,112,106,109,106,110,110,110
108,109,112,115,107,106,109,107,106,112,110,110,107,111,108,108,113,110,113,112,105,110,112,112,113,106,124,125,134,141,140,132,126,126,122,118,112,109,110,108,111,108,111,109,105,109,114,108,112,110,112,113,106,108,107,116,110,111,111,108
107,110,105,111,109,108,109,107,111,114,112,114,108,111,107,109,114,108,109,111,108,109,116,107,110,110,118,124,128,135,136,131,125,122,121,118,113,108,111,114,110,110,114,110,105,105,112,111,112,111,110,112,108,113,112,109,109,107,109,110
108,111,109,114,108,112,108,105,109,109,110,112,106,113,114,113,110,106,110,105,112,105,111,108,113,113,112,119,123,131,133,131,126,124,119,113,112,109,109,111,110,108,111,116,106,106,111,110,109,107,108,106,106,103,110,109,110,110,110,111
107,110,110,109,107,107,105,110,113,112,110,111,108,108,113,112,109,111,112,111,114,108,111,112,110,109,115,121,124,130,129,128,126,125,121,119,111,112,110,112,115,111,105,109,110,109,108,110,112,110,110,109,107,107,113,111,109,111,105,107
104,106,108,109,111,108,105,107,106,110,111,115,108,106,108,109,108,110,109,111,110,109,111,114,111,113,114,118,124,128,131,135,128,121,116,113,111,110,109,109,110,111,107,110,115,111,109,108,109,107,106,112,107,109,109,107,108,106,111,108
105,111,116,110,111,107,108,113,109,108,104,108,108,112,111,112,108,112,110,109,112,113,113,111,111,117,116,119,122,129,129,131,134,122,121,116,116,112,116,109,109,114,108,107,111,109,110,106,113,111,110,112,107,110,114,107,112,111,116,111
108,108,107,106,106,104,101,111,107,106,108,108,108,113,107,109,108,108,106,106,111,109,109,109,110,115,110,114,124,125,124,126,132,123,116,116,115,111,110,108,105,109,109,109,108,107,106,107,112,108,108,106,108,109,107,108,111,109,109,107
108,111,111,108,110,109,107,112,105,108,108,109,109,112,110,110,111,108,112,112,112,109,112,113,110,112,112,118,125,117,126,133,129,124,117,119,114,115,110,105,108,111,112,112,113,110,107,111,112,112,115,112,112,111,111,112,111,111,107,109
109,114,108,108,113,105,107,107,109,113,109,110,109,109,111,110,112,108,110,112,111,110,111,110,108,109,110,114,117,120,127,132,130,128,123,119,117,113,110,109,111,112,110,111,110,107,107,110,110,110,107,110,109,107,112,112,111,114,107,108
107,110,109,113,111,107,109,106,106,104,107,109,110,111,112,107,116,115,106,108,107,107,108,111,112,116,113,113,116,125,126,123,127,130,127,118,114,113,110,111,109,108,111,113,106,108,108,109,110,113,108,111,114,109,108,107,108,109,108,112
105,107,106,110,112,111,107,112,108,109,112,113,114,112,107,107,110,104,105,112,110,111,112,114,110,111,109,111,118,122,127,128,131,125,122,118,115,111,110,110,107,109,109,107,107,108,110,113,108,108,108,109,109,110,107,108,109,110,110,113
108,112,110,110,109,110,107,118,108,113,105,110,115,112,104,109,112,113,107,109,111,108,109,109,109,109,108,113,120,122,130,128,130,124,122,120,115,111,111,109,110,111,111,109,111,110,107,110,107,105,106,110,107,109,107,107,105,107,110,108
108,114,115,111,107,109,109,110,105,111,103,112,112,109,105,109,110,109,107,111,111,106,110,110,112,110,105,114,116,119,125,124,125,121,122,122,113,114,111,108,107,107,114,108,113,109,107,111,111,106,110,111,110,111,112,111,108,110,110,109
102,108,110,110,111,111,113,109,109,113,110,110,104,105,107,108,114,114,108,107,109,107,112,113,110,113,112,116,112,110,120,130,134,123,122,124,115,113,107,108,110,108,107,104,112,101,103,110,109,108,109,107,107,109,108,107,108,110,103,109
108,110,112,110,108,107,109,110,111,109,110,112,110,110,109,105,106,111,111,106,107,110,110,110,106,111,110,114,112,114,116,121,124,118,114,117,113,114,110,109,111,108,113,107,109,104,108,110,110,112,109,107,110,112,110,107,106,111,102,110
108,109,113,111,108,107,109,108,105,108,107,108,108,109,111,110,115,112,109,108,111,114,108,114,110,108,112,112,110,114,113,120,123,118,114,120,114,114,108,110,113,107,109,113,114,106,113,113,110,111,107,107,107,108,106,111,107,112,109,113
108,108,111,109,108,107,109,110,108,109,107,111,112,110,111,107,109,108,108,112,110,116,109,111,107,112,113,106,108,111,113,119,121,118,111,119,113,113,113,108,107,111,107,113,111,109,112,110,108,114,110,111,109,113,110,111,107,110,106,108
109,107,115,113,112,112,109,109,109,111,109,110,110,107,110,108,107,110,110,112,109,111,104,107,110,110,105,104,112,112,107,112,117,112,113,115,109,111,111,113,110,113,109,112,111,111,107,109,107,106,106,108,106,110,108,105,111,112,105,108
112,107,113,109,108,107,107,105,107,107,110,111,110,111,110,110,111,110,106,110,111,112,109,112,111,107,110,111,113,112,109,109,112,108,115,112,112,109,104,109,110,112,112,111,108,105,104,111,109,108,110,112,111,113,111,109,109,109,106,109
115,111,112,112,109,107,113,113,115,107,110,110,110,111,109,108,105,108,110,111,110,111,101,104,110,109,109,110,111,108,111,112,113,113,118,112,112,108,110,109,111,108,108,107,106,103,107,112,113,110,110,108,111,114,111,108,107,109,108,110
112,108,106,109,110,106,106,110,110,105,110,109,109,107,109,109,111,110,112,109,109,108,113,110,114,109,105,109,109,109,111,112,108,109,110,109,110,110,110,109,111,109,112,108,108,110,116,111,114,108,112,108,111,110,106,108,108,112,110,110
111,104,112,112,113,110,110,112,106,106,107,107,109,110,114,105,110,109,107,106,112,110,114,110,112,112,112,111,103,110,113,110,107,107,106,110,107,109,111,109,113,111,109,111,111,111,116,107,108,104,109,111,106,107,113,111,110,111,107,111
110,108,110,108,110,111,109,114,111,114,112,107,110,113,110,109,112,109,109,107,110,110,109,110,109,109,108,111,113,111,111,109,107,107,113,114,108,107,110,110,106,112,111,113,112,107,104,102,109,108,109,114,109,112,111,112,109,111,110,113
111,109,111,109,111,109,107,111,105,108,114,113,111,110,108,109,105,105,108,107,109,110,104,108,109,110,112,109,106,105,107,109,109,107,111,109,109,109,110,113,108,115,111,111,110,109,106,110,109,111,110,109,109,116,107,115,112,109,107,108
107,104,105,111,113,111,106,114,110,110,107,105,107,109,108,111,107,112,110,111,110,112,106,111,114,109,108,108,105,112,111,111,110,107,107,106,111,116,111,107,107,109,108,110,106,108,109,110,108,113,106,107,109,113,108,112,107,106,107,107
110,115,108,107,110,114,108,112,109,109,109,108,109,108,107,108,105,112,112,110,108,111,108,110,113,110,109,109,107,112,112,108,107,106,107,107,108,112,109,110,114,111,109,109,106,114,110,110,112,110,101,110,111,108,112,110,108,109,109,111
109,110,109,111,108,106,107,110,108,111,113,108,107,107,115,110,111,112,111,110,109,112,110,111,111,108,112,106,110,111,112,107,106,110,111,108,109,112,109,108,109,108,110,108,107,111,110,114,112,108,107,113,112,109,110,106,111,111,105,106
110,106,108,107,105,106,106,109,108,108,109,110,110,110,111,107,116,110,109,110,111,114,110,109,102,104,110,106,109,110,104,106,109,113,110,106,109,109,105,105,109,112,109,107,107,112,110,110,109,108,108,114,114,116,107,105,110,110,110,108
109,107,113,111,106,111,108,109,115,109,111,112,108,110,114,107,109,110,110,108,109,110,109,107,109,106,106,109,110,111,108,110,111,110,111,107,107,111,109,111,105,106,111,108,108,111,110,110,113,112,106,108,104,106,103,112,111,109,109,108
106,108,111,108,103,112,112,109,115,108,106,110,112,108,108,103,107,112,111,111,111,105,107,108,112,109,110,110,107,110,111,112,114,108,109,109,110,115,103,112,112,108,109,109,110,108,111,108,108,110,111,112,116,110,107,110,106,110,110,108
111,110,107,111,110,111,107,109,107,110,110,107,108,110,108,108,108,110,108,110,107,107,114,113,112,108,109,107,107,109,110,112,112,106,109,107,111,114,107,111,113,108,107,113,108,104,111,109,107,107,107,101,109,108,108,111,108,110,114,107
115,111,111,115,110,110,108,107,105,113,111,106,111,112,109,109,107,113,107,107,103,104,108,104,108,106,107,106,108,110,112,106,109,103,109,112,107,107,106,105,109,107,105,111,108,107,110,113,110,109,110,110,114,108,104,108,109,109,112,109
112,110,110,109,107,110,112,106,109,112,109,109,112,110,112,113,107,111,105,109,108,110,110,109,111,107,112,112,108,108,111,108,109,105,112,117,110,108,107,106,107,114,110,113,110,114,111,111,110,109,109,110,108,108,110,113,110,108,109,107
110,103,107,110,108,106,112,110,108,107,107,108,108,109,108,106,106,110,112,111,106,108,113,111,112,107,111,110,105,106,111,105,108,107,110,105,107,108,106,110,107,112,111,110,108,112,107,109,109,108,109,112,108,105,109,110,108,111,114,111
111,106,110,109,107,111,108,109,108,111,110,109,110,112,111,106,110,107,112,108,105,108,110,112,110,106,111,110,106,108,115,107,112,107,115,111,108,113,109,110,111,112,108,110,106,106,111,110,110,112,112,109,109,108,110,107,106,109,110,107
104,110,110,109,105,112,109,108,107,108,109,111,110,111,114,108,113,109,110,106,105,107,106,106,108,110,108,108,108,108,111,105,107,109,111,109,106,109,108,109,111,111,107,108,106,107,111,109,107,109,106,110,108,108,112,111,116,109,110,110
113,112,105,103,105,113,112,109,107,107,109,109,107,109,106,108,104,106,109,107,111,110,111,109,109,110,110,107,109,108,108,112,108,106,108,107,112,109,111,109,109,111,110,109,111,105,102,111,109,109,107,115,112,108,107,106,110,108,108,108
110,105,107,108,113,111,109,110,110,109,107,105,107,111,107,110,106,109,112,108,110,106,103,108,109,109,109,105,106,108,109,110,102,106,105,104,109,109,106,110,111,111,112,107,106,109,111,112,112,109,110,113,107,108,107,111,108,109,110,107
113,109,108,108,111,109,108,109,108,106,106,112,107,104,109,110,111,107,110,106,109,107,110,111,110,107,106,109,111,109,110,111,108,112,111,114,108,112,108,108,106,109,109,113,112,111,111,109,111,107,107,108,110,112,109,114,106,108,110,109
109,111,108,107,107,111,109,107,112,112,108,112,110,109,112,107,109,109,105,105,110,106,113,111,111,110,109,108,109,113,114,106,110,109,108,106,106,114,107,109,104,113,108,105,110,109,111,109,107,110,110,109,109,108,108,110,108,107,106,111
108,112,108,109,106,108,111,109,111,106,108,113,109,108,111,109,105,109,107,106,106,108,108,103,107,111,114,111,107,111,110,105,112,106,106,109,109,111,106,110,108,113,108,111,113,112,110,109,107,113,111,107,108,111,110,109,110,109,106,113
103,110,108,113,108,108,110,104,110,110,110,110,107,107,109,107,109,112,111,109,108,111,109,103,114,112,108,108,110,112,109,108,107,108,111,112,105,113,110,113,112,109,107,111,107,106,108,108,108,112,110,112,110,110,108,105,109,106,105,115
109,113,105,111,110,109,111,108,107,112,113,109,115,110,112,109,106,109,111,110,111,109,109,107,109,109,110,110,109,111,107,106,108,110,106,108,107,114,105,105,107,111,105,108,107,109,112,112,109,114,108,109,106,110,109,107,109,107,107,111
107,111,105,110,112,108,108,113,111,110,110,107,112,108,110,107,110,108,110,106,106,108,116,111,107,111,111,108,107,109,111,113,111,113,110,109,108,110,106,111,112,108,103,112,110,113,111,110,108,112,109,110,107,113,107,105,111,109,107,110
