106,103,110,115,106,109,109,112,107,112,106,107,108,112,105,109,109,106,106,109,109,109,105,116,110,109,110,108,107,109,108,107,114,108,106,108,108,109,109,109,115,103,107,108,104,116,106,108,110,105,107,107,107,110,114,109,109,108,112,106
107,106,111,108,110,106,106,108,108,109,105,108,111,111,106,107,112,113,106,106,108,108,103,109,110,106,106,107,107,107,113,108,104,116,103,111,112,110,111,112,107,110,106,112,107,109,110,107,104,112,106,107,106,110,106,104,109,111,111,109
106,111,106,109,107,110,104,117,109,108,107,108,108,109,105,111,106,108,111,106,107,107,111,110,108,106,108,110,113,104,103,109,110,106,105,108,111,109,108,108,108,108,107,107,111,108,111,108,113,112,105,109,106,111,107,108,108,108,103,113
111,104,109,110,109,109,114,113,106,110,108,110,107,112,107,106,109,106,113,106,105,111,107,109,108,103,107,107,108,106,113,105,110,108,110,107,107,108,110,109,109,108,108,108,111,106,111,110,105,110,111,110,109,106,109,112,107,109,107,113
107,107,110,103,113,109,107,110,108,109,104,107,107,114,106,108,108,112,107,105,108,105,112,108,106,109,109,107,105,108,109,110,107,109,109,109,107,106,110,108,110,110,109,112,107,107,114,109,110,108,110,103,108,108,112,110,106,113,114,107
103,109,108,109,108,109,110,105,109,107,108,109,114,107,110,107,110,105,109,112,111,106,110,109,104,107,107,108,109,112,110,108,109,105,109,108,108,112,111,112,112,107,105,111,106,107,106,110,106,105,110,105,114,105,111,108,108,107,107,105
106,114,102,111,104,111,113,106,109,108,109,113,106,111,108,112,108,105,102,111,104,112,109,104,111,108,109,107,108,112,109,112,108,110,112,110,107,110,105,107,112,108,109,107,111,108,103,109,111,109,109,103,109,111,110,108,108,109,108,112
106,108,110,114,108,109,106,108,107,110,109,111,103,112,106,112,103,111,110,107,110,104,108,113,106,109,112,111,110,105,109,111,108,110,105,103,111,112,105,114,107,111,103,105,112,108,111,108,108,109,110,109,115,109,108,109,112,108,104,108
106,113,109,107,111,108,109,106,111,104,108,107,107,115,107,109,106,112,109,109,112,111,105,105,108,108,112,112,103,108,106,111,112,106,110,105,106,108,108,110,108,112,109,109,113,111,110,109,110,110,111,103,111,107,105,110,104,111,106,113
104,108,107,107,109,109,109,111,106,110,106,105,111,108,105,111,108,106,107,105,104,108,107,111,110,109,105,105,106,110,111,108,106,105,110,106,110,112,114,106,107,108,104,102,112,110,107,105,109,109,107,108,107,107,111,109,112,109,110,111
107,103,110,109,106,112,104,107,108,109,108,108,110,105,108,105,111,110,104,109,110,111,104,109,111,105,113,104,112,109,108,114,111,111,109,109,105,108,112,107,112,102,112,111,107,110,112,108,109,110,109,105,104,110,111,109,109,109,110,103
108,110,110,108,107,111,107,106,108,110,108,106,109,111,108,102,111,110,106,116,108,103,113,113,105,107,110,107,102,113,110,105,106,108,110,106,112,108,106,105,110,109,107,108,109,108,102,108,106,107,111,106,110,110,112,109,106,110,107,105
109,107,113,105,108,112,106,110,112,109,108,107,108,106,109,110,106,109,103,113,105,104,107,111,111,109,108,110,105,114,104,114,111,107,110,115,103,107,108,115,109,107,111,112,105,107,109,115,107,110,108,111,106,107,112,110,111,112,107,108
103,110,114,104,111,103,109,105,110,104,108,113,107,110,112,108,110,108,106,108,110,102,111,110,113,110,102,116,106,107,105,108,106,110,110,112,110,107,113,110,105,107,111,105,110,111,107,109,110,106,113,107,103,111,108,107,107,111,107,108
109,106,108,111,106,108,108,112,107,106,108,105,112,111,104,106,112,111,110,109,112,108,107,109,112,107,112,111,107,109,104,110,110,108,114,107,109,108,108,104,111,110,112,108,106,107,110,108,107,109,107,107,109,104,108,114,106,105,106,112
106,108,114,109,105,108,106,109,109,106,111,108,107,112,109,108,106,110,109,108,108,106,110,112,113,108,108,108,109,111,113,105,108,107,107,113,110,111,109,107,104,107,111,112,104,110,109,109,108,107,111,106,109,110,104,109,112,107,108,111
112,108,109,107,109,111,111,104,102,110,109,109,107,104,108,108,107,108,110,106,110,108,107,109,105,109,108,113,110,107,110,110,105,112,109,106,109,112,108,105,110,110,107,112,104,104,112,109,108,104,108,103,107,106,110,107,109,108,112,106
108,107,107,106,111,109,108,110,110,102,108,108,108,105,112,109,111,108,112,102,111,107,109,103,113,110,106,107,113,103,109,110,110,110,108,109,106,112,106,109,106,112,111,112,109,109,109,111,111,105,112,108,104,109,107,106,105,110,111,104
111,104,111,107,112,109,112,109,107,106,112,110,109,104,115,103,103,113,108,109,108,104,110,111,111,107,108,109,111,103,110,104,111,108,112,109,113,105,110,107,112,109,110,106,111,107,103,113,107,109,109,106,108,110,106,108,108,108,110,109
111,106,104,110,104,109,111,106,107,105,105,106,105,112,107,107,103,106,112,107,109,112,107,108,110,106,110,109,112,106,112,108,106,108,109,105,110,108,106,112,109,110,107,105,112,107,111,112,110,110,110,105,107,108,109,109,106,110,109,108
108,105,107,108,107,109,104,112,108,108,107,112,112,107,106,111,109,108,114,103,105,105,109,110,105,105,112,106,114,109,108,108,108,110,108,112,108,107,109,107,113,111,106,109,111,110,109,105,110,106,110,113,112,107,106,112,109,111,109,110
107,108,104,110,108,110,110,106,111,108,109,107,104,107,113,104,107,108,110,108,108,108,109,110,111,107,110,108,111,114,112,110,113,105,109,105,113,110,104,111,108,109,109,103,106,110,107,108,108,103,107,113,109,113,108,105,111,106,111,109
106,107,109,110,106,105,103,110,110,108,106,109,110,106,111,104,106,107,112,103,114,110,108,112,107,109,110,111,110,108,111,109,110,110,106,112,104,112,111,104,106,107,109,103,111,112,106,105,106,114,109,106,112,107,105,111,113,106,108,104
109,107,110,112,112,111,108,107,111,108,106,113,104,107,102,109,109,112,111,106,111,107,107,108,112,110,113,113,112,106,109,110,113,110,108,108,108,107,109,107,109,113,110,111,108,106,107,106,111,113,108,109,105,106,105,113,107,106,110,109
108,115,107,106,102,107,111,104,110,113,107,107,107,109,111,106,107,108,107,111,109,112,110,110,108,107,111,111,110,115,110,115,106,111,116,110,116,104,112,113,107,107,106,110,114,105,106,116,108,111,105,108,109,106,109,112,104,103,110,108
103,105,109,107,111,107,102,112,108,109,109,106,106,112,107,109,111,107,104,107,110,110,111,112,113,113,111,110,111,122,123,115,113,113,106,115,105,109,108,113,108,106,108,115,111,109,111,107,103,103,112,107,108,111,106,110,104,110,107,108
110,103,107,110,110,106,110,105,111,107,108,107,108,111,107,108,110,109,109,107,113,110,113,109,106,112,108,119,125,128,125,120,121,117,106,111,110,109,108,113,108,107,106,106,111,106,106,108,108,107,109,107,111,109,107,112,107,110,106,104
108,108,108,109,106,110,109,104,111,108,110,116,105,108,109,110,107,108,110,109,113,107,106,111,107,111,114,122,123,125,130,123,119,117,111,110,107,113,101,112,109,112,110,110,110,107,113,107,111,106,109,112,110,109,106,106,111,104,114,107
112,111,109,110,104,108,108,114,113,105,108,108,104,109,107,114,106,106,107,112,107,106,111,114,110,118,114,115,123,127,126,130,125,115,115,115,117,109,113,113,106,109,104,113,108,112,109,108,109,109,109,109,107,109,110,107,110,108,107,113
105,111,109,107,106,107,105,110,109,109,104,113,108,108,109,106,115,110,105,109,108,111,111,110,116,113,115,124,120,130,128,127,122,117,116,112,113,111,110,108,107,115,107,110,115,109,107,108,106,110,108,106,110,112,108,112,104,104,113,110
102,110,111,110,111,112,112,111,103,112,108,111,111,109,111,106,110,113,107,108,111,116,111,108,115,114,118,117,130,131,129,128,123,122,111,114,112,114,113,111,104,110,103,115,109,112,106,109,111,111,106,113,107,104,111,114,108,109,104,106
107,110,108,106,110,110,111,108,111,108,110,107,101,116,108,105,109,109,109,104,114,108,115,107,109,117,115,124,123,129,130,128,126,117,120,116,109,113,110,106,112,106,106,111,107,109,103,109,111,107,111,110,109,111,108,104,106,111,114,109
107,108,110,106,112,109,109,109,108,111,106,115,109,105,108,113,104,111,107,110,115,107,112,116,112,117,112,118,125,132,135,125,127,119,112,116,112,113,107,109,113,111,110,103,114,112,113,110,106,113,109,113,112,103,106,110,106,109,107,110
115,110,105,111,108,113,106,109,111,106,109,112,112,109,106,112,105,110,107,112,110,114,109,113,107,115,115,118,136,134,132,127,129,121,117,108,114,108,111,110,113,104,112,109,105,108,112,106,111,105,117,106,104,111,108,105,116,105,108,110
110,107,109,110,106,110,110,107,108,108,107,108,110,105,107,107,110,114,111,105,112,107,114,107,111,113,114,127,130,130,130,134,133,123,121,117,115,111,109,114,108,110,112,105,110,110,106,108,112,107,111,109,109,112,110,111,106,106,111,109
110,106,119,107,108,111,104,107,105,109,107,109,109,106,108,109,114,107,111,108,109,111,113,112,103,114,118,126,125,129,136,131,127,126,120,115,117,109,112,106,108,114,108,111,104,106,111,110,109,104,108,108,110,107,116,108,107,112,108,104
110,109,102,110,111,106,105,108,110,111,108,106,110,110,106,111,113,112,108,105,112,110,111,111,111,112,122,126,126,132,134,134,131,128,118,114,112,111,114,113,110,105,110,102,113,111,115,107,108,112,108,107,114,104,110,104,113,113,108,110
112,106,105,109,106,109,106,108,109,107,107,103,112,111,106,109,113,110,106,109,114,111,112,109,111,112,118,124,131,136,135,136,132,124,124,117,111,110,106,114,110,107,110,104,102,108,113,111,106,112,109,109,105,115,106,107,109,108,109,112
103,109,108,109,108,103,111,110,110,109,108,109,109,114,110,108,107,109,116,110,109,111,108,113,110,111,115,132,136,133,138,143,133,127,116,114,114,115,107,110,113,110,111,102,107,108,108,106,108,108,111,107,109,106,109,105,111,108,108,111
112,107,109,109,108,110,108,110,108,107,110,114,105,110,107,106,108,113,111,114,111,113,112,113,113,116,114,122,132,135,127,137,137,124,122,113,115,111,109,111,108,108,107,109,111,109,110,103,109,104,110,109,112,103,112,108,110,107,107,110
109,105,108,110,103,108,114,109,108,103,108,109,110,108,108,108,114,108,103,114,112,110,115,112,113,113,114,128,131,134,134,136,134,124,119,116,114,114,107,111,107,111,111,114,105,107,112,108,108,107,104,110,108,108,113,108,114,106,108,108
108,106,106,115,107,110,109,111,111,107,110,109,111,107,106,108,107,113,110,111,109,113,111,112,115,112,115,123,140,133,151,135,133,130,121,118,112,108,114,113,107,104,108,101,110,107,108,112,104,112,106,104,105,111,109,104,108,102,110,111
108,112,110,111,107,105,113,107,109,103,110,111,110,110,108,107,115,113,109,108,113,108,110,109,119,111,115,126,132,143,144,139,137,133,121,118,112,104,110,112,107,110,111,108,105,111,110,107,108,110,109,112,106,106,107,107,110,111,107,105
110,104,106,109,111,108,112,105,109,109,109,105,109,106,113,111,107,111,107,109,110,111,114,112,118,120,119,132,135,134,145,136,141,133,121,111,118,114,110,107,106,112,106,116,104,112,108,107,109,110,110,110,108,107,106,113,104,110,106,108
106,105,110,109,112,107,107,109,104,113,104,102,112,108,115,103,107,112,108,111,109,112,114,109,110,118,120,133,141,142,142,141,133,131,121,123,118,113,110,111,109,112,112,107,110,103,112,109,105,102,106,107,108,103,107,106,108,113,106,111
107,111,110,103,112,106,106,108,111,111,107,110,114,105,109,111,105,112,108,110,114,109,108,120,115,117,121,130,143,142,148,144,139,134,127,126,116,114,113,104,114,106,112,107,112,115,108,102,108,108,104,106,109,105,110,106,110,108,108,108
109,111,108,106,106,107,110,107,106,109,110,110,107,113,109,108,114,104,112,109,112,110,110,107,119,115,121,134,138,147,150,152,146,142,128,122,112,114,110,105,108,105,114,106,109,108,113,111,106,108,108,113,103,113,104,110,107,104,110,107
106,103,107,108,109,105,115,106,108,109,104,115,106,110,111,108,108,108,106,110,110,115,112,112,117,116,118,134,142,144,144,147,151,143,133,126,116,116,112,114,112,115,108,112,109,109,110,110,106,105,110,109,110,110,103,113,108,109,106,112
107,106,106,105,107,108,110,112,107,109,110,109,109,108,110,106,106,111,112,108,110,112,108,116,120,129,130,133,147,149,139,145,153,160,137,122,118,119,112,111,109,109,106,111,106,113,106,112,111,105,108,106,104,111,114,104,115,104,107,107
105,109,112,106,104,113,112,111,109,112,107,109,109,105,110,106,108,109,116,111,113,111,110,115,114,119,136,151,150,155,162,151,157,153,139,128,112,112,115,108,112,113,111,108,110,114,108,111,103,110,106,112,108,106,110,109,107,106,110,110
111,103,111,104,110,107,104,111,111,106,104,108,106,112,113,113,107,106,110,109,112,111,107,119,116,125,136,177,171,169,169,160,155,150,139,123,116,117,114,112,111,105,108,111,105,107,106,102,109,106,111,105,104,108,107,106,108,106,107,111
110,106,110,106,107,109,109,112,113,108,112,109,111,109,107,112,109,107,113,109,116,114,108,114,115,123,130,169,199,179,181,164,148,139,125,121,118,115,109,111,110,103,110,114,107,108,107,102,111,104,107,113,105,108,104,110,107,107,111,104
115,108,110,106,112,107,109,108,110,109,109,105,106,110,109,114,111,109,113,106,113,112,114,115,113,119,138,143,165,173,165,163,143,132,121,116,116,115,112,114,109,110,107,109,109,110,109,110,105,113,107,113,108,106,108,108,110,108,107,109
110,105,111,110,109,108,108,109,108,111,110,108,108,113,110,107,108,108,111,116,112,109,109,113,116,122,124,133,149,155,157,155,145,129,120,118,119,112,110,110,109,111,109,110,102,110,111,106,116,100,112,111,110,104,110,114,110,109,105,106
111,110,107,106,105,115,110,110,110,109,105,105,114,108,111,110,108,106,111,114,106,108,114,112,116,115,126,132,139,143,144,146,141,134,118,117,113,110,115,105,108,112,108,110,108,110,111,107,108,103,106,106,112,110,108,111,104,112,112,106
111,107,111,106,108,109,106,114,103,108,109,112,111,115,110,112,108,108,107,108,111,113,116,111,114,118,126,126,135,139,142,140,140,131,118,116,115,110,112,110,107,109,112,107,109,109,109,111,106,108,107,111,110,102,109,107,106,108,112,109
110,111,109,107,111,105,111,109,109,106,108,110,108,111,114,110,107,100,115,107,111,114,106,111,110,117,124,126,131,140,141,139,137,129,121,119,112,114,108,113,110,105,105,112,105,106,111,105,108,113,100,113,104,111,110,110,105,102,111,107
110,105,102,112,114,103,107,112,114,103,110,110,107,103,110,108,109,110,114,116,104,109,113,114,111,115,123,127,130,136,150,130,137,125,112,115,112,107,110,105,112,109,108,111,111,112,110,104,108,107,108,110,106,110,103,102,111,107,106,109
111,107,106,105,109,110,109,107,108,106,110,110,112,105,111,113,107,110,112,108,111,113,111,116,112,114,122,125,126,141,134,135,133,123,120,114,110,111,109,108,114,107,110,108,105,108,105,107,112,106,106,110,109,111,108,113,105,107,111,107
104,111,112,109,110,113,102,108,113,104,103,107,107,107,107,108,111,107,106,114,111,107,110,117,112,119,124,132,127,135,140,132,125,120,114,110,113,111,111,105,108,109,109,109,104,108,106,103,114,107,110,105,106,108,109,109,106,107,107,106
106,109,109,109,112,107,106,103,109,109,106,108,110,109,107,113,108,109,106,106,107,113,115,112,109,114,123,129,140,131,133,132,122,120,115,113,110,112,114,112,108,110,113,107,109,106,109,115,110,105,106,110,114,108,104,110,111,110,114,104
108,106,103,111,108,107,108,107,107,109,116,108,106,110,105,107,109,110,110,111,110,112,118,112,115,121,117,134,128,132,127,132,124,115,121,107,112,114,111,111,108,104,110,103,108,107,109,112,108,108,108,107,106,104,108,111,106,107,110,110
108,108,109,109,109,109,108,107,107,109,112,103,109,104,110,111,108,109,110,113,109,109,113,111,114,117,126,130,138,132,130,131,122,121,113,112,115,108,108,114,105,111,108,110,106,108,111,112,104,104,112,108,106,109,103,110,107,110,110,109
106,106,110,107,110,105,111,108,107,107,113,105,110,106,110,107,113,110,106,111,108,114,111,113,110,121,121,130,135,131,127,131,124,122,118,109,112,106,108,111,113,108,109,104,109,113,113,101,109,103,107,106,110,106,104,104,110,111,107,110
104,105,113,107,111,103,106,111,107,102,108,109,108,113,109,107,110,111,109,110,112,114,110,111,118,120,127,131,137,135,131,125,121,120,110,116,113,107,110,113,111,109,104,112,110,109,108,109,106,114,106,108,105,104,107,107,108,110,108,112
110,109,110,108,106,110,109,111,107,106,110,110,105,110,104,105,115,105,109,110,111,110,114,106,111,118,131,133,136,132,132,124,121,111,112,110,112,112,110,109,108,106,110,110,108,108,103,109,109,110,109,102,112,105,113,109,108,102,107,110
108,112,112,109,109,108,107,106,103,109,106,105,108,110,110,108,106,110,110,113,109,109,114,109,111,118,129,131,132,138,133,125,122,114,108,113,109,110,105,106,109,107,106,108,111,109,107,109,102,107,110,104,107,108,113,111,107,116,106,107
111,108,106,105,102,108,106,105,107,105,102,107,104,109,109,108,108,110,111,109,107,112,114,108,110,121,126,126,136,126,129,122,117,119,113,105,108,109,109,109,103,105,111,106,108,106,108,102,108,105,108,106,108,104,110,109,104,106,109,107
109,111,108,112,105,108,110,105,110,108,108,109,110,111,109,102,111,113,107,108,108,110,107,112,115,120,124,130,136,137,131,124,117,115,111,110,107,110,106,108,111,112,103,111,107,107,107,108,107,110,103,110,112,112,105,103,113,106,111,107
108,113,107,106,105,112,106,103,109,107,101,117,105,111,109,109,111,109,108,108,112,113,110,116,116,120,122,136,127,134,125,126,114,110,111,106,111,110,106,113,110,111,102,106,116,105,110,108,107,108,105,105,111,110,111,102,107,109,110,112
108,114,107,106,113,108,111,106,112,112,106,108,112,110,109,111,107,109,109,115,107,113,110,111,113,114,126,123,130,122,125,119,118,113,110,110,109,106,110,109,109,106,103,113,108,102,108,103,115,110,104,112,110,108,107,112,109,101,110,108
104,112,110,109,106,106,113,104,109,107,105,110,104,113,110,106,111,108,110,110,109,108,114,110,115,116,117,131,127,124,121,118,113,109,111,112,113,110,109,104,108,107,107,107,113,113,107,110,106,108,108,106,107,105,108,108,107,106,112,109
109,109,108,104,115,107,109,104,111,109,106,112,103,108,110,110,108,107,111,112,108,108,110,110,108,111,123,125,124,131,124,114,111,110,115,108,114,101,109,111,108,109,110,108,110,106,112,109,106,108,109,110,110,108,109,108,102,110,112,106
109,103,110,107,106,107,108,110,104,108,107,108,111,106,110,110,104,106,107,109,105,110,110,113,112,117,121,127,118,124,120,112,116,110,110,109,106,108,111,109,107,108,107,110,107,109,113,106,112,108,110,107,110,106,113,103,107,103,103,109
107,114,107,108,110,111,103,104,109,110,102,113,104,106,110,104,108,109,107,109,111,107,110,112,107,114,116,111,109,120,115,115,108,109,111,110,111,107,109,105,111,103,105,107,104,109,108,108,105,108,107,111,102,112,102,112,109,108,106,112
102,108,106,104,111,104,107,107,111,111,104,110,109,105,105,106,110,107,112,106,106,109,106,108,109,107,110,114,110,111,113,111,113,108,112,113,112,107,111,107,109,112,110,107,104,114,106,105,113,108,106,104,106,106,112,108,100,108,108,110
109,106,113,109,112,104,113,109,106,108,114,111,103,107,114,111,108,111,113,109,110,106,112,107,110,106,110,112,107,114,108,113,110,114,107,111,108,106,112,107,104,105,111,111,112,106,109,107,105,110,108,110,108,105,105,109,110,109,106,113
112,104,114,104,110,111,104,110,109,106,106,108,107,107,111,106,106,107,107,112,107,106,110,109,108,109,108,112,110,115,111,107,107,105,110,110,107,104,104,105,107,112,107,108,108,112,106,111,113,105,107,110,110,104,107,110,109,114,110,112
106,109,112,107,108,101,113,110,105,117,108,111,106,105,107,106,111,114,106,107,104,111,112,112,108,110,108,112,108,107,111,110,109,111,106,107,111,110,110,110,110,104,109,108,108,111,108,109,109,116,112,111,114,108,107,110,109,109,108,107
107,110,109,112,105,109,108,108,108,107,111,109,104,110,110,103,107,112,107,109,110,113,110,113,107,107,106,108,107,110,109,105,108,109,108,112,104,107,104,109,107,105,109,111,104,106,105,109,109,109,108,108,106,109,105,108,111,104,105,112
110,109,109,106,107,110,113,111,109,107,106,110,115,110,102,112,102,111,106,109,111,107,107,109,108,108,106,109,105,111,109,110,107,103,112,114,111,110,108,104,114,111,106,109,106,113,111,111,108,107,108,110,108,109,105,114,109,112,107,109
108,110,109,108,105,108,108,112,106,109,101,113,106,108,104,112,110,109,107,112,110,111,105,113,102,110,101,108,110,107,108,105,109,110,108,106,106,107,113,106,103,109,114,107,102,116,107,111,105,106,109,108,109,107,106,107,111,107,109,103
110,107,110,110,110,111,104,110,106,106,111,107,107,113,105,109,104,106,108,107,104,109,107,109,106,108,110,111,106,108,109,108,109,106,105,109,102,107,109,104,108,104,108,111,109,109,104,111,103,111,108,104,111,103,110,111,107,110,105,111
108,107,107,107,107,109,107,104,106,111,109,109,103,108,114,107,107,108,107,109,102,113,107,105,111,105,109,109,112,112,108,109,105,109,107,107,108,107,112,110,105,112,107,110,113,113,102,111,108,110,106,106,109,107,110,104,104,109,115,110
109,109,108,109,105,104,108,113,112,112,103,111,110,109,110,105,108,107,108,110,106,109,103,109,106,111,105,108,109,109,110,105,113,109,107,107,115,109,109,107,103,110,110,107,109,106,114,114,108,113,105,109,108,110,108,107,112,109,115,106
104,111,109,104,109,110,104,113,104,107,115,102,103,109,108,115,108,109,108,109,109,111,107,106,105,110,109,108,108,103,108,106,111,104,106,110,113,113,106,104,113,109,110,107,112,108,107,105,110,109,108,105,104,116,111,108,108,104,112,109
112,107,106,111,110,110,108,112,108,111,103,114,108,107,111,108,109,104,110,105,106,108,106,110,107,106,106,112,111,107,112,108,108,111,106,109,109,110,107,110,109,111,105,112,106,106,109,106,106,108,112,110,109,107,107,109,105,108,105,112
99,106,108,109,108,110,109,109,107,108,111,111,110,109,111,108,110,112,104,108,107,114,108,108,104,114,102,112,106,116,106,112,108,107,107,109,110,109,107,106,107,110,111,108,109,112,113,104,108,106,115,107,109,108,104,107,107,107,108,113
107,108,110,108,105,107,112,109,108,104,108,105,105,109,106,110,108,105,113,105,107,106,112,110,114,110,106,109,106,115,109,112,106,108,108,103,111,108,109,109,106,107,110,113,103,111,102,108,106,108,108,112,106,106,108,111,110,111,108,109
111,107,107,110,109,107,108,104,110,106,106,109,103,113,106,111,110,108,106,107,106,107,108,106,111,103,109,103,105,114,108,107,107,106,105,111,103,112,106,112,106,104,111,106,109,112,108,110,111,108,105,112,110,106,107,110,107,107,102,109
108,106,112,109,107,112,108,109,105,109,106,108,108,107,107,110,112,111,108,108,108,116,104,108,106,110,110,109,118,108,103,110,110,111,109,104,106,112,109,112,108,102,111,107,110,105,105,111,110,107,109,110,113,106,112,106,104,108,108,110
100,108,111,114,109,104,106,109,106,109,106,106,109,108,107,109,110,107,109,106,112,103,107,102,112,106,107,112,107,110,107,109,111,112,108,104,109,106,111,108,107,111,109,107,107,104,109,105,110,106,108,109,107,108,110,107,103,104,107,110
109,113,105,108,108,113,111,111,110,106,106,107,105,106,108,106,109,109,106,107,110,107,109,108,106,113,110,106,108,104,109,112,108,107,104,110,106,108,107,105,110,103,108,106,110,109,113,107,105,112,109,108,109,110,113,102,110,110,106,109
109,112,109,103,113,109,110,106,106,107,108,109,108,110,106,107,112,109,103,111,114,113,109,105,108,102,106,111,107,108,112,113,106,107,104,106,105,108,110,103,107,107,107,108,110,109,108,110,102,111,108,109,104,108,109,112,104,108,109,107
112,105,109,110,111,110,106,113,115,105,108,108,112,109,105,105,110,108,110,106,110,104,106,104,108,107,112,111,109,108,110,102,111,106,104,109,114,109,112,107,106,106,109,109,106,111,102,110,108,109,109,107,110,112,105,108,109,107,107,110
112,107,110,108,104,110,107,110,108,109,107,104,110,105,107,106,102,110,109,109,107,112,107,107,109,110,105,111,107,106,112,108,107,110,105,107,108,109,106,101,112,110,110,109,112,105,111,104,109,104,107,109,106,109,108,110,107,113,116,110
108,109,108,111,111,109,105,108,109,105,108,112,105,104,113,113,107,110,108,108,110,104,106,107,109,109,109,108,114,104,111,106,107,110,104,111,104,109,109,106,111,112,111,109,104,109,108,110,106,105,108,110,111,114,111,103,105,107,110,102
106,107,113,106,105,103,109,111,113,107,104,108,107,103,110,104,104,110,110,111,111,110,106,107,108,108,108,101,112,110,104,110,109,110,108,110,113,107,106,113,108,109,107,108,104,108,111,109,108,109,111,108,108,107,106,107,113,112,110,106
109,106,104,114,108,108,112,108,104,112,107,108,108,107,111,104,108,112,110,108,106,110,109,113,105,104,109,106,109,104,112,110,107,107,111,112,108,112,102,110,110,103,109,107,106,108,113,105,109,109,103,109,106,108,113,108,106,104,110,111
109,106,107,107,108,106,112,109,107,109,110,109,107,112,109,107,108,106,109,109,112,109,109,104,106,111,106,111,109,109,108,110,111,105,107,109,109,105,110,112,110,112,105,112,111,106,107,104,112,106,107,112,106,108,105,110,111,107,107,110
