35,52,69
111,107,108,110,108,111,112,107,110,106,112,112,112,109,113,114,114,114,111,113,113,112,113,110,109,109,109,114,114,111,112,111,113,114,111,110,114,111,114,113,110,111,109,111,113,110,109,111,113,108,113,111,108,111,116,113,111,109,109,112
116,112,111,113,108,114,113,108,111,107,110,112,112,110,109,111,105,111,110,110,110,109,111,110,112,108,107,115,109,111,114,113,105,104,109,112,112,111,113,109,109,113,108,113,114,110,112,112,114,109,114,112,110,114,115,111,106,111,109,111
112,109,108,112,113,112,111,111,116,112,110,114,112,114,110,113,112,115,110,115,113,112,114,113,112,109,109,113,110,111,113,112,111,113,113,113,109,110,112,112,115,114,107,111,111,110,110,111,111,107,111,111,113,111,113,112,114,114,109,108
111,109,112,113,112,109,113,110,114,113,110,113,110,111,112,111,108,115,107,109,108,111,111,110,109,110,112,111,111,108,112,110,110,109,109,110,112,113,112,109,114,114,109,111,110,114,111,112,109,105,109,108,111,108,114,108,110,107,111,111
111,109,112,112,115,114,110,110,109,114,107,107,110,107,107,113,108,114,109,111,112,115,112,110,108,108,110,109,111,109,112,104,108,110,113,113,111,108,110,114,110,110,110,112,108,109,109,111,108,109,115,110,110,107,110,109,115,110,110,108
113,111,112,103,108,113,113,118,111,116,111,110,113,113,113,111,109,114,111,111,111,112,111,112,114,108,108,112,112,109,113,107,110,110,112,111,109,108,111,112,108,112,112,114,113,110,110,111,108,109,110,110,113,115,113,109,115,113,115,115
112,109,114,108,114,118,112,106,107,115,111,109,110,105,108,112,107,110,110,115,113,110,112,110,114,111,109,111,108,107,113,110,110,115,115,115,113,112,114,111,110,113,111,114,115,111,111,111,111,112,113,116,111,111,113,107,114,110,111,109
112,108,113,112,112,111,110,111,112,112,113,111,115,114,111,117,113,114,112,114,111,111,112,109,110,111,111,111,111,113,112,111,110,111,108,112,113,113,113,113,108,110,111,111,111,110,113,110,110,112,113,114,111,110,111,107,114,110,114,111
110,111,113,114,113,111,109,111,110,108,111,111,108,112,109,108,108,110,111,110,111,110,111,111,113,110,110,114,108,112,112,115,112,110,109,110,111,110,109,111,110,113,110,113,111,113,109,109,112,112,112,112,111,108,109,108,115,110,112,109
113,113,112,110,110,111,111,110,115,116,108,112,110,113,111,113,109,109,110,109,112,111,109,112,114,111,111,114,110,110,109,109,109,114,113,112,114,109,114,113,110,110,106,110,112,115,109,113,114,113,113,113,111,106,110,113,112,111,116,111
115,113,110,107,108,114,115,113,110,108,109,115,113,114,114,116,109,114,113,111,111,115,111,111,111,111,111,112,115,115,113,108,112,112,108,114,116,112,116,113,111,110,113,114,112,112,107,115,112,113,110,111,111,108,115,114,110,113,114,110
112,111,108,108,106,106,108,108,104,112,116,115,111,110,109,113,109,111,111,112,115,113,109,112,116,115,112,110,111,109,114,112,113,111,108,114,112,113,111,111,113,110,113,111,108,106,103,109,109,112,110,110,106,109,111,111,110,111,111,110
113,112,110,116,109,111,113,111,112,113,111,110,111,111,113,110,110,111,108,112,114,108,111,111,110,114,113,111,112,110,110,108,110,115,109,117,113,110,109,111,110,107,112,111,110,112,112,111,112,112,112,114,108,114,112,111,110,111,109,108
111,109,110,113,109,116,115,110,113,111,111,112,114,110,112,112,113,109,108,111,111,111,107,112,114,114,110,106,112,113,111,109,113,113,108,116,114,111,114,115,111,112,117,112,111,110,112,111,111,109,110,112,106,110,111,106,110,114,112,111
110,108,111,114,112,109,112,115,111,112,109,110,111,109,112,113,109,110,112,109,109,114,110,113,110,114,113,109,117,113,111,115,112,111,113,114,114,112,113,114,111,114,112,111,109,105,111,111,113,112,111,111,110,113,116,110,114,111,111,110
110,110,107,111,110,110,114,114,113,113,109,112,107,104,110,112,111,111,111,111,112,114,111,113,107,116,113,112,117,108,108,112,107,115,113,110,109,113,113,115,111,109,109,112,110,110,116,111,114,113,112,112,115,108,110,105,112,113,116,113
110,113,107,111,110,108,110,110,111,104,109,114,113,113,114,114,114,106,107,107,111,112,109,112,109,111,110,112,115,117,120,118,111,118,113,112,112,117,111,112,110,108,112,112,107,110,114,107,112,111,111,109,113,112,115,107,105,108,112,110
110,111,108,114,114,113,111,107,116,115,110,109,109,110,110,111,116,111,114,106,111,112,111,110,112,110,109,113,113,115,117,114,115,121,116,111,109,114,111,112,113,114,114,110,106,113,111,107,113,111,111,109,110,110,113,110,109,111,114,111
112,111,108,109,106,108,108,109,112,114,112,112,108,108,108,110,111,110,117,110,111,111,112,112,113,109,113,118,115,115,117,115,116,115,113,112,110,116,112,113,115,112,109,109,112,108,108,106,108,107,109,110,107,109,115,113,111,111,116,110
112,114,114,116,111,112,112,112,116,110,112,114,108,108,118,114,111,112,115,109,109,116,116,112,111,115,118,120,115,113,111,114,114,118,115,114,114,116,110,111,115,112,110,113,113,108,114,114,113,112,113,113,114,115,118,110,111,111,115,111
108,111,110,107,104,107,111,108,113,109,110,112,111,108,116,111,113,111,113,108,109,113,112,108,112,113,113,114,114,116,115,119,117,122,121,114,113,117,114,115,115,110,112,111,113,110,109,110,111,113,111,110,111,111,111,108,112,111,116,110
113,114,112,111,113,111,114,112,113,111,114,110,111,109,112,113,109,108,113,111,116,113,113,114,117,112,116,114,117,119,122,122,118,116,121,115,113,117,118,114,112,114,116,112,112,117,114,115,113,112,112,112,108,107,110,116,113,110,116,111
107,108,107,107,113,109,114,113,109,110,113,115,113,111,109,111,109,115,114,114,118,112,112,112,117,115,117,113,122,118,119,117,120,122,125,120,123,118,118,115,112,114,112,112,112,113,109,111,112,111,113,109,110,109,109,110,113,111,111,114
112,116,111,112,117,109,112,114,112,111,112,112,108,113,113,112,109,115,110,112,110,114,115,115,116,119,122,123,124,118,119,117,122,124,120,116,118,115,117,113,111,113,111,110,111,110,109,109,112,109,109,109,116,112,112,113,115,109,107,110
109,110,108,112,111,110,111,111,113,111,114,113,110,110,112,110,109,115,115,116,111,114,110,115,118,120,124,122,127,123,122,124,127,126,120,120,121,122,123,119,115,110,111,109,112,113,115,111,114,110,113,110,109,106,116,117,113,113,112,111
114,111,112,114,111,115,113,106,113,109,105,112,111,108,114,112,115,111,112,110,111,112,110,112,118,120,118,116,125,124,123,126,120,121,124,127,118,120,121,117,116,115,115,108,111,109,116,115,112,108,114,114,110,110,119,116,113,110,111,112
110,107,111,114,115,110,112,110,113,111,110,116,111,112,115,105,110,110,113,112,114,115,115,118,121,121,116,124,121,120,122,125,119,122,123,120,119,119,118,118,114,113,110,110,115,108,113,114,112,109,112,112,106,112,114,112,114,109,109,110
102,108,114,109,115,112,110,112,112,114,113,114,111,110,111,112,113,110,108,112,114,113,109,114,117,123,120,124,121,122,123,125,121,125,115,115,120,117,117,116,111,114,111,110,114,105,110,113,111,107,112,115,114,117,113,111,114,111,110,110
107,112,115,107,109,110,109,110,112,116,113,111,111,112,110,113,117,117,112,112,111,113,114,121,119,124,121,123,122,126,124,123,118,124,121,122,124,121,117,117,117,118,114,111,114,112,115,113,115,110,115,116,111,110,108,112,112,113,112,110
111,112,113,107,112,115,113,107,110,113,112,114,115,114,110,109,110,109,108,110,114,118,119,123,118,121,120,123,121,124,119,117,118,122,121,119,123,124,119,113,117,112,107,112,111,114,112,111,108,105,113,109,109,112,110,112,110,116,111,111
109,110,115,109,113,110,112,108,115,115,109,107,108,112,113,112,110,108,113,111,114,116,113,117,121,124,126,125,121,123,116,121,119,125,124,120,120,122,117,114,118,110,111,114,108,114,111,114,116,117,111,104,110,114,110,110,109,111,107,108
111,109,110,104,112,112,113,108,113,114,110,110,112,114,110,109,112,109,116,115,117,119,115,115,119,113,125,121,117,121,120,123,114,125,125,124,121,124,121,118,117,111,111,113,113,113,106,109,112,109,106,110,110,111,108,108,108,110,109,113
115,116,115,109,112,112,111,107,112,114,113,114,113,112,111,111,115,107,112,112,111,117,117,116,120,123,131,120,120,123,121,122,128,127,125,132,122,118,120,118,115,115,112,115,112,113,112,113,114,111,115,113,110,109,109,111,112,112,107,110
112,106,113,111,109,107,110,110,115,111,110,112,111,114,109,109,114,110,113,111,116,117,118,119,124,124,123,121,122,121,119,119,125,118,125,127,120,114,119,112,111,116,114,114,107,109,107,106,110,108,107,109,113,109,111,109,112,111,112,112
113,110,111,111,109,106,109,107,108,109,113,112,106,111,108,113,116,111,111,109,115,113,115,117,123,121,121,121,120,119,120,118,123,124,131,126,122,118,124,116,118,112,109,112,111,112,116,111,114,109,107,114,116,113,115,109,115,111,112,108
111,114,112,111,111,107,109,111,113,112,111,110,109,116,112,109,112,114,113,114,114,113,119,121,123,122,125,126,122,122,124,124,123,123,125,120,126,126,123,111,117,114,112,114,113,108,110,109,113,111,114,109,108,111,113,108,112,107,108,112
110,111,112,112,111,109,110,107,111,114,114,112,110,112,113,108,113,117,115,114,112,117,127,123,125,123,124,120,121,125,122,120,121,124,125,126,124,119,111,109,114,109,112,114,114,113,111,111,116,112,110,110,109,110,113,111,113,111,107,112
111,115,113,112,110,109,111,110,114,112,110,110,111,109,110,109,112,110,113,116,114,118,122,124,128,127,125,120,124,120,117,119,123,121,123,123,122,125,118,115,114,112,118,116,112,111,113,113,108,110,108,113,111,112,116,114,112,113,109,115
106,113,109,111,111,114,112,110,111,105,110,113,114,111,112,111,114,109,113,115,113,122,122,122,118,122,121,119,124,119,119,123,122,117,124,124,126,119,116,113,115,113,115,113,115,116,110,113,110,113,107,112,110,112,114,112,108,114,111,115
108,110,109,115,111,113,113,110,112,112,117,115,113,113,111,112,117,113,115,112,112,122,119,127,123,128,125,124,118,116,120,124,119,116,123,120,122,116,123,114,116,114,109,110,113,117,110,112,110,112,113,116,112,113,107,110,110,114,109,114
112,114,111,115,112,110,109,109,113,112,113,109,110,113,107,111,109,109,114,117,115,124,119,121,118,121,117,121,118,120,121,121,117,120,121,119,121,118,117,114,120,116,112,115,114,109,110,115,117,113,113,111,112,114,110,112,111,113,106,111
112,112,107,113,110,115,114,112,111,107,115,114,106,106,114,117,111,112,114,114,110,119,118,124,127,125,123,123,121,118,115,115,118,121,121,121,120,122,117,116,111,110,111,116,113,112,117,114,113,111,114,106,110,111,115,112,111,116,111,113
114,109,110,116,110,113,112,112,112,112,113,113,110,113,116,110,108,111,113,115,118,122,117,118,122,120,119,118,120,119,119,116,120,120,121,122,121,122,118,117,116,115,112,114,115,115,111,112,111,109,116,107,112,109,117,113,109,115,114,115
117,111,110,107,112,108,107,113,108,112,104,107,110,115,111,113,113,115,116,113,116,118,122,124,126,122,119,120,121,115,117,115,122,120,120,120,121,121,115,113,111,107,112,114,114,111,111,116,114,113,115,107,112,110,111,110,110,109,112,114
112,107,113,113,113,105,111,116,107,117,113,112,112,112,106,112,111,113,113,111,115,114,119,125,123,121,119,116,116,118,119,115,121,125,121,123,118,118,119,122,116,113,113,111,113,111,111,110,109,110,112,113,109,110,112,109,110,110,115,111
109,113,109,111,111,109,110,112,107,112,115,115,115,113,110,117,112,113,113,115,118,117,117,121,119,117,118,118,121,125,126,118,119,121,117,126,125,118,116,112,111,114,114,110,112,113,111,110,109,109,110,114,112,112,111,108,113,115,114,109
114,111,109,115,115,112,115,115,112,112,114,113,111,111,110,114,110,109,108,116,117,117,118,118,116,115,120,118,121,122,124,120,125,126,125,125,126,126,116,113,116,116,115,115,113,115,115,110,107,112,112,112,114,108,109,108,112,114,113,110
112,109,112,110,108,107,112,117,115,115,114,111,110,113,114,113,112,113,116,115,116,118,116,118,121,121,129,124,124,123,124,116,122,119,122,122,121,118,117,119,117,110,108,112,109,108,111,111,111,112,108,107,115,109,110,110,112,113,110,110
114,110,113,110,112,114,112,109,108,113,110,109,109,107,109,108,114,115,120,116,119,120,118,119,121,118,119,117,118,120,124,114,119,119,123,122,120,114,117,111,111,110,113,115,111,109,111,112,113,112,113,112,116,111,111,113,112,108,108,113
112,111,112,109,112,112,110,109,110,116,112,111,113,111,111,107,112,112,117,114,115,112,117,119,120,121,122,120,124,122,118,120,122,123,120,119,118,122,120,115,115,116,114,114,112,113,113,112,114,115,110,110,111,113,112,108,112,109,113,114
114,112,112,114,114,111,109,113,113,111,110,113,111,110,110,109,115,114,113,110,116,117,115,119,123,121,120,120,124,120,119,124,120,125,126,126,121,117,114,115,117,116,112,112,107,111,110,112,111,110,111,119,111,111,111,106,109,105,111,112
116,105,111,111,112,113,113,114,114,110,108,113,109,111,112,110,114,112,113,114,117,118,118,117,123,120,119,122,121,121,120,122,126,126,123,121,120,120,119,116,112,108,109,115,114,115,111,112,109,107,112,113,109,112,111,112,116,111,108,113
110,109,113,109,111,109,111,114,114,114,113,116,109,114,115,110,111,111,112,111,116,116,122,122,125,124,122,123,119,121,119,118,121,124,122,122,122,123,115,114,115,116,111,115,112,106,113,116,116,113,112,110,110,108,108,110,111,110,110,114
115,114,115,109,108,108,108,114,113,113,109,114,111,115,113,109,114,116,114,113,117,114,118,118,117,127,121,123,120,124,120,122,119,119,124,126,123,124,118,119,111,116,113,112,115,112,117,113,115,116,113,111,113,109,109,109,113,113,110,109
110,108,111,110,113,116,109,111,108,110,109,113,112,113,114,113,114,112,111,115,122,119,122,126,123,127,117,120,121,122,119,126,121,117,124,119,116,120,115,116,111,113,116,112,115,110,110,113,111,113,112,109,113,113,113,112,111,110,110,111
108,115,116,114,113,109,109,115,111,113,113,113,114,116,112,110,113,110,109,111,114,117,122,122,119,121,122,118,117,117,118,122,123,116,124,121,123,127,117,118,115,114,113,111,114,116,115,114,106,109,112,110,111,110,112,112,107,109,113,117
110,114,112,111,116,112,114,110,109,110,111,114,109,115,114,117,116,110,114,117,116,121,118,117,123,123,126,123,122,120,116,118,123,121,125,124,121,121,116,118,112,113,114,118,112,110,113,112,107,113,115,110,111,108,111,112,112,114,108,113
109,111,114,108,114,110,109,112,111,109,112,113,104,113,113,113,112,110,113,118,115,114,121,121,124,126,124,123,121,121,119,122,119,118,120,125,124,123,117,113,115,116,113,114,110,110,114,115,110,111,114,110,110,106,111,114,110,114,106,109
108,112,116,111,112,106,109,115,109,114,116,116,112,116,114,110,111,113,114,117,115,117,122,120,123,125,122,128,122,120,119,118,120,124,124,122,122,121,118,112,113,112,110,113,113,113,111,110,110,109,114,114,114,114,110,113,110,111,109,113
112,111,111,106,108,110,112,112,110,114,105,108,108,108,108,108,111,110,111,117,117,123,120,125,125,122,120,122,116,118,122,121,121,121,122,121,121,121,120,115,115,114,115,112,112,112,115,115,112,108,112,113,108,114,112,109,112,111,111,113
109,109,111,111,110,114,111,111,111,118,111,112,112,113,110,112,114,110,114,117,116,118,121,130,126,125,130,124,122,122,126,127,123,126,122,122,124,124,122,115,113,114,114,105,111,113,111,111,111,110,110,111,114,110,107,108,109,107,110,112
110,110,112,115,106,110,109,112,112,113,112,115,113,114,111,112,114,114,115,113,119,122,119,120,119,119,132,121,121,123,126,123,120,123,119,121,126,119,121,117,115,114,112,109,115,116,107,111,114,114,111,108,112,114,112,112,112,113,112,114
113,112,111,114,112,112,113,114,112,107,110,116,109,111,111,112,109,114,115,111,114,118,119,126,126,126,128,121,122,123,121,120,123,124,123,121,127,114,116,114,114,115,115,112,110,111,107,113,111,111,113,113,111,114,113,111,113,109,104,110
111,113,112,111,108,106,113,114,113,106,110,111,107,113,110,112,109,115,114,113,116,118,120,125,120,127,130,124,123,121,117,116,123,122,125,120,125,118,120,117,114,116,114,110,110,114,116,116,113,112,117,113,112,116,115,111,115,109,107,114
111,110,112,111,112,113,114,111,106,103,111,112,112,115,112,112,111,114,115,116,115,120,119,121,121,126,128,125,127,123,116,116,123,120,124,118,122,119,122,116,113,118,115,110,108,110,107,116,116,113,112,109,106,109,109,110,116,110,108,112
109,114,115,107,111,112,111,113,111,113,117,112,110,112,113,109,111,114,112,113,115,121,118,122,124,127,126,125,127,124,119,120,122,117,121,121,123,118,116,112,111,114,116,113,112,117,110,114,112,112,112,115,107,112,113,113,107,113,113,112
110,113,114,110,113,109,108,113,110,116,114,112,110,111,112,110,115,117,113,113,115,115,120,126,127,134,125,122,125,117,116,121,121,121,125,123,119,119,119,118,116,118,113,112,112,113,108,111,112,112,109,113,113,118,116,111,107,112,108,112
109,111,113,111,109,105,110,111,100,111,113,114,112,113,114,113,116,117,114,113,118,119,123,123,118,128,121,120,124,120,116,124,122,118,123,124,123,123,116,115,113,116,111,119,115,111,109,109,112,112,109,113,113,111,110,109,112,110,110,111
115,114,114,114,113,110,114,114,115,114,112,111,112,112,114,116,111,109,112,113,117,118,121,126,122,127,122,124,123,124,117,120,123,122,124,126,125,124,116,116,115,114,112,116,109,111,109,111,113,106,110,114,112,111,109,109,115,113,113,112
116,113,110,108,111,107,107,108,113,109,110,106,110,110,112,109,110,110,113,115,117,115,122,123,120,123,122,125,124,124,120,125,128,127,122,126,121,121,121,119,117,114,113,114,106,112,111,117,113,106,116,113,114,114,110,109,108,107,108,112
115,106,111,110,111,107,112,112,115,112,112,110,115,111,115,108,110,116,115,114,113,108,115,116,121,125,123,119,122,123,120,124,123,124,116,121,120,118,120,113,114,115,111,112,111,116,114,116,112,104,111,111,113,108,106,112,112,116,111,115
110,114,114,110,111,114,117,112,110,111,111,108,113,110,114,112,110,115,113,112,113,114,122,123,122,121,118,122,124,123,124,119,116,122,124,131,126,119,121,118,115,120,114,115,116,111,108,111,112,110,114,113,113,110,110,117,115,113,112,116
109,114,111,109,110,112,108,111,111,113,114,113,114,112,113,113,112,115,113,111,112,117,117,119,119,124,122,123,125,124,120,118,118,119,122,130,121,120,116,117,116,116,112,114,111,111,111,111,112,109,112,110,111,113,113,112,114,111,114,112
111,113,114,113,109,114,114,113,107,105,108,111,113,111,113,115,116,110,111,113,112,116,117,118,120,123,127,122,121,124,121,124,123,123,122,121,117,119,116,122,118,115,115,113,115,116,116,112,115,112,113,110,110,113,112,110,114,111,110,111
109,106,108,111,106,108,110,111,109,111,114,113,112,109,114,114,112,114,115,115,114,113,115,121,126,125,126,120,119,122,121,118,120,123,118,122,128,127,124,123,115,109,112,108,113,113,110,106,110,115,113,109,111,111,107,110,113,109,109,113
113,113,113,113,109,113,110,112,110,111,109,113,110,109,116,117,112,112,112,109,109,111,118,123,120,117,118,118,123,120,121,118,124,120,118,121,125,128,123,119,115,109,112,107,109,113,113,113,114,113,111,111,115,116,112,115,111,108,111,111
111,113,112,112,109,114,113,112,112,114,112,118,112,112,112,105,107,108,110,114,113,115,112,116,114,121,122,124,122,122,121,114,126,122,124,121,125,126,120,118,119,115,116,118,115,115,111,112,115,114,114,112,112,113,114,113,113,109,112,113
111,112,108,111,114,111,109,110,113,113,110,116,110,108,112,109,117,117,116,115,110,115,119,119,115,121,116,121,118,122,119,115,122,115,118,119,123,123,119,119,116,109,106,112,111,116,113,111,114,112,112,110,108,109,112,106,110,109,112,113
111,114,109,113,110,111,111,111,107,108,114,116,112,111,110,111,117,114,117,114,116,110,114,113,113,121,122,124,117,115,123,122,130,130,124,120,118,121,118,118,112,112,113,117,113,113,112,107,108,110,113,114,113,111,114,109,112,111,109,115
106,112,112,112,109,112,106,114,116,106,113,111,105,114,113,113,113,108,110,106,114,108,112,113,119,122,121,123,123,120,124,119,121,126,120,122,124,123,121,120,115,112,113,111,108,109,112,116,113,114,113,109,112,112,112,109,106,110,112,109
109,115,114,112,113,108,106,110,112,107,114,114,107,115,113,112,111,113,117,108,113,111,120,118,117,120,117,121,119,121,122,119,118,127,121,124,127,122,123,121,112,106,116,112,109,111,114,118,112,112,112,110,113,109,107,109,108,110,112,109
112,113,111,107,109,107,112,115,113,110,112,117,109,111,112,114,109,111,114,110,116,114,116,118,114,119,116,122,118,123,123,122,118,125,119,122,124,118,117,122,116,110,111,108,113,113,109,109,111,108,108,114,112,111,108,109,111,112,114,110
112,111,112,105,110,111,112,112,112,112,112,113,111,113,110,116,112,113,115,113,113,109,110,114,114,116,116,121,115,119,118,122,120,121,112,116,116,117,114,115,110,108,109,108,115,114,109,106,111,112,107,112,112,116,112,111,113,111,111,110
115,110,113,106,112,113,115,111,114,112,114,114,109,111,109,113,112,111,110,112,110,114,114,112,116,115,116,118,119,121,116,120,119,120,113,122,120,114,111,114,113,110,109,110,115,113,114,110,110,109,108,111,109,111,112,111,113,114,115,114
113,110,114,109,110,111,113,110,110,109,113,114,115,115,112,111,109,110,112,114,108,114,113,114,117,115,118,117,117,118,119,121,121,121,115,120,120,118,116,112,111,115,115,114,115,110,111,107,108,111,110,112,110,112,111,110,114,109,110,110
112,109,114,111,111,112,115,112,109,109,110,109,114,113,112,113,113,115,109,107,110,112,112,112,112,113,116,115,117,115,122,122,117,117,114,117,112,113,115,112,112,115,110,108,111,113,114,111,111,115,110,107,107,113,110,116,115,107,110,109
114,110,118,115,114,109,111,113,114,112,113,113,117,112,111,112,111,114,112,111,115,112,114,115,115,117,115,110,116,115,118,119,116,117,116,119,119,115,115,114,111,114,108,112,112,112,110,111,111,111,110,107,108,114,111,113,110,111,116,113
111,107,112,108,117,115,112,110,111,109,112,110,112,110,111,110,109,110,109,115,113,111,115,110,111,118,112,114,118,116,114,113,113,114,116,110,112,111,113,112,108,116,113,116,115,113,109,109,110,110,113,111,110,114,112,111,107,109,112,109
110,111,114,112,114,113,112,112,112,110,110,110,112,108,110,113,113,111,110,112,109,113,114,112,112,112,109,112,113,113,115,115,116,116,118,115,122,115,113,111,108,110,111,111,114,112,110,113,112,110,112,112,114,115,116,115,111,111,114,112
113,108,110,110,109,109,114,116,112,112,113,112,114,115,112,113,109,110,109,110,112,111,112,114,116,112,111,109,117,114,114,113,113,111,111,112,111,109,114,115,113,112,115,113,114,112,111,110,112,113,112,114,115,111,112,107,107,112,113,108
110,111,113,114,113,111,112,112,114,110,112,113,110,112,108,115,109,112,112,110,111,109,110,111,114,110,111,110,114,106,110,109,114,111,112,114,112,113,112,110,112,108,110,111,111,109,104,108,115,112,107,110,113,109,112,110,111,116,113,106
111,113,109,105,112,109,107,109,113,111,112,114,115,114,110,110,105,112,112,108,109,111,108,111,114,110,109,109,113,111,115,114,118,109,110,112,111,110,113,111,111,110,110,114,119,115,111,114,114,113,110,108,113,111,110,112,108,114,110,111
109,113,112,111,115,109,110,112,113,112,113,108,109,112,115,114,110,111,111,111,111,114,111,113,107,109,111,113,115,115,113,111,117,110,113,110,112,111,114,115,114,113,112,110,109,106,109,107,109,115,110,108,109,107,109,115,110,111,109,113
112,114,108,110,113,113,112,108,114,112,113,111,110,109,109,109,112,116,111,113,114,114,112,110,106,110,111,112,109,111,110,111,116,107,111,111,110,112,113,115,113,111,115,115,111,110,111,107,107,112,110,108,110,111,107,108,112,110,109,108
114,112,110,116,113,109,109,107,112,110,114,116,113,110,110,113,111,111,105,113,112,107,112,112,113,111,113,113,107,111,112,110,115,109,111,110,103,110,111,113,110,110,115,115,111,110,112,115,110,109,112,109,111,114,109,114,111,105,106,112
116,110,108,107,107,106,110,112,116,112,115,112,108,110,111,112,110,112,110,116,112,111,113,108,112,115,114,114,112,113,114,107,112,110,114,109,109,113,113,114,111,109,112,114,112,110,111,115,110,107,111,117,116,112,113,113,108,108,108,107
112,109,111,112,111,110,112,108,114,108,108,111,110,111,108,110,111,110,109,108,110,112,113,110,116,116,104,110,113,112,114,109,109,106,113,110,112,108,113,110,106,107,108,111,111,108,107,111,109,108,109,112,113,110,108,111,113,113,113,108
112,111,111,112,113,107,114,110,113,111,112,114,110,110,111,111,112,108,113,113,116,111,111,110,111,111,109,114,113,108,110,111,111,113,111,108,111,109,113,112,109,113,111,110,114,113,110,112,111,113,111,110,116,111,107,114,112,110,108,113
115,112,110,107,112,106,113,110,113,116,111,113,114,114,114,108,114,111,113,110,112,108,112,113,110,112,112,112,110,110,110,113,110,111,105,111,113,110,111,115,110,110,107,111,109,110,106,110,114,113,109,112,111,107,104,111,107,110,111,114
111,106,109,109,110,110,115,109,110,113,110,108,109,108,117,113,114,111,112,109,113,111,110,112,110,114,111,113,109,113,108,114,113,116,111,109,110,111,114,111,107,110,108,110,113,122,113,113,112,103,109,112,105,112,113,117,109,109,112,112
