34,48,62
111,113,114,116,109,115,111,116,113,116,111,116,114,110,113,118,112,115,111,113,113,115,113,115,115,114,117,119,116,121,113,111,115,114,112,116,116,114,112,115,114,112,116,114,111,112,114,112,114,110,114,112,112,114,111,113,112,114,115,109
115,111,112,112,117,118,114,119,110,117,111,117,120,117,122,122,117,116,115,116,117,113,117,115,120,115,113,118,116,112,108,113,111,113,114,116,116,116,113,114,113,111,109,111,116,114,109,114,115,112,110,111,116,114,113,116,113,111,111,109
116,115,117,111,116,117,110,117,113,117,113,116,118,115,114,113,112,114,112,117,110,113,121,113,114,115,120,119,113,111,115,117,111,117,116,115,112,119,116,109,111,111,111,114,114,112,111,116,108,113,115,112,115,110,109,110,109,112,110,110
116,111,114,115,113,112,110,119,116,116,115,117,118,119,121,121,120,117,116,118,119,121,119,118,115,119,114,115,115,117,111,113,113,122,117,111,110,115,112,110,115,113,114,110,108,116,111,111,111,115,110,111,120,108,115,111,114,115,110,110
111,112,116,117,110,115,120,118,119,119,115,121,115,121,115,118,118,116,116,116,118,120,116,118,116,123,111,119,111,118,113,114,114,116,112,114,116,114,115,113,113,112,116,111,111,117,114,109,114,116,111,107,116,111,114,111,115,111,111,112
112,116,116,117,114,118,119,117,117,116,115,123,123,123,113,122,123,118,117,120,118,119,119,122,114,117,113,120,114,116,112,114,114,113,115,114,116,112,115,116,115,115,118,112,107,110,117,113,113,114,111,110,117,111,110,109,113,110,111,107
119,116,113,117,118,122,116,119,117,117,120,122,120,114,121,126,123,118,117,119,123,122,121,123,117,122,120,115,114,115,115,115,117,117,118,117,116,117,113,116,119,115,114,116,115,115,114,112,112,116,111,114,114,108,112,113,114,114,111,115
117,111,118,124,119,120,115,118,118,119,124,123,121,122,127,124,126,123,123,122,123,119,119,125,119,124,120,116,119,117,113,115,117,117,115,116,111,115,115,111,118,115,111,113,112,111,112,108,114,114,111,116,112,111,111,110,113,112,106,118
111,111,115,118,119,116,118,120,122,124,123,122,131,126,130,131,133,131,130,126,129,126,124,128,125,127,122,127,124,117,116,118,118,119,117,114,114,115,116,112,118,112,113,115,117,116,115,110,115,113,115,115,109,112,115,112,112,113,115,115
120,118,118,115,119,115,116,120,122,129,132,127,130,130,140,141,138,134,136,136,133,133,132,136,130,128,125,124,117,122,128,118,120,121,118,114,116,117,116,115,116,111,114,113,114,117,111,114,114,111,111,113,111,108,116,113,111,110,115,117
118,120,126,119,122,122,122,124,130,131,131,135,143,148,153,153,146,150,154,145,140,140,138,138,134,134,134,127,122,118,121,118,121,122,113,115,108,114,113,114,114,112,116,113,117,117,115,116,113,113,119,116,114,111,118,111,112,107,112,117
113,115,117,117,118,130,127,121,132,132,142,148,156,166,172,180,175,177,180,163,161,157,150,145,138,140,138,126,124,119,124,124,118,122,118,122,114,116,116,115,114,115,114,112,116,112,114,117,114,113,115,111,109,107,115,111,112,112,113,115
118,121,120,123,119,126,127,126,129,137,148,163,179,186,199,203,204,200,198,185,173,173,165,164,152,151,142,124,133,126,130,126,122,118,116,121,114,113,113,114,114,117,114,111,112,114,116,114,113,120,116,114,113,112,117,114,108,112,112,111
115,121,119,122,126,132,133,136,138,157,166,176,197,207,221,230,221,212,210,209,198,206,192,184,171,157,155,141,135,123,128,116,122,124,119,119,114,118,110,111,113,115,116,115,114,115,115,110,115,113,110,107,112,116,113,110,110,112,111,116
115,116,122,126,124,121,128,133,143,155,177,198,217,226,233,245,245,248,228,219,214,208,215,201,192,181,166,152,145,138,132,128,125,130,119,122,117,118,116,118,116,118,117,115,115,116,114,111,117,110,110,111,114,119,115,113,110,112,113,112
120,113,121,121,122,127,137,143,153,169,186,207,228,237,240,246,245,247,230,224,223,221,235,218,213,197,180,166,148,137,130,126,121,124,121,119,120,119,114,115,112,115,117,115,113,110,109,114,116,114,113,112,111,114,114,113,107,113,113,109
119,119,126,124,120,130,135,144,159,176,193,220,233,240,243,251,251,248,236,240,228,237,240,237,238,218,205,180,166,150,138,127,125,123,123,119,117,116,114,117,116,114,107,112,113,114,117,114,113,114,110,114,112,113,114,113,111,113,112,111
117,122,126,129,125,134,141,148,171,182,202,230,239,247,241,252,247,245,229,240,236,244,241,247,255,244,215,192,173,153,142,128,130,125,122,122,120,119,119,117,115,117,115,117,115,114,112,114,120,116,111,114,109,111,110,113,114,111,113,113
116,120,122,124,122,133,138,149,178,197,215,232,237,258,238,240,233,233,227,240,230,236,246,254,250,249,230,216,182,162,144,131,134,129,125,124,126,119,115,115,113,116,111,117,115,113,110,113,113,109,112,113,113,114,110,112,115,111,117,114
118,126,125,125,128,137,148,164,192,208,222,238,240,253,229,236,230,222,215,227,237,244,251,262,259,249,235,218,188,176,149,139,132,125,123,120,121,121,122,116,118,118,118,118,112,110,113,115,114,114,114,109,115,118,114,113,114,111,113,113
119,121,123,120,132,135,152,166,194,219,236,246,243,244,231,227,224,214,212,214,233,235,245,254,252,246,241,229,202,179,156,148,136,127,126,123,123,119,119,115,116,113,118,117,115,112,113,112,109,110,114,111,114,110,108,113,112,110,108,109
122,119,124,125,132,138,161,172,202,226,243,242,245,233,225,227,216,214,224,220,224,227,240,254,250,249,250,238,218,190,166,155,141,131,124,125,123,115,118,123,118,118,117,116,116,114,116,118,117,119,113,111,114,115,111,115,113,117,112,113
121,120,124,130,133,140,154,167,209,233,249,250,254,240,222,224,220,220,224,221,220,238,234,239,252,249,253,238,223,205,184,156,138,136,127,127,121,118,118,116,113,113,115,116,115,114,114,113,113,118,113,111,113,114,110,110,109,114,109,110
119,120,127,130,133,142,147,173,219,240,256,252,239,224,223,223,213,215,220,224,233,237,242,254,252,248,248,245,244,223,190,168,148,138,133,130,123,119,120,122,123,119,117,115,116,118,115,112,115,117,114,116,116,114,112,115,115,111,111,114
124,123,123,122,125,144,150,174,214,239,255,248,247,230,221,218,216,221,219,218,233,233,230,248,245,247,245,244,245,230,200,179,156,138,132,130,120,124,119,122,118,118,117,118,115,117,117,113,113,116,114,112,115,114,113,112,108,112,109,112
117,122,124,125,129,140,149,165,197,229,252,254,239,229,217,224,230,223,223,226,226,231,234,244,241,240,246,247,242,230,214,187,162,145,134,131,125,134,124,118,117,121,119,117,115,117,117,117,116,114,112,113,110,110,109,110,110,116,106,111
119,122,120,120,124,130,145,162,190,232,247,254,252,237,224,223,228,225,233,226,222,221,225,226,229,235,243,249,247,234,217,199,169,146,137,130,127,123,121,116,119,120,118,116,118,116,112,113,113,112,118,120,116,115,115,116,112,114,110,111
118,118,122,127,129,136,147,156,182,216,244,243,245,233,218,216,229,226,233,229,228,221,229,227,227,232,243,249,243,242,218,202,171,153,143,127,129,126,124,121,125,114,113,109,116,110,109,114,112,114,116,110,113,114,115,114,112,111,112,111
117,120,126,128,132,136,146,152,172,203,237,243,236,236,226,238,237,229,237,226,224,220,227,229,230,232,236,240,236,239,220,201,176,154,139,127,131,124,120,120,122,116,120,118,120,115,114,119,109,113,114,109,113,112,113,109,111,114,112,110
121,123,126,127,130,132,141,154,167,202,219,231,228,235,228,222,223,234,233,227,225,224,216,223,227,238,243,236,234,240,230,207,184,163,144,131,132,125,123,126,115,115,118,119,120,116,114,120,114,117,113,115,115,108,116,116,110,113,110,112
121,123,127,131,131,133,138,145,160,189,202,223,231,234,236,233,234,232,222,219,215,216,213,225,231,239,242,232,234,237,232,202,187,169,152,137,130,127,118,119,117,118,123,120,115,114,112,116,112,115,112,115,109,109,115,116,110,114,112,114
119,124,117,126,126,130,132,141,158,174,191,217,229,225,232,237,236,228,227,220,207,208,210,221,228,234,233,238,244,238,241,212,184,173,154,137,132,128,125,122,121,115,121,117,111,115,116,115,116,111,113,118,112,113,111,112,112,112,109,111
121,121,119,126,123,136,140,145,157,171,192,218,233,224,228,230,234,223,217,217,205,207,209,215,223,227,234,242,237,241,242,224,202,177,150,143,135,126,125,120,124,116,117,116,116,115,116,114,115,110,109,114,111,115,116,112,110,112,115,110
118,122,119,121,125,132,134,145,151,173,194,215,225,227,231,222,219,223,212,212,208,203,203,214,228,228,243,243,235,245,244,224,211,184,155,143,130,125,118,117,121,119,118,119,113,108,115,118,115,116,113,116,116,116,110,110,111,111,111,108
114,119,123,127,125,131,139,145,154,181,200,224,225,228,223,220,214,218,207,208,211,210,212,205,222,238,240,239,252,254,245,231,214,189,152,143,136,133,123,123,124,122,116,117,118,113,114,116,113,112,116,113,112,111,112,112,115,114,114,111
121,118,123,129,130,130,136,139,155,180,207,225,239,244,226,221,210,218,212,203,214,217,213,216,231,234,235,243,245,241,242,245,216,197,167,145,136,130,129,126,122,118,116,113,119,118,117,120,117,115,110,107,115,114,112,111,112,112,112,108
117,118,123,120,127,130,135,143,154,177,202,213,247,233,229,225,215,217,217,207,213,217,213,225,228,230,234,231,237,245,250,241,216,198,170,144,137,126,123,122,121,118,118,118,113,117,121,118,110,116,112,113,112,110,114,115,111,117,111,109
119,126,125,122,125,133,133,147,155,178,206,238,255,242,235,216,209,212,206,211,226,224,214,227,227,221,238,236,238,236,235,229,223,200,171,154,140,136,125,128,120,118,113,115,116,117,117,114,113,118,114,116,110,111,108,110,112,113,110,112
119,122,118,116,125,133,133,149,153,171,202,241,242,248,245,224,211,215,210,215,220,215,223,226,229,223,234,227,228,223,230,223,212,187,168,151,135,135,131,126,123,121,116,117,120,116,115,116,118,119,109,114,117,114,112,113,115,109,110,111
118,119,120,124,128,125,130,145,144,169,202,236,246,260,247,221,212,214,216,216,220,220,234,232,231,222,229,228,230,225,225,207,213,189,171,156,142,132,131,121,122,119,115,118,115,115,112,114,112,113,108,112,107,114,113,110,112,113,116,116
125,120,120,125,123,133,135,139,145,170,204,238,249,249,247,232,233,221,221,211,209,222,227,232,233,228,235,227,217,228,228,217,206,187,174,150,139,132,130,122,123,124,121,121,121,113,111,114,117,118,109,116,116,116,113,115,114,114,116,110
113,121,122,121,120,132,131,140,155,170,199,231,254,259,264,229,227,215,218,213,214,223,215,218,228,234,229,236,234,228,224,222,203,186,172,151,137,129,126,125,122,118,116,113,118,113,118,111,113,115,111,112,110,112,112,113,110,113,115,113
114,116,119,127,125,131,131,138,148,157,192,229,255,262,256,234,228,221,222,207,206,219,215,220,224,222,233,234,228,224,222,208,196,187,171,153,141,135,126,122,122,117,121,118,117,119,120,114,116,116,112,110,109,110,113,113,109,114,112,111
117,128,122,124,123,125,133,140,145,157,184,210,249,265,254,245,233,216,212,208,209,218,218,220,226,222,233,228,224,231,223,208,199,186,171,156,140,136,122,121,122,117,120,122,117,115,115,115,116,116,115,119,115,112,111,113,110,114,113,114
119,120,114,119,127,133,132,132,144,158,187,208,243,252,248,236,227,212,216,214,208,216,225,226,229,234,231,229,220,220,212,198,195,190,179,165,136,136,128,127,122,118,120,120,114,115,120,118,116,116,111,112,113,113,107,110,111,112,111,113
118,121,122,124,128,130,130,133,149,156,177,208,236,239,247,237,228,221,220,219,218,220,218,228,225,231,235,241,232,226,223,210,207,201,176,159,143,141,130,127,124,119,118,118,118,115,116,111,116,116,112,116,110,112,112,112,115,112,113,109
119,125,119,120,126,127,131,134,145,152,165,196,232,230,240,242,230,221,224,229,219,226,226,236,239,236,231,244,237,220,216,216,219,205,177,169,153,134,130,129,123,119,119,121,119,116,114,108,115,114,115,115,114,112,114,112,114,113,112,109
118,120,119,122,126,130,128,129,136,147,158,181,209,231,244,231,225,231,229,226,217,226,222,232,240,243,230,239,239,224,217,216,218,209,187,172,152,133,134,129,127,123,122,121,115,116,117,115,118,113,116,113,116,110,110,110,112,114,110,108
116,120,122,126,124,127,125,134,138,154,166,181,207,230,229,230,228,231,231,231,230,238,228,235,239,242,241,237,236,234,227,221,221,215,200,174,153,142,135,126,124,117,117,124,119,118,121,115,115,113,113,110,113,113,116,115,115,110,108,116
118,121,122,128,122,122,123,138,139,149,168,177,203,231,236,245,239,238,245,244,239,238,229,244,250,235,240,237,237,233,223,226,231,217,201,177,152,141,127,125,123,122,125,123,121,116,118,116,116,115,111,115,115,112,113,108,111,111,110,114
118,114,116,125,119,123,126,134,137,151,170,175,208,230,232,236,242,237,232,226,227,233,235,239,245,250,246,245,239,242,229,220,232,234,206,181,158,144,130,127,128,121,125,118,119,114,113,110,117,110,110,119,113,110,110,113,115,112,112,112
120,120,120,123,123,124,133,138,133,151,162,185,211,225,237,243,243,236,228,243,238,238,239,249,247,245,243,251,245,237,228,228,232,229,202,180,161,144,133,132,129,124,122,117,120,114,118,113,118,109,112,115,109,114,113,112,109,112,113,114
117,115,118,124,129,126,128,133,138,150,159,198,218,228,240,241,243,240,222,236,241,235,237,241,243,244,248,244,241,230,230,232,227,219,199,185,160,141,132,127,124,127,122,127,120,117,118,114,118,114,117,117,116,114,109,111,109,114,112,113
119,113,118,122,122,122,124,130,139,154,168,193,219,234,253,245,239,239,226,224,230,231,241,237,239,245,241,237,233,231,236,225,226,215,194,186,161,137,132,128,126,125,120,121,112,116,116,115,119,118,113,113,115,113,118,114,112,109,113,114
116,117,121,123,129,128,128,130,137,149,165,183,223,241,250,249,246,229,224,232,236,224,223,228,240,242,236,241,232,234,235,221,221,217,195,177,159,143,134,129,126,122,123,115,111,116,113,112,114,114,110,108,114,113,112,109,117,111,111,114
114,119,120,117,121,124,127,125,134,148,167,184,219,240,251,245,240,225,223,220,225,220,216,225,235,227,223,234,230,229,226,225,218,214,195,172,162,148,135,130,124,116,113,116,120,119,114,114,116,115,114,112,115,112,107,113,113,112,114,112
118,117,121,119,120,123,128,131,136,147,170,183,215,234,242,248,236,223,219,209,212,216,219,225,221,227,221,225,225,227,214,219,219,203,180,168,153,143,135,131,125,122,120,118,120,120,119,114,117,115,113,112,112,114,111,111,109,113,112,110
118,119,123,125,120,124,132,136,133,134,165,188,222,245,239,245,230,224,216,206,202,210,216,215,208,222,215,217,218,228,216,209,211,206,186,166,147,138,123,129,125,123,124,119,116,116,114,113,115,113,110,110,115,113,114,110,112,112,110,115
122,120,118,120,119,125,131,132,135,147,170,188,219,244,245,242,224,214,214,202,204,218,224,222,218,238,218,221,218,225,224,208,205,198,182,166,146,137,125,126,119,120,120,113,116,117,119,118,113,112,116,114,115,115,113,110,114,112,108,110
120,113,118,118,119,125,132,133,134,148,164,183,218,242,250,250,234,218,220,213,212,213,220,218,215,228,223,227,231,230,225,216,209,206,184,163,144,141,134,124,119,118,118,115,122,113,118,116,114,117,117,116,110,116,114,110,113,115,114,110
118,116,120,119,120,121,126,124,129,146,167,188,223,241,239,238,235,221,225,226,222,218,231,231,226,224,223,223,232,228,222,213,206,205,180,163,149,137,129,119,125,123,124,119,118,114,117,117,112,110,111,118,113,117,114,112,111,113,116,114
112,119,122,117,116,117,126,125,139,150,163,179,204,236,253,239,234,224,223,231,228,222,230,239,230,229,224,223,222,215,216,210,205,200,182,160,143,132,129,124,120,123,118,112,114,112,114,116,115,111,113,116,108,114,112,109,108,112,111,111
114,120,118,116,124,119,128,130,134,139,154,181,213,225,242,241,244,236,223,229,226,230,232,235,225,229,220,230,231,222,223,218,212,198,176,157,144,132,123,122,117,119,118,117,115,113,112,111,114,113,111,111,108,110,112,115,116,114,110,112
114,114,120,118,124,122,125,122,132,144,157,173,196,218,248,256,243,234,227,230,227,231,238,236,237,237,228,221,221,222,214,213,208,193,168,153,143,134,124,120,120,119,115,114,114,113,114,116,119,110,108,113,113,115,112,113,113,109,106,112
113,118,125,114,122,124,124,130,131,131,145,166,192,222,236,246,240,231,228,226,232,230,233,228,231,232,230,226,222,228,224,218,213,200,176,155,142,131,128,123,117,117,113,117,116,108,112,115,116,113,116,111,109,112,109,110,113,114,110,111
116,110,120,120,120,122,121,125,124,131,145,158,182,209,229,245,249,240,236,233,229,226,230,226,228,231,228,222,229,230,224,216,209,187,170,151,144,132,127,125,118,114,117,119,118,115,117,115,113,114,115,112,110,110,114,114,116,115,112,108
118,111,115,120,117,120,117,125,132,135,149,162,177,199,237,252,251,253,242,232,224,221,227,221,230,234,230,231,236,238,234,229,213,190,171,150,141,126,121,120,120,122,120,113,114,112,109,108,115,118,114,112,113,108,114,114,114,114,112,108
117,116,114,119,117,117,119,125,134,130,144,158,175,203,233,247,244,254,236,229,224,223,230,228,233,232,243,253,244,245,243,228,205,185,168,152,138,128,129,128,118,121,122,120,119,114,111,115,117,114,110,109,116,109,115,113,109,112,112,108
117,117,115,116,116,115,122,122,128,131,139,144,159,183,218,243,249,251,229,231,219,225,229,235,243,251,256,267,270,257,246,233,208,181,163,142,132,128,128,123,119,121,119,118,114,113,112,116,115,115,119,112,112,110,113,109,112,113,108,111
118,116,116,116,117,117,122,123,126,122,132,138,157,176,202,237,244,246,238,235,224,229,223,237,252,281,288,292,283,269,243,234,209,176,157,140,133,129,122,118,116,114,114,118,111,114,118,108,111,113,112,111,110,111,115,107,112,111,111,116
110,112,107,116,123,117,119,126,125,119,132,131,148,165,189,227,238,248,249,246,236,235,242,259,273,301,317,323,297,279,246,224,202,168,149,136,127,126,117,118,119,117,116,117,114,112,115,107,116,114,114,111,113,114,111,107,117,113,114,113
114,115,113,118,121,114,116,119,122,119,125,126,136,153,177,204,220,235,238,235,240,248,268,289,318,334,346,334,315,278,252,217,182,159,143,125,124,127,121,121,120,119,117,113,122,115,116,111,112,111,115,111,111,118,114,114,110,109,112,109
115,113,114,115,115,116,119,117,118,121,125,127,130,144,156,176,197,211,225,230,245,254,273,286,327,348,355,349,321,275,243,203,172,155,144,131,130,124,119,117,119,114,113,114,120,113,115,116,113,113,113,107,109,116,113,113,109,111,115,112
114,116,119,118,113,118,122,120,117,123,123,124,125,135,144,162,176,186,208,222,230,246,275,297,327,338,347,347,305,268,225,187,169,150,136,130,125,119,116,118,118,117,112,112,116,113,114,113,107,112,112,113,113,115,109,116,115,113,111,106
117,115,114,112,114,116,116,120,118,120,120,123,124,126,131,141,154,167,179,196,207,219,236,266,311,325,326,320,283,256,209,170,152,143,134,136,124,121,117,117,116,114,112,116,116,112,111,112,113,120,114,112,109,114,108,112,113,116,114,109
111,116,111,113,117,111,115,117,112,117,118,118,121,124,130,136,136,149,167,181,181,194,221,244,267,290,304,292,263,234,194,170,147,138,131,127,122,121,118,115,119,114,112,114,115,113,113,113,112,113,113,112,109,112,115,111,112,115,112,109
112,118,119,115,116,113,118,114,116,117,115,117,120,122,123,128,134,143,147,159,169,173,193,213,234,251,267,252,228,199,171,157,140,132,131,124,122,119,116,115,116,113,113,112,114,115,111,110,110,110,118,114,114,113,114,113,116,108,110,111
110,114,115,115,115,118,112,111,121,113,116,116,117,122,127,122,125,132,133,142,152,156,169,185,207,218,216,208,203,183,159,149,135,127,121,119,119,120,115,110,113,117,117,112,113,115,113,111,111,109,117,110,108,115,114,108,114,113,117,114
109,113,113,117,109,116,113,114,116,111,119,117,114,116,120,122,124,124,126,132,137,145,154,163,175,186,186,175,173,161,146,141,129,126,122,117,117,113,115,112,114,115,114,112,112,112,115,110,110,108,111,114,110,110,113,111,114,111,106,112
115,115,117,115,111,116,116,119,119,116,118,119,119,120,120,124,121,121,122,129,137,134,134,142,150,155,153,153,151,141,136,132,125,121,119,117,120,113,119,117,114,117,113,112,110,112,117,111,114,118,111,109,113,112,116,115,110,113,111,115
117,111,115,114,112,112,114,117,113,114,117,115,115,116,115,122,118,122,125,119,131,126,125,133,133,133,133,140,136,131,130,124,120,122,120,117,111,114,117,118,113,116,113,116,112,113,114,110,110,112,111,109,114,113,112,112,108,112,112,111
113,112,113,111,112,116,118,117,112,117,114,112,113,118,115,120,116,116,119,113,126,126,123,132,126,131,125,123,123,124,122,120,122,118,113,117,112,119,112,113,113,114,115,116,110,111,114,112,109,112,115,111,111,114,112,113,111,113,114,115
111,110,110,111,115,112,113,115,117,119,112,122,116,119,115,116,116,117,121,120,122,117,120,128,122,121,115,122,114,117,122,120,119,114,107,118,115,115,115,117,113,115,115,110,116,114,111,110,114,111,107,110,113,115,108,110,111,113,109,111
116,115,110,114,120,111,112,113,108,112,109,115,111,114,111,114,116,114,118,115,119,118,122,118,111,120,120,121,116,121,120,115,117,115,114,116,115,116,110,110,112,115,110,108,114,108,114,113,116,110,111,110,107,113,117,115,109,111,113,114
114,111,107,113,114,110,115,116,115,117,115,116,117,116,111,114,116,115,120,115,123,113,113,113,117,122,116,116,119,119,115,116,118,115,114,109,112,115,113,113,113,115,109,111,117,111,114,109,116,107,112,111,110,114,117,110,111,113,113,112
109,109,114,115,114,114,116,114,116,117,112,115,118,116,111,114,114,116,117,115,115,110,119,116,116,116,119,117,118,117,112,113,116,116,111,110,115,117,111,113,109,116,114,110,109,108,115,109,113,104,107,112,115,113,115,112,114,105,108,111
115,114,116,109,112,111,114,116,115,115,112,114,114,112,115,116,113,116,116,119,120,115,115,110,114,115,118,114,113,117,113,116,116,115,114,116,115,118,111,111,113,120,113,117,111,113,114,108,114,114,113,110,108,109,110,107,115,107,111,113
115,113,114,113,115,114,116,115,115,113,115,112,115,113,113,113,110,116,114,117,117,115,115,113,117,118,115,113,112,114,110,109,114,114,113,112,110,113,109,111,115,114,107,112,107,113,113,110,107,112,111,110,112,112,115,109,110,108,112,116
112,113,110,109,113,113,111,111,115,110,115,114,117,114,110,112,114,117,111,119,112,107,115,117,113,109,114,113,110,115,113,114,116,108,112,113,111,112,116,114,108,114,113,119,109,106,112,111,110,116,111,112,110,107,113,109,110,111,112,113
110,110,114,110,112,113,111,113,118,113,116,115,113,116,113,112,116,114,114,114,110,111,116,114,117,113,114,112,113,119,113,115,114,113,119,113,113,110,113,114,112,112,107,110,112,111,116,113,112,108,111,115,110,109,112,109,113,113,111,110
112,112,116,110,114,109,112,111,111,111,117,111,110,117,113,117,114,112,113,109,113,112,110,114,114,110,117,116,112,115,114,112,115,116,117,112,115,111,111,114,117,114,110,112,114,114,114,112,111,109,114,113,111,112,113,112,112,114,108,108
114,110,117,110,113,111,112,110,110,106,113,115,110,113,111,116,110,112,112,113,115,117,112,117,114,110,116,114,111,116,115,111,109,115,115,114,115,111,115,113,114,115,112,111,110,110,115,113,113,113,113,110,110,111,112,109,108,111,109,112
110,110,113,109,108,111,113,114,111,110,114,117,110,110,115,109,109,115,113,115,113,120,113,114,113,110,111,113,113,116,113,116,114,114,111,110,113,108,108,111,114,113,112,111,117,113,114,111,110,110,111,113,115,111,109,112,112,112,113,115
113,115,118,114,112,111,110,116,114,115,110,110,112,114,114,106,113,114,111,111,113,119,110,111,114,114,110,112,113,113,112,117,113,112,113,115,115,109,113,111,112,111,114,115,112,110,111,112,109,113,114,111,113,114,112,111,110,116,115,108
112,109,110,107,116,119,109,113,115,117,116,112,113,111,113,112,117,115,114,113,109,110,111,109,114,117,115,113,113,108,109,111,110,117,113,112,113,112,112,112,112,112,115,111,108,110,112,113,112,112,113,110,108,110,109,112,112,111,108,107
113,112,110,112,113,114,109,115,114,108,108,108,114,107,116,113,114,111,112,110,110,113,111,112,116,113,110,112,111,106,111,117,115,115,111,112,114,111,108,114,115,114,111,113,114,108,113,112,111,109,110,113,110,113,112,112,109,109,112,115
110,112,113,116,112,113,111,108,113,111,112,109,116,106,116,113,113,114,115,108,109,114,112,115,116,114,108,114,115,116,111,111,113,111,111,111,109,111,112,116,116,114,107,109,112,111,114,112,107,111,111,113,115,116,114,113,111,116,112,112
114,110,108,110,114,112,115,114,111,113,117,113,110,110,115,113,111,111,113,112,113,112,116,109,111,110,109,111,112,114,107,110,116,110,113,112,108,112,111,117,113,110,111,115,109,109,109,109,108,115,116,112,110,113,112,110,110,113,113,110
113,108,112,111,114,113,111,111,107,111,109,108,109,113,110,113,114,112,113,113,114,112,115,114,113,113,115,113,111,109,110,113,114,108,110,108,113,113,113,114,111,107,105,111,114,111,108,111,111,111,106,110,109,111,110,114,114,113,111,112
110,107,115,116,112,112,113,114,110,114,113,110,113,114,110,114,109,113,114,112,109,109,109,115,103,111,111,112,113,111,111,113,112,109,109,108,109,110,111,112,111,107,111,112,111,114,117,113,108,110,113,116,112,112,109,108,105,108,107,113
