43,50,57
112,116,112,112,111,109,110,111,109,113,109,113,113,110,112,115,108,117,111,108,114,112,111,117,110,106,106,110,112,110,113,112,110,111,116,114,110,113,111,110,109,109,112,109,115,109,115,111,114,114,109,109,113,107,113,111,113,114,116,108
110,112,107,117,110,112,109,112,108,113,113,105,112,115,112,113,111,115,113,115,113,107,114,116,108,111,108,108,108,115,115,111,115,114,111,109,106,110,109,111,111,115,110,110,109,110,112,109,113,108,110,114,113,114,114,113,111,107,114,108
108,109,109,111,106,112,110,109,110,110,113,114,115,112,111,114,113,116,113,115,113,108,110,111,108,108,112,111,111,112,111,110,113,112,110,111,111,110,112,115,110,113,110,111,111,115,111,109,110,109,111,104,107,113,109,112,112,114,112,109
108,113,116,117,112,111,116,114,114,114,113,112,114,107,112,115,108,108,110,111,109,114,112,107,114,109,113,115,117,114,116,112,113,109,111,111,113,114,114,114,110,106,107,114,110,114,111,113,109,115,114,105,112,117,111,109,114,116,109,113
113,114,110,110,112,111,107,113,113,113,115,112,113,115,112,110,108,111,115,115,106,111,113,111,113,112,111,113,114,111,109,110,110,109,109,111,113,108,108,108,111,111,112,113,116,113,109,114,114,115,108,110,111,112,108,113,114,108,108,114
106,110,115,111,110,116,114,115,112,109,112,113,109,111,111,112,112,112,110,111,111,114,118,121,111,117,113,111,113,112,111,112,108,110,114,114,113,110,108,107,107,110,108,111,114,109,112,110,112,114,110,108,112,111,108,114,108,105,113,110
112,111,107,112,113,112,113,110,109,111,108,106,111,111,116,112,114,115,110,110,110,113,112,111,110,109,106,113,116,113,109,107,110,111,112,112,115,111,108,110,109,109,111,113,108,108,109,110,111,110,112,110,115,108,112,107,103,115,116,105
112,111,112,110,109,113,110,108,113,112,111,115,117,113,111,111,111,115,114,111,111,111,112,114,115,113,114,111,109,109,108,111,110,112,112,109,115,115,114,111,111,112,113,107,111,112,115,109,111,114,112,113,110,115,115,110,106,109,109,112
114,111,113,111,114,111,111,115,116,112,115,115,108,115,109,117,111,110,112,109,114,112,112,119,111,112,112,109,110,111,112,112,109,116,114,110,115,111,116,114,110,111,111,107,115,108,109,109,110,110,113,114,107,111,113,110,113,113,109,112
110,112,109,118,115,109,114,113,106,110,108,108,110,115,112,114,114,112,110,112,112,112,114,115,112,113,113,114,111,113,111,115,112,114,110,109,112,109,111,113,114,114,115,111,111,107,108,115,113,107,116,115,112,112,109,108,116,108,110,109
109,111,107,109,111,114,109,110,114,113,110,112,113,110,109,109,109,115,108,111,112,114,109,115,115,114,116,111,111,114,112,113,117,112,109,115,112,114,116,113,116,113,110,110,113,112,115,110,112,110,111,111,113,108,113,110,111,111,111,111
112,114,111,110,111,114,113,110,111,109,108,112,112,108,112,109,110,114,116,111,112,114,116,113,115,114,112,115,118,112,111,112,114,114,112,111,110,114,111,110,111,112,112,110,112,111,107,108,107,110,114,111,110,114,110,110,109,108,111,115
110,113,111,114,109,113,110,111,108,113,109,111,114,113,119,112,114,109,110,115,112,116,115,113,114,114,108,110,112,110,111,115,113,111,111,114,108,113,107,108,110,112,116,116,110,109,110,116,110,112,109,113,111,108,105,110,113,108,112,113
111,115,111,111,114,113,107,112,109,114,112,115,111,111,111,113,115,113,113,108,111,116,113,114,114,114,109,115,113,118,120,111,115,111,113,117,115,115,114,118,119,113,108,111,112,113,115,113,112,115,111,110,112,115,109,106,110,109,106,112
114,112,113,106,111,113,112,111,111,111,111,113,114,113,113,110,105,112,115,111,114,109,114,115,117,119,117,111,113,108,116,119,115,114,110,113,117,111,114,113,110,113,115,112,112,109,114,114,112,113,103,110,107,110,110,114,110,108,110,111
111,109,112,112,113,109,109,108,111,108,116,117,110,111,116,111,119,114,113,113,116,115,115,115,117,117,120,117,116,111,113,115,113,115,117,116,111,109,115,112,114,109,113,105,107,111,113,115,112,111,108,115,109,111,110,109,115,111,112,110
110,116,111,111,107,105,109,114,108,108,108,113,113,114,114,110,118,115,112,112,115,115,117,116,115,118,117,119,119,118,119,116,120,114,114,108,114,112,112,108,113,110,114,113,109,111,112,111,114,108,110,114,110,110,112,111,107,108,114,109
112,114,113,110,113,112,111,112,109,115,110,109,110,111,110,110,110,115,113,116,113,110,115,111,114,119,118,115,119,122,114,120,117,115,113,118,117,116,115,120,115,112,112,110,114,111,111,114,114,113,115,108,110,112,112,111,112,108,110,112
115,108,112,114,114,113,112,111,109,109,110,109,113,108,109,109,113,115,114,114,113,112,117,115,116,118,120,114,122,124,117,123,117,119,120,119,114,113,112,115,115,113,113,113,112,110,111,117,111,112,113,113,113,110,111,109,110,110,110,105
114,111,108,109,110,110,111,113,113,109,109,113,111,109,116,114,111,107,117,113,114,118,116,117,119,118,119,119,121,121,124,117,119,117,116,120,122,116,117,115,114,113,117,112,114,110,112,111,111,116,115,114,110,112,112,111,111,109,109,109
111,113,112,112,108,114,113,113,115,114,108,113,113,108,113,109,117,115,112,116,111,116,116,118,119,116,119,121,122,124,122,115,119,119,118,117,114,117,118,114,113,115,115,116,112,112,117,111,111,113,113,110,110,114,110,109,110,112,112,113
113,106,112,114,108,111,109,113,110,114,111,112,112,113,111,112,116,107,113,114,111,116,117,117,118,118,125,125,122,123,123,125,114,117,116,119,108,119,114,118,116,114,114,115,111,111,114,115,115,110,106,108,112,113,110,112,109,109,106,109
110,111,112,109,112,115,110,113,114,112,110,113,111,116,112,114,116,117,116,110,115,117,121,118,118,118,123,125,120,120,122,123,120,124,119,117,115,118,115,114,113,114,112,109,116,112,110,108,115,114,110,111,113,109,112,110,115,110,110,108
111,116,111,109,114,109,109,112,109,115,112,109,109,113,115,111,108,112,111,113,115,122,119,115,124,122,122,123,120,119,120,122,127,122,117,115,111,114,116,112,112,108,111,111,114,113,112,113,112,107,112,114,109,112,112,114,114,113,111,110
113,111,113,111,109,109,116,112,111,110,114,112,116,109,113,116,116,112,114,116,116,115,116,119,118,119,123,120,122,119,125,121,119,119,120,113,119,120,118,115,114,115,114,111,112,113,111,112,110,111,110,111,109,112,112,110,110,112,112,110
112,110,109,113,111,112,110,107,110,111,112,114,112,112,115,118,112,112,115,113,115,114,118,118,114,120,124,122,124,122,128,121,124,122,121,120,124,115,111,111,113,117,116,113,113,109,113,113,114,112,111,113,112,111,110,115,108,107,114,110
109,113,107,107,111,111,110,111,112,111,114,116,115,111,108,113,114,116,112,116,116,113,120,121,117,118,126,127,127,117,128,123,120,116,114,118,116,115,113,113,109,110,113,114,110,112,117,114,107,114,115,108,108,111,111,111,109,112,112,106
109,110,113,111,111,112,107,109,114,110,107,112,112,113,112,112,114,114,114,116,120,116,114,117,119,116,122,119,116,122,124,120,118,119,121,115,116,121,115,115,113,117,112,110,116,115,112,111,107,109,114,109,108,114,113,112,111,112,108,108
116,111,110,113,109,112,110,114,110,116,112,112,113,110,113,116,112,109,109,116,117,114,114,113,117,116,119,120,120,122,121,120,126,127,127,117,114,116,111,113,113,115,111,113,111,110,110,111,112,111,110,111,110,112,112,113,107,110,111,109
110,108,104,113,111,115,115,113,110,113,113,114,114,113,114,109,112,117,117,118,114,120,114,118,116,119,119,123,124,121,124,121,123,121,122,122,119,117,116,115,112,111,111,119,116,117,112,110,113,114,112,111,109,109,109,113,111,110,114,113
111,109,115,113,113,115,110,109,110,109,110,112,111,108,116,111,113,111,109,119,112,118,114,117,115,116,120,117,121,127,119,119,118,119,115,120,117,118,117,113,119,111,110,116,108,111,110,116,114,113,114,113,109,109,111,109,112,108,106,108
111,113,117,112,110,113,113,114,109,111,111,111,109,114,110,113,113,117,112,117,117,118,122,118,118,121,120,120,122,120,121,123,122,123,121,122,117,117,118,116,116,114,111,115,111,115,111,111,110,110,108,109,113,115,112,109,111,113,113,106
111,112,115,116,113,113,106,117,111,110,113,116,113,112,110,115,114,116,114,116,116,118,120,114,114,116,117,122,120,121,125,119,120,118,124,120,120,119,113,115,112,118,115,112,109,107,111,114,113,109,111,109,116,116,114,117,110,106,115,109
109,109,111,108,116,114,113,112,113,114,111,113,116,113,116,114,114,114,114,116,117,118,117,116,118,124,119,118,122,119,115,116,121,123,125,124,123,121,117,114,116,114,116,115,111,110,113,113,109,113,115,112,111,108,110,110,112,111,111,111
110,110,112,111,115,112,110,109,112,114,114,112,113,117,115,110,117,112,111,115,116,116,112,120,118,116,118,116,119,121,120,122,121,118,120,118,118,120,115,113,113,115,113,113,116,111,112,115,111,114,114,110,112,116,113,112,116,114,108,107
110,110,108,115,114,110,111,110,111,112,111,113,111,111,109,112,113,114,117,111,114,114,114,118,117,115,118,115,115,119,121,123,120,120,124,120,114,120,116,115,113,118,113,113,116,109,113,113,110,106,111,112,110,113,111,112,115,110,111,112
112,109,112,107,113,109,113,115,113,114,108,113,113,110,109,112,112,110,113,114,115,115,118,121,119,117,118,121,121,116,124,118,118,123,120,123,120,124,120,117,115,115,110,111,110,114,116,111,113,115,111,113,118,115,107,110,112,109,105,109
109,107,109,112,114,110,111,107,111,114,113,112,112,112,110,113,117,113,115,118,112,112,119,119,119,118,117,113,120,119,117,117,118,122,123,118,120,117,117,120,116,117,115,112,111,117,112,109,113,112,111,113,110,112,112,116,114,116,110,114
109,109,112,117,114,109,106,108,114,116,112,111,111,115,115,113,114,115,121,112,114,113,118,116,116,118,120,124,121,122,121,121,124,121,115,120,120,118,117,117,117,115,110,113,110,110,116,113,114,113,113,111,109,108,108,114,109,111,112,113
111,112,114,113,111,111,114,113,111,118,109,115,106,117,112,112,114,114,113,114,117,114,118,117,120,124,122,123,122,122,118,120,124,123,122,122,122,120,116,113,116,116,112,113,114,111,108,109,111,107,109,111,109,108,112,110,111,117,113,112
109,116,110,109,109,111,116,114,117,114,109,111,112,119,114,111,111,112,115,120,114,113,114,114,123,125,124,127,124,122,124,124,128,125,127,121,124,121,119,116,112,113,114,112,112,110,112,112,112,111,110,110,111,114,109,110,114,112,112,114
110,113,109,116,112,112,111,111,115,110,109,109,111,110,112,111,114,113,115,111,113,118,118,125,120,114,122,120,121,125,126,121,127,128,121,121,124,119,113,115,116,112,111,115,115,113,110,110,113,115,114,113,111,111,111,115,115,113,110,109
110,113,115,117,113,113,109,117,116,110,115,114,110,105,108,113,111,112,112,120,116,116,118,119,120,122,129,123,126,127,129,128,123,123,123,123,120,118,122,121,116,114,116,110,110,111,113,114,109,109,111,109,110,111,109,110,112,112,112,110
113,110,111,108,112,113,109,115,115,112,114,112,111,116,114,116,116,116,117,119,116,118,117,118,123,126,130,126,128,123,124,122,123,120,125,120,121,117,119,120,113,116,114,112,108,111,109,110,116,112,116,114,109,109,105,108,113,113,110,113
112,113,110,109,106,110,110,109,112,108,110,109,110,117,115,114,117,118,116,112,113,117,119,123,127,123,129,129,130,123,127,128,128,124,119,114,123,121,111,118,112,115,116,116,113,113,112,116,112,109,110,110,113,117,114,111,112,113,112,113
112,115,114,111,110,113,111,110,111,110,113,111,114,110,109,113,114,112,114,115,110,116,117,125,126,122,130,129,124,127,122,121,121,120,119,125,123,120,120,115,112,117,115,110,112,113,109,110,108,112,114,114,109,116,109,110,112,114,115,106
109,108,113,113,108,108,107,111,113,109,113,113,111,115,114,112,111,118,112,117,114,116,120,125,123,125,125,124,123,127,122,120,118,115,120,122,117,117,118,116,112,113,113,109,113,116,117,112,107,109,106,112,111,108,113,112,110,109,108,110
113,115,109,110,113,112,109,112,107,113,105,116,110,112,113,112,117,116,111,113,116,116,120,124,126,127,128,126,117,121,119,118,121,119,125,126,123,118,115,118,117,113,114,119,114,115,113,109,112,114,112,109,112,110,113,109,110,107,113,111
115,115,113,112,112,110,112,108,108,115,111,113,113,113,107,111,115,113,115,116,115,119,118,120,121,122,127,121,127,123,120,115,125,120,119,116,119,115,118,123,117,114,117,115,110,112,113,109,112,116,113,111,111,111,111,114,109,109,109,113
107,113,112,109,110,115,115,109,117,110,109,112,114,114,108,110,110,111,118,116,113,117,120,116,126,119,125,125,125,122,120,124,125,123,120,125,124,119,115,114,114,112,115,110,115,113,112,112,109,109,109,111,110,112,114,109,111,115,104,111
115,112,109,111,111,113,111,107,114,110,117,111,109,110,108,114,107,113,119,115,116,113,120,121,130,128,124,120,117,122,121,117,120,126,127,126,118,123,117,117,114,112,110,112,110,112,112,110,112,112,114,111,112,112,112,111,114,110,110,114
114,110,111,110,106,110,114,111,113,110,112,113,112,114,112,109,112,116,110,111,114,116,117,119,119,119,118,117,127,126,122,118,124,122,125,123,120,116,119,113,113,118,111,111,114,110,111,110,111,112,114,110,111,112,116,111,109,110,110,108
112,109,110,108,115,115,113,115,106,110,110,112,112,112,111,111,112,111,116,115,112,120,119,120,124,124,118,122,120,122,124,121,118,126,120,123,128,116,118,111,112,116,118,114,116,114,116,117,112,110,112,111,114,108,108,105,111,112,112,114
110,112,113,110,112,110,112,113,113,115,114,114,114,114,116,118,117,116,115,114,114,118,114,123,122,123,121,125,126,118,122,121,127,127,119,125,119,115,118,117,117,115,114,114,114,107,112,111,110,110,109,110,111,112,109,114,114,112,111,112
113,114,112,111,109,116,114,110,111,106,115,114,112,112,111,113,111,117,111,110,113,117,120,119,114,123,123,122,124,120,123,129,124,124,122,124,124,122,117,113,115,111,111,110,113,111,111,116,106,111,114,107,110,110,106,111,111,110,114,112
110,112,110,111,114,113,110,112,111,114,111,117,111,117,112,112,113,113,116,117,118,118,117,117,119,124,120,123,122,123,126,129,124,129,123,124,120,119,118,113,114,112,112,111,112,115,113,116,113,108,111,114,110,109,108,115,111,110,113,112
110,113,107,108,112,111,112,110,110,112,110,111,109,110,111,115,113,112,115,118,114,115,120,122,119,128,123,123,121,130,127,124,122,120,126,119,118,120,118,119,118,109,110,113,112,110,112,112,115,114,110,108,111,118,110,111,115,112,108,114
112,115,115,112,110,109,108,108,114,113,109,109,111,115,114,112,114,109,112,113,114,116,121,125,122,124,124,124,125,121,120,125,126,130,128,120,120,114,113,116,111,113,118,115,111,113,108,111,109,110,116,115,112,112,113,109,106,113,113,111
111,114,108,110,112,110,111,112,114,110,116,117,117,111,113,113,112,110,118,112,113,116,121,124,128,122,122,126,123,124,126,126,125,124,127,127,122,119,114,112,114,119,113,114,109,115,111,112,111,111,110,114,112,113,113,111,117,117,114,114
112,112,110,113,110,111,115,112,113,109,110,111,119,109,111,118,118,112,112,116,119,119,118,122,125,122,124,129,125,124,124,127,126,129,131,122,124,117,118,116,117,111,112,115,116,115,113,111,108,104,109,112,106,112,111,109,111,112,112,115
111,105,108,114,113,112,107,110,116,112,110,113,112,114,116,114,112,114,117,116,119,121,127,125,125,123,128,128,123,121,124,126,128,131,128,122,123,117,117,116,113,114,116,116,114,110,111,112,110,113,111,107,107,113,107,114,114,114,109,109
110,111,109,113,113,113,110,109,111,114,115,115,110,109,112,117,112,109,115,114,111,116,123,123,132,130,127,124,125,121,119,126,128,127,126,128,130,120,114,115,112,107,112,116,108,115,114,114,111,112,111,108,109,112,112,113,112,111,111,111
109,112,116,117,111,111,112,113,111,114,108,113,112,113,118,109,114,113,115,119,114,119,125,126,126,127,129,128,126,128,128,126,128,128,125,125,127,119,114,117,113,114,118,111,111,118,115,107,113,110,115,112,111,110,110,109,112,114,111,111
110,111,105,105,111,113,109,111,114,109,112,112,108,114,114,114,116,114,116,111,113,119,124,126,128,127,122,124,123,123,125,123,122,128,129,130,121,126,116,116,116,115,116,111,113,107,109,109,110,108,112,107,107,110,110,111,110,109,111,112
111,114,115,116,110,110,112,112,111,108,115,116,110,107,105,109,112,111,116,114,118,125,121,125,130,126,127,126,121,129,123,123,123,125,122,126,121,119,117,119,116,113,112,116,111,111,114,113,115,115,115,113,117,118,112,111,111,111,112,108
113,107,110,110,112,109,104,108,114,112,110,109,112,110,111,114,115,116,113,116,118,120,117,124,125,128,126,124,123,121,128,129,127,126,122,127,126,123,119,121,112,114,112,112,111,111,108,112,115,114,113,111,114,111,111,111,111,111,112,111
106,108,116,116,114,112,118,111,111,112,108,111,114,113,117,116,109,116,115,117,117,119,125,129,128,127,123,125,126,126,129,122,126,127,122,123,124,124,120,113,114,113,112,109,110,112,114,112,111,113,112,107,112,113,112,111,109,109,111,111
111,115,112,110,112,108,113,111,111,112,109,107,111,111,113,115,112,111,110,114,115,119,121,126,128,126,128,126,123,126,126,123,129,123,128,122,123,118,118,114,113,113,117,118,113,109,111,111,110,112,110,109,111,112,113,113,110,109,112,106
113,116,113,109,109,110,109,109,108,109,108,109,112,111,114,106,114,115,111,115,112,120,121,127,128,126,123,123,122,126,129,130,126,123,125,121,118,119,114,113,116,112,110,117,113,111,113,109,110,111,108,111,114,113,109,114,116,111,109,112
110,113,112,109,112,112,114,112,109,110,114,115,110,104,109,109,112,110,113,117,114,121,125,122,129,124,124,127,125,124,118,123,122,125,126,124,121,120,118,116,118,112,113,118,114,110,110,111,110,112,114,111,112,110,118,107,111,116,111,114
109,111,109,113,111,111,114,112,110,110,111,116,109,110,112,114,113,113,116,119,120,119,120,127,130,124,126,124,128,124,130,124,123,121,116,117,121,120,116,114,112,115,115,116,112,109,116,110,107,112,116,110,108,111,110,104,107,110,112,112
112,112,107,115,115,111,109,112,110,111,110,115,112,112,112,112,111,109,112,115,115,117,121,123,125,123,131,124,124,115,124,120,125,123,127,123,122,114,116,115,111,113,109,111,110,110,113,112,109,112,114,109,108,109,112,114,106,108,108,113
111,110,113,111,109,109,111,110,110,109,112,109,108,112,111,113,112,107,112,114,110,116,119,130,129,127,128,125,125,129,119,121,120,115,122,120,119,122,119,114,118,113,116,114,110,115,110,110,113,112,105,113,111,117,114,114,109,115,106,111
114,113,115,111,111,111,112,108,106,110,111,112,116,110,110,118,116,109,113,113,120,117,119,125,122,126,122,128,125,127,124,125,121,120,123,126,122,119,118,116,115,112,115,114,114,113,115,107,112,111,114,109,111,113,114,108,110,114,112,113
106,114,114,112,109,112,111,110,111,113,113,111,114,112,111,113,112,113,114,114,116,114,119,125,130,126,125,133,127,121,119,123,126,127,128,124,122,120,111,109,113,111,112,110,118,108,113,110,106,109,114,110,114,110,107,110,117,110,109,111
115,113,108,111,114,110,110,108,109,107,110,114,113,116,113,111,116,116,113,118,117,116,120,125,128,131,125,127,124,123,121,119,129,130,125,121,122,118,117,117,112,111,112,112,113,111,117,114,110,113,113,113,111,108,113,108,117,113,109,105
109,107,110,109,109,112,113,116,110,109,112,111,109,113,112,113,115,115,110,115,109,119,123,124,129,131,127,123,119,119,120,123,118,126,126,126,122,118,115,116,115,114,116,115,109,109,112,113,115,113,110,114,113,112,108,111,113,111,111,111
111,110,111,113,112,113,114,113,109,116,113,109,112,112,114,114,105,112,108,112,114,116,120,124,122,122,125,128,125,120,120,122,126,125,121,120,121,121,114,119,116,112,109,112,110,111,113,112,115,111,111,111,110,112,112,114,107,109,110,112
113,112,111,116,111,106,112,109,108,110,112,110,113,110,110,112,110,113,115,114,116,119,118,117,125,126,128,122,115,120,123,121,123,123,122,126,125,119,115,116,110,114,112,114,109,113,113,110,117,109,108,111,113,111,111,112,109,114,113,113
109,111,110,109,110,113,113,112,111,108,113,115,114,112,110,113,116,111,114,113,111,115,117,121,120,120,129,117,117,124,120,120,119,120,124,121,118,118,115,114,111,117,120,113,108,112,112,116,113,109,112,113,109,110,112,112,112,113,111,113
109,113,114,110,114,115,115,111,112,115,111,113,118,112,112,112,110,109,112,105,115,114,113,118,129,122,122,117,121,122,119,122,123,121,118,116,121,117,117,115,116,116,115,108,113,108,112,112,107,112,111,106,110,108,109,110,110,111,114,107
109,113,112,108,110,113,113,110,110,109,109,112,112,113,111,114,109,108,111,107,116,110,119,119,121,126,123,120,120,118,120,118,117,123,122,124,118,118,117,114,107,107,113,112,115,107,109,112,112,111,111,114,113,110,114,113,110,110,110,110
112,111,113,115,111,112,113,108,114,112,110,114,115,116,110,111,109,115,114,113,117,112,118,117,116,122,121,121,121,120,120,124,125,122,122,124,116,122,116,114,113,112,110,114,110,109,109,111,111,113,114,115,109,108,112,109,110,113,111,107
108,114,111,115,108,112,115,110,112,109,114,113,114,113,115,112,111,112,114,114,109,114,118,115,117,125,127,124,122,120,119,125,126,118,117,111,115,117,117,113,112,116,114,112,111,111,113,111,112,115,116,111,115,110,109,108,111,112,111,111
110,113,114,112,109,107,104,110,116,115,111,111,109,110,110,113,115,113,114,113,112,111,108,112,119,122,118,121,121,122,123,124,124,124,123,122,124,118,116,113,108,113,113,111,116,119,111,114,114,111,111,112,108,117,108,114,117,111,113,109
109,108,106,109,113,113,110,111,113,110,110,108,107,111,109,114,108,111,114,112,114,116,114,115,120,115,118,117,120,121,121,124,121,120,122,122,119,117,115,114,113,110,110,113,108,108,110,114,115,113,106,112,112,116,109,111,109,110,113,114
109,109,111,111,111,114,108,111,107,109,112,110,111,103,114,112,107,111,111,113,115,110,111,119,120,119,131,119,121,122,124,122,117,122,120,116,116,115,111,112,111,107,111,114,117,110,112,110,113,108,110,109,109,107,107,112,109,110,112,115
111,111,108,108,112,113,112,111,108,114,113,113,112,110,114,110,108,111,108,111,112,110,114,113,122,121,119,119,121,124,118,123,115,118,124,120,115,109,112,115,114,109,109,113,112,110,111,108,105,108,110,108,115,112,111,117,112,112,113,109
111,115,111,111,115,110,112,113,112,111,106,109,108,112,112,111,115,116,112,110,109,115,111,115,117,116,117,120,126,118,111,121,122,123,115,115,115,116,116,117,111,108,113,114,110,118,107,115,109,114,113,117,111,114,114,109,108,118,113,110
109,109,114,114,113,109,114,110,113,108,108,112,110,111,110,109,113,115,116,112,112,113,112,113,110,111,114,116,117,116,125,121,119,117,118,117,111,120,117,112,110,114,110,113,113,108,108,111,109,111,110,117,114,112,111,108,111,112,111,110
111,108,109,110,112,112,108,110,110,110,108,109,113,115,115,113,113,115,110,108,111,114,113,112,109,117,117,113,111,120,115,114,114,120,115,114,116,109,113,110,115,113,111,108,109,109,115,110,113,112,107,110,110,113,112,113,114,109,109,109
111,114,110,110,111,110,115,111,107,111,112,110,111,113,113,111,112,113,108,109,107,115,112,112,114,112,112,118,115,110,112,115,116,119,111,115,112,111,113,114,113,110,112,113,115,114,108,106,111,109,109,109,112,109,108,109,113,111,112,113
112,113,114,112,112,109,108,107,111,115,111,111,112,105,107,108,108,110,111,113,113,108,112,110,111,113,113,113,117,115,116,116,117,113,111,112,109,111,111,114,114,112,111,112,113,115,110,114,112,108,114,113,113,111,115,113,112,112,110,108
109,111,113,110,114,114,112,113,108,116,109,111,113,112,112,113,110,107,110,113,115,111,114,114,110,110,115,115,114,114,112,113,111,114,118,110,111,109,112,106,111,109,108,109,110,112,113,114,112,112,110,109,113,110,112,112,110,112,111,109
115,110,108,110,119,111,111,112,109,112,108,113,112,113,109,113,110,109,113,112,112,113,114,114,111,111,116,112,110,112,111,110,107,112,112,109,115,116,114,110,114,114,114,113,114,109,107,110,112,112,115,111,109,110,113,107,107,107,109,111
111,110,113,112,112,108,111,112,110,111,113,108,109,112,113,110,107,112,114,109,115,110,110,108,112,112,112,113,107,109,113,111,113,109,107,113,114,112,107,110,111,110,107,109,108,108,115,112,110,118,109,113,111,111,111,114,113,110,112,110
105,109,112,112,113,113,112,112,111,111,111,104,106,111,112,111,113,114,109,113,116,107,110,111,115,115,108,109,110,113,114,108,113,114,119,115,114,109,113,120,111,110,116,109,108,110,114,110,104,112,111,109,109,113,108,109,114,110,110,113
110,113,111,108,114,113,110,110,110,111,112,113,114,113,112,110,112,115,114,109,111,111,114,113,111,112,111,112,112,110,113,114,112,110,114,106,112,107,112,114,109,109,115,112,112,109,115,107,112,104,110,108,114,115,106,106,111,111,111,109
110,109,114,113,112,111,110,108,112,108,109,115,113,111,114,116,111,112,110,109,114,117,112,113,109,112,104,112,114,107,110,109,112,103,112,118,110,116,116,115,111,112,113,113,114,116,112,110,113,111,111,108,114,111,111,114,109,113,111,107
110,111,112,110,113,113,113,116,115,111,113,110,109,109,105,113,113,110,111,111,109,115,112,114,113,115,114,113,109,108,113,116,114,110,111,109,109,113,110,112,111,110,112,114,113,109,108,108,106,113,110,112,108,109,111,111,108,113,112,109
