43,58,73
109,109,112,115,108,108,110,111,108,110,117,110,109,111,107,115,107,110,107,107,114,111,110,109,111,112,113,110,110,111,111,111,109,113,114,111,109,106,113,111,108,111,108,108,109,113,109,106,112,116,109,108,109,108,112,107,114,108,109,114
112,112,111,109,111,108,113,111,106,111,115,110,112,113,110,107,109,113,112,110,111,110,111,107,112,114,110,112,110,111,113,111,108,113,115,110,104,106,114,113,106,111,110,111,110,111,111,108,110,107,111,109,106,113,111,110,110,110,113,114
108,109,111,112,108,112,114,107,109,111,109,106,108,114,113,109,109,112,109,112,113,113,111,108,111,111,107,110,109,108,110,114,110,111,114,111,111,109,105,113,111,115,110,111,115,107,111,111,110,109,106,115,107,108,110,109,113,111,105,113
109,109,110,110,109,113,110,105,112,110,112,112,109,111,112,107,111,112,111,110,112,111,107,110,111,110,109,109,109,109,108,111,112,113,114,113,112,111,109,109,113,116,110,112,112,107,111,110,113,112,112,113,113,109,110,112,111,110,109,109
112,111,106,112,110,111,112,112,111,109,114,109,107,116,108,108,112,110,111,110,109,108,109,113,109,107,111,109,109,115,108,111,108,109,113,109,109,113,109,111,111,110,113,108,115,112,112,109,109,112,114,111,114,108,107,110,109,111,112,108
109,109,113,113,109,109,111,106,114,113,109,109,110,110,110,109,115,111,109,110,109,114,110,113,111,114,110,108,111,112,111,106,113,109,110,109,111,110,111,110,111,110,109,109,110,113,111,111,111,112,106,109,112,112,110,111,108,107,109,112
108,110,116,108,111,110,109,109,106,115,113,107,109,112,111,111,111,112,111,111,112,116,110,111,111,107,112,112,108,105,109,111,110,112,110,108,108,108,112,114,109,108,107,109,110,113,110,108,107,107,108,111,112,114,107,108,109,109,109,114
107,112,108,109,108,110,111,109,110,110,112,110,111,110,113,112,108,111,110,110,110,113,109,111,112,110,114,111,107,110,113,107,108,108,108,108,110,110,109,115,110,110,117,110,109,109,109,110,105,110,112,109,107,114,111,118,111,109,110,111
108,111,111,106,108,112,116,111,108,113,110,108,113,110,112,109,111,113,108,109,110,112,109,110,113,112,110,108,108,113,112,113,111,106,106,110,108,107,111,113,112,108,113,110,110,115,108,111,111,113,106,115,107,110,109,111,107,107,114,104
111,110,109,106,108,112,112,108,109,114,110,110,112,108,108,111,114,112,110,107,114,112,113,112,109,113,110,115,109,110,109,119,108,107,111,113,109,111,106,112,108,112,112,110,109,109,110,109,109,116,109,113,112,113,106,106,111,110,113,108
110,110,107,112,114,114,110,108,110,109,107,111,112,108,112,111,108,111,113,117,109,113,112,112,112,108,109,112,110,110,111,111,114,109,110,108,110,112,111,113,110,111,108,109,110,111,110,111,112,113,112,108,108,113,115,110,108,107,108,113
111,111,109,110,108,114,108,111,111,112,113,111,111,111,112,114,111,115,109,112,108,115,112,110,109,109,111,109,108,110,112,110,114,113,108,108,110,107,108,109,109,108,114,114,111,109,108,111,111,113,112,105,108,111,113,108,111,109,108,112
112,112,111,109,105,112,111,111,111,107,119,112,110,112,113,110,108,114,115,113,115,111,109,112,111,112,109,110,107,109,112,111,111,110,112,112,107,107,108,114,109,108,110,113,111,109,109,110,109,111,112,113,112,117,109,109,107,110,112,111
111,110,115,114,110,113,110,110,112,113,109,109,112,112,111,114,111,110,115,112,110,112,110,111,113,110,108,110,103,106,112,110,112,115,108,113,112,114,110,114,108,110,109,112,110,108,110,111,112,109,107,111,111,112,110,110,114,109,111,114
110,109,111,110,108,110,111,112,107,110,111,112,112,109,110,114,109,107,111,114,111,109,109,111,110,111,109,114,114,110,109,112,114,110,105,111,113,113,111,112,109,113,112,115,107,112,108,108,111,105,112,111,109,109,110,113,111,113,113,112
110,111,112,111,113,109,111,112,111,109,111,114,113,110,109,110,113,112,110,114,110,110,111,108,109,110,111,107,116,109,114,107,111,111,112,112,107,114,112,107,108,111,112,113,106,111,109,109,113,113,115,114,108,109,109,109,110,110,108,111
108,111,108,115,112,112,109,111,115,112,110,108,113,111,113,110,112,109,110,111,113,111,112,113,114,108,108,113,109,108,113,115,108,110,108,113,108,112,112,109,112,111,109,111,111,110,111,111,110,113,106,111,109,107,116,109,111,109,107,113
110,108,105,112,115,107,110,110,109,109,114,108,113,112,110,113,109,111,112,111,109,110,108,113,111,112,107,108,108,112,114,114,110,108,109,114,113,106,107,110,110,108,109,113,116,110,109,110,108,114,104,110,111,109,112,111,114,111,112,111
113,114,108,111,112,105,112,114,109,110,108,112,112,113,113,110,108,112,109,106,109,111,110,111,106,113,114,110,111,112,111,110,113,110,107,110,111,112,114,112,110,103,108,107,109,113,110,110,114,109,114,110,109,107,110,111,111,111,111,109
108,113,115,109,108,109,112,113,114,110,107,113,111,112,112,108,110,112,108,107,108,108,110,108,106,113,109,109,112,111,110,113,111,116,108,110,114,112,111,116,110,107,112,104,115,109,112,110,109,110,113,110,111,112,110,111,107,113,107,113
108,105,110,112,112,108,112,108,109,110,111,111,108,108,110,109,110,114,111,112,108,113,111,111,110,107,109,113,109,109,111,112,113,118,109,113,111,111,110,115,108,110,112,113,107,107,109,113,108,107,113,110,112,112,110,111,109,112,113,109
109,106,110,113,112,114,113,109,111,111,111,112,108,114,108,111,107,111,112,112,110,109,113,112,114,108,109,112,114,108,111,109,109,115,108,112,111,110,117,115,114,112,109,111,110,109,107,109,113,107,107,110,112,111,107,107,112,111,112,111
115,109,110,111,110,116,111,111,109,114,114,110,108,107,109,114,110,111,112,110,114,114,113,114,109,113,111,115,108,111,109,108,111,108,106,112,111,106,113,111,108,110,110,112,113,113,112,111,110,109,107,106,110,113,110,113,113,109,109,109
110,110,112,110,109,109,108,110,110,113,110,107,116,102,111,111,111,113,109,113,112,112,106,113,109,114,114,112,112,112,111,111,110,114,111,115,115,111,111,110,109,109,113,110,108,115,111,111,109,111,106,112,106,107,111,112,112,109,112,114
114,112,114,106,113,114,112,106,108,113,117,114,109,111,113,110,113,111,113,110,110,113,114,114,113,115,111,110,111,110,114,113,110,116,115,111,113,113,114,109,116,109,111,114,113,107,117,111,109,108,111,108,111,106,112,110,112,106,110,116
108,109,109,108,112,110,113,110,110,109,112,113,111,112,110,113,110,109,115,108,113,113,114,112,112,112,119,113,111,111,113,109,112,114,112,109,115,108,113,117,107,110,109,116,110,106,112,111,111,110,115,108,108,109,115,108,114,113,112,108
111,109,108,109,115,112,109,111,107,114,110,109,113,110,109,112,116,112,114,115,112,111,116,115,113,111,118,113,113,113,113,113,111,113,109,112,118,115,111,112,111,112,110,115,109,112,110,110,113,112,109,113,113,110,112,109,114,112,110,109
113,111,109,116,112,108,109,112,112,109,105,113,115,110,107,113,109,114,110,121,109,117,110,113,112,114,114,113,118,110,116,115,111,115,111,113,110,111,109,110,112,109,111,111,114,113,107,109,112,108,108,113,112,111,112,107,109,112,110,111
106,114,107,111,108,108,108,112,112,113,113,113,112,109,111,108,113,113,110,114,114,113,114,121,113,112,116,113,119,115,113,111,113,117,114,114,109,110,110,117,108,108,112,113,112,110,111,109,109,110,108,109,107,110,112,111,118,111,109,109
110,112,112,109,111,112,107,118,105,114,115,112,111,113,115,110,107,116,113,111,117,111,115,118,113,112,114,114,115,116,114,116,116,110,111,111,110,113,113,114,108,110,113,113,110,108,109,115,113,111,113,107,112,114,110,116,112,108,113,107
115,110,111,109,108,110,108,111,111,110,113,109,111,116,112,111,111,113,109,112,115,115,115,114,117,117,119,121,112,114,114,118,114,114,112,109,109,108,113,109,111,110,115,109,110,110,108,113,112,105,114,108,114,112,111,112,110,110,111,104
108,110,111,109,108,111,112,111,112,114,113,112,113,110,111,112,115,117,112,114,115,120,117,115,114,117,122,116,116,121,113,115,113,118,107,116,116,109,109,108,109,107,115,112,113,112,107,110,109,111,110,109,106,113,113,109,109,114,110,108
115,110,110,112,115,114,113,112,110,117,111,110,111,113,115,111,114,109,114,117,116,123,126,122,121,117,123,120,122,114,111,117,114,111,109,114,113,114,113,106,112,111,109,116,109,111,110,116,109,113,106,109,107,110,109,110,118,114,107,111
109,115,114,110,110,111,113,108,114,110,109,110,114,113,115,109,116,114,119,115,118,117,118,125,121,121,120,121,122,118,115,116,116,115,115,114,111,116,111,111,115,108,112,113,108,109,113,115,109,112,108,109,115,110,109,112,111,112,110,108
111,109,114,115,108,104,115,107,111,112,112,113,112,114,114,110,113,113,118,118,121,119,124,122,126,121,117,126,124,116,121,116,112,115,115,114,113,112,112,114,111,112,114,111,109,108,109,112,111,114,111,109,109,111,109,109,112,116,114,111
113,108,113,114,111,111,112,112,109,112,110,112,110,115,113,111,112,116,112,118,118,123,121,122,125,124,125,123,122,119,117,118,113,113,114,115,118,114,117,107,113,117,113,112,110,107,110,110,111,111,110,111,108,112,108,111,111,115,110,114
108,110,112,110,111,112,113,108,108,111,112,118,116,112,110,114,114,112,116,119,119,121,120,122,121,127,124,123,124,118,120,121,114,118,115,113,116,110,113,115,115,108,111,110,112,114,113,113,111,111,112,109,108,114,108,111,115,110,110,111
108,110,110,111,114,109,112,108,107,111,113,113,114,113,109,110,116,117,115,119,119,123,120,123,122,123,118,125,124,118,119,119,119,116,117,112,116,111,110,111,109,115,113,109,113,108,113,110,111,115,109,108,110,107,111,108,110,113,110,111
110,109,114,111,107,112,111,112,112,109,111,109,112,112,111,111,123,117,116,120,118,122,118,122,117,120,123,119,120,122,117,117,119,117,115,115,117,112,116,112,112,110,110,111,111,117,111,112,110,109,110,112,110,110,110,112,111,109,112,112
112,112,112,110,113,112,108,110,113,114,113,113,112,113,117,107,119,123,117,121,119,124,119,118,118,121,125,120,124,122,123,120,123,117,123,115,113,113,113,108,112,112,110,111,111,113,110,113,109,110,110,109,111,111,105,110,110,109,109,109
109,113,109,114,109,112,113,105,114,109,114,109,113,107,114,113,114,116,118,123,125,126,121,117,121,120,120,125,121,117,122,121,118,122,121,110,112,117,113,108,109,114,116,111,112,109,108,111,108,110,116,114,115,113,111,110,106,108,112,113
113,109,106,119,112,115,111,110,113,106,114,112,117,111,110,118,114,116,120,119,121,121,119,122,127,119,118,122,121,123,126,124,124,121,117,116,113,115,111,110,116,115,112,110,112,110,112,112,112,108,112,114,109,107,116,109,110,108,114,111
109,109,108,110,114,112,110,117,110,108,115,111,112,112,115,117,113,112,117,119,118,118,122,122,123,122,120,122,122,120,125,120,119,120,123,115,113,112,115,114,114,114,110,112,111,115,106,118,112,109,109,115,114,105,111,110,109,114,107,112
109,114,110,109,113,113,111,110,111,107,107,113,112,111,120,115,115,119,116,119,123,119,117,126,120,120,122,117,118,124,125,124,120,121,116,117,117,115,112,110,115,112,108,112,108,112,112,114,110,109,105,110,113,111,109,113,107,109,111,107
113,111,111,109,111,114,115,110,113,109,113,112,108,111,116,114,115,117,119,118,119,121,118,123,123,120,126,120,125,124,125,123,122,122,117,114,116,116,112,112,112,110,111,116,112,109,111,107,112,112,108,109,113,112,112,111,113,111,106,108
114,113,110,111,111,109,114,109,110,112,113,114,116,114,113,114,115,116,123,118,116,128,114,117,126,121,123,128,123,124,121,121,117,123,120,118,115,115,114,118,118,114,111,111,115,114,112,113,111,110,108,109,111,108,110,110,109,114,115,113
111,110,112,114,111,110,108,113,109,108,111,114,113,109,114,114,117,115,115,124,120,127,122,123,125,118,120,121,122,121,124,122,117,122,123,118,111,113,113,113,113,114,117,106,108,109,109,112,111,112,111,111,112,111,109,111,112,109,111,109
112,112,108,111,108,113,103,113,113,105,111,110,113,115,112,115,118,117,117,119,119,123,122,120,124,123,119,121,123,123,125,122,121,119,120,116,115,114,114,116,114,113,108,112,115,114,110,111,110,107,113,110,111,114,110,112,109,114,113,110
108,113,110,108,112,111,111,112,108,112,114,112,107,114,114,112,117,122,122,120,121,123,122,121,120,123,121,122,126,127,123,119,122,119,119,120,116,112,114,113,111,115,110,112,112,111,110,116,113,110,112,115,108,114,110,117,111,110,112,109
118,110,111,112,109,114,115,108,114,113,113,109,111,113,112,113,120,117,120,117,125,124,126,122,131,120,126,123,116,124,125,121,123,120,117,117,110,115,117,112,115,107,113,111,109,112,109,113,116,113,112,111,111,113,109,109,112,110,112,109
114,114,110,110,111,110,113,111,110,113,114,111,114,113,114,113,118,118,125,126,123,128,127,122,126,125,123,121,124,128,129,119,124,120,118,120,114,114,116,114,111,111,115,110,111,108,110,107,111,111,112,108,109,111,113,110,110,111,113,113
119,104,106,113,112,112,110,106,112,113,112,112,121,111,112,116,110,123,123,127,123,127,128,124,118,123,126,119,117,122,126,124,125,123,121,115,112,116,115,111,111,117,114,113,111,111,114,112,113,112,114,112,110,111,111,115,113,112,109,114
106,111,108,114,114,112,108,113,116,108,113,109,115,112,114,118,113,122,125,123,127,126,125,126,118,122,127,123,121,127,118,122,128,123,117,116,115,114,114,113,116,111,111,114,106,109,115,113,112,112,109,114,109,112,114,111,112,110,107,110
109,108,109,111,116,111,106,113,113,111,114,114,108,110,115,109,116,123,124,123,122,127,125,121,122,125,122,120,125,127,126,128,123,120,118,124,112,106,115,117,114,109,112,116,107,114,112,109,116,114,109,113,104,110,117,107,112,108,112,111
111,112,112,107,111,111,110,114,110,111,112,114,108,113,119,111,112,119,122,121,123,129,123,122,125,121,120,122,126,121,126,127,117,122,122,117,112,116,115,110,114,114,110,113,110,108,115,118,109,114,113,113,113,105,114,110,112,111,109,108
110,113,108,108,110,107,114,114,109,114,109,109,113,115,115,113,115,118,118,124,130,127,120,121,124,125,119,127,119,117,122,127,116,124,120,116,116,113,115,110,110,109,115,117,112,109,108,112,110,110,114,110,106,111,107,113,112,114,113,111
110,116,111,111,109,115,109,105,109,116,112,110,108,116,112,110,116,116,117,120,127,122,123,120,123,127,122,122,119,117,120,123,121,126,113,114,117,110,112,115,108,109,114,114,111,114,113,113,109,109,114,111,106,111,111,111,108,114,113,109
111,109,116,110,102,114,112,115,112,111,111,115,112,110,112,113,116,113,117,121,125,125,123,115,122,119,124,118,118,123,117,118,122,124,117,112,112,116,114,113,116,112,109,114,114,115,113,108,109,112,111,110,113,113,109,113,109,109,109,106
112,106,110,109,105,109,113,115,110,109,108,110,109,114,114,116,111,114,123,119,121,124,123,119,122,119,122,120,117,124,125,122,119,119,119,116,115,114,114,112,113,112,112,114,115,111,113,112,109,115,110,109,110,110,107,115,116,109,113,106
108,112,113,109,108,108,112,113,113,108,111,109,113,112,113,118,114,116,121,122,119,118,124,124,120,122,121,121,125,123,127,124,116,116,116,119,110,114,113,109,112,113,114,106,112,111,110,113,112,112,113,110,110,111,108,108,109,106,116,107
111,107,110,109,112,113,110,113,117,110,111,112,115,112,113,113,116,115,114,121,126,120,121,118,121,123,124,120,122,126,126,127,118,121,118,121,109,116,113,108,115,113,112,112,113,113,112,107,109,109,112,109,114,112,107,111,109,111,113,113
114,114,116,110,109,112,111,114,113,109,112,112,115,111,116,112,115,113,117,119,121,121,126,118,120,120,124,117,117,114,125,125,124,120,120,115,120,114,112,110,112,114,116,110,112,112,109,108,109,112,110,113,112,110,112,115,113,112,112,114
111,112,107,111,107,113,111,112,111,109,114,111,110,113,111,116,112,119,110,120,114,123,123,121,124,119,120,120,123,121,120,130,120,115,119,110,117,112,114,110,111,111,110,113,112,112,111,109,111,112,109,113,114,110,107,111,112,108,111,111
112,110,108,108,112,110,115,112,107,113,110,108,115,111,108,114,114,117,112,123,122,121,121,120,121,124,115,120,121,122,125,127,123,118,120,116,111,112,113,110,114,115,116,115,109,110,112,113,111,105,107,106,112,111,109,114,112,108,118,108
112,113,112,112,110,110,113,111,112,110,109,108,110,108,110,110,120,116,118,116,123,126,125,123,120,121,123,122,122,127,127,123,122,117,118,119,114,115,112,113,114,109,112,114,109,114,111,110,110,111,112,109,111,110,115,109,113,110,108,108
111,111,110,109,109,110,109,112,112,111,112,113,111,113,111,111,113,116,118,123,129,126,125,129,124,119,122,124,123,128,126,120,125,124,119,117,118,115,110,116,110,111,109,108,111,112,111,114,109,111,107,113,109,113,106,107,109,109,114,111
109,111,115,111,111,109,109,111,110,109,108,112,114,113,116,112,110,116,119,131,123,127,123,123,126,121,127,122,125,127,126,126,120,121,120,116,111,115,118,112,109,113,110,114,110,106,109,114,113,115,113,110,107,111,112,115,109,111,108,110
110,110,109,115,113,108,109,110,113,112,114,110,110,112,114,110,118,117,117,123,122,130,127,125,119,121,124,119,124,129,118,125,124,119,120,120,113,113,115,112,108,108,112,115,111,109,111,115,117,112,110,110,106,110,113,108,111,116,111,113
113,115,112,114,108,109,106,111,116,114,111,109,116,114,116,114,111,120,119,124,129,125,122,127,117,132,127,121,127,125,124,120,121,118,119,120,111,114,113,112,113,114,110,108,114,113,112,110,109,110,107,110,108,110,113,110,110,111,115,115
111,111,112,113,114,110,109,110,109,114,112,109,109,114,111,110,111,116,123,121,124,134,124,121,118,122,122,120,125,122,125,123,122,122,116,117,119,116,114,112,112,116,115,111,113,114,113,113,111,113,112,108,108,109,112,111,109,110,111,109
110,111,115,113,114,106,111,108,111,112,114,112,107,112,114,113,119,115,117,122,126,128,122,123,127,122,120,124,123,126,127,121,121,124,118,111,111,116,119,112,112,110,112,110,113,114,111,108,111,116,112,107,109,112,107,113,112,106,113,113
111,111,109,110,113,109,114,115,111,112,113,112,110,110,114,113,115,120,115,116,124,125,122,123,122,124,126,119,121,127,122,123,121,124,120,119,115,113,109,110,112,110,110,112,113,105,112,111,114,109,107,110,110,112,113,110,111,108,111,114
112,112,114,108,108,112,111,111,112,112,114,113,113,109,111,114,112,119,116,120,123,128,124,121,118,126,120,121,120,125,120,120,120,122,121,120,115,111,110,112,113,109,114,107,115,107,109,105,106,108,112,110,112,113,110,105,110,111,111,105
110,110,112,110,113,113,107,108,110,114,111,110,115,109,114,111,110,119,116,120,122,121,120,123,124,123,115,127,125,125,120,121,118,120,121,116,114,112,113,111,115,112,107,111,113,111,111,111,113,114,113,109,107,111,113,112,113,106,109,110
109,110,107,109,113,113,108,107,107,112,112,107,111,114,111,112,112,118,119,119,117,123,120,123,121,120,123,128,124,125,120,119,121,118,119,114,111,112,116,117,115,113,109,115,114,109,112,113,111,113,112,108,107,112,111,110,113,110,111,110
110,112,112,118,107,110,110,115,112,107,111,113,112,113,115,110,110,115,118,113,117,123,119,124,118,123,121,119,122,123,120,119,119,123,120,116,113,112,114,115,112,108,109,113,108,110,113,108,116,108,109,111,110,113,110,112,109,109,114,111
110,111,111,109,111,110,114,112,110,110,108,113,115,112,109,113,115,114,116,116,122,121,120,127,122,123,124,122,122,121,123,118,117,116,111,115,117,117,115,114,111,107,112,110,115,107,112,110,110,108,112,106,113,113,107,111,108,109,111,112
111,107,107,109,113,113,114,112,110,110,113,112,110,110,108,111,116,116,120,115,119,123,120,127,117,122,124,120,121,124,122,119,120,120,117,113,117,112,116,115,109,113,115,109,115,111,112,115,106,115,107,111,111,110,112,108,111,111,112,110
109,111,109,110,110,112,110,110,110,111,111,111,113,111,109,109,112,112,120,114,119,118,119,123,121,124,125,119,121,123,121,122,117,119,119,116,117,113,109,115,112,115,108,111,108,115,111,111,112,109,110,118,112,111,110,110,111,112,110,108
108,114,109,107,110,113,109,108,108,116,107,112,117,112,111,112,114,117,117,119,119,120,119,119,124,125,125,117,127,121,123,124,120,123,115,113,114,115,114,110,113,115,112,113,113,111,109,109,112,108,113,114,111,108,106,111,109,111,112,113
109,109,111,106,110,110,111,112,111,112,105,116,115,112,113,110,112,115,111,111,119,120,124,126,122,117,125,125,124,126,123,120,122,122,117,111,113,111,111,115,109,112,116,116,117,110,108,109,111,112,113,108,111,110,110,111,111,108,111,113
110,108,114,115,106,113,112,107,112,114,108,108,113,111,110,115,114,114,114,116,116,120,118,121,119,121,125,124,126,126,121,120,119,121,117,113,114,112,116,116,112,112,114,115,114,110,112,110,112,108,113,115,110,111,108,111,109,110,112,109
109,110,112,112,109,107,110,109,115,108,114,114,113,114,114,108,109,112,113,120,117,114,121,121,119,117,118,125,123,123,120,124,120,117,118,113,112,108,112,108,112,109,110,113,114,110,110,113,111,116,117,109,110,112,111,110,115,110,109,113
112,111,110,109,110,112,109,110,112,116,113,107,109,110,110,113,110,112,113,116,117,118,118,118,121,122,123,123,123,123,126,121,118,121,119,115,115,112,112,114,116,109,106,115,109,111,110,109,114,110,114,112,111,111,113,112,118,111,108,109
112,110,110,107,111,112,114,112,112,108,111,110,106,111,112,112,112,113,116,117,112,117,118,120,118,123,121,125,125,122,125,120,120,121,119,117,110,115,116,112,109,111,111,114,111,109,112,111,111,105,106,110,109,110,109,109,111,109,109,108
110,111,111,114,111,106,112,107,111,112,108,105,109,108,117,113,109,109,114,116,118,111,112,118,120,122,122,125,123,123,123,121,119,117,112,117,112,108,116,111,107,111,111,111,113,109,107,112,111,109,110,109,108,109,114,111,106,111,111,113
109,112,108,112,113,116,109,111,112,105,111,113,112,111,110,112,114,108,114,109,114,114,117,115,120,122,124,116,124,123,119,116,118,110,114,115,111,111,112,108,112,111,108,112,113,112,114,111,112,113,107,108,111,108,110,111,109,109,110,114
111,113,111,110,106,111,108,112,115,106,108,117,113,113,113,112,111,112,113,112,114,114,117,112,119,120,119,124,118,117,119,118,113,110,113,115,115,113,114,109,113,111,108,109,110,109,111,108,113,107,116,110,109,111,105,112,112,113,110,109
112,112,111,111,110,109,111,110,113,108,110,112,112,113,110,112,114,110,109,115,115,115,113,112,118,114,113,115,119,119,112,117,111,117,107,112,115,109,111,106,113,115,109,114,113,114,106,110,109,112,109,111,107,111,112,113,105,106,111,112
109,111,111,111,113,111,111,113,111,105,108,111,114,112,110,111,106,116,112,113,116,116,111,109,112,117,121,118,116,115,114,114,114,120,110,116,112,109,110,111,110,113,110,114,107,110,111,109,109,109,111,117,107,112,110,110,111,107,108,112
109,110,116,111,109,112,109,111,109,109,114,110,110,110,114,114,112,109,110,113,113,109,111,112,113,113,117,113,116,113,113,114,113,117,115,116,113,114,105,109,107,110,113,112,112,104,115,109,108,109,108,108,111,116,108,108,115,111,108,110
111,112,112,108,112,109,110,111,106,109,112,111,109,111,111,113,117,110,111,114,111,106,114,110,111,110,113,108,116,114,111,112,109,113,110,113,109,112,107,110,110,110,112,113,108,108,113,115,109,108,113,111,109,109,107,110,113,110,110,115
106,110,113,108,112,111,112,113,108,117,107,116,112,115,106,109,110,110,113,113,113,114,107,112,110,110,112,110,108,110,116,112,109,117,114,113,115,114,115,112,109,111,112,108,107,108,111,111,112,112,115,110,109,109,111,111,108,108,111,112
113,108,113,108,111,110,112,112,111,110,106,111,114,114,111,113,110,111,109,111,111,110,110,110,109,110,111,109,110,111,110,111,113,111,106,110,114,114,110,111,114,114,113,110,114,108,109,106,116,110,109,109,110,110,112,111,112,107,115,111
110,110,110,112,113,110,106,108,111,108,110,110,109,112,111,110,110,111,112,110,112,111,111,113,110,110,108,109,112,111,110,107,113,114,109,109,110,115,112,108,107,114,109,114,110,112,112,108,117,110,110,108,113,107,107,113,113,111,106,113
112,110,108,109,113,109,108,114,110,110,112,113,114,109,109,111,111,113,114,108,111,108,107,111,112,110,112,109,112,112,108,111,109,113,115,108,111,110,111,110,108,114,110,114,114,105,113,110,110,111,112,111,110,109,107,109,108,110,105,107
110,110,110,111,113,108,111,112,112,108,111,107,108,110,111,107,111,112,110,110,113,110,111,113,109,111,107,106,116,110,109,111,117,109,107,110,112,113,109,110,110,110,110,113,110,112,112,112,110,110,113,110,111,111,111,109,106,108,111,110
112,109,111,113,108,112,111,106,112,107,112,110,102,109,114,112,108,110,106,111,114,112,111,114,110,112,110,112,112,109,115,114,112,113,111,111,109,110,111,110,110,110,110,111,111,110,108,109,112,113,111,113,112,109,111,112,109,111,112,113
110,110,110,112,113,110,108,109,114,103,111,111,112,110,109,113,107,112,110,110,111,107,115,114,111,109,109,113,110,111,113,110,110,109,108,113,107,111,108,107,113,109,111,114,113,106,110,108,111,112,109,108,111,111,112,110,113,108,110,111
104,115,109,108,108,110,111,110,113,113,111,107,109,112,111,112,111,111,112,110,108,106,109,110,110,111,108,108,106,106,109,108,112,110,108,113,112,114,110,112,113,110,113,110,111,116,110,110,110,110,110,107,112,108,112,108,109,111,115,113
