109,110,110,112,109,108,111,109,106,109,109,107,109,109,108,109,110,111,110,111,111,106,107,109,108,108,109,109,108,110,110,109,109,109,109,108,105,106,109,107,107,109,108,111,111,109,108,107,108,109,110,110,107,107,112,111,109,109,110,108
111,110,109,112,110,105,107,108,106,108,107,105,107,108,108,110,111,112,110,109,109,108,109,110,109,108,108,109,108,108,110,109,109,108,109,109,109,109,109,108,107,110,111,109,108,110,110,108,111,113,111,107,106,107,110,111,110,110,111,110
110,108,108,109,109,108,108,106,106,109,110,109,111,110,109,110,109,109,109,107,107,108,110,111,110,108,107,107,107,109,111,108,106,109,110,109,111,110,108,108,108,111,110,108,111,113,109,108,111,113,110,107,108,109,111,111,111,110,108,108
107,109,110,108,108,109,109,108,109,109,109,110,109,109,109,107,107,109,110,108,107,108,109,110,110,108,106,107,110,109,108,108,110,111,110,108,110,110,109,110,110,109,108,109,114,112,107,108,109,109,108,108,109,111,112,108,107,111,109,108
109,110,112,110,107,107,108,110,109,107,108,110,109,108,108,106,108,111,110,108,107,108,110,108,106,107,108,111,111,107,105,107,108,109,111,112,110,107,108,112,112,109,108,109,111,108,107,111,110,108,110,110,108,111,110,108,108,109,109,108
109,109,108,108,108,110,110,109,109,108,109,111,110,110,109,108,109,110,108,108,108,108,109,107,107,110,110,109,109,109,109,108,107,108,111,110,108,107,108,111,111,109,108,109,108,106,107,112,113,111,110,109,108,109,108,109,108,107,107,106
110,107,105,109,113,113,111,108,109,109,108,108,109,109,109,110,111,109,107,110,110,108,107,109,111,110,108,107,110,111,111,110,108,108,109,109,109,111,112,111,111,110,110,109,106,106,109,110,111,109,106,108,109,108,109,109,109,109,109,109
109,107,106,111,113,110,107,107,108,110,109,109,107,105,108,111,111,110,109,110,111,110,109,110,111,110,109,110,109,109,111,111,112,111,108,106,109,113,112,110,110,110,108,107,106,108,111,109,108,107,107,109,109,109,110,111,112,112,111,109
108,107,109,109,108,107,111,110,107,111,113,109,105,106,110,110,109,109,109,110,112,111,109,108,108,108,109,111,110,109,109,108,109,110,106,106,109,110,111,109,107,109,108,109,110,109,109,108,107,108,110,110,107,107,110,111,112,113,108,106
110,109,110,109,109,109,109,108,107,109,113,108,107,110,111,110,108,107,109,110,111,109,108,109,109,108,108,111,113,111,109,108,108,108,106,107,110,109,109,109,106,108,111,112,111,109,108,108,108,109,109,109,106,108,109,108,110,111,107,107
112,108,107,110,109,109,111,110,109,111,111,107,108,110,110,110,108,108,109,110,109,109,110,112,111,110,110,109,110,111,109,110,110,110,111,110,111,109,107,110,109,109,113,112,108,107,109,110,109,109,109,107,108,111,109,109,113,113,109,109
111,110,111,112,110,109,108,109,110,109,109,106,109,111,110,111,111,108,108,108,110,109,111,111,107,108,111,110,108,108,109,111,111,109,109,109,109,109,109,111,111,109,111,109,106,107,109,109,110,109,110,111,110,108,107,108,111,111,108,109
109,108,110,110,108,106,105,109,111,108,108,110,110,111,110,112,110,108,110,109,109,108,109,110,106,107,109,108,105,105,110,112,111,107,105,109,110,108,109,112,111,108,109,107,107,109,107,108,111,110,110,111,110,108,107,106,106,110,112,109
107,106,108,108,108,110,107,108,111,109,108,111,107,107,109,112,108,107,111,111,109,109,108,108,109,108,107,108,108,109,111,111,109,109,107,110,111,109,109,110,110,108,108,108,109,110,110,110,112,110,108,108,108,110,109,106,106,110,111,109
109,109,107,108,111,111,111,110,110,110,108,106,106,109,109,111,109,105,112,112,108,108,108,106,109,111,110,112,111,109,109,108,106,110,111,111,111,108,108,109,108,107,108,110,108,109,112,113,110,107,109,109,107,109,111,107,108,113,109,107
110,109,108,110,111,111,110,109,107,110,110,105,109,113,111,110,111,105,111,111,107,108,109,106,110,111,108,108,109,107,109,109,106,109,110,108,108,107,107,109,109,109,111,111,109,110,111,110,107,107,111,110,106,107,109,105,109,112,110,109
108,110,110,108,112,113,108,109,110,112,112,109,112,112,111,108,112,108,108,108,107,109,111,108,109,108,107,109,110,110,108,108,113,113,108,107,110,110,108,109,109,109,111,110,109,111,109,107,109,110,109,109,107,109,108,107,112,110,106,110
110,106,109,109,111,110,106,110,111,112,112,111,110,113,112,108,111,110,106,107,107,110,109,108,107,108,108,109,111,110,108,111,112,108,109,109,109,111,110,109,109,105,108,107,108,109,109,109,111,110,108,107,108,109,108,108,109,112,109,110
112,103,105,113,111,107,105,105,109,108,108,109,108,113,112,109,111,110,107,107,112,109,105,107,107,108,110,110,109,109,109,109,110,107,108,111,111,110,110,109,109,106,108,109,110,109,109,110,109,108,107,108,111,110,108,107,108,112,110,107
113,108,107,113,111,106,107,106,110,110,111,107,108,109,109,110,110,110,108,111,114,108,107,108,108,108,110,112,109,111,112,109,111,109,106,107,109,111,108,106,108,109,109,112,111,111,110,110,107,107,108,112,113,110,106,110,110,109,108,108
108,107,108,111,109,108,110,107,108,110,107,106,108,107,108,109,107,109,109,114,111,108,113,111,106,110,111,109,107,110,109,112,111,107,109,106,110,112,108,108,108,109,107,112,110,112,113,109,108,108,111,111,110,107,105,107,108,107,111,110
108,107,108,108,110,109,112,108,107,107,103,108,110,109,111,110,109,111,112,112,107,107,111,112,109,110,109,108,105,110,110,111,108,106,110,110,110,111,110,109,110,109,108,112,111,109,110,108,110,108,110,110,109,106,107,107,110,108,109,110
108,109,108,105,107,108,110,105,107,108,107,109,109,109,113,112,110,111,111,107,107,109,108,108,109,110,109,111,109,109,112,109,106,110,111,109,109,109,106,106,111,109,112,111,108,106,107,111,111,107,108,111,109,105,107,110,110,109,107,109
109,109,108,107,107,109,109,105,110,111,109,109,107,107,111,112,111,110,108,106,108,110,108,109,109,109,110,111,110,109,107,106,108,110,111,110,107,109,107,109,110,109,112,107,108,107,106,112,110,108,109,111,110,108,110,108,105,109,111,108
108,108,109,106,105,109,111,110,110,109,108,110,109,109,110,110,112,110,108,109,107,108,109,110,108,110,111,110,108,110,108,111,114,113,112,110,105,110,113,112,108,107,109,109,111,111,108,108,110,109,109,110,109,109,111,110,109,109,112,108
106,106,105,107,108,108,110,109,108,107,108,109,110,110,110,109,108,107,109,111,107,109,110,108,106,111,113,109,106,111,112,113,115,116,111,108,106,109,111,110,107,108,111,112,110,110,109,106,110,110,108,109,109,109,109,111,110,110,110,107
108,107,108,112,113,110,109,106,102,104,109,109,107,109,111,109,105,108,110,109,108,108,110,109,108,109,110,111,110,109,110,111,116,116,113,111,111,108,109,109,110,112,110,109,108,107,110,108,111,109,108,108,109,112,108,109,106,106,108,108
107,111,109,108,111,112,108,106,103,104,110,111,107,108,111,110,107,109,110,107,108,109,108,110,111,111,111,111,109,112,115,113,115,116,115,112,110,110,111,111,111,110,106,107,109,109,111,109,111,109,110,109,108,110,107,108,108,110,110,108
106,109,110,106,107,112,110,110,109,109,111,113,108,108,110,110,109,110,109,108,109,111,108,111,113,112,112,113,113,113,114,114,115,116,117,114,109,110,114,114,110,107,107,109,110,111,110,108,110,110,111,109,108,107,106,107,108,108,109,107
110,111,110,104,105,112,111,108,110,110,110,111,109,107,109,109,110,110,109,111,111,110,109,109,110,110,112,115,113,110,114,120,116,114,117,116,111,110,114,115,109,108,110,110,108,110,109,107,109,109,111,109,112,111,109,110,110,106,104,104
107,106,109,110,109,109,109,109,109,109,108,109,109,107,109,110,111,110,109,111,111,107,109,109,110,111,112,112,112,112,116,121,116,114,115,115,112,109,111,111,105,105,109,108,109,109,107,108,110,109,110,109,110,112,111,110,109,108,107,107
108,107,109,111,110,108,109,110,110,109,108,108,108,109,110,111,111,108,106,109,110,108,109,111,112,113,111,108,110,114,117,117,116,114,111,112,111,109,111,110,107,107,109,110,111,108,107,110,111,111,110,109,108,110,111,110,108,108,108,109
110,108,106,110,111,111,111,110,109,109,109,107,108,110,109,111,110,108,107,107,109,108,108,109,110,110,109,111,113,111,114,119,119,116,113,113,112,111,112,111,109,111,113,112,110,108,109,111,111,111,111,110,110,109,109,107,109,110,110,110
108,106,104,108,110,107,108,110,110,109,108,108,109,109,109,111,110,108,108,106,106,107,107,108,110,110,109,112,115,115,114,118,118,114,113,114,112,108,110,109,107,111,113,110,108,109,111,110,109,110,111,110,109,108,108,109,110,110,110,108
108,111,111,109,110,109,108,109,109,109,109,109,109,109,111,112,110,108,109,109,109,108,107,107,111,112,112,112,115,118,117,115,114,112,112,116,114,108,108,110,108,109,108,107,107,111,112,109,108,111,112,109,107,107,109,112,111,108,110,110
107,108,109,108,109,107,105,108,111,112,111,109,108,108,112,113,110,109,110,112,112,111,110,108,110,111,111,113,115,117,119,118,115,113,113,113,111,108,109,111,110,109,107,106,108,111,111,110,110,111,112,110,108,107,108,109,108,108,109,110
105,108,108,110,110,106,105,109,111,110,108,108,108,108,110,110,108,109,110,109,110,112,111,110,111,112,111,110,113,117,118,117,115,115,114,109,106,108,110,111,111,109,109,108,108,109,111,110,110,110,110,109,108,108,107,108,109,109,109,108
109,111,110,110,110,109,110,108,108,109,108,108,109,108,108,109,108,110,112,110,110,110,111,113,112,110,110,112,117,118,117,118,116,115,114,110,107,109,112,114,111,106,108,109,108,111,112,109,108,109,108,106,108,110,109,110,111,111,111,110
109,108,108,107,110,111,110,109,109,111,109,109,110,107,107,110,110,109,111,111,110,110,112,113,110,108,112,116,118,118,118,120,115,112,115,115,109,109,113,113,110,108,109,109,111,113,110,108,109,111,110,108,109,110,109,110,111,109,108,106
108,107,107,109,111,108,109,111,109,112,112,111,109,106,107,109,108,107,109,109,108,110,112,112,113,112,111,114,117,117,118,118,116,113,114,113,110,108,109,111,110,111,111,109,111,111,108,107,110,112,111,109,108,108,109,110,109,106,105,109
114,112,109,110,112,108,108,111,109,108,111,110,108,108,109,108,107,106,108,108,107,108,112,112,113,110,109,114,116,116,118,118,117,112,110,109,109,109,108,112,111,109,110,111,112,112,108,108,109,110,108,107,110,112,110,108,109,108,106,107
111,111,108,109,110,109,109,109,110,109,109,109,108,110,110,107,108,108,109,109,108,110,113,110,111,112,110,116,120,117,116,117,118,115,113,111,109,111,112,112,110,107,109,112,112,111,109,109,110,109,106,108,110,110,109,108,108,108,107,107
108,107,105,107,109,111,108,106,110,111,109,110,110,110,110,107,110,111,108,111,110,109,113,112,111,112,112,115,118,117,115,119,121,116,114,114,111,111,113,111,108,109,110,110,107,108,109,109,109,108,107,107,106,109,113,113,111,110,109,108
109,110,109,106,108,111,108,106,110,110,110,112,111,111,111,109,109,110,106,109,109,108,112,114,109,110,113,115,118,118,118,119,121,115,112,111,111,114,112,110,111,110,108,108,107,108,109,109,109,107,108,107,106,109,111,110,109,110,110,106
109,109,108,106,109,111,108,110,113,110,108,111,108,108,112,109,106,108,109,109,110,111,115,113,109,111,114,116,118,119,120,121,120,116,112,111,111,112,109,108,110,109,107,108,110,111,110,109,107,107,108,109,109,108,107,108,110,109,109,110
107,108,107,108,109,108,107,110,112,109,107,110,109,106,110,111,107,110,112,109,112,113,113,111,110,113,116,118,122,125,126,125,123,117,113,113,112,112,112,109,110,109,108,109,111,111,109,111,110,108,110,112,110,109,110,111,110,108,108,111
107,114,112,107,107,109,109,108,105,107,111,110,109,108,111,111,108,107,110,111,111,112,111,111,112,113,116,123,130,133,135,133,125,118,110,111,116,116,112,110,113,107,107,109,109,111,107,109,111,109,109,110,109,108,108,113,110,109,107,109
109,112,109,107,107,108,110,109,105,108,113,109,108,109,110,109,108,107,109,112,108,111,112,113,113,116,120,133,144,143,144,147,140,129,118,115,116,113,109,112,113,107,108,108,108,110,107,105,110,110,108,107,109,108,108,112,108,110,110,108
105,108,107,109,112,111,110,111,110,107,110,108,109,109,110,109,111,112,112,112,108,112,115,113,116,121,127,147,165,165,168,176,164,139,126,121,114,112,110,111,111,111,111,108,111,111,110,108,112,112,109,108,110,109,104,109,106,108,109,107
106,108,108,111,112,108,108,109,108,107,108,110,109,109,110,110,111,112,112,113,109,112,115,111,118,121,126,157,181,182,183,195,180,148,131,121,117,114,112,108,110,112,107,108,112,110,109,110,111,111,111,110,111,109,105,107,107,111,110,110
108,108,110,110,111,108,108,109,107,107,107,110,108,107,110,109,108,108,109,112,110,109,113,113,118,119,125,157,181,178,177,187,173,146,128,120,115,110,112,111,111,110,104,109,109,109,109,108,107,109,111,111,110,109,111,109,111,114,113,110
111,108,107,107,110,107,104,106,109,109,108,112,109,106,108,110,111,107,107,110,111,108,113,115,116,116,122,143,165,168,163,158,150,134,126,120,114,111,112,114,112,110,108,110,107,110,110,106,104,110,110,111,109,110,111,109,110,110,110,108
109,110,108,108,109,107,103,105,111,112,109,109,110,108,109,110,111,108,108,111,110,109,111,110,114,115,118,127,142,149,150,139,139,126,115,113,112,113,110,112,110,112,109,110,107,111,108,107,107,111,108,109,108,106,106,106,109,112,107,105
107,110,110,111,108,110,110,108,109,112,108,105,110,110,108,107,109,108,108,108,109,110,110,107,111,113,114,124,129,132,136,129,123,117,113,112,110,111,110,109,109,111,108,110,107,107,108,109,110,109,108,109,109,109,108,107,109,111,109,109
107,109,109,107,105,110,111,109,108,110,108,107,111,109,107,107,108,108,107,106,109,110,110,110,111,113,117,122,124,123,124,123,117,116,114,112,111,112,111,111,109,110,109,112,108,106,109,107,109,105,108,108,111,113,111,110,108,107,105,107
108,110,109,108,109,111,110,109,108,109,109,109,112,110,106,107,109,110,109,108,110,111,110,111,111,111,115,118,120,120,120,119,118,114,110,109,114,112,110,114,111,110,110,112,108,107,110,105,109,106,107,109,112,110,105,109,110,109,106,107
109,108,110,110,110,111,110,108,108,109,108,109,110,110,107,108,110,109,108,109,112,111,111,110,110,112,115,116,118,120,119,118,117,114,110,111,113,109,109,112,110,110,110,109,107,109,109,107,109,110,108,110,110,107,106,110,111,110,108,109
108,110,110,108,110,110,109,107,109,109,106,108,108,108,109,111,110,108,109,110,111,112,111,109,110,113,114,113,115,117,117,118,118,116,115,114,112,110,109,109,107,109,108,108,110,111,108,107,110,111,109,110,110,112,111,107,110,112,109,107
107,112,110,107,109,107,107,110,111,108,106,108,109,108,110,110,109,111,111,107,108,111,110,109,110,110,111,114,116,116,117,118,116,113,111,112,112,112,110,109,108,106,107,110,112,111,107,107,111,108,111,112,110,108,108,106,109,111,107,105
111,111,108,108,110,108,110,111,109,108,108,109,110,109,109,107,106,111,110,105,107,109,107,107,109,111,112,113,116,117,119,119,116,113,110,110,110,109,108,111,111,107,107,108,110,110,108,108,108,106,109,111,107,105,108,108,109,109,108,109
108,106,108,109,108,108,109,110,109,110,108,107,110,111,111,108,107,109,109,108,110,111,109,109,112,111,107,111,117,118,115,116,118,117,113,110,111,108,107,111,112,109,107,105,108,110,109,108,108,108,107,109,108,107,108,108,109,110,109,108
107,106,109,110,110,111,108,105,109,110,106,106,109,112,112,110,108,108,110,109,109,112,111,108,110,110,107,110,117,120,117,115,118,116,110,107,110,109,106,109,111,110,108,108,109,110,109,108,111,110,108,109,109,108,109,109,108,108,108,109
109,108,108,110,112,112,108,106,109,108,105,105,107,109,110,107,106,108,110,109,109,112,112,109,109,110,110,111,114,117,116,117,117,113,111,110,110,111,110,109,109,108,110,112,110,107,108,109,110,110,110,111,110,107,110,109,109,112,110,109
108,107,110,111,110,111,109,106,108,109,107,107,106,107,108,108,108,110,111,111,111,111,112,112,110,110,112,114,117,118,117,115,115,114,113,113,114,114,112,108,106,106,109,113,110,105,106,108,110,112,111,110,110,109,111,108,108,112,109,109
108,110,110,110,110,110,107,103,106,109,109,109,110,110,110,110,111,110,108,109,112,111,109,109,109,109,110,111,115,118,118,115,114,115,113,111,112,111,110,108,106,107,108,109,108,105,107,108,108,110,109,107,107,108,110,109,108,110,110,108
107,108,110,111,110,107,104,106,108,108,107,109,112,112,110,109,108,107,107,108,110,110,109,110,109,110,111,110,113,118,117,114,114,117,114,109,107,109,111,110,108,108,108,108,108,108,108,109,107,107,107,107,107,108,110,110,107,105,108,108
109,109,110,109,110,109,106,108,110,109,107,107,110,110,108,107,107,108,109,109,111,111,108,109,109,110,114,112,109,111,115,115,113,116,117,111,109,111,112,110,107,108,109,108,109,110,109,109,109,109,108,108,110,110,109,109,109,108,108,110
107,108,110,108,108,110,109,108,110,110,107,106,108,110,109,107,108,109,109,110,113,111,108,111,112,108,108,110,110,113,117,118,114,115,114,111,110,111,110,109,108,110,110,109,109,110,108,107,109,110,108,105,107,110,109,111,112,109,108,109
108,108,111,111,109,108,109,107,108,109,108,107,108,110,108,108,108,109,110,110,111,109,109,111,110,107,107,109,109,112,117,120,119,116,113,112,111,110,109,111,111,109,109,110,109,109,109,108,107,107,108,104,106,112,112,110,109,107,108,108
107,109,109,107,109,110,110,110,108,107,108,109,108,108,108,110,107,108,111,110,105,105,108,110,109,110,111,111,111,113,116,117,118,117,114,113,112,110,111,112,110,109,110,110,108,108,110,110,110,108,109,111,111,111,109,109,110,107,109,112
109,109,106,107,106,108,111,112,108,107,108,109,109,109,111,110,107,107,110,108,104,106,109,110,110,112,112,111,111,112,115,115,115,117,114,112,111,110,111,111,111,113,111,108,108,108,108,111,113,109,107,110,110,110,111,112,111,107,109,112
109,108,108,108,106,107,110,110,108,107,107,109,109,110,110,109,107,110,111,108,108,109,110,110,109,109,111,113,113,113,115,117,117,118,114,112,111,109,109,110,109,111,111,109,109,108,108,111,112,108,106,108,109,109,108,108,109,108,107,110
109,108,108,109,108,107,108,108,106,107,108,108,109,108,107,108,106,110,113,109,107,108,109,111,109,105,108,111,115,116,117,117,117,118,115,111,111,111,109,109,107,108,110,110,107,108,109,109,107,107,110,107,106,108,110,109,110,109,110,111
111,109,108,108,110,109,107,109,107,108,111,106,108,108,108,108,106,107,111,110,106,108,108,108,108,109,113,112,112,114,116,115,114,115,117,114,112,112,112,110,108,109,110,109,107,109,109,108,106,106,110,110,107,109,111,110,108,108,109,110
110,108,105,106,110,110,107,109,108,106,110,106,108,109,110,108,108,108,107,109,110,109,110,111,111,112,110,111,114,114,115,116,116,113,117,116,114,112,111,109,108,111,110,108,109,109,108,107,106,108,109,110,110,110,109,107,107,109,110,108
112,109,106,107,110,109,107,109,110,107,106,108,107,107,110,109,109,110,106,109,111,110,111,106,108,110,108,111,111,111,114,116,116,113,116,117,114,109,106,108,109,110,110,107,107,111,108,106,109,110,109,109,111,111,108,108,109,112,111,108
108,108,109,107,112,110,108,110,110,109,107,110,107,105,110,112,107,108,108,110,110,111,108,107,109,110,111,112,110,111,118,118,116,114,117,117,109,106,107,110,111,109,110,107,105,110,109,107,109,110,108,108,110,109,108,110,109,110,110,109
107,108,108,104,110,110,109,111,110,109,108,109,109,108,111,111,105,106,112,111,107,107,109,111,108,108,112,113,109,107,114,120,117,114,115,114,110,108,109,112,109,109,110,108,105,107,111,109,105,110,106,108,110,110,109,111,108,106,110,110
109,108,108,106,108,108,107,108,112,109,106,107,110,112,109,107,108,107,112,111,108,106,109,111,111,110,112,111,107,107,111,119,117,113,113,113,113,108,110,112,107,111,110,109,107,106,109,110,105,109,107,109,112,112,109,110,107,108,112,111
110,107,109,111,105,106,108,110,113,110,107,105,109,111,107,105,111,108,110,109,110,108,111,110,110,111,112,109,109,109,110,116,117,113,110,110,112,109,109,111,107,110,110,108,109,109,108,109,109,108,107,109,110,111,109,110,108,106,112,112
111,105,108,108,103,108,112,109,109,111,109,106,106,108,108,106,107,107,108,109,111,110,111,111,112,111,110,110,110,110,114,115,115,114,111,110,110,109,110,108,110,108,108,109,111,111,109,108,111,109,108,112,106,111,110,112,108,105,111,109
107,108,109,107,105,109,109,106,108,110,109,107,105,108,111,108,105,105,108,108,109,109,109,108,109,111,109,107,109,111,116,114,115,118,114,113,111,109,110,109,111,107,107,109,110,107,108,108,110,110,110,112,105,110,108,109,107,106,108,109
111,111,108,107,108,108,107,107,108,109,106,108,109,109,110,109,108,109,109,106,106,107,113,109,108,110,109,107,110,109,111,111,113,116,111,107,109,111,111,109,109,107,109,106,107,108,107,108,111,109,107,108,108,110,108,109,110,109,108,109
108,104,103,105,105,106,107,108,109,109,107,108,110,109,109,110,111,110,109,109,110,108,110,107,108,113,112,110,109,108,108,111,112,113,108,105,108,112,110,107,106,107,109,107,109,111,107,108,111,111,107,108,108,110,110,108,106,109,109,107
108,106,105,105,107,106,107,109,110,109,108,109,108,109,110,110,109,108,109,110,110,108,109,111,108,111,109,108,108,110,110,110,111,111,109,109,108,109,108,106,107,107,110,112,110,109,109,110,110,111,110,109,110,111,110,109,108,107,109,109
108,107,104,106,110,108,106,109,109,107,108,109,107,108,111,109,107,109,111,109,109,110,110,113,108,105,108,110,110,110,109,109,107,108,108,110,109,107,109,110,109,108,110,113,109,108,111,110,109,108,109,111,110,108,109,108,103,107,112,108
105,105,104,107,109,108,108,108,107,108,110,110,107,108,110,107,108,110,110,108,108,110,108,110,108,106,111,112,108,108,109,108,108,109,109,110,109,108,110,112,109,109,111,111,110,109,110,110,109,108,109,109,110,109,109,108,107,107,109,108
104,104,106,107,107,108,109,108,109,112,110,109,109,108,107,107,109,110,107,107,109,110,110,110,110,108,109,108,107,109,108,108,111,112,110,109,107,109,110,109,108,110,110,110,108,107,108,110,109,109,110,109,110,112,111,107,107,107,107,107
106,107,108,107,108,108,107,107,110,112,109,109,108,107,108,108,109,110,107,108,111,111,109,107,108,108,107,108,108,111,109,108,110,111,110,107,108,111,111,109,109,110,109,108,106,107,109,109,108,109,109,110,109,107,110,110,108,110,110,109
109,108,106,105,108,110,107,106,109,111,109,106,107,108,109,109,108,108,108,108,109,109,107,107,109,110,108,106,108,108,105,105,108,109,109,108,109,110,109,110,110,109,109,108,109,110,109,107,107,111,110,108,107,109,109,110,111,110,109,108
107,105,105,105,106,109,110,107,107,110,108,105,109,109,106,107,107,107,107,108,108,108,108,111,110,108,108,106,107,110,107,104,106,106,108,110,109,109,108,110,110,109,108,108,110,110,108,109,109,110,108,106,106,109,108,107,110,110,106,106
109,107,107,107,106,107,108,108,106,108,108,108,109,107,106,106,107,107,108,109,109,109,108,109,109,106,107,109,110,111,110,108,108,108,109,109,109,109,109,108,107,107,107,107,109,109,109,108,108,108,108,108,110,110,108,107,109,109,108,108
111,110,107,107,108,106,106,109,109,107,108,108,106,107,110,109,107,108,110,110,109,109,108,109,110,110,109,109,110,110,111,111,109,109,109,108,110,110,107,107,107,106,107,107,108,110,108,106,107,111,109,106,109,108,107,109,110,108,106,106
111,111,109,108,109,107,107,109,109,107,107,107,106,108,110,108,107,107,110,110,110,109,108,110,111,110,109,108,109,107,106,108,110,110,108,107,109,110,108,108,110,109,108,110,111,109,108,108,109,111,110,107,107,109,109,109,109,108,106,106
110,110,110,110,110,110,108,106,103,103,107,110,108,106,107,108,106,106,108,108,109,110,108,107,107,107,107,109,109,106,107,109,109,109,106,105,107,108,109,108,109,110,108,109,110,108,108,107,108,109,111,109,105,105,109,110,109,108,108,108
110,110,110,110,110,110,108,106,102,103,109,111,108,105,105,107,109,108,105,106,108,109,109,109,109,108,108,109,110,109,109,109,107,108,107,107,108,107,107,105,104,108,107,106,109,109,107,106,108,109,109,107,108,110,110,110,107,107,110,110
110,110,110,110,111,111,111,110,109,108,108,108,107,106,105,106,110,108,105,105,108,109,109,110,109,107,108,109,109,108,107,108,110,109,108,108,109,108,108,107,105,107,108,107,110,110,108,107,109,111,110,108,107,109,110,108,105,107,112,112
110,110,110,110,111,111,110,111,111,110,109,109,108,106,105,107,110,108,107,107,107,108,109,109,108,108,107,108,108,107,106,108,110,108,107,109,110,109,108,108,108,110,111,110,110,111,110,109,108,108,111,109,106,109,111,110,109,109,107,108
110,110,110,110,111,111,110,111,111,110,110,111,109,108,107,106,108,107,106,107,106,108,108,107,108,109,110,108,109,109,109,109,110,110,110,111,110,111,110,108,107,109,110,109,108,109,110,110,107,105,110,111,106,108,112,111,110,108,106,106
110,110,110,110,111,111,110,111,111,110,110,110,110,110,109,106,106,106,105,107,108,108,108,107,107,108,107,107,109,109,111,110,110,112,112,110,109,110,111,108,105,107,109,108,107,107,108,109,109,107,108,110,109,109,109,108,108,109,110,108
