111,111,111,110,109,109,111,113,113,111,107,109,110,110,111,112,111,111,110,109,109,110,111,111,112,112,111,110,112,113,112,111,111,111,110,112,112,110,111,112,110,108,112,113,111,110,110,110,110,111,111,110,110,111,112,111,109,111,110,109
110,109,109,109,111,111,111,110,110,110,108,107,109,109,109,111,112,112,111,110,109,109,111,112,113,111,108,108,111,113,111,109,110,112,112,113,112,109,110,111,111,111,113,112,110,110,111,110,112,112,111,111,113,114,113,112,111,112,110,107
112,111,109,109,112,112,111,108,108,111,112,109,108,108,109,111,111,111,112,111,111,112,112,111,111,112,111,110,109,108,107,107,109,110,109,109,111,112,112,112,113,113,112,110,110,111,112,112,111,111,111,111,112,112,112,112,112,110,109,110
111,113,113,113,112,111,111,110,110,113,113,109,107,109,113,113,110,110,112,113,113,113,113,110,109,110,110,109,110,111,108,108,111,111,108,108,112,114,112,111,112,111,110,109,110,112,112,110,109,110,111,111,110,111,111,112,111,110,112,111
110,112,112,111,110,111,111,110,110,112,112,109,108,110,113,112,110,111,112,113,112,112,113,112,110,109,108,109,113,114,111,110,112,112,111,113,114,113,110,110,111,109,108,110,110,110,110,109,109,111,111,111,111,109,109,112,113,112,111,111
109,111,110,107,107,109,111,111,110,110,112,112,111,111,111,110,109,111,111,110,109,110,113,114,112,111,111,110,110,111,112,110,107,107,111,111,111,111,112,112,111,109,109,111,110,109,110,110,110,112,112,111,110,108,108,110,111,112,111,112
108,111,110,109,111,112,112,113,113,112,111,112,113,113,111,109,110,112,111,109,110,111,112,113,113,112,111,110,110,112,113,110,108,109,110,108,108,110,113,112,111,112,112,112,111,111,111,110,110,111,112,111,109,108,109,109,110,112,114,113
109,111,113,114,113,111,110,112,113,112,111,111,112,111,109,108,111,113,112,111,111,111,110,112,113,111,109,110,114,115,112,110,110,111,112,110,109,111,113,111,109,111,113,113,112,110,110,109,109,110,112,112,110,110,111,110,110,112,113,111
111,113,113,112,112,111,111,112,110,109,110,111,111,110,109,108,110,111,110,110,111,110,110,112,112,111,110,112,113,112,112,112,110,109,110,111,113,113,112,111,110,109,110,111,110,108,109,110,111,111,112,113,112,112,112,110,109,112,113,112
110,111,111,111,109,109,111,112,109,108,109,110,111,112,113,112,110,109,109,110,110,109,110,112,111,110,111,113,111,109,112,114,112,111,110,109,110,111,112,112,111,110,109,109,108,108,110,111,111,111,111,111,112,112,111,108,109,112,110,109
112,110,111,112,110,110,111,111,110,108,108,110,111,113,114,112,110,110,112,112,110,109,110,111,111,109,110,112,110,107,109,111,111,111,110,107,108,110,111,112,112,111,110,111,110,110,111,110,110,111,110,110,111,111,110,109,109,110,110,108
114,110,109,112,113,115,114,110,107,107,108,111,111,112,111,110,109,110,113,114,112,110,111,110,110,111,110,108,110,110,109,108,109,110,108,107,110,111,110,111,111,110,110,111,111,110,110,111,112,110,110,112,112,109,109,112,113,111,109,108
110,109,110,112,112,111,109,109,110,111,110,110,111,111,110,110,109,109,111,112,112,112,112,111,111,110,109,107,108,111,111,109,110,110,109,108,108,111,111,108,109,110,111,110,110,109,111,113,112,110,111,112,110,108,110,113,114,111,108,107
106,110,114,113,112,111,110,111,112,113,113,110,110,111,112,113,110,108,108,108,110,110,111,112,110,109,109,112,112,109,109,111,111,111,112,111,111,112,111,107,108,112,114,112,110,110,112,112,110,110,112,112,111,110,110,111,112,110,109,110
110,111,110,110,112,113,113,113,112,112,113,111,108,110,112,112,108,108,110,111,112,109,108,110,110,111,113,114,112,108,106,110,110,107,109,113,113,111,111,109,110,113,114,112,110,110,111,110,110,111,110,112,113,111,110,110,110,109,111,110
110,109,108,109,111,111,110,110,111,112,112,110,110,110,109,108,109,109,112,115,114,110,108,108,109,112,113,112,111,110,111,112,110,106,110,113,111,110,111,112,112,112,110,109,108,110,112,111,111,110,110,110,109,110,110,109,109,111,110,110
109,112,109,111,110,111,110,108,108,110,112,111,112,112,108,111,112,110,111,114,112,111,111,108,111,110,109,111,112,111,110,108,106,108,112,114,110,111,113,113,112,112,109,106,109,113,114,111,110,109,110,108,108,111,112,110,107,111,113,110
110,114,112,110,111,111,110,110,110,108,110,111,111,112,111,116,114,112,112,111,109,110,111,110,113,107,109,111,111,110,108,105,108,112,111,112,112,114,114,114,113,113,112,109,110,114,112,110,110,109,111,109,110,113,112,111,110,112,110,110
110,109,112,111,110,109,109,112,113,109,109,110,110,111,113,114,112,113,114,108,111,109,110,111,109,107,111,111,109,109,111,112,115,113,110,110,110,112,113,113,113,112,114,112,112,113,109,110,111,110,113,112,112,111,109,109,111,111,111,110
108,110,115,114,113,112,110,111,114,112,111,109,110,110,111,109,109,110,112,109,115,111,110,110,107,108,113,111,112,111,110,112,111,109,112,110,108,110,111,112,113,112,113,111,114,112,110,111,111,112,114,112,111,111,111,108,108,112,112,111
108,111,112,110,111,111,112,109,112,112,111,109,112,110,112,111,108,106,108,113,113,112,110,108,108,109,112,114,116,113,109,110,111,108,111,112,113,112,112,111,110,112,111,109,113,111,112,111,109,113,114,111,108,113,113,111,112,110,109,110
111,113,111,108,107,109,110,108,109,109,108,111,113,112,113,111,111,107,109,112,109,112,110,108,110,110,112,116,116,109,112,113,113,111,112,110,113,112,113,112,108,114,109,109,111,110,112,111,108,112,113,110,109,112,110,112,114,110,109,111
111,111,110,110,110,112,108,108,109,109,108,113,112,113,112,106,111,111,111,111,111,113,110,109,111,109,111,116,116,110,113,115,114,113,114,111,110,110,113,112,109,113,108,111,109,110,110,109,111,112,110,112,113,110,108,111,111,107,109,112
113,110,109,112,113,108,107,112,112,111,109,113,111,111,109,104,108,110,111,113,113,111,110,110,112,111,112,115,119,118,115,113,114,115,115,115,110,111,112,111,110,111,110,112,110,110,110,109,113,112,110,112,113,109,108,110,109,109,113,112
114,110,108,112,113,108,110,113,114,112,110,111,110,109,109,109,109,110,111,112,112,110,109,112,113,113,112,117,119,120,118,120,118,118,117,117,112,111,113,112,110,110,111,111,111,110,110,111,114,111,111,110,110,109,108,110,110,112,112,112
113,113,111,110,111,111,110,111,111,112,110,109,110,110,111,113,112,112,109,109,110,111,110,114,113,112,112,116,116,119,119,120,117,115,113,115,115,113,114,111,109,109,110,110,109,110,112,113,112,111,113,109,110,111,109,110,112,110,110,112
114,111,110,110,110,110,111,111,110,111,112,110,109,110,113,113,112,111,109,108,110,111,110,113,114,113,112,112,115,119,118,115,117,117,113,111,113,113,112,109,108,109,110,110,109,109,112,112,110,111,112,110,110,112,110,110,113,113,114,112
109,110,110,110,112,111,111,111,111,111,113,113,109,108,112,112,109,110,112,111,111,111,109,110,113,114,113,114,117,117,118,116,118,119,115,111,110,112,111,108,108,110,110,109,109,109,109,110,110,111,111,112,109,111,111,111,114,113,112,110
109,110,114,114,111,109,109,110,110,110,111,111,110,109,111,113,110,111,113,112,111,111,110,109,111,113,114,116,119,120,119,118,118,115,114,112,112,113,112,109,109,110,110,108,110,110,108,108,109,111,111,112,111,112,113,112,109,110,111,108
114,112,109,108,107,107,109,111,111,110,110,110,110,112,112,113,112,111,111,112,112,112,112,111,111,112,113,115,118,121,121,119,118,117,117,116,114,114,113,110,110,110,110,108,110,111,109,108,110,111,110,109,109,111,112,110,108,111,112,113
111,112,113,112,109,109,110,111,111,111,111,110,110,112,112,111,112,112,112,111,111,111,111,112,112,112,115,115,115,117,119,119,117,116,116,115,114,114,113,112,110,110,111,110,110,111,110,109,111,110,108,108,110,110,109,109,111,112,112,112
112,112,111,111,111,112,112,110,110,111,110,109,110,110,111,111,112,113,112,110,111,111,110,110,111,111,113,117,119,120,120,122,124,121,116,115,115,115,113,111,112,112,112,112,111,110,110,111,112,111,110,111,113,112,109,110,113,113,112,110
110,112,112,110,108,108,111,110,108,109,109,110,111,110,111,112,111,111,111,111,111,111,110,110,112,112,113,116,118,120,119,117,118,121,120,118,116,112,110,112,113,113,112,112,112,110,110,111,112,113,112,110,111,112,111,110,110,111,111,109
110,111,111,111,112,113,113,111,109,109,110,111,112,112,112,111,109,110,111,111,110,109,110,110,113,115,116,116,117,122,124,120,117,118,117,115,114,112,110,112,113,111,111,112,111,109,109,110,111,113,111,108,109,112,111,108,109,112,109,105
113,111,107,108,113,115,113,111,111,111,111,112,112,111,110,110,109,110,111,110,110,109,110,111,112,113,115,118,120,120,120,122,123,122,117,113,113,114,113,111,111,112,112,112,111,110,111,111,110,110,109,109,111,111,110,109,110,111,110,109
113,110,109,112,114,113,112,112,113,114,114,112,110,109,108,109,110,111,111,112,111,110,110,113,114,112,113,118,121,120,118,117,116,117,118,117,116,115,113,112,113,114,113,111,110,110,112,111,110,111,110,111,114,113,110,109,110,109,108,110
112,111,111,111,109,108,110,112,113,115,115,111,110,111,110,110,111,111,111,112,113,113,113,114,114,113,114,118,118,116,117,118,118,117,117,116,115,114,113,113,113,113,112,112,111,111,111,110,111,112,111,109,110,112,112,111,110,108,108,110
111,110,112,113,110,109,110,111,111,113,112,111,111,112,112,112,111,110,109,111,113,113,114,113,113,114,116,118,121,124,123,119,117,116,115,114,114,114,113,111,109,109,110,111,112,112,111,111,112,111,110,111,111,112,112,112,111,109,108,109
112,111,111,111,111,112,112,111,110,110,111,110,110,111,112,112,112,110,109,110,112,112,112,113,114,115,115,117,119,121,120,118,116,115,114,114,114,116,114,110,108,110,110,110,111,113,112,111,111,111,112,114,114,112,110,111,112,111,110,109
111,111,110,109,109,110,112,111,110,111,110,110,110,110,111,112,111,111,111,112,112,111,113,114,114,115,115,115,116,119,119,116,116,117,116,114,114,115,114,111,111,112,110,109,111,112,112,111,111,111,112,113,112,110,108,109,111,110,110,110
108,110,112,112,112,114,112,108,109,111,111,110,110,111,112,111,109,111,112,112,111,110,111,112,113,115,117,119,121,122,120,117,116,116,115,114,113,113,112,111,112,111,109,110,111,110,110,111,112,111,111,111,110,109,110,112,112,111,110,113
109,109,111,112,113,113,109,107,109,110,110,110,109,111,112,110,109,109,110,113,112,109,109,111,112,114,117,119,121,120,117,114,114,116,116,115,114,112,110,111,112,111,110,111,111,110,109,111,112,111,111,112,112,111,112,112,112,111,110,109
115,114,112,108,109,110,109,109,112,111,110,110,109,110,110,110,109,109,109,113,112,110,111,113,113,114,113,112,116,121,119,116,118,118,116,116,114,111,110,111,111,111,111,111,110,110,112,113,112,111,112,112,112,113,112,109,110,112,111,111
111,110,111,113,113,111,109,110,112,111,110,111,110,110,109,111,111,109,110,112,112,111,113,113,112,114,115,116,117,119,119,120,119,118,115,115,115,112,110,111,111,111,111,111,110,112,114,113,112,111,109,109,111,112,112,111,111,112,110,110
113,109,108,109,111,108,109,112,110,110,112,113,111,110,111,113,112,111,112,112,112,114,113,112,115,116,116,116,117,120,122,119,119,120,119,118,116,113,112,111,110,111,111,111,111,113,113,112,112,111,108,109,110,109,110,112,110,109,107,108
109,109,106,109,110,108,111,112,109,111,115,113,110,111,113,115,113,112,113,111,111,113,113,114,114,117,121,123,126,130,132,128,123,121,121,119,117,113,112,109,109,112,110,109,112,112,111,111,113,111,108,110,112,111,109,107,106,109,111,110
114,116,111,113,111,110,111,112,109,111,114,111,110,109,111,114,113,110,111,110,110,111,114,114,116,120,126,130,134,135,134,131,128,124,123,122,118,111,110,110,111,113,109,109,112,110,108,110,112,110,109,111,113,111,112,113,110,108,109,110
112,109,112,110,110,109,112,111,110,110,111,110,111,108,109,110,109,108,110,108,110,111,114,116,119,126,132,134,141,144,145,139,143,139,133,127,120,113,112,113,112,111,110,111,112,107,106,110,111,111,110,109,112,110,111,113,110,112,111,110
112,108,109,109,111,110,110,111,113,111,111,112,112,110,109,109,108,112,112,109,111,111,114,115,120,133,141,144,158,159,157,148,149,144,138,131,124,116,113,113,112,111,111,112,112,108,108,110,111,113,111,110,110,109,111,111,110,113,112,111
110,111,111,113,113,110,110,112,112,110,112,112,113,112,111,110,111,113,111,112,113,110,115,115,121,134,142,154,167,174,179,167,157,143,136,134,125,117,114,110,111,109,109,112,112,111,111,109,109,113,112,113,109,111,112,115,111,108,112,109
110,107,109,112,111,108,110,111,109,109,112,111,114,111,112,112,112,111,109,113,114,111,115,113,123,132,141,156,173,168,173,172,153,143,137,135,123,117,115,111,110,107,109,113,110,110,112,109,110,110,112,111,109,111,109,111,110,111,110,107
113,108,107,109,110,109,112,111,110,111,111,112,114,108,111,112,111,111,109,112,112,112,113,114,123,131,142,148,161,162,165,165,150,143,137,131,121,117,114,113,112,107,110,113,109,110,111,111,111,107,112,110,110,110,108,108,110,115,113,110
109,109,110,110,109,109,110,110,109,109,109,113,113,108,109,112,112,111,110,111,110,112,112,116,118,124,133,139,146,151,157,155,150,145,136,126,122,117,112,113,112,109,110,114,109,111,109,111,109,106,112,112,111,109,110,108,110,115,111,112
109,110,111,110,110,109,109,111,108,107,109,113,113,110,109,112,113,111,110,112,112,112,115,116,114,118,125,127,135,139,142,145,147,144,133,125,123,115,112,113,112,111,111,113,110,109,110,111,110,109,112,113,110,107,112,111,109,105,103,111
112,114,114,113,115,112,110,111,110,109,110,112,113,112,111,112,113,111,110,113,115,113,114,114,115,118,122,126,131,133,134,138,139,134,128,122,119,112,112,113,114,112,110,110,111,110,112,112,112,110,110,113,110,109,113,113,113,110,112,109
111,110,109,110,113,114,111,110,111,111,111,111,111,110,111,113,113,111,110,112,114,112,110,113,117,118,122,123,121,125,129,132,130,125,124,119,114,112,112,112,115,112,109,110,112,112,113,112,111,109,110,112,110,112,114,112,115,113,110,109
112,111,108,108,111,113,110,107,109,110,111,110,109,109,110,113,111,109,110,111,110,109,110,113,115,117,117,120,121,124,125,126,123,120,121,118,115,115,114,111,111,110,109,112,112,113,113,110,108,109,112,112,110,110,112,113,113,110,107,106
109,110,111,112,113,113,110,107,108,111,111,110,109,110,111,111,110,109,110,111,109,111,113,113,113,114,115,117,121,126,128,124,120,119,121,118,113,114,114,111,109,110,109,111,112,112,113,111,109,110,112,110,110,111,110,113,115,113,112,111
114,115,112,111,112,112,112,110,110,111,110,110,111,112,113,111,110,110,109,110,112,114,114,114,114,115,116,118,121,125,127,126,123,120,120,117,112,111,112,112,112,112,111,111,112,111,112,113,112,111,111,110,110,111,112,114,116,114,112,112
110,110,109,109,110,113,113,112,111,112,110,109,111,113,113,113,112,111,110,111,111,112,115,114,115,117,120,122,123,124,125,124,122,120,118,116,114,114,113,114,114,112,111,111,110,109,109,112,113,112,111,111,109,111,114,113,111,110,112,113
111,112,110,109,112,114,113,110,110,113,113,110,110,111,111,112,113,112,112,111,109,111,114,114,114,117,119,119,119,121,121,119,118,117,116,115,115,115,114,113,112,111,111,110,109,108,109,111,113,111,110,110,110,110,111,111,109,109,110,109
111,111,112,112,113,115,114,109,109,111,113,112,111,109,109,111,112,112,112,111,111,113,114,112,113,116,116,116,117,119,120,118,117,117,117,115,112,111,111,111,111,111,110,109,109,110,112,111,110,110,109,109,110,110,109,108,111,112,109,108
111,111,109,109,111,112,112,110,109,109,110,111,112,110,109,110,111,111,111,111,112,112,112,112,113,115,115,117,118,117,118,119,118,117,116,115,113,112,112,112,111,111,109,109,109,111,112,111,109,110,110,109,109,110,110,111,111,112,113,112
107,108,110,110,110,109,109,111,111,110,108,108,111,111,111,111,111,111,110,111,112,112,112,112,113,117,117,117,119,119,116,117,116,114,114,115,115,114,114,113,110,109,110,110,109,110,111,111,111,111,111,111,111,112,112,111,111,110,109,110
111,110,110,110,112,112,110,109,112,112,109,109,110,111,112,113,111,110,110,112,114,112,110,112,114,115,116,118,120,121,121,120,118,116,115,114,113,112,111,110,108,109,112,112,111,111,111,111,113,112,111,111,112,112,110,108,109,111,112,112
113,113,112,112,112,111,110,110,112,113,111,111,110,110,111,112,111,109,110,113,113,110,108,110,112,111,112,117,121,119,117,117,116,116,116,113,110,111,111,109,109,110,111,112,113,112,111,111,112,112,111,112,112,112,111,109,108,110,109,110
112,110,109,111,110,109,109,109,110,110,110,111,110,108,109,111,111,110,111,112,112,111,110,111,112,112,112,115,118,117,115,115,116,116,114,111,110,112,113,112,112,112,111,111,111,110,110,110,109,110,112,112,110,110,109,110,113,114,113,112
108,110,112,113,113,112,110,109,109,109,110,110,109,108,109,112,112,110,110,112,114,113,111,111,114,115,113,115,120,121,120,119,120,116,112,112,112,113,112,112,114,113,112,111,111,110,108,108,109,111,111,111,110,108,109,109,108,110,111,112
110,113,114,113,114,114,112,111,112,113,112,111,110,109,110,112,112,110,110,112,113,112,111,112,114,116,117,115,116,118,117,119,118,114,113,114,115,112,111,112,113,113,112,112,112,111,109,109,111,113,110,109,111,112,111,109,108,110,111,111
113,115,112,111,114,113,110,111,113,114,112,111,111,110,110,110,110,110,111,111,110,110,109,110,112,114,115,117,120,121,119,117,116,113,114,115,113,112,112,112,110,109,111,112,111,110,111,111,112,112,111,111,111,111,113,112,108,110,112,111
113,113,112,111,113,113,110,108,110,112,110,111,112,111,110,110,110,111,111,110,110,108,108,109,113,115,112,113,119,120,118,118,117,114,113,114,113,112,113,111,108,107,109,111,111,110,112,112,112,113,113,113,113,110,111,112,110,108,111,112
111,109,111,110,109,111,109,108,109,110,111,113,113,112,112,112,109,109,111,110,111,110,109,110,114,113,111,112,115,118,117,117,116,114,111,112,113,110,110,111,109,108,108,110,111,110,111,111,111,112,113,111,110,112,112,110,110,112,110,109
110,107,109,113,111,110,111,111,112,112,113,113,110,110,113,113,109,108,112,112,112,112,110,109,110,111,113,117,119,118,116,117,118,114,110,111,111,110,110,111,111,110,109,110,111,109,109,110,111,111,110,108,107,110,114,112,108,109,112,110
113,108,108,112,111,112,114,113,112,112,114,110,108,107,112,112,109,108,113,112,111,110,109,108,110,113,117,119,119,115,114,118,119,115,114,113,110,113,112,110,110,111,112,111,110,108,109,111,112,110,109,109,111,110,109,110,110,109,110,110
107,108,114,113,110,113,113,110,109,111,112,109,112,110,111,111,111,110,113,111,111,109,110,111,113,112,112,115,115,114,113,113,113,115,116,115,114,114,111,109,110,111,113,111,110,110,110,110,111,110,110,112,114,111,108,110,110,108,106,106
110,112,111,109,108,111,111,107,108,111,113,111,116,113,110,112,114,113,112,109,112,111,111,111,112,109,112,112,113,116,114,111,111,113,113,113,113,111,110,110,110,111,111,109,111,112,110,109,112,112,109,110,112,111,112,112,111,108,108,109
111,111,109,110,109,109,112,108,109,113,112,112,115,111,110,113,111,112,111,110,112,113,112,109,108,108,116,112,110,113,115,113,113,110,110,109,109,110,111,113,111,111,112,107,109,113,110,109,112,112,109,110,111,108,110,109,110,111,110,111
110,108,115,115,110,108,113,112,109,112,110,110,111,108,110,113,108,109,110,113,113,112,109,112,107,110,116,112,112,110,109,111,111,112,109,108,110,111,114,114,112,113,113,106,107,111,109,110,110,108,110,110,113,110,113,111,110,112,109,110
112,115,115,112,107,108,111,111,109,110,110,111,110,108,110,112,108,111,111,113,115,110,108,113,109,112,111,111,113,114,113,113,112,114,110,114,113,109,115,110,111,114,111,108,109,109,109,110,109,108,109,110,113,110,111,109,106,110,110,110
110,112,110,111,107,109,111,108,110,110,113,114,110,109,111,112,110,111,111,110,113,109,111,110,111,110,110,111,109,112,112,112,112,111,112,117,112,108,112,107,111,114,110,110,111,108,110,109,110,110,111,112,111,109,109,107,106,109,113,110
109,110,113,111,109,111,112,111,112,111,113,113,110,108,111,111,110,109,110,110,112,112,113,109,111,108,112,116,110,109,109,110,112,111,111,113,110,110,111,110,112,111,110,111,110,108,110,109,108,110,112,112,112,112,112,111,110,110,116,112
109,111,112,108,111,112,112,114,113,110,110,110,110,110,111,110,110,108,109,113,112,112,111,110,114,110,111,113,113,111,112,110,112,112,108,110,110,113,111,111,111,108,108,109,109,110,110,110,107,109,113,110,112,113,112,112,109,110,109,108
108,110,109,108,111,110,112,113,112,109,109,110,110,111,111,111,111,109,108,111,111,110,109,110,114,113,113,113,112,111,112,109,110,109,109,110,110,112,111,111,110,109,109,108,110,112,112,111,110,110,112,110,110,109,110,110,110,111,106,105
110,111,110,111,110,108,111,112,111,110,112,113,109,110,112,111,111,111,110,109,109,109,109,109,111,112,112,110,108,111,111,111,111,110,111,111,111,112,113,114,112,111,112,110,111,113,112,110,112,113,111,109,109,108,110,109,109,111,111,110
111,112,110,110,107,109,112,111,109,112,115,113,110,110,111,110,110,112,113,112,111,109,109,110,111,112,112,112,111,109,110,113,113,111,111,112,111,111,114,114,112,111,111,111,112,112,109,110,111,112,110,109,111,111,110,111,112,111,112,115
111,111,110,109,108,112,113,109,109,112,113,111,112,112,110,110,110,111,114,114,113,113,112,111,110,111,110,110,112,111,110,111,109,110,112,112,109,109,113,112,109,110,109,110,111,109,109,112,111,110,109,109,109,110,111,110,109,109,111,112
109,109,110,110,110,112,113,110,110,110,110,111,112,113,110,111,112,112,111,111,111,113,113,112,111,110,110,112,113,113,112,109,109,110,111,110,110,112,113,111,110,111,109,109,109,110,112,112,110,108,109,109,108,107,109,110,112,113,112,112
111,110,110,111,112,112,111,111,110,109,110,110,110,111,110,111,113,113,111,111,109,109,110,111,112,113,113,113,112,111,112,111,110,110,111,112,113,113,112,111,112,113,110,109,111,113,112,110,109,108,109,111,112,110,110,112,112,111,110,111
111,110,111,112,112,111,110,110,110,110,111,110,109,110,110,111,111,111,112,112,110,110,110,111,111,112,110,110,113,113,110,110,112,113,113,113,113,112,111,111,112,113,110,109,112,112,110,108,110,111,111,112,113,112,111,110,111,112,110,111
107,109,110,110,110,111,111,111,111,112,111,111,112,111,111,112,111,110,109,109,109,109,111,112,111,111,110,109,108,110,111,111,112,112,110,110,110,111,111,111,111,112,111,110,111,110,108,108,111,114,112,110,111,112,110,108,111,112,112,112
109,110,110,110,111,111,111,111,112,113,112,111,112,112,111,112,113,113,110,108,108,109,110,113,111,109,110,110,111,110,109,111,112,109,108,108,108,111,112,111,111,112,112,112,112,110,109,109,111,111,109,109,109,109,110,109,110,111,111,112
112,110,109,111,113,112,110,110,111,112,111,110,110,112,112,111,113,114,112,111,112,112,110,112,112,111,109,111,112,111,109,108,110,110,110,110,110,110,110,109,110,112,112,113,113,111,110,110,109,108,108,110,109,109,109,109,109,111,111,111
111,109,108,110,111,112,112,111,110,110,110,110,111,111,112,112,113,113,112,113,113,113,111,111,110,110,111,113,113,110,109,109,110,111,111,111,111,110,109,109,110,111,112,111,111,112,112,111,109,109,112,112,110,110,111,111,110,109,110,111
111,109,108,110,110,111,112,112,111,110,111,111,111,111,110,111,112,113,113,112,112,112,112,110,108,109,113,113,111,109,109,111,112,110,109,110,110,112,113,113,112,111,111,110,110,112,114,114,112,112,112,111,109,109,110,110,112,114,111,110
109,109,110,112,112,110,110,111,112,113,112,110,110,112,112,110,110,113,113,111,110,112,112,110,110,113,115,112,109,109,111,113,113,111,109,109,110,112,114,114,114,113,111,111,112,111,112,114,115,113,112,113,113,110,108,109,113,114,111,108
109,110,111,111,110,110,110,110,111,113,112,109,110,114,113,109,110,112,111,110,110,111,110,110,110,111,111,111,111,111,111,111,111,111,111,110,110,110,110,111,114,114,112,111,111,110,111,111,112,113,113,115,115,112,110,109,108,109,109,110
107,109,112,110,107,108,109,110,110,112,113,111,111,113,111,109,110,111,109,109,111,111,111,112,110,107,108,113,114,112,110,110,111,111,111,112,113,112,108,107,110,111,110,109,109,111,111,108,107,111,113,111,109,112,113,110,108,109,112,113
111,111,112,111,107,108,110,110,111,112,113,111,110,111,111,109,109,110,111,111,111,110,111,113,112,110,108,110,113,111,110,111,111,111,111,112,115,114,110,107,107,109,109,109,110,110,109,108,109,111,111,108,107,108,109,110,110,111,112,112
113,113,112,111,110,111,111,110,110,111,111,111,110,111,112,112,111,111,112,113,113,111,111,111,111,110,110,111,111,111,112,112,110,109,110,111,111,112,111,109,109,110,112,112,110,109,109,110,111,112,110,109,111,112,109,108,111,113,112,111
110,111,110,110,113,114,114,111,110,109,109,112,113,111,112,113,112,112,112,111,112,111,110,108,108,110,113,114,111,110,111,112,109,109,110,109,108,109,111,111,111,112,113,112,111,110,110,110,111,112,110,110,112,113,113,111,112,113,111,109
