111,110,110,111,110,110,110,111,110,110,111,111,109,108,111,112,112,113,112,109,108,109,111,111,109,108,109,111,113,115,116,122,131,133,130,127,120,114,112,113,112,109,110,113,111,111,110,108,109,110,111,112,111,110,109,110,109,109,109,110
110,111,108,108,110,110,108,107,109,111,112,111,108,109,112,112,111,111,111,110,109,108,109,111,110,109,111,113,116,116,117,128,143,147,141,134,127,119,114,113,113,110,110,111,110,109,108,108,111,112,111,110,113,114,112,111,109,110,113,113
108,109,111,109,109,111,110,109,110,111,112,111,110,110,111,110,110,110,111,112,110,108,110,113,111,109,111,114,115,114,120,134,151,161,153,137,126,121,115,111,111,112,110,108,109,109,109,111,112,111,110,111,113,113,112,111,109,109,112,113
109,109,111,112,111,110,110,110,110,110,109,110,111,111,112,111,111,112,112,111,109,108,109,112,111,110,111,113,115,118,121,128,142,155,151,133,120,117,114,111,111,111,110,109,110,111,113,114,112,107,107,110,111,110,110,110,110,110,111,112
110,112,111,110,109,109,109,110,111,110,109,109,109,111,111,111,111,113,113,111,110,109,108,110,113,113,111,112,115,119,120,123,133,142,141,130,120,115,113,111,111,110,111,112,111,111,112,112,111,109,108,110,112,112,110,107,108,109,109,112
110,110,110,112,111,108,109,113,114,111,109,109,109,109,109,110,110,111,112,111,111,111,110,110,113,113,110,111,115,117,119,121,126,133,134,127,120,115,114,113,112,111,110,111,112,110,109,110,111,113,113,111,111,112,112,109,109,109,109,109
114,112,110,111,113,112,112,114,113,110,110,111,109,108,110,112,110,110,111,111,111,112,112,110,110,110,110,110,112,115,119,120,121,123,126,123,117,114,113,114,113,111,110,110,110,109,109,109,110,113,114,113,110,110,113,114,114,113,111,110
111,114,112,109,109,110,111,112,112,112,112,110,108,110,114,113,111,111,111,110,109,109,110,111,111,110,111,112,110,111,115,116,117,118,118,116,114,112,112,113,112,110,110,110,108,108,110,109,109,111,112,112,110,109,110,111,111,111,111,113
109,111,113,112,110,109,109,110,113,113,109,107,109,112,111,110,110,111,110,110,109,107,109,112,112,112,113,113,113,114,114,116,117,116,116,116,114,112,112,112,111,110,111,112,110,110,111,112,113,111,110,110,110,110,109,108,109,110,111,113
113,111,110,109,110,110,107,108,111,111,107,106,109,110,108,108,110,111,110,111,110,107,109,110,110,110,111,113,115,117,116,114,114,117,117,114,113,112,113,113,112,113,113,113,112,110,110,113,114,112,111,111,111,112,111,110,111,111,112,114
111,108,108,108,108,109,111,110,109,110,110,109,110,111,110,111,113,112,111,113,110,109,111,111,110,111,111,112,114,116,115,113,115,118,117,114,111,111,113,114,111,111,112,112,111,109,109,111,111,111,111,112,113,113,112,111,111,110,108,107
108,110,112,112,112,112,111,109,110,111,109,111,114,114,113,112,112,111,111,114,112,110,112,112,113,113,113,115,115,114,116,117,117,117,117,115,112,109,110,111,109,109,110,111,110,108,109,110,110,110,110,111,111,110,110,111,112,113,113,112
110,109,112,112,110,111,111,110,114,112,109,111,115,113,110,109,108,109,110,111,111,110,110,111,111,111,113,116,115,114,116,116,114,115,117,114,112,112,110,110,110,110,111,110,109,109,110,109,111,112,111,110,107,109,112,112,112,111,110,111
111,111,111,111,110,109,109,112,113,111,110,111,110,109,108,109,110,111,110,110,111,109,109,110,110,109,112,114,115,117,118,117,114,114,114,112,112,114,112,112,112,111,111,109,108,110,110,109,110,112,112,111,110,112,113,111,110,110,111,110
110,111,113,112,110,110,108,109,110,111,110,111,108,108,110,113,112,111,109,110,110,108,109,113,114,111,112,115,115,115,116,118,117,115,114,113,110,110,110,111,110,108,109,111,111,110,110,111,111,110,109,110,112,113,113,109,109,108,109,109
109,109,112,112,109,112,112,110,110,113,111,111,109,109,112,112,111,108,109,112,110,108,111,113,113,111,112,111,111,116,116,115,115,116,114,115,114,110,109,110,109,107,109,113,111,109,109,112,113,110,108,110,111,113,114,111,109,109,111,111
111,110,109,109,111,114,113,111,109,110,109,113,112,111,110,109,110,108,112,113,110,110,113,111,110,111,112,111,112,118,117,114,115,117,114,113,114,111,112,113,110,110,111,109,109,110,108,112,113,112,112,110,111,111,112,110,114,113,111,114
111,109,108,108,109,108,108,111,111,108,107,112,113,112,109,107,110,109,112,111,110,112,113,109,110,111,113,113,115,116,119,118,117,115,114,114,114,108,113,113,110,113,111,106,108,111,108,111,112,112,111,110,112,110,110,113,113,110,107,108
109,111,112,109,109,109,109,111,113,111,108,110,112,112,109,109,112,111,110,110,111,112,112,110,113,113,114,115,115,114,117,119,117,115,115,116,111,106,110,110,108,112,110,110,110,112,109,109,111,112,108,110,113,111,110,111,107,108,112,112
109,112,113,111,109,110,109,111,111,112,113,109,111,109,111,113,114,113,109,110,113,111,113,111,111,112,114,115,112,113,117,120,116,115,120,115,107,107,111,111,110,111,112,115,111,112,110,109,111,114,109,111,115,108,109,110,109,109,112,112
111,111,109,110,110,108,108,111,112,110,115,110,113,109,112,112,112,112,109,110,112,109,112,111,109,111,112,112,116,116,116,120,116,115,119,115,113,111,113,113,111,112,113,113,110,110,110,112,112,114,110,111,111,109,109,108,111,110,110,111
114,111,108,111,113,110,110,110,111,110,112,111,112,112,111,110,110,111,110,109,109,108,109,111,110,113,112,110,115,116,113,113,114,114,115,114,112,112,111,110,110,111,112,108,110,109,108,112,112,111,109,109,109,111,110,108,112,109,108,113
109,110,112,112,111,112,113,110,108,110,113,112,110,111,111,108,109,110,111,110,109,107,107,110,111,112,112,113,114,115,115,116,116,114,115,110,108,110,108,109,109,110,112,107,110,109,108,110,111,109,107,111,113,113,112,113,116,113,108,113
111,111,112,109,109,113,113,110,108,109,114,113,110,110,111,108,108,108,111,112,110,110,111,109,111,113,114,115,115,117,114,116,117,117,113,108,109,111,110,110,111,112,111,109,110,110,110,109,110,107,108,114,113,110,109,111,111,109,110,112
113,111,109,108,110,110,110,109,112,112,112,109,110,112,112,110,108,109,111,112,112,112,115,111,108,110,113,112,114,115,113,114,115,115,113,109,111,113,111,111,112,111,110,110,111,110,111,110,109,107,109,111,110,107,106,107,109,110,111,108
111,111,110,112,111,110,110,110,113,113,110,109,110,111,111,111,111,111,111,112,112,111,114,113,111,111,111,114,116,113,115,117,117,116,117,112,109,112,110,110,111,110,110,111,113,110,109,109,108,107,108,108,108,109,111,111,109,110,111,110
111,112,111,110,109,111,112,112,110,109,111,112,110,109,109,109,111,111,112,112,112,111,110,111,113,113,111,110,115,117,116,116,117,114,114,112,109,110,109,110,111,111,111,111,113,111,110,111,110,108,109,109,108,108,110,112,108,107,109,110
109,110,111,110,109,110,113,114,110,107,110,113,111,110,110,108,109,110,110,110,111,111,110,109,111,113,113,112,116,119,118,117,116,113,111,112,111,110,111,111,111,111,111,111,111,111,112,112,111,109,111,111,110,109,109,109,111,110,108,109
112,111,112,110,110,111,111,111,111,110,110,111,110,111,113,112,109,108,108,107,109,109,110,110,113,116,113,109,113,114,114,115,112,111,112,112,110,110,112,112,111,110,111,112,110,112,112,109,109,110,109,109,111,112,111,111,112,110,111,112
110,111,111,110,111,111,111,109,109,111,112,112,111,110,112,113,110,109,108,107,109,110,109,111,113,114,113,110,112,114,114,113,110,111,113,111,108,107,109,111,111,110,110,112,113,112,109,107,109,110,108,108,109,110,110,111,110,109,110,111
111,110,109,109,107,107,109,110,108,110,113,113,112,110,109,109,110,110,109,109,111,112,111,111,111,112,112,115,117,116,113,113,114,114,112,110,110,107,106,109,111,110,111,112,112,111,110,111,112,111,109,110,110,110,112,113,112,109,110,111
113,111,109,109,108,108,109,109,109,111,112,111,112,113,109,107,110,110,110,111,112,112,113,112,110,111,116,119,118,113,112,115,116,113,110,110,112,110,107,110,111,111,112,111,108,108,111,111,112,112,110,110,111,110,111,111,109,108,110,111
110,107,107,110,113,113,112,110,109,111,111,110,111,113,110,109,111,112,112,112,111,111,111,110,111,114,116,116,115,115,115,115,112,110,112,112,111,112,112,111,110,110,111,110,109,109,111,111,111,112,112,110,111,112,110,109,109,109,110,111
111,110,110,110,110,111,112,111,110,110,110,111,111,110,110,111,112,113,113,110,109,110,110,109,111,115,115,113,116,119,117,113,111,112,112,111,110,112,112,112,111,110,108,110,113,113,112,111,110,112,113,112,112,110,108,109,112,112,112,110
112,113,111,109,108,108,111,112,111,109,109,109,110,110,111,111,111,111,110,109,109,110,111,110,112,116,116,115,118,119,117,114,113,113,112,110,109,110,110,111,111,110,109,110,111,110,110,111,109,110,111,110,110,108,108,111,114,113,111,110
111,110,111,112,109,108,110,111,110,110,109,107,108,111,112,111,111,111,110,109,110,111,112,112,112,112,114,116,118,118,116,114,113,113,113,111,109,110,111,110,109,110,110,110,109,108,111,112,108,108,110,109,108,110,113,112,110,109,110,109
112,110,109,112,113,110,110,110,110,111,111,108,108,109,109,110,111,111,112,111,110,110,111,111,112,112,111,114,117,118,117,114,114,115,113,111,110,111,112,112,110,109,109,110,110,111,113,113,109,108,111,113,111,111,111,111,112,114,112,109
110,112,111,110,111,110,110,110,111,112,111,109,109,108,107,109,110,112,112,112,111,110,109,109,113,116,115,115,117,118,117,116,116,115,112,111,112,111,111,112,111,109,109,110,111,111,112,112,112,112,113,115,113,110,110,110,111,112,112,111
108,110,110,108,108,109,109,110,113,113,110,109,111,111,111,111,110,111,112,112,113,112,111,111,112,113,114,115,115,116,117,117,115,114,114,114,114,112,111,111,110,110,111,110,109,109,110,109,110,113,114,111,111,112,110,109,108,108,108,110
114,111,111,110,108,109,110,112,114,112,109,109,113,114,114,112,108,109,112,112,112,112,112,111,112,113,114,116,118,116,114,114,113,112,112,112,111,110,110,110,110,110,111,110,108,108,110,108,108,113,112,108,108,111,111,110,110,111,111,113
113,111,111,111,110,112,113,110,108,108,110,112,114,115,113,109,107,109,111,111,110,110,111,111,112,114,116,118,117,113,113,114,114,114,113,111,109,107,107,109,109,109,110,110,107,107,109,110,112,114,112,110,108,107,108,112,111,109,110,113
109,108,109,110,111,112,110,107,106,108,111,112,112,113,113,110,109,111,111,111,111,111,111,113,113,112,115,116,114,114,117,117,114,113,115,113,109,109,110,109,108,109,110,109,108,108,108,111,114,112,111,111,109,107,108,112,112,110,110,110
110,109,109,109,110,111,110,109,109,110,111,110,110,111,111,110,111,111,110,110,110,110,112,116,114,109,110,116,118,119,117,117,114,110,111,112,111,112,111,110,111,110,108,109,111,111,109,112,112,108,108,109,110,111,110,110,108,107,108,109
108,109,110,110,112,110,110,113,111,111,113,109,111,111,110,109,112,110,108,109,109,110,112,113,113,114,115,116,118,119,119,119,117,114,111,111,112,111,109,109,111,111,109,109,111,111,112,115,112,108,108,109,110,111,109,109,110,110,111,110
108,111,112,111,112,109,110,113,110,112,113,112,111,111,111,111,112,110,109,110,110,111,111,109,110,113,114,115,115,115,118,119,115,115,114,113,113,111,111,110,110,112,113,110,109,110,112,114,112,112,113,111,110,113,113,111,108,108,112,114
112,112,111,111,110,110,111,108,106,112,111,112,112,111,110,113,112,109,110,111,110,111,110,111,112,112,113,120,115,116,118,117,116,115,113,114,112,111,113,110,112,113,113,110,108,109,111,110,111,113,113,112,110,112,116,112,111,112,111,110
112,112,110,111,109,109,112,107,110,111,109,109,111,112,108,111,112,108,110,110,111,112,111,113,115,117,115,119,117,121,125,123,120,117,113,112,111,110,112,110,110,111,109,109,108,107,109,109,109,109,110,110,109,110,112,109,111,114,112,109
111,112,111,108,107,108,110,111,112,109,110,109,112,112,109,109,110,109,109,108,112,112,112,111,112,118,119,124,127,130,128,128,127,121,116,117,114,109,110,111,109,111,110,112,111,107,111,112,108,108,110,109,110,111,110,109,113,109,111,113
106,110,109,108,109,110,110,110,110,109,111,110,112,110,111,108,110,110,108,108,112,111,112,110,111,117,126,134,135,133,130,128,129,123,120,120,117,109,111,111,110,113,113,112,113,109,111,111,108,109,112,110,113,113,111,109,112,109,112,112
113,113,109,112,112,110,109,110,110,109,110,111,109,108,110,107,109,109,109,111,113,113,114,111,114,122,132,141,141,137,136,135,136,129,123,119,116,112,112,110,110,113,110,108,110,111,106,108,109,110,112,109,112,111,108,108,111,112,109,107
109,110,108,110,112,111,110,111,111,109,111,111,108,108,110,109,109,110,111,112,112,112,115,113,115,122,132,138,141,138,140,146,143,133,125,119,115,113,111,108,109,111,109,110,109,111,106,110,108,110,111,109,108,108,108,109,110,112,110,109
113,112,110,110,110,109,110,113,112,112,111,110,110,110,111,109,110,112,112,111,112,111,113,112,115,120,130,135,137,136,138,142,142,130,121,117,114,111,110,110,111,111,112,113,110,111,108,112,107,110,111,110,108,112,112,109,106,109,113,111
112,110,108,109,107,106,111,112,111,113,111,109,110,112,111,107,108,113,111,110,112,111,113,115,114,118,126,134,135,131,128,131,134,123,117,115,112,111,112,112,111,112,111,112,109,109,109,109,108,112,112,110,110,112,108,108,110,110,109,111
111,107,106,110,110,110,111,110,109,112,113,111,110,113,110,108,108,112,110,109,110,112,115,117,114,114,118,126,129,127,127,128,126,120,115,112,110,112,115,111,110,112,112,111,108,108,109,109,111,112,112,110,112,110,106,113,117,109,110,112
111,111,110,112,110,110,110,109,109,112,113,111,110,111,111,112,112,111,110,110,110,112,114,115,113,112,117,122,122,121,124,124,120,118,114,110,110,112,111,110,111,114,114,111,110,110,110,111,113,113,112,111,112,112,113,115,111,109,112,110
110,111,111,109,107,109,110,108,109,112,111,108,109,110,111,114,114,111,110,109,111,111,109,110,112,112,116,121,120,119,121,121,119,117,116,113,111,111,108,109,113,113,111,112,114,112,111,112,113,113,110,111,111,110,111,111,111,114,113,111
113,111,110,110,110,110,110,110,111,112,111,109,110,112,111,112,113,112,111,109,110,111,110,108,110,112,115,120,119,118,120,119,116,114,114,113,112,111,110,109,111,110,108,111,113,111,111,111,110,110,110,110,109,110,112,112,109,110,112,113
113,114,111,110,112,113,112,111,110,111,111,110,111,113,112,110,112,113,112,112,112,111,110,112,113,115,114,114,115,117,120,118,115,115,113,112,113,112,110,109,110,111,109,110,110,109,111,111,109,109,110,109,109,112,111,109,110,112,113,112
111,110,110,109,111,113,114,111,109,109,110,109,110,111,109,109,113,111,109,112,115,112,109,111,113,115,114,112,111,115,120,117,115,117,115,113,114,111,108,108,111,112,111,110,108,108,111,111,110,109,110,110,110,111,111,111,113,113,111,112
111,110,110,110,111,110,110,111,111,109,109,110,110,108,107,109,113,110,108,111,114,114,112,110,109,109,112,116,117,117,117,117,117,116,114,112,111,110,108,109,112,112,111,109,109,110,111,109,110,110,108,109,110,110,110,110,110,111,110,112
113,112,110,111,112,110,110,112,112,110,110,111,110,109,110,111,112,111,109,110,112,113,113,112,111,113,116,117,117,115,114,115,117,117,115,112,110,110,111,112,112,111,110,110,111,112,110,110,111,110,108,109,111,111,110,109,110,111,110,109
110,111,112,111,112,112,112,112,111,110,111,111,110,112,113,111,110,111,111,109,110,112,112,112,112,113,115,114,115,118,117,113,114,115,113,111,111,110,111,112,110,109,110,111,112,111,109,111,112,109,108,110,113,112,111,112,112,112,110,111
110,111,113,113,112,110,111,111,111,111,111,110,109,111,112,110,108,110,112,110,110,112,113,114,113,112,114,115,115,115,113,113,115,114,111,110,108,108,110,112,111,109,109,110,110,109,110,111,110,108,109,110,111,110,112,112,111,112,113,113
113,112,112,113,111,108,109,112,112,111,110,109,109,110,111,111,108,109,112,112,112,112,114,116,114,111,113,114,112,111,112,116,116,113,112,112,111,110,112,113,113,112,111,111,110,110,111,111,109,109,112,112,112,111,110,109,109,109,109,109
109,109,110,110,109,108,109,112,111,108,108,109,110,111,112,111,109,110,112,114,113,111,111,114,114,111,110,113,115,114,112,113,114,112,111,113,113,112,113,113,112,113,114,112,111,110,110,110,110,113,114,113,112,109,108,109,112,110,107,108
107,109,110,110,110,109,110,111,110,108,108,110,112,113,111,109,110,112,112,111,110,110,109,110,113,112,111,114,117,117,115,115,114,110,110,112,111,111,113,113,109,110,112,111,110,109,108,109,110,112,112,112,111,109,109,111,111,110,110,111
110,111,112,111,112,113,113,112,113,112,111,110,111,111,109,109,111,113,112,109,108,111,111,110,110,111,111,112,113,113,116,119,116,113,113,112,110,110,112,112,110,110,109,109,109,109,109,109,109,109,108,109,110,109,109,109,110,109,108,111
112,111,110,110,112,113,114,113,111,111,111,110,109,110,108,108,111,113,111,110,110,111,111,111,111,111,112,113,114,116,117,115,113,114,115,112,109,112,113,111,111,111,110,110,111,110,111,110,109,110,109,109,111,112,110,110,112,110,108,111
113,112,111,108,108,109,110,111,108,107,110,111,111,111,110,109,111,112,112,112,112,109,107,109,112,112,110,112,112,113,115,116,116,114,113,110,111,112,111,111,111,110,110,112,112,110,112,112,110,111,114,111,109,110,111,111,112,112,110,109
111,109,112,111,109,109,108,110,109,109,112,112,111,112,112,111,112,112,111,111,111,110,108,109,112,113,110,110,111,114,117,118,117,113,110,111,113,111,109,110,112,110,110,112,112,110,112,112,110,111,113,111,107,106,108,111,110,107,106,107
108,109,111,111,111,110,109,110,111,112,113,110,108,109,110,109,110,111,110,110,111,111,112,111,112,113,113,114,115,115,115,114,113,110,111,114,113,108,107,108,111,113,109,109,111,111,111,108,109,112,112,112,109,107,108,112,113,110,109,109
114,112,112,112,111,109,110,110,111,111,110,109,109,108,107,106,108,110,111,110,110,111,112,109,110,111,108,110,113,114,116,117,114,110,111,114,110,108,110,110,111,114,111,109,110,111,109,108,110,113,113,113,113,111,110,109,111,113,112,110
108,109,108,107,108,110,110,110,109,109,108,111,111,107,107,109,110,111,111,109,111,113,110,107,110,108,107,112,114,114,116,116,116,114,112,111,110,110,114,114,113,114,113,112,110,109,110,112,112,112,112,111,111,110,111,112,112,112,110,110
111,110,106,107,109,111,110,109,110,109,110,113,111,108,109,111,112,112,111,110,112,113,111,106,107,109,110,109,110,115,117,114,115,116,110,109,111,110,112,114,115,112,111,114,111,108,112,113,111,111,109,109,110,108,109,109,107,107,108,111
110,106,110,113,113,113,112,108,111,109,111,112,113,110,111,109,110,110,112,113,111,110,111,110,108,109,114,111,112,115,116,114,115,115,108,106,111,110,108,111,113,111,110,112,111,110,113,112,108,111,110,109,109,109,110,110,110,110,109,112
109,108,112,113,111,112,113,108,109,109,111,113,113,109,112,109,108,108,113,112,110,110,112,111,110,109,115,115,114,113,114,112,113,111,107,108,112,110,111,111,109,110,111,109,110,111,113,111,107,110,112,112,109,109,112,110,108,109,110,112
109,109,109,110,114,110,110,108,108,110,112,113,110,106,112,112,109,110,112,109,110,113,113,112,111,112,112,112,114,116,115,113,111,108,110,114,111,110,112,111,109,112,112,109,112,111,112,111,109,109,108,112,112,111,111,111,106,107,111,109
110,111,109,111,113,109,109,110,110,110,111,114,109,107,112,112,112,113,111,107,110,112,111,110,114,114,111,108,112,114,111,113,113,110,112,115,112,110,110,109,110,114,112,110,114,110,111,111,111,109,111,111,110,113,110,110,109,110,112,109
110,112,111,110,109,109,111,113,110,110,110,113,111,111,112,111,112,111,110,111,111,112,112,109,113,114,112,111,113,112,113,114,111,111,112,113,111,113,111,108,112,115,111,111,113,111,110,108,109,111,113,109,111,114,112,110,110,110,113,110
109,111,111,110,110,111,111,112,110,110,110,111,113,112,110,112,112,108,109,113,111,112,114,113,112,113,110,113,114,113,114,112,111,110,112,109,112,113,109,109,111,112,109,110,111,113,108,107,108,112,110,104,111,114,108,107,111,109,113,114
109,111,110,110,112,111,111,111,112,109,109,109,110,110,109,113,112,109,108,110,109,108,111,110,111,113,107,109,112,110,106,110,111,111,112,110,114,110,108,111,110,111,109,108,110,112,108,108,111,112,113,108,109,110,108,109,111,108,107,111
110,112,111,111,112,111,112,111,111,108,108,108,108,111,111,110,110,110,108,108,112,112,110,109,112,112,110,110,110,112,110,109,110,111,113,113,113,110,110,111,111,110,109,110,110,110,111,110,111,112,113,113,110,109,112,113,110,107,109,109
112,111,111,112,113,113,111,108,110,111,110,108,109,114,113,109,108,109,108,108,114,117,113,111,112,110,109,110,111,111,112,112,111,111,112,111,111,111,111,110,110,109,109,113,109,109,113,109,108,111,110,108,110,111,112,112,110,109,111,109
110,111,111,111,112,111,110,110,113,112,110,110,110,113,113,111,111,110,109,109,109,112,112,111,111,110,109,109,112,113,112,110,111,111,111,111,111,111,111,109,109,108,108,110,108,108,110,108,112,114,113,111,110,111,110,110,110,113,115,110
111,111,109,110,110,110,111,112,112,110,111,113,111,109,110,110,112,113,111,110,109,111,111,111,110,109,110,110,110,112,110,110,112,110,110,111,111,111,110,109,110,109,107,108,111,110,109,109,113,114,114,113,113,111,111,113,113,113,112,111
110,109,109,112,113,111,110,111,109,110,112,113,109,107,110,110,111,112,111,112,113,112,112,112,109,108,111,112,113,112,110,111,112,110,110,111,111,111,109,109,111,111,110,112,113,110,108,109,110,112,111,111,112,111,111,111,112,109,109,112
110,110,111,112,114,111,107,108,110,110,110,109,108,110,112,112,112,112,110,112,113,109,109,110,108,107,111,111,109,110,111,112,111,109,108,109,111,111,109,109,110,112,113,113,111,110,109,108,109,112,111,109,108,108,110,109,109,110,109,110
112,113,111,110,111,110,108,109,112,111,109,109,111,113,113,112,113,112,110,110,110,108,107,108,109,110,111,111,111,112,111,111,109,107,109,111,111,110,108,110,111,111,111,110,110,111,110,109,110,112,112,109,107,109,110,108,109,110,108,109
109,109,109,110,111,112,112,111,110,112,112,111,111,112,112,110,110,110,109,109,110,111,111,111,112,114,114,112,111,109,109,110,110,109,111,113,110,109,110,111,111,110,109,109,110,110,110,111,109,108,110,111,110,110,112,111,111,109,109,111
109,109,109,109,110,112,112,109,108,110,111,110,110,110,110,109,109,111,111,111,111,112,113,110,106,109,112,109,107,109,110,110,111,112,113,112,110,110,110,111,110,109,109,110,110,109,111,112,109,107,109,111,110,110,110,108,106,107,111,112
112,109,109,112,112,110,109,109,108,106,108,112,112,111,109,109,111,113,112,111,110,110,113,113,110,110,110,109,109,110,109,108,110,112,112,111,111,110,110,110,109,109,109,110,111,111,111,111,111,111,111,111,108,109,110,108,107,110,111,111
112,109,109,111,110,109,110,112,109,106,108,113,114,112,109,109,112,111,108,109,112,112,111,113,114,111,107,109,112,111,109,108,108,108,109,111,112,112,111,111,110,109,109,109,110,111,112,111,112,113,112,111,111,113,113,109,108,108,110,110
112,113,113,111,110,112,112,111,110,110,111,112,112,110,109,110,112,110,107,109,112,112,110,111,112,110,110,113,114,112,112,110,107,107,109,109,110,111,111,111,111,111,111,111,110,111,114,113,110,110,111,111,112,114,111,109,110,112,111,109
113,113,111,110,113,114,111,107,110,113,111,110,110,110,110,109,109,110,110,110,110,112,112,111,110,112,114,113,111,110,111,111,111,111,110,109,109,109,109,110,111,112,113,113,111,112,113,111,109,109,110,110,110,110,109,108,110,112,112,110
112,109,108,109,112,113,109,107,109,111,109,110,112,111,111,111,109,110,112,111,110,113,114,110,108,111,113,110,109,110,110,111,114,114,110,109,109,108,107,109,110,111,112,111,110,111,110,107,108,110,111,112,111,109,109,110,112,111,111,111
112,110,109,109,111,112,112,111,109,108,109,111,112,110,111,113,112,111,111,110,109,111,112,110,110,114,113,110,109,109,111,113,113,111,111,110,109,109,109,111,112,112,112,110,109,110,110,108,109,111,112,113,113,112,113,113,112,112,114,113
110,110,110,110,110,111,113,112,110,110,110,110,111,110,109,111,112,110,108,107,109,111,110,108,110,111,110,110,110,108,107,110,111,110,111,110,110,111,112,113,112,112,112,111,110,110,111,110,111,112,111,109,108,109,112,111,109,110,111,110
109,110,109,109,110,111,110,109,111,112,110,108,109,111,110,108,109,109,109,109,110,112,110,108,109,110,110,112,113,111,110,110,111,110,109,109,111,112,111,110,110,112,112,111,111,112,110,108,109,110,110,108,107,109,110,108,107,110,110,110
109,111,110,107,110,114,110,110,112,112,110,108,108,111,112,110,110,111,113,112,110,110,111,110,110,109,109,112,112,110,109,110,111,110,109,110,111,110,109,107,109,113,114,110,110,111,109,109,110,110,110,110,111,110,109,109,109,110,111,111
113,112,109,109,112,112,108,110,112,111,111,110,110,110,111,113,113,111,110,111,111,111,112,114,113,109,108,111,112,109,107,109,111,110,110,110,109,109,110,109,110,113,113,110,109,111,110,111,111,111,110,111,114,114,112,111,111,111,111,111
