56,61,66
118,112,114,117,117,115,116,118,113,112,116,119,116,112,120,119,117,114,114,117,115,114,117,115,114,119,116,114,120,113,119,116,112,116,116,115,119,115,113,113,117,117,116,116,109,122,111,114,117,113,120,116,114,117,113,113,118,111,110,120
112,117,115,112,115,109,117,116,119,113,117,114,115,115,115,112,111,116,117,115,117,114,117,114,117,117,112,111,121,114,115,117,112,117,115,114,114,115,116,113,115,117,116,117,114,115,117,113,114,115,122,112,115,112,122,118,111,109,111,114
115,114,113,114,114,115,115,117,117,110,121,117,112,114,113,111,117,110,120,111,116,113,115,112,114,115,118,114,115,111,119,116,111,118,112,116,115,114,113,114,114,111,118,119,111,111,111,115,120,115,115,116,111,117,111,119,117,111,116,107
113,112,117,112,115,117,116,118,116,113,114,120,113,114,117,111,116,113,111,118,116,110,115,113,116,118,116,113,117,117,116,116,116,111,113,113,118,115,118,116,115,112,117,111,117,115,120,110,116,118,114,116,117,114,111,113,115,116,114,116
114,116,118,108,120,116,116,114,116,118,113,115,113,114,118,113,113,117,116,117,113,115,117,114,114,115,117,117,110,115,114,116,114,117,117,117,113,115,112,114,116,112,117,114,111,118,117,115,116,115,118,114,115,112,115,113,116,117,113,118
113,115,113,115,112,116,117,116,115,116,115,113,118,117,119,115,116,115,119,111,109,113,114,117,113,117,118,117,118,118,114,111,112,119,115,112,115,118,111,114,119,116,115,115,113,113,114,119,117,115,115,113,112,112,114,118,117,114,116,118
118,117,117,115,111,114,115,112,115,116,116,111,115,119,115,118,115,114,118,111,118,115,113,114,111,117,118,114,116,119,115,113,116,116,114,114,116,114,114,114,115,116,114,116,119,116,114,116,116,116,114,113,117,113,111,117,115,113,117,120
115,116,119,113,114,117,119,109,112,118,113,117,115,110,117,119,112,110,108,117,121,114,111,117,118,117,113,113,118,115,114,115,113,112,115,117,119,113,114,120,117,114,111,116,117,117,116,121,114,114,116,116,115,112,115,116,115,117,115,114
120,115,113,114,113,112,119,119,113,114,114,116,117,112,116,115,117,116,117,114,118,115,108,120,120,113,114,119,115,115,119,119,115,117,116,114,113,115,119,114,119,118,113,117,114,118,116,116,118,115,117,114,114,116,110,111,116,119,115,116
121,114,114,114,114,114,114,116,115,116,117,117,116,114,116,116,116,118,115,112,116,117,115,118,113,112,120,114,113,116,116,120,115,118,115,119,120,115,114,111,114,112,117,113,116,117,112,115,115,114,118,110,119,114,122,118,114,119,117,115
118,113,115,117,117,118,115,112,117,117,116,113,113,115,115,114,116,116,115,116,111,112,118,110,115,114,117,110,120,116,113,117,116,117,114,114,113,114,115,112,113,115,118,117,121,113,116,114,113,116,115,114,117,110,110,116,114,114,121,115
112,111,115,115,113,116,117,116,114,118,115,114,114,117,115,109,115,118,112,111,114,112,113,113,113,114,111,118,118,111,115,114,119,114,114,114,119,117,115,111,111,119,118,116,116,108,118,118,115,115,112,115,117,110,119,116,113,111,120,117
115,110,117,116,109,118,116,114,109,118,124,115,118,114,116,120,115,121,115,114,114,117,113,118,113,116,114,116,115,119,116,110,115,114,116,113,117,120,114,115,112,114,115,116,115,118,116,115,119,119,116,114,117,121,117,114,118,116,117,116
118,111,109,114,117,117,118,114,114,115,117,118,114,115,110,119,112,114,111,119,114,116,112,115,114,118,111,116,119,115,117,114,116,115,114,119,112,118,117,117,118,113,116,117,115,116,114,117,112,118,116,118,117,121,113,114,117,112,115,114
116,119,110,117,116,117,115,113,118,114,114,120,112,118,114,114,114,118,111,116,114,114,114,115,116,114,110,114,117,118,118,113,115,113,116,115,114,117,117,115,119,113,112,119,114,112,114,115,118,114,114,114,113,124,112,113,116,110,116,118
117,115,110,119,117,117,115,112,111,112,112,116,118,116,119,113,113,115,115,114,118,114,117,118,116,111,112,117,118,115,121,110,111,118,116,114,114,116,113,115,118,113,112,119,119,118,115,115,118,115,115,113,111,116,118,116,118,117,117,116
116,115,113,113,120,116,117,119,114,115,115,116,117,116,115,115,115,117,119,112,119,118,115,115,117,116,112,115,111,115,115,110,117,117,117,116,112,115,112,116,115,113,117,115,116,119,116,115,116,115,118,114,114,114,113,116,114,116,115,115
116,115,114,113,115,113,113,117,116,116,115,116,115,118,115,116,113,116,117,113,119,116,113,115,118,115,114,116,114,116,116,117,118,113,118,119,117,119,119,112,113,114,117,116,117,118,116,112,114,114,116,115,111,113,116,115,112,114,116,115
113,112,117,118,112,115,114,114,115,112,117,119,118,118,114,114,116,121,114,113,115,119,115,115,117,113,119,119,111,114,114,113,115,115,114,113,113,118,118,113,113,113,114,112,119,118,116,114,109,115,115,115,114,109,110,116,112,113,117,115
118,112,117,118,114,115,113,117,113,114,115,115,114,112,118,116,116,119,122,120,112,119,115,113,117,118,119,116,115,115,120,110,115,117,117,115,119,111,116,117,110,120,115,108,115,119,115,114,119,116,114,116,111,117,116,116,114,114,112,117
117,117,115,119,116,115,116,117,114,111,118,117,113,116,119,115,111,111,114,120,119,117,117,114,116,115,116,114,115,119,118,116,118,116,117,108,111,118,115,115,111,120,118,114,112,116,114,109,122,114,114,117,114,118,114,116,114,118,114,118
116,114,111,116,115,115,118,116,113,117,116,115,115,117,115,116,115,115,113,119,113,119,116,117,116,113,111,117,121,115,113,112,116,113,108,114,120,119,111,118,119,111,118,116,116,120,112,116,117,113,116,119,115,116,114,114,117,115,121,117
109,118,115,108,117,114,111,114,123,109,115,115,116,111,117,118,114,122,119,117,113,113,117,117,118,110,115,116,118,110,117,121,115,112,111,118,114,116,111,114,119,114,122,113,116,119,116,115,116,113,109,119,119,111,115,117,115,119,114,114
118,118,119,111,118,116,117,119,117,112,112,117,119,114,116,115,120,116,115,122,115,116,117,113,114,116,115,110,111,110,114,119,116,112,114,116,113,118,114,116,121,114,116,114,115,112,116,114,115,117,118,118,117,114,115,114,111,113,113,112
121,107,117,116,111,118,110,118,115,113,113,120,118,118,119,115,117,115,112,114,117,116,118,112,113,117,117,114,114,114,112,114,118,116,115,114,116,115,113,114,116,115,114,116,115,118,115,111,118,117,116,115,114,115,117,115,111,116,117,113
113,116,115,113,112,115,116,118,112,110,113,114,117,116,118,115,112,119,116,116,117,112,118,117,116,116,115,119,115,112,113,118,117,118,115,113,115,114,115,115,113,115,114,113,115,113,114,119,118,118,114,111,114,117,119,115,116,115,113,116
111,114,116,110,115,115,113,116,112,112,114,114,116,114,115,114,115,120,116,115,117,119,118,116,115,114,112,113,119,116,114,117,115,118,118,116,115,117,114,115,115,116,114,112,114,115,118,116,119,121,121,116,116,116,112,115,115,117,117,114
115,114,116,113,115,117,114,116,118,118,112,113,116,113,113,117,117,116,113,110,118,118,116,114,114,118,112,115,114,111,118,116,115,118,114,114,119,117,113,115,113,117,112,115,120,119,113,111,114,118,119,110,117,113,111,117,114,116,118,116
111,112,115,115,115,116,116,114,114,112,114,117,116,111,111,113,116,118,117,113,115,114,117,115,112,117,115,113,117,117,116,117,113,117,113,113,116,112,117,119,117,116,116,113,113,114,121,120,113,114,119,112,114,118,118,114,114,112,113,114
117,113,113,116,113,116,114,114,113,116,123,115,115,114,113,111,117,113,114,113,109,115,115,115,112,116,115,116,121,113,115,116,115,114,112,119,112,115,116,116,120,115,120,116,117,117,112,115,120,118,116,114,114,117,115,116,118,118,117,113
115,112,115,120,117,118,112,116,118,113,117,118,112,114,116,111,122,113,117,112,115,115,115,116,115,115,115,118,118,115,118,112,120,115,116,115,112,118,120,112,114,116,113,115,117,117,118,116,116,117,115,113,114,118,117,113,115,113,113,117
116,113,112,116,119,122,111,113,115,118,115,114,116,117,118,116,115,113,115,115,115,110,122,117,114,114,117,111,120,113,114,111,116,118,117,112,111,113,115,118,118,119,113,115,114,114,118,115,117,115,116,118,112,115,113,121,112,116,118,113
119,118,112,116,113,117,116,114,113,111,120,117,117,118,117,118,115,109,118,117,118,114,113,115,117,116,119,114,117,121,115,118,115,116,115,115,116,115,113,117,119,119,115,112,116,113,120,117,116,120,115,115,117,112,116,116,114,116,116,118
113,114,117,118,114,117,114,118,113,116,118,117,116,117,119,115,115,117,117,111,113,120,118,113,114,114,111,118,118,119,117,121,112,114,113,113,113,116,115,119,111,113,114,113,116,112,112,112,113,114,114,114,117,111,116,114,115,117,111,116
116,115,114,116,113,118,117,115,115,114,112,117,118,116,114,113,113,114,116,116,118,116,119,117,112,112,116,116,119,119,116,117,118,117,113,114,116,112,115,113,114,112,113,117,116,117,117,113,112,111,115,116,112,112,117,114,109,113,116,114
113,113,112,119,116,115,118,113,116,120,111,118,120,115,117,114,114,116,116,117,117,119,119,118,114,115,118,117,114,114,120,115,114,116,116,113,113,115,114,113,118,114,115,117,116,113,117,121,115,116,115,117,116,116,116,114,117,117,113,112
116,121,119,117,118,114,112,112,113,114,114,115,115,113,115,117,118,113,114,113,118,121,115,115,116,115,116,118,115,115,115,112,110,116,113,115,116,115,116,113,114,116,115,113,116,116,113,114,117,113,116,117,117,113,116,117,112,117,116,115
115,118,114,113,118,115,115,115,115,112,114,114,114,116,114,115,115,111,113,112,118,116,111,114,116,116,119,114,115,112,115,117,113,117,116,115,119,115,111,113,118,114,112,114,115,117,119,111,122,116,113,115,117,116,118,115,115,115,114,112
113,115,109,117,119,115,117,116,116,114,115,115,119,115,115,113,112,118,120,114,116,119,111,115,118,112,113,120,116,115,115,118,115,119,117,112,116,115,113,115,118,112,116,118,116,112,116,113,110,113,115,114,116,117,116,109,114,116,118,112
113,113,112,121,116,117,118,114,113,114,109,114,119,116,113,112,114,116,117,112,117,117,114,114,116,115,114,117,112,114,118,114,110,118,115,116,116,115,115,114,117,117,117,113,114,114,116,121,111,111,118,113,115,117,113,113,114,115,117,112
117,114,114,118,116,118,118,117,118,116,110,115,113,117,116,109,121,114,109,120,111,116,116,117,114,116,117,119,115,111,117,117,116,117,118,118,121,114,117,114,116,115,118,116,114,113,119,117,115,115,116,115,115,116,116,111,117,114,114,114
114,118,117,112,119,115,117,118,110,116,114,118,113,114,114,113,114,114,114,118,118,119,112,121,113,114,116,119,120,113,114,116,117,116,117,111,118,120,110,117,111,112,117,118,119,115,109,121,114,116,119,116,118,113,120,114,117,114,117,115
116,112,113,117,115,117,116,114,112,112,120,114,117,116,116,115,116,120,118,115,114,117,112,117,113,114,118,117,118,110,114,112,120,112,115,117,116,115,111,119,118,117,114,117,113,111,115,113,109,116,119,114,120,113,114,115,117,119,116,115
121,117,113,120,114,119,119,118,114,115,117,115,112,115,118,114,117,112,118,114,115,111,117,116,115,117,113,115,119,113,115,117,116,115,117,115,112,112,116,116,117,113,114,114,115,117,112,115,117,117,117,116,118,114,115,112,117,112,114,119
119,115,116,113,115,114,113,117,115,113,112,117,114,118,117,111,115,116,109,117,118,115,119,114,116,117,116,118,117,116,116,116,111,115,116,114,115,116,117,118,119,115,115,113,117,119,115,114,120,116,112,119,118,116,117,114,116,116,111,114
114,120,113,114,114,113,118,115,116,111,110,117,116,119,119,113,118,116,113,119,119,115,115,116,118,114,115,120,118,122,116,111,117,117,114,115,115,118,116,112,117,120,117,115,115,117,116,117,116,116,114,115,115,119,116,116,116,117,116,111
115,112,115,117,112,116,113,113,114,113,115,116,118,117,116,114,116,117,114,112,115,113,114,118,116,117,115,114,120,115,115,114,117,115,116,118,117,113,110,115,113,111,117,118,115,117,120,116,114,118,115,117,117,112,119,116,115,117,117,115
117,117,115,112,112,117,115,113,114,115,115,121,121,117,112,113,116,117,115,116,119,117,112,110,114,118,117,116,117,120,117,119,114,111,118,119,123,113,111,114,117,111,114,119,111,117,120,118,116,115,116,116,115,111,115,112,115,117,112,117
116,117,112,113,115,114,118,116,114,115,116,118,117,115,114,115,115,119,115,115,115,115,117,109,119,116,117,116,118,122,110,117,121,119,118,118,116,120,115,117,113,111,117,118,113,116,116,108,117,111,117,118,114,118,116,113,112,113,118,113
116,114,118,118,119,115,113,115,116,119,114,113,116,112,113,117,115,120,116,113,116,117,117,113,117,117,119,111,116,119,128,118,128,131,122,122,114,116,118,118,114,121,121,116,111,118,112,117,115,117,114,117,118,119,116,113,112,118,116,116
117,119,120,113,118,116,111,115,117,118,121,114,112,116,113,119,116,117,114,113,121,112,116,115,114,115,117,109,116,119,126,131,134,131,132,131,119,117,118,112,119,112,113,120,112,121,112,118,123,115,118,113,113,119,112,120,112,115,116,113
110,118,114,118,114,114,115,109,119,113,118,117,112,114,117,120,117,114,114,120,116,119,118,110,118,116,116,116,120,119,131,134,142,145,136,137,130,122,121,114,119,117,111,116,112,121,116,116,111,112,114,113,111,116,118,119,116,119,112,115
115,112,114,118,119,114,115,112,113,121,114,116,112,117,115,114,114,119,114,114,116,115,115,117,113,117,116,115,118,127,141,146,145,156,146,140,135,125,118,117,115,115,119,116,112,116,117,116,113,117,114,114,113,114,120,115,114,118,116,117
112,115,114,115,117,116,117,115,116,116,114,119,118,114,114,115,112,111,117,114,117,117,117,116,112,116,119,118,126,131,138,156,152,146,150,146,132,125,124,118,117,117,114,116,117,117,117,116,115,116,120,119,114,114,119,113,115,118,112,118
117,120,109,116,115,120,116,111,114,113,112,117,117,115,116,113,111,114,116,113,117,115,115,118,114,117,122,119,124,139,149,161,164,154,147,144,136,127,122,119,118,115,115,115,115,119,115,114,115,118,116,115,117,118,119,120,119,117,114,118
116,118,115,109,115,116,113,115,114,113,115,116,110,114,117,115,114,114,117,115,114,115,111,113,116,116,119,121,132,141,153,158,157,156,151,148,137,131,121,117,116,114,117,116,120,118,115,119,110,117,117,115,112,117,115,113,114,114,116,114
114,114,117,113,114,112,116,115,114,116,115,117,117,118,117,115,117,116,113,116,117,118,116,114,116,118,117,124,136,143,154,160,165,154,149,147,137,130,126,118,118,121,121,115,119,116,120,116,117,112,119,121,115,115,117,118,117,115,116,117
116,116,119,112,114,119,115,119,118,112,117,117,115,119,114,115,117,115,117,116,116,114,116,117,115,115,116,122,129,151,162,161,158,159,151,148,145,127,120,120,119,118,119,121,114,117,117,113,118,113,122,114,119,119,120,120,113,113,117,112
115,117,119,112,120,114,113,117,119,119,114,113,112,112,113,117,117,112,113,118,120,116,119,113,117,116,121,120,133,150,159,158,156,156,157,149,147,137,131,120,117,121,110,123,112,119,118,114,113,120,114,114,119,114,122,112,118,118,118,115
113,116,111,115,117,111,116,112,115,114,117,115,113,113,117,116,112,114,116,119,116,118,111,116,121,119,121,122,133,146,151,163,154,159,162,146,150,130,122,122,115,119,115,112,114,115,111,116,116,120,112,119,115,114,120,111,114,114,121,116
118,116,120,114,110,116,119,114,115,113,114,115,120,118,119,117,113,123,114,111,117,116,119,117,122,120,115,130,131,150,161,166,158,163,167,149,143,132,128,120,119,120,113,115,121,117,115,116,114,117,110,117,120,114,114,116,119,116,111,118
110,118,111,118,115,116,120,114,113,117,114,110,120,117,120,116,113,118,122,118,117,118,115,115,115,121,119,132,133,153,152,156,159,159,167,156,140,133,124,118,120,116,118,118,116,116,120,117,119,120,115,114,119,114,113,115,111,118,120,118
114,117,113,117,110,119,116,117,116,119,116,112,118,117,116,118,114,116,116,114,111,116,116,115,117,116,116,125,139,148,152,160,160,160,160,155,145,128,123,120,116,117,112,114,114,113,117,117,111,112,119,118,117,114,114,118,113,116,119,116
118,117,115,115,110,115,117,118,119,116,109,114,118,115,112,114,112,118,119,114,114,113,116,118,116,115,116,124,134,139,155,156,157,159,155,154,144,131,127,117,117,121,117,116,117,117,121,117,116,116,116,117,119,116,112,112,115,117,117,113
117,116,115,115,113,117,117,116,118,115,117,118,117,113,115,115,112,116,117,114,120,119,115,117,116,120,124,129,135,152,156,151,156,157,156,153,137,130,122,120,116,112,117,119,115,116,119,114,118,116,112,113,115,113,113,114,114,115,116,119
115,110,113,116,114,116,119,116,116,118,112,117,123,114,115,118,117,116,117,118,115,116,118,111,112,123,122,126,137,146,150,146,152,156,159,145,133,131,123,122,113,119,117,116,113,118,121,117,111,119,116,113,117,115,114,116,117,113,117,120
117,116,116,115,114,114,111,119,120,114,116,119,113,116,116,117,115,114,117,115,115,117,120,113,115,116,124,129,134,146,151,157,155,154,156,141,130,129,124,120,114,117,122,118,116,120,115,116,119,116,115,118,112,112,118,118,114,118,115,117
116,113,112,117,120,119,115,120,116,110,120,116,114,118,118,117,115,114,117,118,115,121,120,115,117,119,121,128,139,145,153,162,158,155,148,138,128,121,117,120,110,121,115,117,120,117,119,113,114,122,120,115,112,111,116,118,110,117,117,112
114,115,116,118,118,114,119,115,115,114,123,113,119,115,118,114,115,117,119,117,119,115,120,118,112,114,121,120,131,136,144,147,158,154,144,133,127,124,120,115,115,122,113,116,117,110,122,116,116,118,117,114,119,116,115,114,117,115,119,117
116,115,117,118,113,112,116,115,114,119,117,116,116,116,121,118,114,114,120,115,113,119,116,114,117,111,120,127,136,132,136,146,152,149,143,121,127,119,127,119,113,116,111,119,116,118,121,116,114,112,120,111,117,113,120,115,120,117,113,119
112,114,119,116,111,107,116,118,113,110,119,118,112,114,115,120,117,115,116,115,114,118,117,109,115,120,116,127,133,137,140,137,142,139,134,118,123,118,115,124,117,115,118,116,114,122,120,117,120,113,115,116,116,116,118,118,115,116,116,118
119,117,113,121,114,114,113,118,114,115,114,116,114,113,119,116,115,116,119,114,114,116,116,113,119,116,117,118,123,133,136,130,133,132,124,121,122,120,116,121,116,117,120,115,116,117,116,116,121,115,117,116,115,118,118,117,117,116,116,116
119,120,119,112,116,116,115,117,113,117,114,114,114,114,117,115,117,114,114,117,112,115,116,116,116,112,121,121,121,121,123,125,123,119,120,118,115,116,118,117,117,119,116,113,116,120,116,114,111,115,119,116,115,115,120,117,114,113,116,116
116,113,114,116,117,118,115,118,120,116,112,111,120,113,115,117,118,113,117,118,118,119,115,110,113,113,115,119,119,120,121,115,115,116,119,117,116,116,118,121,116,112,115,115,117,119,119,116,111,116,116,118,118,115,117,114,114,118,117,121
114,112,114,113,113,118,113,114,113,116,118,116,118,113,116,115,111,120,120,112,113,116,121,118,113,118,120,115,116,118,114,120,119,113,115,115,117,113,114,117,115,119,119,115,120,114,114,118,120,113,115,120,117,118,118,117,114,113,119,121
119,115,116,115,116,115,112,114,114,117,121,115,113,114,114,113,112,118,117,114,113,118,120,119,112,114,118,117,118,121,115,114,120,120,112,119,115,117,115,113,116,118,117,111,119,118,117,116,117,113,112,116,118,120,118,119,117,118,120,115
117,113,115,113,113,119,113,115,116,115,116,112,117,116,114,117,114,116,118,115,116,117,118,117,115,116,109,118,119,121,111,114,123,117,117,118,118,114,118,123,110,117,112,113,118,119,114,115,115,117,121,112,116,112,117,113,117,119,112,118
113,118,114,117,115,116,114,120,117,111,112,114,116,119,115,120,113,117,113,115,117,114,119,118,118,116,116,117,116,117,116,117,117,114,117,118,123,115,119,112,119,117,116,116,120,114,114,116,117,117,116,116,119,112,118,112,117,115,115,115
119,117,117,114,116,114,111,117,115,113,113,115,116,112,110,117,118,116,109,114,116,115,115,112,119,118,122,117,111,118,117,119,116,118,111,117,118,119,116,113,115,116,119,115,118,116,114,122,111,115,115,121,111,114,113,117,111,115,116,114
117,120,114,112,114,120,116,115,113,119,109,118,119,117,112,112,118,119,115,112,118,108,120,116,114,115,116,114,116,119,117,118,115,120,118,117,116,116,113,117,117,113,114,114,119,118,117,118,114,123,117,119,115,119,114,116,114,113,112,116
120,117,116,115,113,113,118,117,114,114,113,117,115,116,117,113,114,119,115,112,120,115,113,116,116,114,114,114,121,116,117,119,111,111,118,121,113,116,113,115,119,115,115,115,119,117,121,116,115,113,114,113,116,116,119,116,114,118,116,113
116,122,114,109,119,118,115,118,115,116,123,119,118,109,112,117,116,118,114,117,121,116,119,111,117,117,115,117,121,113,117,115,113,115,119,123,114,115,116,115,114,113,117,116,115,116,118,115,117,114,115,117,114,116,119,119,115,118,116,116
110,118,116,115,115,114,116,115,114,115,116,118,118,113,116,116,118,117,114,116,114,115,116,113,113,116,113,113,116,119,116,117,117,115,114,116,116,113,115,114,117,115,115,115,114,115,114,112,114,116,120,119,116,115,113,115,116,119,121,116
118,118,113,116,113,111,119,111,112,117,120,119,112,115,114,114,118,114,118,117,117,113,118,122,116,115,116,114,114,113,119,122,115,116,113,115,117,115,115,114,116,116,116,117,119,119,115,120,120,117,119,117,116,113,116,114,114,120,115,118
120,117,110,114,115,118,121,114,114,118,118,112,116,116,111,118,118,115,116,118,117,112,113,115,114,115,115,116,119,114,115,117,113,114,115,120,118,116,117,118,113,116,115,112,116,119,117,114,115,115,114,112,117,118,116,112,117,122,111,115
112,115,111,115,121,119,113,115,118,120,123,112,111,118,119,115,114,118,114,119,117,114,115,116,115,115,115,117,113,118,117,116,114,114,116,119,114,116,115,113,118,118,116,113,117,116,112,117,115,119,116,119,117,114,117,112,115,119,120,118
115,120,120,116,115,117,113,114,118,120,120,117,120,117,117,119,114,115,118,117,115,116,113,111,114,118,117,118,114,121,118,114,118,115,114,116,116,119,114,114,114,114,114,119,116,114,115,116,113,119,112,119,117,119,118,121,116,111,117,111
117,114,115,120,115,113,116,114,116,116,116,114,113,119,116,115,119,116,116,113,115,118,117,113,115,115,116,120,117,112,113,117,112,122,116,115,116,111,116,115,116,120,116,117,117,112,114,116,118,112,115,115,118,118,115,115,114,113,109,115
119,115,115,118,115,114,113,115,115,116,111,118,120,121,114,115,117,111,116,113,117,121,115,117,122,115,117,115,114,122,114,119,116,118,111,117,116,112,122,113,116,114,113,116,120,117,116,115,116,116,119,120,116,116,114,113,113,120,121,115
112,117,117,114,118,119,116,116,118,117,115,119,116,118,111,119,118,116,118,116,118,115,117,115,120,114,117,114,117,118,118,116,114,116,116,117,117,114,118,116,117,116,115,118,116,115,115,118,116,121,119,118,118,117,116,115,118,119,116,119
116,118,117,118,119,116,120,116,120,114,113,118,117,113,117,116,116,119,115,116,118,116,118,123,113,116,116,116,117,112,112,122,114,112,115,118,117,117,113,113,114,115,118,113,116,116,109,116,115,114,118,116,107,115,116,112,116,116,118,116
116,115,115,123,115,114,116,114,116,114,113,115,117,113,114,117,119,113,115,115,115,118,118,112,112,114,118,113,119,116,117,119,115,119,117,117,120,114,115,115,112,118,119,112,114,116,114,119,118,120,114,113,116,115,115,112,118,118,112,114
115,113,116,116,119,120,118,115,116,113,116,120,111,116,115,116,120,115,115,114,120,122,115,115,116,114,117,114,117,116,120,112,111,120,118,117,119,114,115,117,113,120,120,115,115,117,121,118,117,120,115,115,117,115,116,118,116,117,116,117
118,117,115,117,115,111,117,113,116,117,115,118,115,116,118,120,118,116,116,119,117,117,115,114,115,116,119,116,111,114,119,119,115,115,117,115,116,117,115,112,112,115,116,113,112,117,118,114,120,120,120,116,114,116,114,118,120,113,108,121
121,118,112,117,117,115,118,116,115,114,111,115,116,114,116,116,116,114,120,117,112,120,113,113,117,115,120,118,110,114,121,119,113,113,114,115,113,118,119,116,109,114,120,114,114,119,117,117,121,116,119,113,117,116,118,114,116,113,117,114
117,116,116,114,116,116,118,118,118,114,115,118,116,119,117,113,117,113,117,113,115,116,116,114,117,116,117,115,115,116,118,119,120,108,115,119,116,117,114,113,115,117,116,114,117,120,117,114,118,119,114,116,115,114,116,114,117,116,112,118
116,119,120,112,118,113,112,112,115,118,118,117,112,118,117,116,120,114,114,115,118,120,116,116,118,118,118,115,117,110,115,116,120,116,118,114,120,114,116,116,120,114,119,109,119,118,118,113,115,113,111,122,118,112,116,114,121,118,118,117
115,117,113,120,120,115,112,118,116,122,112,117,116,110,115,119,117,115,116,111,116,112,118,115,116,119,116,120,120,115,115,117,118,111,116,115,117,111,115,115,120,116,112,114,117,118,118,114,118,117,121,113,118,115,119,116,117,118,116,118
117,115,114,114,119,116,120,122,115,117,116,115,112,115,114,117,120,118,119,112,123,116,118,117,114,119,118,122,116,112,116,114,123,111,117,112,115,117,115,111,118,115,114,115,115,118,115,113,116,113,113,122,110,117,118,115,112,117,117,121
119,116,118,117,118,116,122,117,112,118,114,118,117,120,115,117,119,120,116,115,120,112,119,117,113,122,116,118,117,118,113,121,116,117,118,114,116,120,117,114,115,121,116,115,117,115,116,113,114,115,119,115,114,121,118,115,114,113,117,118
120,114,115,121,116,111,119,116,118,118,112,116,119,114,117,119,120,116,123,115,117,116,117,115,117,121,120,114,120,117,113,116,117,116,115,119,114,115,115,120,119,120,116,115,115,116,120,116,116,120,112,114,114,113,119,115,114,114,114,114
115,122,117,119,115,116,114,118,118,119,115,116,113,118,122,113,118,113,115,115,120,120,112,121,118,115,123,118,118,120,114,117,114,115,119,114,111,114,119,117,117,115,117,115,112,114,117,116,115,115,114,114,114,114,113,114,114,114,114,114
115,118,118,117,115,114,115,117,118,113,121,120,114,117,121,117,116,116,113,118,117,116,114,118,114,112,114,116,116,115,113,121,119,113,116,117,116,115,117,115,115,114,114,114,114,114,113,113,114,114,114,114,114,114,114,114,114,114,114,114
121,118,111,116,122,119,115,119,118,117,115,117,117,117,119,113,112,115,117,118,118,116,115,115,116,117,113,113,114,113,114,114,114,115,115,115,115,115,115,115,115,115,114,114,114,114,114,114,114,114,114,114,114,114,114,114,114,114,114,114
117,113,123,117,114,117,121,120,112,118,117,116,115,116,115,114,114,116,115,115,115,114,114,114,114,113,114,114,114,114,114,114,114,115,115,115,115,115,115,115,115,115,114,114,114,114,114,114,114,114,114,114,114,114,114,114,114,114,114,114
116,116,120,115,116,113,117,117,112,115,115,115,114,114,114,114,114,114,114,114,114,114,114,114,114,114,114,114,114,114,114,114,114,115,115,115,115,115,115,115,115,115,114,114,114,114,114,114,114,114,114,114,114,114,114,114,114,114,114,114
115,115,114,114,114,114,114,113,114,114,114,114,114,114,114,114,114,114,114,114,114,114,114,114,114,114,114,114,114,114,114,114,114,115,115,115,115,115,115,115,115,115,114,114,114,114,114,114,114,114,114,114,114,114,114,114,114,114,114,114
114,114,114,114,114,114,114,114,114,114,114,114,114,114,114,114,114,114,114,114,114,114,114,114,114,114,114,114,114,114,114,114,114,115,115,115,115,115,115,115,115,115,114,114,114,114,114,114,114,114,114,114,114,114,114,114,114,114,114,114
114,114,114,114,114,114,114,114,114,114,114,114,114,114,114,114,114,114,114,114,114,114,114,114,114,114,114,114,114,114,114,114,114,115,115,115,115,115,115,115,115,115,114,114,114,114,114,114,114,114,114,114,114,114,114,114,114,114,114,114
114,114,114,114,114,114,114,114,114,114,114,114,114,114,114,114,114,114,114,114,114,114,114,114,114,114,114,114,114,114,114,114,114,115,115,115,115,115,115,115,115,115,114,114,114,114,114,114,114,114,114,114,114,114,114,114,114,114,114,114
114,114,114,114,114,114,114,114,114,114,114,114,114,114,114,114,114,114,114,114,114,114,114,114,114,114,114,114,114,114,114,114,114,115,115,115,115,115,115,115,115,115,114,114,114,114,114,114,114,114,114,114,114,114,114,114,114,114,114,114
114,114,114,114,114,114,114,114,114,114,114,114,114,114,114,114,114,114,114,114,114,114,114,114,114,114,114,114,114,114,114,114,114,115,115,115,115,115,115,115,115,115,114,114,114,114,114,114,114,114,114,114,114,114,114,114,114,114,114,114
114,114,114,114,114,114,114,114,114,114,114,114,114,114,114,114,114,114,114,114,114,114,114,114,114,114,114,114,114,114,114,114,114,114,115,115,115,115,115,115,115,115,115,114,114,114,114,114,114,114,114,114,114,114,114,114,114,114,114,114
114,114,114,114,114,114,114,114,114,114,114,114,114,114,114,114,114,114,114,114,114,114,114,114,114,114,114,114,114,114,114,114,114,114,115,115,115,115,115,115,115,115,115,114,114,114,114,114,114,114,114,114,114,114,114,114,114,114,114,114
114,114,114,114,114,114,114,114,114,114,114,114,114,114,114,114,114,114,114,114,114,114,114,114,114,114,114,114,114,114,114,114,114,114,115,115,115,115,115,115,115,115,115,114,114,114,114,114,114,114,114,114,114,114,114,114,114,114,114,114
114,114,114,114,114,114,114,114,114,114,114,114,114,114,114,114,114,114,114,114,114,114,114,114,114,114,114,114,114,114,114,114,114,114,115,115,115,115,115,115,115,115,115,114,114,114,114,114,114,114,114,114,114,114,114,114,114,114,114,114
114,114,114,114,114,114,114,114,114,114,114,114,114,114,114,114,114,114,114,114,114,114,114,114,114,114,114,114,114,114,114,114,114,114,115,115,115,115,115,115,115,115,115,114,114,114,114,114,114,114,114,114,114,114,114,114,114,114,114,114
114,114,114,114,114,114,114,114,114,114,114,114,114,114,114,114,114,114,114,114,114,114,114,114,114,114,114,114,114,114,114,114,114,114,115,115,115,115,115,115,115,115,115,114,114,114,114,114,114,114,114,114,114,114,114,114,114,114,114,114
114,114,114,114,114,114,114,114,114,114,114,114,114,114,114,114,114,114,114,114,114,114,114,114,114,114,114,114,114,114,114,114,114,114,115,115,115,115,115,115,115,115,115,114,114,114,114,114,114,114,114,114,114,114,114,114,114,114,114,114
114,114,114,114,114,114,114,114,114,114,114,114,114,114,114,114,114,114,114,114,114,114,114,114,114,114,114,114,114,114,114,114,114,114,115,115,115,115,115,115,115,115,115,114,114,114,114,114,114,114,114,114,114,114,114,114,114,114,114,114
