53,61,69
110,119,115,112,116,120,123,111,114,114,116,113,113,114,113,115,111,117,115,112,117,118,113,116,116,112,112,117,114,117,120,117,113,113,112,116,114,113,116,116,109,113,112,116,118,116,115,113,113,114,118,111,111,118,119,116,118,115,115,114
115,117,113,117,111,115,117,115,119,116,116,113,114,113,115,118,114,114,112,116,117,119,114,117,117,116,113,113,112,114,118,118,112,110,113,118,116,113,115,114,116,121,116,108,114,115,114,113,115,116,112,113,112,112,117,115,119,115,111,116
121,119,112,115,118,113,112,117,116,112,115,115,117,114,119,112,108,112,113,114,116,118,116,119,114,114,115,112,112,114,115,115,118,114,115,115,113,113,115,113,113,114,110,112,116,115,115,111,117,117,109,113,118,115,115,112,118,116,111,113
115,123,110,109,116,115,116,117,116,117,111,110,118,115,114,118,115,113,114,114,113,111,114,115,110,112,117,116,116,116,114,117,117,116,116,114,114,115,117,117,118,113,115,112,114,114,114,110,112,117,116,112,115,119,113,113,110,114,113,115
112,118,113,112,116,117,116,115,116,115,115,115,114,116,118,117,112,113,114,112,116,119,114,113,115,116,116,114,112,117,118,114,111,117,117,114,119,120,115,115,117,117,117,113,120,116,117,113,117,116,113,114,112,114,120,111,110,113,113,116
113,116,117,116,114,115,117,118,114,114,118,116,114,116,114,116,118,117,118,112,116,123,115,114,116,117,114,114,119,118,114,111,112,114,114,115,115,121,114,115,111,116,119,109,114,114,120,116,115,116,111,112,119,117,120,117,115,112,114,116
115,112,114,117,117,115,117,113,111,117,114,116,115,117,114,114,113,116,116,115,115,120,110,114,113,117,117,116,116,113,115,116,117,117,117,118,113,111,111,115,114,117,118,115,113,113,116,118,117,112,113,113,117,119,111,115,118,111,114,116
118,118,118,111,116,113,117,116,110,117,114,114,114,112,117,112,113,116,112,112,117,116,116,118,110,120,115,115,112,115,113,113,115,118,118,113,114,113,114,114,115,117,117,113,114,113,112,116,113,115,114,114,115,114,112,114,114,113,114,115
115,113,118,123,111,114,113,117,112,114,112,118,115,115,112,114,123,117,114,116,116,112,118,114,114,119,114,118,115,113,115,116,114,113,115,117,118,113,113,114,115,113,116,117,116,112,114,114,111,112,117,118,112,111,115,113,119,120,115,110
116,118,115,114,114,116,116,115,116,116,113,118,116,117,114,113,113,119,114,113,112,110,114,118,113,112,113,115,116,116,115,114,117,113,115,117,113,116,115,112,116,113,115,118,114,113,117,116,116,114,114,116,113,113,112,112,116,114,115,113
111,114,114,117,112,116,116,114,113,116,117,116,121,118,117,119,114,110,110,113,114,114,112,115,110,115,114,115,116,112,116,118,118,115,113,118,118,117,116,115,116,115,113,115,113,116,116,116,113,117,108,111,116,115,122,116,116,111,118,114
117,110,112,116,116,116,114,115,115,115,116,111,112,114,114,115,115,115,114,121,117,115,114,117,115,119,114,116,113,109,117,116,113,116,116,113,114,115,116,114,111,117,115,113,111,113,111,118,113,118,113,115,116,110,120,114,114,119,120,116
119,113,115,116,115,118,116,116,119,111,118,113,116,109,114,114,114,119,112,114,115,115,112,115,114,116,115,112,116,119,111,115,110,113,116,115,115,116,117,115,112,115,119,119,118,114,112,112,111,115,115,116,115,114,116,113,114,120,115,114
118,115,115,116,111,111,114,116,114,110,115,119,115,111,121,117,113,113,109,114,111,118,121,109,115,113,118,116,108,119,111,113,114,114,114,114,111,114,120,115,118,115,111,115,114,115,118,112,112,119,116,114,113,117,117,112,117,113,113,117
113,118,117,110,110,119,115,116,114,120,108,118,114,117,114,113,114,119,115,118,113,115,117,111,118,113,117,117,115,114,115,112,114,115,113,115,116,115,118,116,114,115,113,120,116,111,120,117,114,114,112,114,116,116,111,116,118,109,114,114
116,112,115,113,119,112,118,114,112,115,111,116,114,118,116,113,114,114,115,114,115,113,115,116,111,111,117,112,116,115,112,113,112,117,114,110,112,113,120,113,112,117,113,119,112,115,119,115,116,120,114,113,113,120,113,114,114,116,118,109
116,113,116,118,116,114,119,114,114,111,114,116,110,115,114,112,119,115,116,116,112,113,119,114,112,112,115,116,116,114,116,116,116,119,115,114,117,113,118,114,113,111,116,114,114,111,117,115,117,111,110,118,116,117,110,114,114,117,117,116
115,114,116,120,114,117,116,113,120,115,114,110,111,117,114,115,113,116,115,114,114,116,117,117,117,113,113,117,118,117,114,111,115,115,115,114,114,111,115,118,113,109,113,116,117,109,119,110,113,115,120,112,117,116,114,114,116,116,113,117
113,112,113,114,116,116,116,112,117,114,117,113,110,113,115,113,117,115,114,111,115,119,116,112,114,121,114,114,109,119,115,117,110,114,117,115,113,116,119,116,115,116,118,106,115,113,119,116,115,116,110,119,111,118,118,117,116,114,115,112
112,114,113,114,113,113,119,117,116,118,113,122,117,112,114,112,117,114,113,113,114,115,116,118,118,114,114,118,116,116,114,116,110,115,116,113,115,116,113,114,115,113,117,116,115,116,116,115,116,111,117,117,109,112,113,112,118,116,114,114
112,113,112,118,121,116,115,111,116,116,110,118,116,118,115,115,113,118,111,115,112,113,115,118,112,115,114,118,115,114,118,116,111,116,118,109,109,119,115,117,115,111,120,115,115,119,116,113,117,117,114,116,114,115,115,113,121,115,112,116
114,113,116,117,117,114,121,113,112,113,118,114,115,113,119,117,116,111,116,114,112,115,116,117,113,114,115,117,114,116,111,110,117,117,115,112,114,115,117,112,116,114,115,113,113,117,116,112,116,117,115,116,112,114,112,115,120,115,115,116
114,117,113,118,114,118,115,119,116,113,114,117,117,114,114,118,117,118,117,113,114,113,117,114,111,118,114,113,115,117,113,116,112,111,115,119,116,112,117,118,117,115,113,115,115,116,118,115,114,113,113,113,114,115,114,122,115,112,118,116
116,116,113,119,116,116,110,111,114,116,114,114,111,110,113,114,113,112,115,118,110,114,116,114,116,115,114,115,116,116,109,116,112,115,116,114,115,114,111,119,117,113,109,117,117,117,115,117,115,110,117,111,114,114,114,116,116,111,118,119
118,114,118,115,113,117,117,114,111,116,117,110,111,117,115,115,115,114,116,119,114,115,113,114,117,117,110,119,118,118,117,116,112,119,118,114,113,108,119,115,117,113,113,112,115,119,115,113,110,118,114,109,111,117,117,112,115,111,113,116
118,116,118,114,112,115,116,114,114,114,118,114,115,119,112,112,116,114,115,116,114,114,118,112,115,117,113,116,118,116,112,118,114,114,116,114,113,114,115,118,114,116,112,115,117,116,116,115,120,116,117,113,111,117,116,113,118,118,118,112
112,115,116,115,115,110,116,118,114,112,117,119,114,110,118,115,116,116,109,116,111,110,115,114,116,116,117,116,113,115,113,115,117,113,114,112,116,114,112,116,113,115,108,120,116,116,117,115,113,110,117,117,112,117,115,113,118,116,115,113
118,117,113,110,117,118,113,121,119,114,115,114,117,113,113,119,120,112,114,113,116,118,115,107,112,116,112,116,115,114,110,114,111,112,115,113,114,117,113,114,117,116,112,115,114,117,114,117,114,109,117,115,115,121,116,111,117,114,115,117
113,113,114,112,116,120,113,116,118,115,115,111,111,116,111,116,120,115,112,117,120,119,114,111,120,118,116,113,114,118,112,110,111,112,114,115,116,112,117,112,113,115,110,115,117,117,114,118,113,118,116,111,113,115,115,115,116,113,115,113
114,114,108,113,119,116,110,112,116,116,115,116,114,114,112,116,117,114,115,120,117,116,113,112,115,111,112,112,116,113,111,117,115,116,116,117,115,114,120,115,116,116,109,114,118,117,118,117,112,120,118,115,116,112,114,111,113,110,116,117
115,117,113,116,115,113,118,117,117,116,112,115,114,113,115,113,114,120,111,111,113,114,113,115,115,113,112,114,116,116,117,112,113,121,118,114,113,114,117,120,113,119,114,114,118,116,120,115,115,119,115,116,117,115,117,115,114,115,112,112
113,114,114,115,117,115,112,115,115,116,115,121,118,107,112,117,114,117,115,114,118,116,115,114,114,116,116,118,110,113,115,116,115,117,117,113,114,110,115,117,111,114,114,122,116,112,116,115,116,119,112,116,120,114,118,118,114,118,117,108
115,110,117,112,112,117,115,118,117,110,117,114,111,117,114,116,118,118,110,114,118,118,117,115,112,115,113,119,116,113,112,113,119,108,112,118,116,116,118,116,111,113,114,112,119,115,120,115,115,113,117,113,115,117,118,114,113,115,114,111
115,114,123,114,110,119,111,110,114,114,119,113,111,114,116,113,113,111,114,115,116,117,111,115,113,120,115,115,117,115,114,119,111,110,115,115,115,113,114,119,114,116,114,106,116,116,116,116,115,112,114,116,115,115,117,112,113,115,117,117
118,117,116,111,112,119,115,118,112,117,112,115,123,116,112,116,118,113,113,117,111,114,114,114,112,113,117,116,115,117,113,113,116,116,113,118,115,112,112,114,118,115,113,114,111,111,114,110,115,119,115,113,117,116,114,116,117,115,115,118
110,114,117,117,111,115,114,116,115,115,115,117,118,117,116,119,115,109,114,119,115,113,114,112,113,117,115,114,117,113,114,119,118,116,113,115,115,116,113,112,113,115,111,113,115,117,115,115,113,115,118,117,119,111,116,113,116,115,116,116
115,114,114,116,116,114,114,113,112,117,116,115,117,115,114,117,117,113,117,120,113,112,112,114,116,116,115,116,114,116,112,116,118,112,120,117,112,114,117,116,112,116,111,113,114,117,112,118,115,110,114,115,117,113,115,115,116,113,116,116
117,116,110,111,117,115,112,114,116,114,117,117,116,116,113,114,115,112,118,114,117,115,115,112,118,107,115,112,116,115,114,111,117,114,116,117,117,117,111,116,113,114,116,120,109,112,117,114,117,111,120,118,114,113,118,112,119,117,111,113
117,112,113,116,119,114,111,115,116,114,117,116,117,121,114,114,116,112,111,120,114,116,121,115,116,116,121,114,115,117,114,115,119,112,117,116,113,113,113,113,114,114,115,113,113,116,119,115,115,114,114,113,117,113,116,114,118,115,112,111
110,119,116,111,116,115,110,115,114,112,113,118,110,115,116,113,121,114,118,116,108,112,118,114,115,120,111,123,115,115,113,116,115,115,120,115,118,112,113,112,122,112,113,119,112,111,111,115,117,116,110,114,116,114,114,114,116,114,115,116
112,112,116,117,113,117,111,116,118,109,111,112,116,111,116,114,115,116,115,119,114,113,114,116,113,115,117,116,119,113,111,117,113,118,117,113,115,115,115,111,117,114,114,114,118,119,112,114,112,114,113,115,121,114,115,116,115,115,115,112
117,112,115,117,116,115,117,113,111,114,117,113,118,113,115,115,113,115,119,116,114,117,115,115,116,112,113,116,117,118,113,108,117,122,115,116,115,114,116,117,114,113,118,116,119,111,115,114,114,116,118,115,115,115,112,113,115,121,114,114
118,111,116,116,115,114,113,116,115,116,119,117,111,114,120,116,117,115,112,115,119,116,118,118,112,114,116,115,118,117,116,116,117,117,115,113,115,112,118,108,116,112,109,116,116,111,122,113,114,117,118,116,117,113,116,113,115,118,109,116
117,114,118,117,116,114,116,117,114,118,118,115,116,112,115,118,118,117,115,112,118,114,111,118,116,116,112,113,119,115,114,118,115,114,114,114,120,112,111,115,114,122,111,114,110,116,119,118,114,111,114,116,117,114,115,116,118,113,112,116
114,115,118,112,117,119,117,112,113,114,115,118,114,114,116,118,115,115,120,117,117,118,109,117,114,117,113,115,114,119,117,119,116,118,119,116,119,116,117,118,115,118,116,114,116,116,118,120,112,113,117,120,112,117,116,113,116,117,113,113
116,119,116,111,115,117,114,115,116,119,113,119,109,110,118,117,113,113,115,112,117,119,118,114,113,119,113,116,114,117,115,121,119,117,120,114,113,113,114,118,117,114,115,114,116,117,115,114,111,119,118,114,110,114,117,118,114,115,119,118
119,116,115,114,115,114,117,116,116,117,113,114,119,115,115,114,113,116,116,117,119,111,122,111,115,116,117,114,119,121,118,117,123,125,120,118,117,117,117,114,114,116,115,112,116,114,111,114,117,113,112,114,114,116,114,115,114,115,115,117
113,111,115,115,114,108,118,114,112,116,115,115,118,115,115,116,117,114,117,119,115,116,116,115,117,116,117,112,120,125,122,127,129,120,117,117,117,119,114,115,112,114,114,115,117,115,111,115,118,113,114,116,116,113,118,112,114,117,120,116
115,115,118,114,113,113,121,117,117,117,117,114,112,112,111,114,116,114,111,113,116,116,115,116,116,118,120,121,124,123,127,129,126,125,121,117,116,116,115,112,112,121,114,113,113,113,116,112,115,116,115,113,114,116,115,113,114,116,118,115
116,114,117,116,117,119,111,112,114,114,112,113,115,117,116,116,116,114,115,119,114,114,114,118,116,118,120,119,129,127,128,130,126,126,131,121,118,115,119,111,114,117,114,114,119,108,119,113,117,113,116,125,112,118,113,115,115,115,115,112
116,110,112,116,116,115,113,121,119,117,111,115,116,112,118,117,115,116,121,118,119,116,116,117,117,120,118,119,129,134,131,134,124,132,127,123,119,121,114,124,113,116,114,115,113,116,105,111,118,115,113,113,115,118,117,115,113,118,116,113
118,113,114,117,116,116,114,117,117,119,113,117,116,112,117,117,114,114,121,117,117,114,114,113,119,117,120,128,127,129,134,127,142,128,122,121,115,120,116,116,116,115,115,119,112,118,111,113,116,115,118,116,117,115,111,118,117,115,115,114
114,114,110,119,116,115,114,116,111,119,112,117,112,115,113,114,117,110,121,113,116,119,116,113,119,119,115,120,124,127,132,129,134,133,129,125,121,115,119,117,117,114,116,120,113,111,115,115,114,116,115,111,119,118,112,118,119,114,116,117
114,119,114,120,115,116,111,113,118,113,114,114,112,117,111,118,117,115,117,115,113,111,112,113,115,119,118,119,121,127,132,131,127,132,134,124,121,120,117,116,119,117,114,115,119,115,115,115,115,115,115,117,117,116,110,111,114,116,115,110
113,113,117,117,113,119,116,114,115,115,116,117,118,117,114,113,116,116,115,119,116,115,112,115,114,116,115,115,124,127,133,133,128,135,132,124,120,118,117,119,115,116,116,116,122,117,113,111,114,115,119,115,112,111,114,113,115,111,119,115
117,112,112,117,116,115,118,118,112,116,117,115,113,117,118,111,114,113,112,114,118,118,113,118,112,119,124,121,125,129,135,127,130,128,128,126,120,119,120,114,114,114,117,115,116,119,119,109,117,114,116,117,117,118,118,113,114,119,113,115
115,114,113,114,117,115,116,111,110,117,113,113,112,113,116,117,112,114,114,112,120,115,114,114,111,117,119,124,126,128,134,137,127,129,132,127,119,119,115,114,118,117,116,116,115,115,116,115,118,117,114,114,113,115,116,115,113,119,115,115
116,114,114,111,111,112,114,122,117,116,116,120,118,112,110,118,116,111,109,115,116,114,115,110,113,117,114,120,127,136,131,132,133,124,129,130,120,120,117,109,116,120,117,118,118,114,112,116,118,116,119,117,113,116,117,115,115,118,116,117
117,117,117,114,117,113,117,115,115,115,116,116,113,117,115,113,116,112,112,112,114,117,116,116,117,115,117,125,123,132,131,134,139,134,128,126,121,119,117,114,118,116,114,113,113,117,120,116,112,113,115,117,119,113,118,115,115,116,116,113
113,119,113,115,118,118,117,114,116,115,115,115,116,115,115,118,112,118,117,114,110,114,116,115,118,115,113,117,129,133,135,134,132,131,132,125,121,120,118,120,116,114,115,115,114,115,115,118,117,115,115,118,115,115,115,117,114,112,114,115
115,118,112,117,115,114,112,118,109,116,117,116,119,113,117,117,116,116,114,116,113,116,112,114,117,116,118,124,126,131,136,136,132,129,130,125,120,120,116,115,118,118,115,117,113,115,115,118,118,119,119,120,116,116,116,117,112,116,115,117
116,114,114,116,117,112,114,115,115,119,116,109,114,112,115,117,117,115,114,111,113,112,114,116,112,117,122,123,128,131,132,133,134,135,135,134,121,118,118,113,111,116,120,113,120,117,113,116,116,114,113,121,113,117,116,116,114,121,112,121
116,117,113,109,113,113,114,111,112,119,117,114,114,112,115,117,115,115,114,112,118,117,120,118,114,113,122,125,127,128,140,137,131,126,133,129,127,115,118,116,115,117,120,110,119,112,116,115,118,118,113,116,116,114,114,118,117,118,112,119
113,116,113,111,115,117,121,116,116,115,112,115,118,116,117,115,113,118,118,118,112,119,117,117,117,116,115,122,126,131,141,131,136,131,134,125,128,119,121,117,117,118,116,112,112,110,113,116,118,116,117,114,119,117,112,115,115,116,114,119
118,117,115,117,117,113,108,115,116,117,118,111,114,113,116,114,116,116,118,114,110,116,118,119,111,115,121,120,134,132,136,128,130,130,129,130,122,119,119,113,114,119,117,116,114,117,114,111,117,113,113,111,112,113,119,117,117,110,111,118
111,115,113,112,121,114,109,117,111,112,114,119,112,114,118,113,116,114,115,114,115,111,118,117,114,116,120,126,131,131,133,131,130,131,130,128,122,119,116,115,122,118,113,118,120,114,116,114,114,118,116,114,116,112,110,116,116,111,114,116
115,112,114,116,115,112,116,119,116,113,114,117,110,116,116,113,117,118,117,116,114,114,116,115,114,118,119,125,124,124,128,128,135,134,127,125,122,117,116,116,119,119,115,117,116,111,113,114,117,117,116,115,116,117,113,119,116,115,116,116
115,120,117,113,112,113,115,114,109,113,118,112,112,112,120,118,108,117,118,116,116,114,113,116,116,118,120,119,124,131,130,130,129,130,129,126,121,118,116,112,120,118,116,119,118,116,112,115,118,113,117,118,115,115,116,113,118,119,108,118
114,118,112,110,112,117,116,112,111,116,115,115,118,116,115,115,114,113,117,116,113,111,113,116,117,117,117,118,127,128,131,133,125,125,125,127,120,119,122,112,119,119,117,115,116,115,115,113,115,115,115,115,116,113,119,118,116,113,115,112
115,110,116,118,112,116,117,116,118,115,109,115,116,117,117,114,110,116,120,112,117,115,117,113,120,112,120,118,121,129,128,128,128,125,129,124,122,116,116,120,116,117,113,116,115,117,117,117,114,119,115,113,115,117,115,117,117,112,113,112
115,117,114,118,113,113,115,114,117,114,119,116,113,117,118,116,110,116,117,116,112,118,119,117,117,120,121,120,130,131,127,130,134,126,120,124,121,118,118,115,118,109,117,117,113,117,117,116,114,115,114,117,116,115,112,113,116,116,114,113
112,119,117,117,110,117,118,112,113,110,117,117,114,116,110,117,116,117,116,118,114,115,116,113,115,116,122,123,125,130,128,134,130,124,121,120,120,116,119,117,115,118,116,115,116,111,114,118,119,119,115,116,116,116,115,115,116,117,118,114
115,118,113,113,115,117,117,117,115,114,111,113,116,118,116,115,118,117,118,116,117,110,113,115,114,112,117,121,131,134,137,137,126,121,124,126,114,113,116,115,119,115,110,115,116,113,113,115,119,117,117,113,113,119,117,115,118,114,116,117
111,119,112,119,117,115,111,114,116,117,117,115,114,115,116,115,115,119,116,112,114,118,122,115,112,120,122,125,126,131,137,128,126,125,121,127,118,118,117,118,114,112,121,118,112,114,117,116,118,114,113,110,116,119,110,113,116,112,111,114
116,113,120,119,114,117,111,112,117,113,115,119,114,115,115,113,116,116,112,114,117,113,114,116,117,119,117,122,130,133,130,130,130,123,124,120,120,118,114,115,116,116,118,115,114,117,116,114,112,115,114,114,117,113,109,117,115,113,115,112
116,114,115,113,116,117,116,114,115,113,114,113,115,113,114,116,116,117,117,115,117,116,112,115,120,118,117,123,125,125,123,130,130,123,116,122,123,118,114,117,111,118,110,114,118,114,116,116,115,121,114,116,113,116,115,114,117,111,116,113
114,118,113,113,115,116,115,119,118,116,115,110,114,116,113,112,113,114,121,113,118,115,117,118,117,119,117,116,120,119,124,132,123,122,120,118,116,119,118,117,111,118,119,116,116,112,119,115,115,118,115,113,110,110,112,117,119,113,111,118
115,114,120,115,109,115,109,114,116,115,117,115,120,119,113,114,118,115,121,112,112,113,114,117,112,122,116,114,119,120,121,127,121,120,123,111,117,119,117,116,113,115,111,117,113,115,125,113,111,115,117,113,114,116,115,116,117,117,117,119
113,112,116,110,116,116,117,113,117,115,115,116,117,119,114,111,114,116,121,113,118,115,112,112,111,120,115,115,119,119,121,121,118,117,125,119,117,117,116,116,116,116,117,118,115,114,113,117,114,113,117,118,117,115,113,111,115,116,113,114
111,114,115,119,115,115,118,113,118,114,114,118,113,111,115,118,121,115,114,111,116,115,118,116,113,112,117,119,116,116,117,119,115,116,117,114,114,116,118,120,114,111,118,115,113,113,113,119,114,113,116,117,114,120,121,115,116,111,112,111
114,115,117,118,118,118,118,115,116,117,113,115,116,115,117,114,117,116,112,115,113,114,116,113,112,114,116,116,116,114,117,115,112,115,117,109,107,116,115,116,116,113,116,114,113,115,109,117,118,115,116,113,111,115,119,116,117,114,112,119
114,112,115,113,116,116,118,115,113,114,116,115,113,114,117,114,116,111,112,118,115,113,115,115,114,118,117,115,112,116,116,113,114,118,116,110,113,112,116,111,114,115,121,107,112,117,112,117,115,113,113,116,112,113,120,110,114,118,112,113
116,112,112,117,120,116,115,112,118,116,112,111,115,114,113,114,115,117,120,116,113,112,119,110,111,115,111,117,112,114,117,116,118,116,116,118,112,113,114,115,114,115,115,110,116,114,117,113,114,120,114,116,117,111,117,115,113,114,115,115
113,117,119,109,115,119,115,118,117,113,112,117,114,118,115,119,118,113,114,115,113,111,118,116,111,117,113,111,117,114,115,114,116,111,115,114,113,110,115,118,115,115,110,114,117,117,116,113,112,117,114,114,114,117,115,113,116,113,114,116
114,115,113,118,113,114,114,115,115,112,113,113,113,112,120,112,119,116,111,115,114,115,119,111,111,116,113,115,116,119,114,114,117,115,120,115,118,109,116,120,121,112,118,115,115,115,114,112,112,117,112,114,116,117,114,115,117,115,115,113
119,117,111,118,114,115,115,108,119,118,112,119,114,114,116,116,119,115,119,115,112,117,110,115,116,110,114,116,116,116,113,115,117,117,118,112,114,114,113,120,119,115,117,113,116,114,115,111,114,116,114,115,113,117,114,115,116,115,114,116
115,110,112,118,117,115,114,115,112,114,114,118,115,118,118,116,113,114,118,114,113,117,116,115,112,113,113,114,116,118,115,112,115,116,116,115,115,118,117,118,114,114,114,111,117,116,117,115,114,118,114,116,117,114,111,115,112,118,113,114
116,111,115,118,115,113,114,115,112,116,115,117,114,112,115,117,114,115,113,115,115,114,118,118,115,114,112,115,118,117,114,118,115,116,114,112,114,117,117,114,115,118,111,111,119,119,115,115,111,113,115,116,116,116,113,118,113,117,117,118
115,114,116,112,114,114,115,114,118,115,114,115,114,111,112,116,113,113,113,113,117,113,117,113,119,115,117,114,111,112,110,115,120,117,110,114,118,116,112,113,111,115,112,119,112,116,117,117,113,117,116,112,114,115,116,117,114,117,117,117
116,114,116,115,119,118,112,116,119,113,117,111,118,114,117,116,112,117,113,111,117,115,117,113,115,115,118,113,111,117,112,115,116,119,118,108,112,117,116,115,117,117,118,116,112,119,115,114,112,121,115,116,117,118,119,115,109,117,117,114
115,117,112,116,122,114,114,117,119,115,118,114,118,116,111,116,112,118,121,111,117,114,119,114,115,115,114,113,113,118,111,116,117,115,112,114,116,117,116,116,119,115,120,114,115,120,115,113,114,113,116,119,117,115,116,117,111,113,114,117
113,116,113,115,117,113,118,117,114,115,111,111,118,119,112,114,118,112,118,111,117,115,116,115,114,116,116,116,118,114,114,117,114,113,115,111,115,117,114,115,118,113,111,115,114,113,113,112,114,116,114,113,116,117,115,120,115,117,115,119
116,116,115,114,113,112,117,117,114,115,117,118,115,115,117,119,116,115,116,113,118,118,113,118,117,113,114,113,116,116,116,121,113,114,117,112,115,114,117,115,115,114,115,118,114,110,115,113,111,115,118,115,118,118,113,118,111,114,119,116
119,116,115,114,118,116,115,113,115,119,113,119,115,111,117,121,116,117,117,113,116,115,112,112,115,113,112,116,119,114,113,116,116,117,118,115,113,113,117,113,117,116,113,115,115,113,114,114,117,115,117,112,113,116,112,119,113,111,113,114
113,114,113,113,115,115,115,115,119,113,116,118,113,114,117,117,115,113,112,112,112,112,114,115,115,115,113,115,109,117,118,110,115,115,115,111,114,118,117,113,116,111,117,118,115,118,113,116,119,115,108,113,114,113,116,117,115,115,113,118
116,113,115,115,112,116,115,114,113,116,114,114,120,119,116,115,114,112,118,117,113,116,112,116,118,117,110,116,113,114,113,110,116,114,117,114,118,115,117,112,109,120,113,114,112,115,117,119,116,118,116,110,114,114,118,118,117,116,110,114
120,112,119,117,115,116,115,118,113,117,114,116,114,119,116,113,115,112,113,116,111,116,115,110,118,112,113,115,116,113,118,113,112,111,116,116,116,113,117,114,109,118,113,115,114,118,116,115,119,117,114,115,113,111,115,114,118,117,112,113
117,115,116,117,112,117,112,118,115,119,115,118,120,113,118,114,115,114,115,112,113,116,116,112,114,115,117,118,113,114,122,117,114,113,114,114,115,114,115,115,114,114,113,114,116,116,114,114,112,116,118,116,117,119,117,116,114,116,115,113
114,115,115,112,117,111,116,117,112,118,114,120,114,110,121,117,116,111,117,118,116,117,115,114,114,115,115,115,115,118,117,110,114,118,115,116,115,112,113,112,112,113,115,121,118,115,117,116,116,116,114,113,112,117,120,117,114,115,112,119
118,113,119,117,118,112,117,112,117,116,114,120,113,113,115,113,115,115,116,115,115,114,114,117,115,112,113,113,117,116,115,113,115,118,115,112,116,118,116,114,118,113,109,114,115,116,115,117,114,115,115,118,114,111,113,116,120,119,112,119
114,117,118,119,115,117,112,108,115,114,117,116,116,117,112,111,113,115,121,116,118,114,112,118,114,113,112,115,117,117,118,113,112,118,117,111,114,115,113,112,118,115,116,118,112,117,116,123,112,115,115,121,113,116,108,113,115,118,112,119
113,120,115,112,118,120,116,115,117,114,114,119,119,115,111,116,116,113,115,118,117,115,108,120,115,116,116,115,119,116,116,117,108,118,117,108,118,115,119,117,111,120,111,115,115,112,119,119,114,115,111,116,112,115,116,117,114,116,112,117
112,116,116,115,114,116,117,115,116,113,117,118,119,116,112,119,113,117,115,112,118,120,116,116,118,114,112,114,111,119,116,114,111,111,114,112,116,116,113,118,111,119,118,119,113,112,117,113,119,115,113,115,116,112,113,117,117,116,116,115
116,114,113,117,114,119,113,114,113,117,119,114,109,115,116,115,116,118,115,114,115,117,119,115,113,117,114,115,113,116,118,111,117,114,114,113,114,116,113,117,117,113,114,118,114,115,115,116,117,117,121,117,118,113,113,118,115,112,111,115
114,113,114,113,115,123,116,112,115,119,114,111,115,112,117,117,116,118,112,122,112,116,116,114,113,114,112,113,115,117,117,119,115,114,115,115,113,113,114,118,119,118,117,115,114,110,114,118,118,116,117,116,118,113,121,116,117,117,107,117
121,114,117,112,112,115,113,113,112,118,114,113,117,113,118,120,119,110,113,117,115,116,113,111,115,116,116,115,114,115,113,112,115,116,117,119,115,113,114,115,116,118,115,118,111,116,118,115,115,115,118,118,117,115,120,116,115,113,114,113
117,114,116,111,115,118,115,116,115,114,115,118,117,116,115,116,115,115,115,118,117,112,117,119,111,114,118,116,114,115,117,119,114,110,114,115,116,115,115,114,116,113,119,117,113,118,113,114,119,112,116,111,116,111,117,119,115,117,112,112
116,114,114,112,113,114,119,118,113,113,117,111,117,115,113,113,115,115,114,116,118,114,114,120,113,117,117,113,114,115,120,119,114,122,108,115,114,112,116,116,114,115,113,112,116,114,113,117,121,111,114,116,115,111,112,115,117,118,112,114
117,115,112,117,116,115,110,116,113,113,116,117,114,114,115,114,117,115,110,114,120,113,117,118,116,117,118,112,117,114,117,118,112,118,113,117,110,113,122,117,111,112,118,118,116,116,118,122,115,115,115,115,114,114,118,118,113,113,117,114
118,115,114,113,114,121,118,111,115,117,113,112,114,115,117,113,115,116,112,117,120,114,117,114,114,115,118,110,117,118,113,113,119,116,116,117,117,117,117,116,117,113,116,118,115,118,118,115,116,114,113,115,114,114,116,118,114,120,117,111
115,115,118,115,112,114,115,111,119,117,116,115,114,115,116,112,115,114,117,116,114,116,117,117,116,114,113,112,115,116,112,114,117,117,115,114,117,115,111,113,114,116,115,113,119,118,115,110,115,120,116,112,120,118,114,116,114,114,113,116
118,117,113,116,116,118,120,116,117,116,114,115,114,120,115,109,113,120,110,114,112,112,113,113,113,114,114,115,115,115,115,117,116,113,113,114,115,117,114,113,116,115,111,118,117,113,117,114,113,115,115,114,113,115,115,115,116,116,120,118
119,114,111,113,118,114,114,119,119,117,115,120,117,112,116,114,114,118,117,114,115,115,114,114,112,113,118,114,113,115,117,116,115,118,115,116,114,116,120,117,114,116,113,115,110,117,113,114,117,119,109,120,111,114,111,113,116,117,115,114
114,117,114,116,118,114,117,117,118,116,112,115,116,116,116,114,113,113,113,118,117,112,115,116,111,117,117,115,118,114,115,115,113,116,117,113,115,114,114,113,117,115,116,116,118,115,112,111,122,118,114,115,115,118,112,115,117,118,112,112
116,116,118,115,113,111,116,119,116,114,114,114,118,118,117,113,118,117,113,110,112,115,117,119,117,116,114,112,118,115,115,112,116,110,116,113,115,114,115,110,115,115,112,115,115,115,116,114,117,116,118,121,116,115,115,118,115,115,120,114
115,114,118,113,114,114,114,111,120,114,116,119,118,116,119,113,116,117,119,121,113,116,118,115,117,112,116,115,113,118,116,116,114,115,118,113,119,115,115,117,113,116,116,115,115,120,118,115,115,118,116,112,111,114,111,111,116,114,116,122
115,115,114,117,113,118,116,116,113,116,119,114,116,115,116,117,111,117,112,118,113,118,117,114,118,120,113,114,117,115,113,116,117,111,114,114,115,115,120,115,117,118,117,111,114,117,116,113,114,119,113,115,115,117,117,111,113,114,115,115
116,116,114,118,114,114,112,113,113,115,114,111,117,117,116,120,113,116,119,116,110,113,118,113,116,119,116,112,120,120,116,114,113,116,116,114,112,113,113,116,116,115,115,116,115,113,117,113,114,120,115,118,114,117,117,118,110,116,116,114
112,116,121,120,109,112,114,112,114,117,113,113,114,117,118,114,117,117,113,113,113,115,117,117,116,115,117,116,115,114,117,116,115,115,116,116,115,118,117,117,115,113,115,111,115,110,119,118,114,115,113,116,118,117,112,119,118,113,114,114
111,113,113,115,116,115,112,113,116,115,114,115,115,118,114,113,117,119,117,113,112,115,111,116,115,116,114,117,113,113,120,112,114,118,116,114,115,119,112,117,118,113,118,119,117,115,111,115,118,116,115,119,114,112,115,116,119,120,111,113
