49,58,67
116,113,111,115,114,113,115,113,115,116,116,114,112,115,114,113,115,116,116,113,110,115,112,115,113,118,116,112,112,114,115,114,114,112,112,109,115,118,115,112,118,111,117,118,111,116,113,113,115,111,113,116,115,115,115,116,116,116,114,115
118,112,116,119,115,110,116,115,118,117,116,112,112,117,115,117,116,115,120,115,113,115,113,115,113,114,111,113,113,115,111,114,115,117,116,112,113,113,112,112,115,112,113,116,113,114,115,117,118,110,114,113,112,116,111,117,113,111,110,115
114,109,119,114,116,111,114,111,117,117,113,115,115,112,109,116,118,116,117,115,116,111,110,118,116,112,109,114,110,113,119,113,112,114,111,117,120,114,112,117,116,118,115,116,115,111,110,115,114,110,113,115,107,116,111,118,118,111,116,118
114,113,116,113,117,118,115,116,120,116,113,115,115,110,117,117,114,109,116,115,113,116,113,117,113,115,115,116,111,112,116,117,121,117,114,118,117,114,114,117,116,111,116,116,121,114,115,111,114,114,112,118,114,116,115,118,116,117,118,115
114,114,111,115,116,115,115,115,115,114,119,113,115,113,115,112,112,117,112,119,112,114,115,114,114,114,111,116,118,114,115,115,112,116,116,114,114,115,118,114,115,110,115,112,115,114,118,113,113,113,115,118,117,117,113,111,114,118,117,123
115,113,113,116,114,116,117,114,109,110,115,114,112,113,115,112,112,115,114,120,115,114,111,115,115,115,113,115,115,113,119,112,114,117,115,116,114,112,114,119,117,118,116,114,113,112,115,114,112,118,118,116,113,110,116,119,114,113,114,115
116,118,114,112,115,116,115,114,115,116,113,117,116,114,117,111,113,116,117,109,114,109,112,113,115,117,114,111,115,115,117,113,112,111,111,117,112,112,115,120,115,117,110,119,112,115,116,113,112,114,116,112,115,115,114,113,117,113,113,114
110,113,115,113,112,112,113,114,112,119,112,116,117,113,112,121,114,111,119,108,116,112,117,114,112,115,116,113,114,114,115,114,113,112,114,118,110,113,118,118,116,120,114,116,117,112,115,115,113,112,113,110,112,116,114,114,116,115,114,114
114,115,116,115,108,115,111,119,113,117,114,113,114,114,115,119,116,113,115,110,117,118,114,111,114,118,114,114,113,119,117,117,115,112,116,108,116,114,114,113,115,115,113,115,114,109,116,115,113,118,119,110,113,120,112,116,116,114,115,115
117,118,113,115,114,115,114,118,116,114,116,118,111,113,112,117,116,115,117,115,114,119,110,113,115,115,115,119,118,112,113,114,118,113,115,110,114,115,113,114,118,116,115,116,115,111,111,113,114,118,111,113,109,113,117,114,114,108,114,116
115,110,116,116,115,111,115,114,118,112,111,115,116,120,114,115,106,112,113,117,112,113,112,117,116,116,115,116,115,116,112,112,113,113,115,115,116,112,113,114,110,114,115,111,114,114,116,117,116,113,109,115,116,115,116,117,110,112,117,115
115,115,115,114,116,115,118,107,113,120,115,114,111,115,114,115,113,114,113,115,116,110,112,116,114,113,111,117,120,113,117,115,116,116,112,113,118,115,114,116,111,114,114,116,119,113,113,119,116,112,116,117,116,115,112,120,114,115,110,116
114,114,112,117,115,119,115,110,119,121,117,117,118,114,115,111,113,116,115,113,115,113,117,114,114,116,112,109,121,110,114,114,111,114,115,113,112,114,113,115,112,113,115,116,118,114,115,112,110,117,116,110,116,119,111,111,114,115,111,115
114,116,116,114,108,116,115,114,118,115,118,116,112,114,118,113,116,110,116,109,114,115,112,116,115,114,115,115,117,113,111,114,117,121,115,116,113,111,117,118,115,115,114,116,117,112,111,117,114,117,112,110,114,118,115,112,115,115,115,114
113,112,111,112,116,115,115,116,119,112,113,115,108,117,117,115,114,113,110,109,114,118,114,118,115,110,112,118,116,115,114,116,115,115,112,116,116,112,117,113,114,117,114,111,114,114,115,116,114,113,116,117,117,112,111,117,117,115,112,116
116,119,115,109,114,111,116,116,114,112,111,118,113,116,111,114,114,115,114,113,112,114,115,112,114,111,114,112,117,118,112,117,114,109,116,111,116,115,113,113,115,115,115,118,117,115,115,118,117,112,109,118,113,116,114,114,115,113,111,118
115,114,115,121,111,116,112,118,118,112,112,116,118,114,111,114,112,112,114,113,116,109,115,114,116,110,113,108,114,118,114,119,116,114,116,110,111,115,113,118,116,116,114,119,117,114,111,114,114,111,109,117,108,114,115,111,112,119,114,114
118,113,116,111,110,119,113,116,120,111,113,112,114,116,116,116,112,112,117,115,114,112,119,118,116,112,117,114,112,117,116,114,111,114,116,112,114,117,111,114,117,111,114,116,115,111,114,117,117,115,113,111,112,113,116,113,117,115,112,118
113,114,115,114,110,112,111,113,113,109,117,113,116,110,115,116,114,116,116,112,111,112,118,118,113,113,119,114,109,117,118,114,110,116,117,109,113,115,117,115,115,111,113,114,119,115,114,113,112,118,120,115,118,117,117,114,118,115,119,115
111,117,113,114,117,111,109,116,117,118,117,110,110,117,118,114,116,117,114,114,112,110,118,111,109,115,116,116,113,111,111,111,117,111,116,115,115,116,117,114,113,116,114,113,112,114,116,119,115,116,110,113,114,113,115,111,107,107,114,113
116,117,114,114,117,114,112,111,115,115,115,112,113,117,113,117,115,111,115,116,117,112,116,114,116,112,112,116,116,111,111,115,121,114,112,112,114,112,113,113,114,114,115,113,111,119,116,116,113,116,113,115,115,112,115,116,112,110,117,111
114,117,115,114,117,115,113,113,113,111,120,114,116,114,116,112,111,116,112,112,117,116,118,117,114,112,112,117,116,113,109,114,118,111,114,115,111,114,116,114,115,117,115,113,116,111,114,116,110,113,118,113,108,110,116,113,116,114,115,116
112,117,115,111,116,114,113,118,115,111,115,113,116,112,114,114,111,115,117,112,113,114,119,116,112,115,112,115,117,116,107,115,114,109,110,112,111,116,112,112,115,113,111,113,118,113,112,110,113,115,116,117,113,113,116,117,112,113,114,117
111,112,117,115,117,113,116,115,113,112,112,111,114,118,114,113,109,114,117,111,115,111,110,116,113,119,113,117,116,115,113,115,113,113,115,114,114,118,113,113,117,116,114,113,116,115,115,118,118,115,109,117,119,117,117,115,116,116,113,112
114,111,112,116,122,119,116,113,114,116,111,115,113,116,112,115,114,112,113,114,112,114,113,116,116,117,114,114,116,113,113,114,113,115,116,109,116,112,114,115,112,114,114,115,114,115,117,115,115,118,112,120,113,114,119,113,117,117,113,108
116,116,112,115,112,112,116,118,115,119,115,117,111,113,116,113,114,111,112,111,114,116,114,117,116,114,114,109,111,115,117,112,118,111,114,113,117,116,117,117,115,114,114,116,115,117,114,114,117,115,111,114,120,113,112,117,116,115,118,109
113,117,113,112,112,115,115,117,116,114,119,115,109,112,112,110,112,115,113,111,114,111,110,115,110,112,114,115,113,115,118,114,115,112,113,112,111,115,115,113,116,114,113,115,114,114,117,116,117,113,114,115,113,111,110,115,114,112,115,114
117,118,115,115,114,113,111,119,118,114,112,112,115,111,117,119,113,112,110,116,114,119,117,115,112,116,118,118,115,115,114,115,112,114,114,114,113,113,120,114,111,120,121,117,111,115,119,112,115,113,110,116,116,113,115,118,116,112,112,117
110,117,117,111,114,115,113,111,111,118,116,115,114,117,111,112,114,114,118,117,116,118,114,114,113,115,117,114,112,118,112,111,117,113,121,112,116,112,114,116,110,115,118,120,109,112,120,116,116,110,114,115,113,113,117,114,117,113,112,116
112,115,111,114,116,110,115,110,114,115,114,112,111,115,115,117,113,110,111,115,110,114,117,117,116,117,114,113,114,113,114,113,116,112,118,116,116,115,112,113,116,116,113,114,112,113,121,115,113,115,113,113,115,115,116,116,114,111,115,110
110,117,117,113,114,117,119,116,110,112,114,114,119,116,114,115,115,116,111,114,110,114,113,112,116,114,112,113,113,118,114,115,113,116,116,116,111,112,115,112,112,115,116,110,116,117,115,116,110,116,114,112,115,115,115,114,113,111,115,115
111,111,116,112,110,109,118,118,112,110,111,115,115,117,116,114,115,116,116,109,114,111,112,112,116,113,112,114,114,120,114,118,113,115,112,116,117,117,114,113,113,110,116,109,115,114,115,119,113,113,114,119,116,111,113,116,116,115,115,111
114,115,117,111,109,116,110,114,115,115,114,115,118,115,111,115,115,113,112,117,118,117,113,112,116,116,112,116,114,120,116,119,116,112,112,116,114,117,118,114,114,114,114,115,116,118,117,111,116,114,110,118,116,119,112,116,112,117,117,116
112,112,112,116,112,120,111,113,114,110,114,112,112,112,117,116,113,114,113,111,113,112,115,116,113,114,117,118,115,118,117,116,114,116,116,115,117,113,109,115,116,118,121,120,111,116,115,111,117,118,117,115,110,110,114,117,115,112,113,114
111,112,107,114,120,117,114,115,119,117,112,112,117,111,115,115,110,113,117,118,117,115,115,112,117,119,117,114,112,117,116,116,115,115,113,112,119,118,111,115,114,120,109,113,114,113,115,115,115,109,112,116,111,112,117,116,113,111,115,117
115,116,113,113,113,116,120,113,116,115,116,113,115,114,108,114,115,117,117,116,111,116,119,113,117,119,118,118,118,115,114,117,114,109,116,121,117,115,116,114,112,118,116,114,114,113,115,115,117,115,114,115,118,115,112,113,116,112,116,114
117,115,117,113,115,112,110,114,115,114,114,114,111,114,111,117,116,114,116,117,115,114,115,112,117,117,116,116,121,112,117,117,117,118,120,121,117,116,116,116,114,114,116,116,114,112,113,113,116,114,112,111,115,112,120,111,114,119,117,113
116,112,116,112,117,116,114,116,114,114,117,114,115,115,114,119,111,111,114,112,117,117,112,116,118,120,117,116,116,116,117,116,118,118,118,121,112,115,115,114,112,116,117,117,116,115,118,116,113,115,114,113,113,109,113,112,112,114,115,115
117,110,113,113,112,113,114,116,113,111,118,112,110,116,121,113,111,115,114,115,118,117,115,118,118,115,117,120,118,116,117,117,119,114,114,117,112,115,118,115,120,118,113,116,115,113,110,113,115,116,117,113,119,113,112,113,115,114,116,116
113,109,116,114,112,110,113,116,111,115,114,109,119,112,115,112,116,113,112,116,110,114,115,117,119,119,122,122,122,124,123,117,123,121,120,115,115,113,114,115,116,113,118,116,112,116,112,119,114,116,117,111,115,114,114,112,117,120,116,114
117,115,119,113,112,117,114,112,116,117,112,114,117,114,119,113,115,114,114,114,110,116,116,112,114,122,122,126,128,131,126,119,121,118,115,116,120,116,111,116,116,111,115,118,112,115,110,116,109,115,113,111,112,116,113,112,114,115,115,117
115,113,112,112,111,120,112,112,118,108,113,119,120,113,116,120,110,117,114,114,117,117,114,117,121,121,127,135,133,134,134,130,119,120,120,111,114,115,115,116,120,116,114,112,114,117,116,113,110,112,112,111,113,117,111,110,111,113,113,115
111,112,113,115,111,115,115,115,115,109,114,114,113,115,114,117,113,117,113,114,116,118,117,119,118,121,130,145,135,130,137,131,128,123,120,117,116,120,119,116,113,114,117,113,112,112,116,115,114,114,114,114,112,116,118,112,113,115,117,114
117,116,113,114,112,112,113,115,114,118,115,115,116,118,116,116,117,117,114,115,115,111,114,114,118,125,133,144,144,128,141,136,127,119,123,121,120,119,116,116,116,120,121,115,114,112,118,111,114,118,114,111,113,111,113,119,115,110,113,116
116,111,110,115,116,114,118,116,113,114,114,115,116,117,120,119,110,114,115,116,114,115,117,117,118,123,130,135,143,135,137,145,132,120,119,119,119,117,121,112,114,112,123,115,110,109,119,113,113,115,114,119,114,113,116,116,115,115,111,114
116,110,110,114,114,114,113,114,114,111,113,119,110,113,121,114,114,115,114,116,116,117,117,120,116,123,128,135,138,137,134,145,138,132,125,118,117,112,120,114,113,110,114,116,115,110,113,113,114,111,112,114,110,118,113,114,114,115,110,115
112,113,117,116,108,117,118,112,110,114,114,110,108,112,113,112,116,113,112,120,121,111,116,121,120,121,124,136,136,138,133,135,143,133,124,120,119,117,115,114,116,113,110,115,118,115,115,114,112,112,115,119,111,117,116,114,116,113,112,115
110,111,118,117,113,112,116,112,113,115,113,112,116,115,116,117,117,117,115,117,123,115,118,120,123,119,118,130,136,132,133,137,136,131,125,124,119,120,118,115,120,120,116,112,120,115,117,115,113,118,114,113,115,114,113,114,115,115,108,112
115,114,117,115,111,115,117,114,113,115,113,114,115,116,116,111,120,117,114,117,117,113,118,117,118,119,119,130,140,138,134,134,138,132,122,123,116,116,115,117,118,116,119,112,120,115,114,117,115,115,116,115,114,117,111,113,117,116,112,115
115,117,114,113,113,111,117,115,112,115,112,114,114,113,113,117,116,114,113,117,121,120,118,115,119,118,121,133,140,139,136,130,134,131,124,123,117,116,117,112,112,114,114,114,117,115,113,114,123,115,115,115,113,114,113,116,122,112,116,118
117,114,111,112,114,115,113,109,114,112,112,115,114,114,116,115,111,118,115,115,115,114,119,114,115,122,125,127,136,135,135,131,137,135,126,122,119,118,119,113,112,119,123,113,115,117,116,113,116,114,117,113,115,115,112,115,110,109,118,113
116,117,117,117,112,113,111,111,116,115,114,116,116,115,112,113,112,118,115,117,119,118,118,115,119,123,125,127,131,133,134,132,135,132,125,123,120,120,116,117,117,114,124,117,114,117,116,116,118,114,114,117,115,113,116,120,113,112,117,110
115,112,117,119,114,111,111,117,115,115,115,109,115,115,114,114,113,115,113,114,118,121,121,116,121,122,125,129,130,133,135,134,132,135,134,125,119,117,117,115,110,117,114,113,112,117,114,114,115,116,119,115,117,115,112,110,113,113,116,114
116,108,109,117,116,111,114,116,112,114,114,113,116,117,116,114,115,113,115,118,118,119,113,114,115,116,119,127,130,141,133,131,132,137,130,122,118,112,115,117,113,111,115,113,113,121,112,114,110,111,123,115,114,115,111,112,115,111,113,111
115,110,114,113,116,113,114,114,113,111,113,118,115,116,114,113,118,118,115,120,115,120,122,119,121,124,121,127,136,142,136,132,133,138,129,119,119,117,119,117,122,112,114,110,115,115,114,114,112,114,114,117,118,116,113,113,107,111,114,114
115,115,114,112,114,116,111,114,115,114,112,110,114,111,115,117,115,116,114,118,114,118,116,117,120,118,128,129,134,140,143,141,137,138,134,118,120,117,119,114,115,111,114,112,113,113,116,115,110,111,114,114,114,114,110,114,111,118,118,114
114,107,115,118,112,113,108,123,115,114,115,118,114,111,113,112,113,115,117,118,119,119,118,115,116,120,124,128,138,137,142,146,144,142,133,122,118,120,116,111,118,116,115,117,115,114,113,111,114,117,119,116,113,116,111,113,111,115,113,112
116,109,115,116,112,115,111,113,116,113,109,118,115,115,113,116,114,111,111,113,116,116,118,119,118,122,125,130,137,143,144,141,142,141,132,131,121,119,121,112,118,118,116,119,114,115,118,109,115,113,114,114,117,115,113,112,119,118,114,113
113,111,114,115,112,114,119,116,115,113,112,114,110,115,112,117,113,113,111,119,116,117,123,122,120,122,128,129,136,150,147,143,145,137,127,126,119,118,120,112,116,114,111,113,112,113,113,113,117,116,113,111,115,114,117,112,112,110,115,111
115,116,116,114,114,115,109,117,116,115,116,108,122,117,113,115,120,115,113,121,118,117,119,120,120,126,124,133,143,145,147,146,146,137,130,122,121,119,117,118,120,114,113,117,112,108,116,113,111,113,116,113,113,114,116,113,117,114,110,119
110,116,112,113,115,113,113,116,112,112,116,112,115,111,112,118,115,114,115,116,114,120,115,118,123,122,117,133,140,141,146,140,146,145,128,124,121,119,121,123,111,114,116,118,116,111,115,114,113,110,118,118,115,111,113,114,119,113,112,117
114,113,117,115,111,115,113,114,116,111,115,117,118,116,111,117,117,115,120,115,112,120,115,114,120,124,125,123,131,138,141,136,141,145,128,122,121,119,117,121,113,119,116,113,111,115,117,114,117,116,120,114,116,114,113,117,115,111,115,110
114,115,113,110,111,113,112,109,117,112,114,115,115,110,118,116,115,109,118,113,112,118,116,113,119,123,128,132,135,141,140,139,137,133,131,119,123,120,116,116,118,120,117,118,113,114,115,117,116,113,117,114,114,116,117,116,114,118,115,110
115,115,114,111,114,112,110,113,117,115,114,114,115,112,114,112,114,117,116,115,116,118,115,115,120,126,125,124,134,143,136,140,140,131,127,120,120,116,117,115,114,113,114,115,111,113,113,114,114,116,114,112,113,111,116,114,111,116,115,113
118,113,113,120,114,115,114,114,115,110,116,115,109,117,115,113,116,113,114,121,116,120,117,116,117,121,121,124,133,142,140,141,141,137,128,122,114,110,119,120,118,117,118,112,115,114,113,112,116,116,113,116,114,113,115,115,111,114,117,112
116,113,119,116,113,113,111,114,113,118,120,117,113,113,113,115,116,116,114,115,115,117,121,118,118,118,127,134,135,140,142,144,141,140,125,122,115,116,119,119,114,112,112,114,118,112,115,115,115,113,116,116,115,114,113,113,115,118,117,115
113,113,115,111,117,113,114,114,115,121,112,113,116,117,115,111,112,118,116,114,114,112,117,118,118,124,129,130,143,142,135,137,139,142,124,117,119,119,112,115,115,113,111,116,115,114,114,112,115,115,112,115,118,111,111,114,115,117,113,116
117,119,113,115,114,113,117,109,114,117,110,114,115,113,119,115,114,114,115,117,114,113,119,120,115,125,130,136,142,144,141,141,142,134,127,125,120,116,117,113,111,114,115,118,118,115,117,115,117,115,109,112,116,113,115,117,111,110,114,111
115,118,115,116,114,113,117,114,115,118,114,114,115,117,116,111,116,119,114,117,125,115,116,118,116,125,127,127,136,140,138,144,146,135,122,117,118,116,119,116,109,117,116,115,114,113,115,116,119,115,114,110,113,114,115,118,113,113,115,112
116,116,112,113,116,108,112,116,112,114,117,110,114,113,121,112,112,116,113,110,116,116,115,119,122,125,128,133,137,134,133,138,141,134,128,117,115,119,114,116,111,112,114,116,114,112,113,113,113,116,115,112,116,114,115,115,116,116,115,115
110,117,113,111,116,113,115,114,116,115,120,113,116,112,112,112,113,121,118,113,116,116,112,119,119,129,127,135,140,138,139,141,141,128,125,121,122,122,115,114,115,114,111,115,115,114,113,113,116,115,111,113,110,113,117,112,117,115,114,111
116,115,115,112,111,114,114,109,115,115,114,116,113,112,118,114,114,116,114,119,115,116,112,117,120,126,124,131,136,138,141,135,134,132,119,113,120,118,111,113,114,118,116,117,116,114,115,113,115,119,116,116,113,115,118,111,116,115,113,114
112,116,119,114,112,114,114,115,112,113,117,110,117,110,117,115,116,113,114,120,116,113,115,119,122,123,129,131,135,142,138,140,133,128,117,119,118,115,115,116,117,114,109,113,117,110,115,115,113,115,115,114,108,112,115,113,116,119,112,111
120,118,119,115,122,111,115,114,112,116,120,110,116,114,117,115,117,118,115,116,120,121,119,119,124,125,134,136,134,138,133,138,133,127,121,117,116,116,115,113,117,114,113,114,116,111,113,110,111,113,116,111,114,113,112,116,114,118,114,116
114,110,121,114,115,110,113,113,113,114,115,114,114,114,113,114,114,116,110,116,120,119,116,120,120,124,130,131,139,137,135,131,128,125,120,118,120,114,116,117,115,112,117,116,114,115,117,111,115,114,116,115,119,112,110,114,118,113,116,118
111,117,113,117,114,116,117,117,116,112,109,116,115,119,112,114,113,113,117,115,113,116,115,117,121,127,127,130,138,136,138,136,128,117,116,118,117,117,119,115,111,112,113,117,113,116,107,116,119,113,110,111,111,113,114,115,115,111,120,112
115,112,112,113,109,111,117,115,120,122,110,118,118,117,117,115,112,116,118,116,116,117,115,116,117,123,125,134,143,139,140,134,125,119,116,114,116,116,115,113,110,116,112,114,117,111,110,117,114,114,115,115,111,114,115,116,111,112,116,115
110,112,124,110,112,113,116,115,110,113,114,111,115,114,116,114,115,116,112,115,117,118,118,119,119,122,122,131,127,134,134,128,126,119,114,114,119,114,114,116,112,113,114,111,114,116,116,116,113,111,122,120,113,112,113,113,116,116,111,116
114,113,116,114,117,108,111,114,113,113,113,114,115,113,119,112,115,116,110,119,115,120,116,115,122,123,120,124,120,121,123,122,121,118,116,115,115,116,115,113,112,116,112,113,107,115,115,111,113,113,117,117,117,115,116,114,117,113,114,117
116,111,113,113,112,114,115,112,113,114,114,114,116,111,115,113,110,115,119,118,112,114,118,119,118,116,120,121,121,120,115,116,115,116,116,115,116,118,115,110,114,116,114,118,110,110,114,114,114,113,114,116,114,116,117,113,113,111,114,111
111,116,108,114,116,113,112,115,118,112,113,114,120,118,114,110,111,117,117,117,114,117,121,117,114,113,117,120,118,120,118,115,115,116,115,114,112,115,115,115,120,110,113,115,109,113,116,114,114,113,115,113,112,117,116,115,107,115,116,115
114,116,108,117,119,116,113,115,117,114,113,115,115,114,116,116,111,118,117,111,114,119,113,120,116,121,116,118,113,119,117,112,113,115,115,114,113,115,115,117,118,109,116,118,119,114,118,118,113,110,115,113,115,116,114,116,120,116,110,112
117,114,113,114,114,116,111,113,117,109,115,116,115,113,113,118,115,116,116,117,119,117,117,118,113,116,114,113,116,121,116,112,113,117,114,115,114,113,113,113,118,112,111,114,117,120,113,113,116,115,113,111,115,116,110,115,115,114,111,113
115,116,116,112,111,114,121,114,115,111,116,114,117,113,114,113,118,118,108,114,116,113,115,117,117,114,113,112,114,114,114,115,111,115,117,117,118,113,109,113,118,117,112,112,113,113,114,114,114,116,114,118,116,111,111,118,118,114,112,115
115,115,115,115,115,110,115,114,110,114,112,113,117,117,119,113,116,116,113,111,111,116,113,114,119,115,113,119,112,113,114,113,114,110,112,116,116,117,115,110,117,117,115,118,119,112,112,115,118,117,110,114,117,116,114,113,117,113,115,114
116,109,111,118,115,109,115,116,115,112,111,114,114,117,119,113,116,112,114,116,114,111,114,117,115,115,117,115,110,112,113,112,113,112,108,116,117,114,119,114,116,113,116,113,115,117,112,111,116,118,116,113,112,117,116,114,114,114,114,113
112,114,115,115,116,116,117,113,115,116,120,115,114,114,112,111,114,114,110,114,121,115,118,118,115,112,115,119,112,116,118,115,114,121,114,112,120,114,112,115,115,111,115,113,114,116,111,112,116,113,110,116,117,115,117,117,112,115,112,115
112,112,118,117,115,116,112,113,111,115,115,113,116,120,108,113,117,112,113,114,117,114,117,115,117,119,115,114,115,118,116,116,111,115,121,113,118,116,115,116,113,112,117,118,116,116,118,115,110,113,114,113,114,115,124,118,111,110,112,113
115,111,115,112,111,116,116,112,113,115,115,116,119,119,110,115,115,115,117,117,116,114,114,114,115,115,116,114,108,114,122,118,112,114,116,117,112,114,113,114,112,112,118,115,114,115,113,117,112,111,115,112,110,113,118,117,116,112,111,116
110,113,116,111,112,116,112,115,115,119,120,115,112,112,116,117,112,115,113,111,114,116,115,112,117,114,111,109,115,117,113,115,117,113,115,118,110,115,114,114,113,116,113,113,115,117,114,113,116,116,111,115,113,113,113,113,116,116,115,120
113,115,115,112,115,116,112,114,115,113,114,117,113,112,118,115,110,116,114,113,117,113,113,108,111,110,113,115,116,116,112,115,114,115,111,113,113,115,110,117,113,116,114,113,113,117,119,117,114,118,115,115,111,114,116,113,114,111,117,114
112,112,119,116,120,115,114,109,117,115,112,114,114,111,116,116,111,114,115,110,115,112,112,116,119,111,110,115,115,112,113,116,112,116,113,115,113,113,117,116,113,116,112,117,110,113,114,115,113,114,117,115,113,113,115,117,115,113,112,110
115,110,117,115,112,113,115,113,115,114,110,113,114,114,111,117,111,113,114,113,120,119,111,112,109,112,115,116,113,112,115,112,115,117,119,115,113,112,117,115,112,114,114,113,111,116,112,111,112,112,115,114,120,115,113,112,114,115,116,109
116,115,116,118,112,115,114,116,114,111,114,116,111,112,110,115,114,116,112,115,113,110,111,113,118,115,113,113,113,113,114,113,116,113,115,115,117,114,115,116,109,113,115,114,116,113,113,116,115,110,113,116,117,114,118,112,114,112,114,116
117,120,112,112,116,113,116,116,113,117,119,115,115,118,119,113,114,113,115,120,117,114,112,114,117,114,114,117,113,115,117,114,110,115,114,113,115,116,116,111,114,115,109,116,112,112,114,116,117,114,110,118,110,113,114,114,113,110,115,116
116,119,114,114,116,114,118,113,112,117,119,116,111,117,115,116,115,112,107,115,114,114,115,116,116,115,116,113,114,115,114,119,114,111,112,113,113,118,116,112,115,112,113,118,116,112,112,115,110,117,112,115,109,114,117,114,114,113,113,114
113,112,113,116,115,112,116,116,116,115,112,114,111,114,119,114,112,113,118,118,114,112,111,117,113,114,121,113,114,116,113,115,114,113,114,111,112,116,112,119,116,114,111,116,114,107,115,118,113,111,112,114,110,116,118,111,116,117,115,116
112,112,117,116,116,109,114,117,110,115,115,116,119,113,113,113,117,113,113,112,110,113,115,116,113,111,115,116,111,111,115,113,116,117,116,118,119,117,113,117,121,116,111,117,115,114,116,114,112,112,111,113,116,115,118,113,109,112,117,117
112,110,117,113,119,115,114,115,114,113,117,117,117,112,116,118,116,113,113,114,112,111,117,114,114,114,113,113,111,117,113,110,115,114,112,115,117,117,110,110,118,111,112,113,115,109,108,111,114,116,115,109,115,113,114,114,113,109,112,114
115,111,114,112,112,117,117,116,115,110,115,112,117,111,115,115,109,112,114,111,113,109,115,113,114,115,110,112,114,116,113,112,117,116,112,113,114,118,111,118,118,112,112,113,115,114,110,114,114,115,118,112,114,117,116,114,117,115,112,115
114,114,111,114,117,110,110,117,113,114,117,113,117,114,113,109,114,114,111,115,113,114,116,114,114,117,110,115,117,115,109,113,115,115,113,119,108,111,117,118,111,115,117,113,111,111,113,111,114,116,115,112,116,112,115,114,114,113,113,114
115,112,114,113,112,117,112,117,116,113,110,113,112,108,112,109,116,113,116,117,111,114,112,114,113,116,115,118,117,118,112,114,110,116,114,116,116,115,115,115,114,113,112,114,117,112,121,107,116,115,112,113,114,116,115,115,116,112,112,114
115,116,117,113,113,114,111,111,114,115,113,113,110,110,118,112,121,111,113,115,116,118,116,117,114,112,114,112,110,114,115,112,109,115,117,115,112,118,114,114,115,109,116,114,116,113,115,117,120,109,114,115,113,112,109,111,116,112,111,111
113,113,119,114,111,114,113,111,110,114,118,114,115,112,116,109,113,113,118,118,114,117,115,116,115,112,114,114,115,114,114,109,113,114,111,114,115,116,114,116,117,111,108,112,113,112,113,114,118,115,115,111,112,113,115,115,109,110,119,111
118,112,116,117,116,115,113,117,117,117,117,114,116,113,110,115,115,110,114,115,112,114,114,118,117,118,111,110,118,112,114,114,116,119,111,115,112,112,115,114,116,119,118,115,114,113,116,110,111,114,115,114,115,112,111,120,115,113,114,114
117,111,117,118,116,113,110,113,113,117,115,115,119,113,112,113,114,115,116,111,112,114,113,115,114,115,112,113,114,112,111,114,111,113,114,121,116,113,115,111,109,113,116,110,116,111,115,115,111,110,109,114,114,113,116,118,118,116,111,117
113,114,113,114,116,111,113,116,112,116,109,114,116,112,115,115,112,117,115,114,119,116,115,113,113,114,115,113,114,112,112,112,113,115,111,113,112,113,113,110,111,116,114,115,116,109,111,111,113,111,112,114,114,112,117,118,112,115,114,117
114,114,112,112,114,107,117,114,114,117,110,112,114,113,112,110,111,117,112,113,117,116,115,117,115,114,113,114,112,111,113,115,113,115,114,115,115,118,116,110,111,115,111,113,112,113,118,111,114,115,113,111,117,113,110,115,110,116,113,112
117,114,113,112,119,113,110,107,111,111,118,117,113,112,113,112,114,114,115,114,113,115,116,112,113,114,109,116,117,114,115,116,112,116,111,111,116,117,116,115,117,113,114,116,107,114,114,112,118,116,117,112,114,115,117,115,115,115,116,114
115,112,109,115,116,116,113,113,115,115,112,116,114,118,115,113,113,112,115,118,115,114,114,117,112,114,116,114,116,112,117,113,109,117,118,110,111,119,117,109,113,116,115,117,112,114,114,114,114,114,115,112,113,116,115,113,115,112,114,112
115,112,112,116,113,113,110,115,114,114,114,116,110,118,116,116,115,111,113,115,111,109,111,118,115,112,113,113,116,112,115,113,110,118,112,113,114,112,117,115,116,117,109,111,118,116,113,106,109,113,110,110,111,109,119,116,117,112,116,115
116,111,109,113,117,111,109,116,116,117,115,114,114,113,114,118,119,116,114,114,112,112,114,112,114,111,114,111,114,111,116,117,111,117,114,112,115,119,112,116,119,117,113,109,114,115,114,114,112,113,113,118,114,109,112,117,118,110,112,115
117,116,111,113,116,113,115,116,113,119,115,114,112,111,118,115,116,115,115,112,115,116,115,113,112,112,113,113,112,113,116,112,113,112,116,119,116,116,116,117,117,111,117,111,113,110,115,117,112,112,112,113,113,115,112,116,117,117,114,109
114,112,115,116,114,115,113,114,110,113,113,115,113,111,114,110,111,114,118,113,113,115,111,113,116,113,113,112,113,113,110,112,115,112,114,114,115,112,116,115,115,107,116,112,109,110,118,116,114,113,116,121,115,114,115,115,113,111,117,118
115,114,113,110,119,116,114,113,114,117,114,115,115,113,114,114,117,117,112,117,119,110,110,114,114,114,118,110,111,112,114,113,111,113,112,114,112,112,116,114,114,113,113,111,116,115,111,113,114,114,114,111,114,118,114,112,118,113,113,120
114,116,116,116,115,112,115,115,116,117,112,113,115,116,111,114,119,114,109,114,118,114,112,117,120,113,111,114,113,112,116,116,113,112,116,115,111,112,113,113,114,117,116,117,113,121,116,112,114,114,112,110,109,112,118,117,115,115,112,112
113,115,111,113,113,111,116,115,115,114,111,112,115,122,112,111,112,116,114,110,111,111,114,112,117,119,111,113,118,115,111,115,114,112,114,113,114,113,112,113,115,114,115,115,116,115,114,113,112,112,112,112,115,113,121,121,113,116,115,111
113,115,114,110,115,111,111,115,112,116,113,109,114,116,112,109,112,114,111,113,114,113,112,111,116,110,110,117,112,113,114,117,115,111,117,116,112,112,114,110,112,114,112,112,111,110,113,114,116,111,113,111,112,114,115,115,112,115,113,114
112,119,119,114,111,118,112,111,114,117,116,115,115,112,114,112,115,112,112,114,113,117,117,113,113,115,111,115,114,114,115,116,116,111,113,111,114,112,112,117,114,117,114,114,110,116,113,113,113,111,115,116,113,114,113,110,119,116,114,113
111,116,119,114,112,117,114,112,116,113,116,114,111,112,112,111,114,114,115,119,117,114,116,115,114,114,115,117,112,113,110,114,115,116,114,110,116,115,115,116,110,114,121,114,110,113,109,113,115,117,117,111,115,115,115,118,117,114,118,113
