55,61,67
111,115,114,113,114,112,112,113,110,113,109,113,111,109,111,112,112,114,108,110,112,117,112,112,111,112,114,115,112,110,115,113,114,110,112,112,117,110,113,114,114,115,117,114,114,113,115,111,114,114,113,110,114,111,112,115,116,112,113,113
111,113,110,115,113,109,113,113,117,114,111,114,109,112,114,112,115,119,114,115,111,115,114,115,112,110,111,116,115,112,114,113,113,110,112,114,120,114,114,116,111,111,113,116,114,112,113,111,114,114,113,111,118,116,108,110,114,113,114,113
112,114,114,117,110,107,112,109,114,110,110,115,114,114,113,116,119,116,111,113,111,115,112,113,118,114,109,112,110,114,114,113,108,113,117,115,113,112,113,115,110,113,113,115,113,113,115,115,119,119,118,115,110,115,118,117,114,116,114,113
117,111,108,114,110,112,114,112,116,114,112,112,115,112,109,111,110,113,112,111,112,113,110,112,115,111,110,115,110,115,114,119,113,114,112,107,115,116,117,116,113,115,117,116,114,113,114,114,115,111,111,114,115,116,117,112,107,115,111,111
114,112,111,117,115,116,113,112,112,116,111,114,118,109,113,121,119,119,113,110,111,110,110,112,116,116,113,118,112,114,115,118,113,114,113,111,116,111,112,110,115,115,116,112,111,115,117,116,116,113,112,110,111,111,114,112,112,120,115,113
114,111,113,114,110,112,116,118,113,114,109,113,113,114,115,114,113,116,112,113,115,113,115,117,115,113,110,118,113,112,115,118,114,117,112,112,111,115,114,110,115,113,114,116,112,116,115,113,111,113,114,113,112,111,114,115,108,113,116,115
114,116,119,118,111,113,110,117,107,111,110,107,110,115,112,112,110,111,112,114,116,111,111,115,117,112,110,118,113,111,114,116,115,114,115,119,110,113,110,113,115,113,114,115,111,115,114,112,110,116,116,114,111,113,116,118,115,115,111,108
115,115,112,112,108,114,108,112,112,117,116,114,116,113,112,117,115,114,114,111,115,117,121,111,118,112,113,116,111,113,116,114,114,112,109,115,115,121,117,119,115,114,118,116,114,115,113,116,115,114,110,114,112,117,115,113,113,120,116,111
115,115,110,114,114,113,113,110,114,115,114,112,111,116,114,116,109,113,114,114,112,113,115,113,115,109,116,118,112,113,114,115,117,120,117,117,113,113,114,117,113,111,120,117,114,113,111,113,116,112,116,116,108,115,117,114,108,109,111,115
111,115,116,110,116,111,111,106,113,113,114,115,110,112,111,112,109,115,113,116,113,113,111,119,116,110,114,114,113,113,110,112,114,110,110,113,111,115,115,116,113,110,119,114,113,113,113,114,116,114,118,113,116,115,116,114,116,110,112,115
115,115,114,111,119,116,117,114,115,112,113,116,113,111,112,111,110,110,111,113,114,115,109,105,116,114,113,112,113,112,109,110,119,116,111,112,111,113,113,108,110,112,114,112,114,116,114,112,113,114,119,109,113,111,116,109,113,113,115,113
111,109,111,110,112,115,116,118,114,114,112,116,118,114,114,111,113,114,117,114,114,118,116,110,113,112,114,117,114,114,114,111,116,114,110,119,114,109,115,115,113,113,114,114,112,115,118,115,113,112,117,116,117,112,115,112,114,113,118,114
113,114,116,114,114,116,117,114,110,112,113,110,113,112,114,113,113,115,116,113,110,114,112,112,113,117,113,116,114,112,115,110,114,115,111,116,114,110,113,114,115,119,117,113,112,105,114,118,115,112,115,118,119,112,116,118,112,110,116,112
113,113,113,111,114,112,114,111,116,113,118,113,116,113,113,116,112,114,115,113,108,113,114,116,107,111,112,112,118,114,116,112,113,115,115,115,117,112,112,112,113,115,113,112,115,108,112,118,115,111,111,111,115,116,115,113,108,109,115,111
114,115,115,112,112,111,115,112,114,111,119,113,111,110,113,113,110,112,115,117,115,113,111,115,109,111,115,113,116,110,117,111,109,115,114,113,116,112,113,115,114,115,113,113,113,110,112,116,110,112,114,112,110,112,118,116,115,114,115,112
115,114,113,117,115,113,114,111,117,115,113,116,114,112,114,114,115,114,112,110,116,114,112,112,110,113,117,112,112,112,116,109,115,113,111,114,117,116,113,114,112,112,115,116,112,113,115,116,112,115,117,116,112,107,113,112,117,114,114,112
110,114,110,110,110,113,117,114,114,110,108,113,118,115,114,118,113,115,115,114,116,112,111,117,114,109,109,109,114,115,116,108,120,114,113,114,113,113,112,114,113,114,117,115,113,114,115,116,112,108,114,114,112,115,117,112,111,111,115,111
113,119,115,116,116,118,114,111,110,114,111,110,115,115,117,119,113,115,116,117,117,114,113,114,111,115,119,113,114,112,113,111,120,112,114,116,115,114,114,114,114,114,114,111,114,113,111,111,115,113,115,116,111,112,113,115,111,113,113,109
115,111,116,116,113,111,113,115,112,113,110,112,111,109,109,114,111,115,113,113,110,107,112,110,111,115,119,113,114,117,115,111,113,112,113,113,113,112,115,115,111,111,116,113,111,115,112,114,115,114,114,114,112,112,116,116,107,114,116,113
117,110,117,116,115,111,113,115,118,114,112,117,112,117,116,118,114,114,111,115,113,111,115,112,114,113,114,109,111,116,117,112,113,115,111,113,116,114,114,116,111,115,114,113,113,117,108,114,112,110,119,119,114,106,111,111,110,112,115,114
113,113,119,113,113,113,110,112,118,110,110,114,111,117,112,111,118,114,113,115,110,112,113,110,111,114,115,115,116,114,115,109,111,115,113,111,119,118,115,116,106,113,116,114,110,114,116,113,114,114,113,116,116,114,115,113,111,112,117,114
112,114,115,114,115,114,110,108,113,111,116,114,111,115,114,111,114,110,113,116,113,115,116,113,114,117,110,114,113,108,120,117,118,110,114,112,115,114,111,115,113,113,114,116,116,113,115,112,116,110,107,115,114,114,114,114,113,112,112,113
113,112,113,111,112,112,113,112,115,111,112,112,114,116,114,113,112,114,121,115,112,115,113,112,112,115,114,114,113,113,116,113,116,114,115,111,113,114,117,114,112,114,113,115,116,113,114,114,117,112,112,114,112,111,117,114,115,118,109,111
110,111,113,110,115,110,114,114,116,113,116,114,112,114,112,111,114,111,118,113,110,119,117,114,113,115,112,111,109,110,113,113,115,114,110,114,113,113,115,114,108,113,114,114,111,112,109,112,118,115,114,115,116,112,118,110,111,112,107,112
114,113,109,109,116,115,109,111,113,111,113,114,115,115,114,110,117,117,117,113,114,117,115,113,112,117,111,112,114,114,117,112,115,114,114,117,116,114,115,115,112,117,115,115,113,121,112,112,114,116,113,108,116,112,117,110,111,113,116,117
117,119,116,113,109,116,112,118,114,112,113,112,114,113,117,111,113,115,115,109,116,113,108,112,115,117,110,114,115,111,113,111,115,111,115,113,109,112,114,112,112,116,114,117,112,115,113,114,110,113,113,110,117,115,115,112,114,113,114,113
111,117,114,113,112,117,110,118,118,114,113,113,112,109,117,115,110,112,115,115,113,116,116,112,116,114,112,115,110,112,114,117,111,108,114,116,108,112,116,116,115,114,115,117,112,116,118,118,112,114,113,113,118,118,115,112,114,111,112,112
110,115,111,110,108,110,110,113,115,112,113,116,113,118,113,113,114,116,113,115,109,113,113,109,111,112,114,117,114,112,110,111,112,112,111,115,114,112,112,115,115,113,114,113,110,115,113,106,110,114,114,116,113,115,116,111,113,110,108,112
116,118,115,116,115,118,116,114,115,116,116,119,108,115,113,111,113,117,116,120,114,114,119,116,115,120,120,117,113,111,115,110,114,112,113,112,114,111,114,117,115,111,112,112,111,118,116,107,112,110,111,114,112,112,118,111,114,117,113,116
112,110,117,116,113,117,116,114,112,116,110,111,111,114,115,115,115,116,114,114,119,112,113,111,114,115,107,111,114,111,113,113,118,112,115,113,115,108,112,110,115,114,115,116,113,115,114,111,115,113,117,118,116,112,114,112,115,115,114,116
120,112,112,107,110,115,114,114,113,114,114,116,117,115,110,113,114,111,115,113,117,116,115,111,112,117,115,115,117,114,110,111,111,109,116,114,118,105,109,109,113,112,113,114,119,116,117,113,116,110,112,111,116,115,113,112,114,115,114,109
114,117,116,113,115,114,113,112,117,112,110,111,110,113,113,116,117,112,114,112,114,113,112,114,112,112,114,109,116,114,114,116,115,112,114,110,117,112,115,113,113,116,115,112,110,107,117,110,114,111,117,112,112,116,113,113,114,117,116,113
112,118,114,116,115,109,114,112,120,116,115,118,117,112,108,114,112,111,113,111,113,114,112,113,112,114,117,109,118,114,113,110,116,114,114,111,114,111,115,114,110,113,116,114,111,107,114,109,113,114,116,112,112,116,118,114,111,115,113,109
112,114,114,116,113,119,119,111,118,113,112,115,117,119,111,118,114,111,115,114,116,116,112,112,115,115,119,112,116,114,115,112,118,109,113,114,116,113,114,117,113,112,116,114,114,115,117,115,109,111,110,111,111,112,116,115,114,115,111,113
112,114,114,118,108,114,112,110,116,113,113,111,110,118,112,116,114,114,112,115,111,112,113,112,113,110,111,113,115,112,115,112,115,113,119,117,114,114,111,112,108,112,117,113,113,116,111,113,108,115,110,114,117,116,113,112,113,115,110,114
111,110,104,111,109,116,115,113,113,112,114,113,108,116,112,108,115,117,114,115,112,111,114,115,111,112,113,115,114,111,114,110,111,114,114,120,114,115,114,114,111,115,118,112,113,118,116,116,109,110,111,115,114,112,112,114,112,114,114,117
113,116,110,116,116,114,109,114,115,109,115,118,114,113,114,114,115,112,108,114,118,113,114,116,114,114,114,112,116,114,118,115,114,120,113,115,117,115,115,115,113,113,113,112,113,115,112,113,114,114,115,116,114,113,115,117,111,112,113,115
110,115,111,112,114,112,110,116,113,112,117,115,115,113,112,117,112,113,112,112,115,114,111,114,111,113,118,112,114,110,114,112,109,112,112,113,116,115,113,116,112,109,113,114,115,111,114,116,113,110,111,110,112,114,115,115,110,115,113,113
111,117,116,115,113,114,115,114,113,117,115,115,112,117,116,117,111,112,111,107,110,114,111,113,111,111,116,116,114,113,114,110,115,114,113,111,114,114,112,116,112,113,119,115,116,111,114,113,116,116,117,111,112,113,114,117,111,112,111,112
109,113,112,112,110,110,108,111,113,113,112,118,115,119,116,114,110,112,118,114,116,116,117,119,118,111,111,111,113,113,114,110,116,114,114,113,113,117,114,113,112,113,117,117,115,112,114,112,115,111,112,113,117,114,115,117,112,114,110,115
111,118,118,116,114,117,116,116,115,114,111,114,113,116,117,116,113,114,118,114,115,115,111,112,115,110,111,114,116,114,119,110,111,113,112,113,109,113,116,113,116,115,113,113,113,112,113,113,115,111,114,116,113,111,115,114,110,118,112,112
113,116,116,114,111,110,112,115,115,113,109,115,115,110,111,111,111,115,113,112,114,113,110,119,116,112,113,114,115,113,116,112,114,116,117,112,113,115,118,116,117,115,113,116,117,116,112,113,114,114,113,113,114,114,116,116,109,113,115,113
113,115,115,116,116,114,113,111,111,114,106,109,114,115,117,115,117,113,109,114,116,114,112,117,117,115,116,116,113,113,115,114,113,111,116,116,116,111,113,112,109,115,116,115,115,117,115,116,114,117,114,108,114,112,114,117,111,115,116,114
111,113,114,114,114,113,115,115,111,115,115,111,115,116,116,110,115,112,117,118,115,110,111,107,114,116,115,117,117,116,114,113,114,113,116,118,117,114,118,117,113,108,115,115,112,113,115,112,112,116,115,109,117,110,110,113,112,117,116,115
110,111,114,111,109,114,116,115,114,111,112,110,114,112,113,110,115,111,114,111,111,111,116,111,117,115,117,116,117,117,113,112,113,112,112,116,111,112,118,109,110,107,116,114,111,113,115,111,117,112,116,109,114,115,115,113,111,112,113,117
116,117,116,113,114,112,117,114,116,118,114,114,114,112,114,114,115,114,117,116,114,110,116,118,115,107,116,116,112,118,117,116,109,114,114,117,114,113,116,114,116,114,115,112,112,113,111,111,119,111,116,111,110,114,112,114,114,113,114,113
110,113,117,114,112,109,111,108,111,112,112,112,111,111,112,114,113,113,112,114,115,113,109,117,115,112,116,116,112,118,115,115,116,120,115,118,117,118,115,114,115,112,112,115,112,117,112,114,118,113,116,111,110,116,114,114,115,114,114,113
111,113,119,113,110,113,114,113,112,111,113,114,117,114,114,112,115,114,112,112,115,117,111,116,117,117,117,115,119,121,116,118,120,118,115,113,110,114,113,114,115,114,112,116,109,115,110,113,113,111,114,110,108,109,112,113,115,119,116,114
111,116,119,114,114,118,116,117,113,110,114,112,114,113,116,111,114,115,115,113,116,113,109,114,116,115,111,112,119,114,115,118,119,117,116,116,116,115,113,114,115,119,117,116,109,115,113,113,110,112,116,111,115,113,111,113,113,115,112,115
112,114,117,107,109,112,108,113,110,108,110,112,112,113,116,110,110,113,118,116,116,114,112,113,115,119,122,116,118,121,121,117,120,116,113,116,117,111,112,110,108,112,114,116,112,115,115,115,112,112,113,112,114,114,112,112,114,116,114,110
110,110,115,111,110,115,113,115,116,116,115,116,111,111,114,114,109,111,113,114,112,113,114,112,112,117,119,118,117,123,129,120,123,118,117,112,116,117,118,119,116,112,108,113,113,113,112,113,114,119,110,112,115,115,115,114,110,113,118,109
113,112,108,111,111,111,114,115,117,115,115,119,119,115,111,115,113,116,113,113,113,111,117,115,116,116,113,120,128,132,139,134,132,122,118,117,117,116,114,116,111,111,113,115,115,114,111,115,112,116,114,111,112,111,114,116,111,114,113,112
113,114,116,116,118,114,115,114,113,111,119,115,117,115,111,117,115,113,112,112,114,114,119,110,116,123,120,122,133,147,146,138,136,128,121,119,111,112,109,116,116,113,115,114,112,118,113,112,115,111,117,114,114,110,110,113,113,116,115,115
115,111,112,111,116,110,111,115,111,107,116,112,112,111,112,114,109,111,114,113,115,114,114,111,115,120,117,122,133,141,140,129,132,126,122,121,113,114,103,113,117,116,114,114,114,115,114,112,114,110,112,110,114,115,113,115,113,114,114,116
112,109,112,113,118,112,110,113,114,110,114,114,115,113,115,115,115,113,113,113,113,116,116,116,119,118,117,122,137,136,138,137,139,130,122,120,115,120,114,114,113,115,112,114,114,112,118,116,118,115,116,112,113,115,114,112,109,112,114,116
113,114,116,116,116,109,110,108,114,112,109,114,115,115,113,111,113,114,113,113,111,114,111,114,117,116,123,125,135,136,132,132,130,132,127,124,119,116,115,111,116,118,110,111,116,112,113,113,115,111,114,116,113,110,109,114,107,113,112,110
111,112,110,117,115,111,114,112,112,115,113,115,116,116,115,115,114,115,117,117,118,116,115,121,120,119,128,131,136,139,134,137,131,127,128,124,118,115,116,115,117,115,110,109,116,118,113,113,114,115,115,113,112,115,112,115,110,115,114,111
115,114,111,121,114,114,116,114,115,117,113,112,117,109,113,118,115,110,113,115,115,110,112,113,112,114,117,125,134,141,136,136,136,129,125,122,121,119,114,114,113,113,116,117,115,114,110,112,112,115,115,116,114,113,111,112,112,113,114,107
114,115,112,117,113,113,112,111,112,115,112,104,115,116,112,115,115,116,113,113,113,112,115,115,117,118,118,128,134,137,140,138,138,136,124,121,118,117,114,116,115,108,111,114,114,111,114,118,114,112,112,112,113,112,108,110,113,111,113,107
116,117,111,108,112,112,113,116,113,114,115,112,114,115,109,114,113,119,118,118,116,115,113,110,110,117,124,124,133,135,144,139,137,137,128,125,118,113,114,114,117,114,116,115,117,114,113,117,111,113,117,118,117,116,109,110,112,117,118,110
112,114,116,113,115,111,111,116,115,111,111,113,116,112,109,112,109,109,111,115,114,115,114,115,114,116,121,125,137,134,144,137,136,142,138,128,122,118,119,116,116,115,113,114,119,115,108,116,113,110,111,112,110,112,117,116,110,111,113,115
112,113,113,115,114,114,111,109,112,112,109,110,115,111,114,116,116,117,116,117,117,114,111,116,119,117,121,125,135,133,143,137,133,137,134,127,118,117,114,112,113,118,114,112,113,117,111,114,117,110,113,114,113,108,113,110,111,113,112,118
115,112,111,118,110,114,113,112,113,116,113,114,116,111,111,113,111,113,114,111,114,114,118,115,119,121,124,123,131,131,137,137,139,140,132,128,118,119,115,115,114,113,110,115,114,114,113,110,111,113,112,112,112,112,117,114,115,115,107,113
115,113,109,116,111,114,116,115,113,111,110,107,110,111,112,115,116,116,118,113,116,112,120,118,115,119,124,126,127,131,138,135,141,137,131,128,120,121,116,114,114,113,113,111,115,118,116,116,113,115,112,116,110,109,116,111,110,111,114,115
117,117,113,113,109,113,114,111,110,109,118,111,112,117,117,115,113,112,117,112,115,113,119,116,116,117,119,128,132,134,138,134,139,138,134,132,125,119,114,113,113,115,116,111,112,113,111,112,113,117,113,118,116,114,115,115,113,108,114,111
112,115,116,121,109,112,114,118,115,112,118,112,112,116,118,113,112,110,114,115,113,108,109,112,117,116,121,126,126,130,133,136,138,140,135,126,120,116,117,117,114,116,115,113,112,115,119,115,115,117,112,112,112,112,111,115,114,112,117,113
115,111,109,113,106,111,114,116,110,111,116,114,114,114,117,116,113,115,115,114,117,116,117,119,114,114,119,124,126,132,131,133,131,134,131,128,123,117,113,113,113,115,116,117,112,114,111,108,110,112,111,109,115,116,116,114,113,112,113,110
113,112,114,117,112,112,112,114,115,116,116,113,114,114,114,112,109,116,118,115,117,112,112,114,118,122,120,122,123,132,132,136,136,139,128,123,119,120,114,117,112,111,112,116,112,118,116,114,117,117,116,116,115,113,115,116,113,110,110,111
114,116,113,112,114,112,109,115,114,115,113,110,111,110,116,118,113,113,111,106,117,114,116,113,115,117,118,120,123,138,134,135,132,135,126,129,119,118,112,118,113,117,111,116,114,113,112,112,113,115,109,113,114,109,113,115,113,113,113,112
113,115,112,113,115,117,113,115,112,113,112,110,114,112,118,118,117,114,114,112,115,111,117,117,115,119,119,116,122,133,127,128,134,136,126,128,117,117,117,119,112,114,110,112,115,111,111,113,112,115,109,112,115,116,118,115,114,115,118,111
116,113,115,115,113,112,109,110,112,115,113,110,114,111,114,113,113,110,114,112,111,112,115,118,114,113,115,117,125,134,133,135,139,138,128,126,121,115,115,114,109,116,121,114,115,110,115,115,111,115,113,110,111,113,114,114,111,109,112,112
113,108,114,110,110,116,115,109,112,114,114,114,118,114,110,111,114,112,115,115,115,115,113,119,117,115,117,120,123,128,136,134,130,127,122,118,123,117,115,116,116,112,113,110,113,110,115,113,112,114,117,116,114,109,111,116,114,116,113,112
109,113,118,110,115,115,117,114,115,113,115,118,113,112,108,111,116,110,109,111,110,112,107,111,114,116,117,118,115,114,124,123,124,124,123,120,121,115,119,112,119,114,111,115,119,116,115,115,114,111,111,114,115,111,110,115,112,116,113,115
114,114,116,111,110,109,113,111,112,109,111,116,112,117,113,114,118,115,111,110,115,116,109,114,117,116,116,118,125,120,126,117,116,112,116,118,115,110,116,111,116,116,112,113,112,113,111,116,115,110,108,115,114,111,109,112,113,115,110,116
115,113,110,110,110,112,116,113,113,114,117,112,112,118,114,112,115,117,116,110,116,115,116,121,114,114,116,116,117,111,116,115,119,115,115,117,117,107,115,116,115,112,112,116,117,116,110,113,111,117,112,116,119,118,115,111,111,116,111,112
113,120,116,116,115,115,114,109,108,111,116,110,114,114,114,116,112,111,115,112,111,112,116,113,113,116,119,116,117,118,116,114,114,117,114,110,118,113,115,113,114,115,113,116,117,113,114,116,110,112,110,109,111,112,113,110,110,117,111,110
113,118,110,110,111,112,115,116,114,114,113,109,115,115,110,115,116,118,117,112,113,113,111,113,114,112,114,112,111,117,116,117,111,116,109,110,112,114,114,113,111,115,113,112,114,111,112,112,113,114,117,119,117,116,119,116,111,114,112,115
111,116,113,115,115,113,115,117,115,115,113,112,116,114,113,113,110,111,113,116,117,118,114,117,114,116,114,114,113,116,110,114,111,112,113,115,113,114,113,114,113,112,114,113,115,117,115,110,109,110,113,115,112,110,117,117,112,112,116,112
113,113,115,112,112,108,111,110,111,113,115,115,115,111,112,113,111,110,114,118,112,111,110,114,109,117,121,115,112,117,113,117,117,114,117,121,115,113,118,114,113,110,117,111,112,115,110,110,112,113,113,116,114,114,113,114,112,109,114,111
116,115,114,110,112,112,116,114,112,110,111,115,119,110,111,115,116,112,111,113,113,113,111,116,112,111,116,114,111,120,113,117,119,112,112,110,116,111,116,110,117,114,116,115,116,117,113,112,115,113,111,117,112,114,112,112,114,110,117,115
115,114,115,118,116,112,111,112,113,113,109,109,117,110,110,112,114,114,110,112,112,114,111,113,109,109,113,114,112,119,110,114,114,114,120,107,113,104,114,111,117,116,111,110,112,112,114,115,114,110,108,113,110,114,111,112,118,112,116,114
117,115,114,115,117,116,114,115,112,112,118,119,117,110,114,116,110,114,115,117,111,109,109,114,114,114,111,114,108,117,118,113,111,114,118,106,117,112,118,116,111,111,113,112,114,114,115,116,115,109,111,113,113,114,110,113,118,119,113,111
109,114,116,112,112,108,107,112,116,108,116,113,112,108,113,112,113,115,112,116,117,115,112,114,118,117,110,114,113,115,119,114,115,111,115,110,114,110,113,110,110,112,112,109,111,113,114,112,114,113,115,112,114,115,114,117,111,113,110,111
108,114,115,114,115,113,111,107,116,110,111,111,110,109,115,107,113,113,113,114,114,115,114,114,115,107,110,114,115,113,119,115,116,112,116,113,115,111,116,114,110,113,116,113,112,113,114,113,112,114,116,114,113,114,111,116,113,115,112,113
112,114,114,114,110,111,112,115,118,115,113,114,115,117,118,116,117,111,113,113,112,113,113,110,119,116,116,112,113,110,116,112,115,115,115,115,115,107,116,120,115,113,113,112,117,114,109,112,112,116,118,114,112,112,112,117,111,112,112,112
111,112,114,114,111,115,110,113,116,114,113,113,115,112,108,115,116,111,114,112,111,111,114,109,121,113,115,114,112,107,115,114,114,116,116,116,116,112,116,113,114,115,116,111,113,115,118,117,112,109,109,109,112,112,111,112,110,113,116,115
116,116,113,114,109,110,108,109,109,111,112,112,112,112,116,112,113,119,116,114,113,116,114,105,115,114,113,114,115,112,115,114,110,111,112,115,116,111,115,115,115,113,117,112,105,112,115,117,112,111,112,114,116,113,110,113,116,117,113,112
114,113,114,112,112,113,112,113,113,113,114,120,115,113,116,112,116,114,111,118,112,114,112,112,113,113,112,115,118,113,114,116,112,113,113,114,116,115,118,113,115,114,113,118,112,115,113,123,117,116,114,112,114,113,111,114,115,115,110,108
114,114,120,113,113,115,109,114,116,113,109,114,111,113,116,113,111,109,110,114,111,115,108,112,109,114,114,113,110,112,112,114,110,112,110,110,112,113,113,107,117,118,112,112,108,111,109,112,109,110,112,109,115,114,113,112,109,113,113,108
112,114,114,117,116,114,115,115,113,109,109,111,111,114,114,113,113,117,116,112,110,113,108,115,113,114,118,112,110,113,115,115,112,118,118,115,109,112,117,114,110,116,113,115,113,112,110,113,115,115,118,115,112,114,116,112,109,114,116,113
112,114,107,113,116,112,114,113,113,111,114,116,110,116,116,112,108,115,117,114,114,114,114,111,115,111,113,114,115,116,112,114,114,114,110,113,113,115,112,115,112,117,118,118,114,114,112,114,116,112,113,113,113,114,115,115,112,114,111,111
107,113,115,119,112,110,112,113,114,116,111,113,108,114,113,114,113,114,112,114,115,107,111,112,117,111,114,115,112,112,109,113,111,113,116,113,112,118,114,113,116,111,111,114,111,113,114,113,116,113,117,116,115,114,117,118,112,115,113,113
115,114,116,114,112,114,113,114,114,113,109,114,112,112,111,114,112,113,106,112,116,114,115,113,116,110,112,112,113,115,113,114,111,110,121,114,111,115,113,110,115,115,113,112,115,113,116,114,113,107,114,115,109,109,113,112,111,112,110,111
114,112,115,112,113,115,112,113,117,112,110,115,110,111,111,115,113,117,109,112,111,112,115,113,119,114,118,112,111,113,111,113,113,111,116,112,117,115,113,111,116,115,115,112,114,111,111,111,114,113,117,116,113,112,115,113,114,111,113,115
111,116,112,110,115,116,114,113,112,108,110,112,114,116,112,111,113,117,113,113,112,110,113,112,115,109,115,117,109,110,112,112,114,111,111,109,109,113,120,112,117,111,114,112,113,115,117,109,112,112,115,109,113,114,116,111,112,113,113,117
113,116,114,113,114,112,111,113,118,112,115,111,114,116,113,110,114,116,111,110,116,112,115,114,116,113,113,117,111,111,115,113,116,115,116,117,114,115,119,114,118,110,115,112,117,109,112,115,118,112,116,112,115,111,112,112,108,111,112,111
116,118,117,112,115,114,110,104,119,112,112,110,112,112,110,112,114,117,116,111,119,114,113,112,112,112,114,115,114,115,116,113,113,112,114,113,109,112,116,113,117,111,116,110,115,114,111,110,112,110,113,111,114,114,113,114,115,116,118,114
112,110,113,114,111,107,116,108,114,112,114,118,116,119,115,113,110,111,115,111,113,109,112,114,114,110,113,111,112,115,119,116,111,110,113,115,116,113,113,107,114,111,116,112,111,111,112,115,116,113,113,114,113,115,119,113,112,109,113,113
116,113,111,117,115,114,116,111,113,113,112,112,110,116,110,115,115,109,114,114,116,113,113,113,111,113,116,110,107,112,111,111,111,117,115,113,112,112,117,113,114,110,109,110,115,110,106,113,111,111,111,110,112,111,113,112,116,110,111,108
114,115,112,113,114,119,117,112,114,115,111,112,106,110,108,111,115,113,112,113,113,109,108,115,113,116,115,115,110,111,111,117,115,116,110,112,111,111,110,113,115,114,119,119,120,116,108,118,113,112,111,112,112,108,116,116,114,111,115,113
115,113,114,111,113,113,113,112,115,113,113,115,111,112,116,114,113,118,113,113,113,114,112,112,109,112,109,115,112,113,115,114,114,116,112,113,112,111,109,113,112,109,111,111,116,115,114,119,112,111,111,114,115,111,118,114,118,118,113,113
117,111,110,113,116,112,111,111,110,112,116,117,114,116,118,112,113,111,114,113,109,111,117,114,111,117,111,108,109,110,115,111,112,114,115,117,114,114,113,115,115,111,114,115,115,110,108,114,114,110,109,111,116,111,113,113,112,113,112,113
115,112,110,116,118,118,113,114,116,115,113,114,111,112,113,108,123,114,111,112,113,111,110,116,112,114,115,112,117,114,117,111,110,117,114,115,116,117,112,112,115,108,112,115,110,108,107,112,117,116,116,114,118,115,110,113,113,121,117,114
109,114,111,116,115,121,112,112,113,115,111,111,114,113,114,109,117,116,113,112,114,112,109,112,117,111,114,112,117,111,113,114,107,114,113,111,112,114,114,110,117,112,115,116,111,115,116,115,115,111,112,108,110,112,111,115,112,117,117,119
112,113,110,113,112,117,114,114,114,112,113,111,113,114,115,110,114,113,114,114,112,115,113,113,118,114,118,115,114,112,111,114,113,108,113,115,112,111,113,111,113,112,115,114,107,112,109,110,115,110,111,112,114,115,112,113,113,113,111,118
112,112,111,107,108,111,110,107,116,113,113,109,116,117,115,112,117,114,115,117,110,112,110,108,113,113,112,116,112,109,114,111,113,112,109,113,116,115,111,111,113,112,111,116,113,118,118,117,116,116,111,111,115,115,109,110,115,114,113,118
115,108,117,115,113,117,118,111,114,111,110,110,113,110,111,110,117,112,115,120,112,117,117,114,114,118,115,118,113,111,113,113,115,114,112,114,111,109,110,113,114,114,113,115,108,109,114,112,116,117,110,110,112,112,113,110,112,114,112,112
113,111,114,115,111,113,114,111,112,110,111,113,115,115,117,110,115,113,115,119,112,108,107,111,110,114,112,112,114,113,112,112,114,114,114,115,115,114,115,112,117,114,114,112,117,112,111,112,116,117,116,113,110,109,108,108,111,115,115,115
114,114,118,115,112,113,112,112,110,110,117,115,111,109,111,113,115,114,109,113,113,112,110,115,112,114,115,108,114,113,113,110,111,110,112,108,107,111,118,109,113,113,118,111,116,114,114,113,114,112,114,111,112,115,112,112,114,112,111,113
114,108,114,114,112,113,112,112,117,108,115,114,113,110,111,115,116,114,113,114,115,115,112,111,111,111,115,116,122,114,114,112,118,116,111,112,112,113,116,114,114,109,112,113,118,115,114,112,117,112,114,112,110,112,117,112,112,113,110,111
112,109,111,114,114,113,116,113,117,112,116,111,114,113,111,115,119,112,117,115,111,114,115,112,114,112,108,111,113,110,113,109,111,113,107,112,112,113,109,110,118,113,114,115,114,113,114,112,116,110,112,114,113,112,114,111,111,115,114,115
114,112,112,112,112,111,118,111,113,113,111,112,120,114,112,109,111,110,112,115,112,112,110,112,117,112,113,120,115,113,115,111,113,114,110,114,115,113,112,112,116,112,111,108,109,111,112,109,111,114,110,111,110,110,114,113,108,112,111,115
109,111,113,113,114,111,116,114,113,118,111,110,117,113,116,113,118,124,117,116,117,113,115,119,117,110,112,114,113,112,108,109,114,113,115,111,113,109,112,114,115,112,115,112,115,118,111,112,115,121,114,115,112,111,113,114,111,112,109,116
110,118,116,113,114,114,113,118,110,115,114,113,115,112,112,110,110,114,113,112,109,111,113,115,116,110,114,113,115,113,111,112,115,108,111,107,110,107,112,112,113,111,115,111,113,114,111,108,107,113,110,113,114,112,114,111,112,112,110,114
112,113,112,111,114,112,108,111,108,113,114,112,111,112,109,116,113,113,116,115,114,115,109,111,115,113,116,111,113,115,114,109,116,116,115,111,115,114,113,114,114,116,113,110,115,115,120,115,111,111,111,114,119,112,116,114,115,113,114,114
111,113,117,117,117,115,115,115,118,111,113,110,113,111,108,113,111,110,114,116,113,112,110,110,113,114,115,113,115,115,118,113,115,116,117,111,113,111,111,115,113,113,109,115,114,113,114,115,116,115,117,112,114,110,113,112,114,112,114,111
111,111,114,111,113,113,111,111,115,108,113,109,116,113,116,117,113,110,113,114,113,114,113,112,113,115,112,111,117,108,112,113,115,107,113,115,117,115,114,113,112,113,111,111,108,113,112,108,110,111,112,115,118,113,111,111,116,115,114,108
114,115,113,105,115,114,108,113,117,112,116,108,117,113,108,114,115,113,116,111,113,115,113,115,116,113,112,109,114,114,116,116,117,109,115,117,111,112,111,115,114,111,110,113,114,115,116,113,113,117,111,111,115,114,115,115,116,110,116,113
110,113,116,114,116,117,110,112,113,111,114,108,114,114,112,115,111,111,112,111,116,116,113,115,114,111,117,117,113,113,114,114,115,112,116,115,109,113,113,111,109,110,111,115,113,117,113,108,109,114,112,113,115,112,112,114,113,109,114,111
113,112,111,112,113,112,112,112,110,112,116,113,114,112,115,116,112,115,114,112,114,109,115,119,108,109,115,111,111,112,110,115,117,119,116,110,112,111,112,110,109,114,118,115,109,118,114,113,112,112,111,109,112,113,112,117,115,114,114,116
