53,60,67
113,116,114,112,110,113,115,117,115,113,112,116,110,112,114,117,111,119,112,110,111,114,114,111,116,115,115,115,117,116,115,115,112,114,116,116,115,111,116,111,112,113,111,114,114,113,113,113,117,116,116,116,108,115,118,117,111,111,108,110
115,113,113,113,113,113,115,116,111,113,116,115,112,119,113,112,113,117,114,120,113,112,113,116,115,112,115,112,115,119,112,109,117,114,115,115,117,114,113,110,110,113,112,117,117,113,115,118,116,114,114,111,115,117,116,114,110,117,115,116
119,113,113,117,111,116,117,114,113,122,115,110,113,116,116,113,113,117,111,115,116,113,115,117,118,115,115,116,112,117,115,118,114,111,111,118,114,116,116,116,110,116,114,116,116,112,112,111,115,114,115,116,118,113,112,116,113,112,114,109
118,114,111,119,116,115,118,112,115,110,114,113,111,112,115,114,114,117,116,115,113,110,111,115,114,115,114,108,112,115,114,112,114,116,113,114,115,112,114,116,112,114,116,109,117,117,112,112,116,112,110,112,115,116,104,118,113,112,116,114
112,116,111,114,116,115,110,111,114,113,112,114,114,123,117,110,115,113,116,114,115,114,112,112,114,115,113,111,114,117,117,119,113,111,116,114,108,109,111,116,116,115,116,112,113,108,112,114,112,118,113,112,111,117,111,118,112,111,111,113
113,113,113,116,117,113,113,116,112,113,112,115,116,112,114,115,115,113,115,108,115,112,113,116,111,117,115,112,113,113,116,116,115,110,114,116,117,115,115,111,119,119,110,113,111,112,117,115,116,115,111,114,116,115,112,115,116,110,110,118
117,110,112,115,113,111,111,115,112,115,115,113,117,117,113,113,120,115,113,113,116,121,114,116,112,115,110,114,115,114,118,114,111,116,113,114,114,111,116,110,114,116,110,116,119,115,109,116,114,110,115,115,111,114,115,112,114,117,115,112
118,113,117,116,113,118,113,118,116,109,117,113,111,112,113,113,118,113,115,116,115,115,112,114,113,113,111,116,114,115,112,113,108,119,117,119,108,113,114,115,116,108,117,119,113,115,112,113,117,111,113,116,114,117,110,110,119,114,111,119
115,118,115,110,117,120,114,117,118,115,119,114,114,113,113,117,115,108,116,116,113,117,115,108,112,113,110,115,116,112,115,117,114,115,114,110,113,114,116,115,116,113,117,115,115,114,115,111,120,113,113,115,113,115,114,113,114,114,118,117
118,112,109,110,117,115,115,110,113,113,120,113,115,113,117,114,115,115,116,115,114,117,114,117,118,115,113,114,115,113,113,117,117,114,116,114,114,115,113,113,117,116,117,117,114,116,115,117,114,112,117,112,110,112,114,114,113,116,117,116
115,116,115,115,113,117,115,110,119,114,113,112,112,118,110,111,113,116,112,115,113,113,116,115,114,115,113,113,113,118,114,114,120,118,114,115,112,110,113,115,115,114,118,117,114,116,114,112,115,112,113,114,110,116,117,117,116,112,112,114
115,115,115,119,116,115,117,116,116,117,117,117,114,113,111,117,113,117,111,108,114,111,113,114,110,108,114,119,112,114,113,110,116,116,115,113,116,111,119,113,110,116,113,113,117,118,113,113,118,116,114,117,115,118,114,114,113,111,114,116
115,114,114,115,116,115,115,115,117,114,118,116,113,113,115,119,114,111,117,113,117,115,113,113,112,112,115,117,116,113,115,112,118,116,113,111,115,112,117,112,116,111,113,118,116,114,117,117,113,112,112,114,110,113,112,112,117,119,114,112
115,115,114,112,110,117,113,118,116,110,115,113,114,110,113,115,117,118,112,117,111,115,119,113,114,113,116,116,115,113,114,113,115,110,111,115,114,114,112,114,112,111,114,114,119,115,115,112,113,116,115,113,116,114,116,116,115,114,114,110
117,113,112,111,113,115,113,115,112,112,116,112,115,112,118,116,112,112,116,115,113,116,118,110,112,118,121,114,114,116,114,117,117,111,114,118,114,117,114,114,119,117,116,116,117,115,115,116,114,114,113,114,116,112,112,114,113,115,115,113
116,112,115,114,114,115,116,113,110,113,116,118,118,111,111,115,117,116,116,117,115,107,116,115,116,116,115,114,117,114,110,119,117,116,113,118,119,118,115,109,115,116,118,116,111,114,115,118,115,115,113,112,114,116,114,111,114,117,114,116
116,113,118,114,115,117,112,117,114,116,117,112,116,118,111,111,109,114,116,116,114,112,110,114,118,111,106,112,116,116,118,117,111,118,119,108,115,116,112,115,118,116,108,114,115,117,115,116,111,116,112,115,113,113,116,114,114,115,118,117
117,114,113,115,112,116,113,111,114,118,114,113,122,113,114,115,115,119,110,113,113,108,113,111,113,113,117,118,115,112,115,112,111,116,113,112,116,114,111,112,114,115,110,114,116,116,112,119,113,113,114,118,115,120,117,116,115,114,115,114
112,120,113,114,114,115,115,111,117,112,113,115,109,116,114,114,112,113,114,114,112,117,118,111,114,116,115,113,118,111,115,115,114,117,115,115,114,114,118,113,112,115,114,111,115,112,112,113,112,116,115,110,116,110,115,113,114,119,113,117
115,119,113,114,116,112,116,115,112,117,115,116,115,113,112,117,119,114,117,113,113,113,116,117,114,116,117,112,119,111,107,117,117,115,118,116,113,115,115,114,115,114,119,113,107,113,116,113,111,114,114,112,116,113,117,115,113,115,113,117
112,115,116,112,113,118,116,115,112,113,113,113,113,114,117,116,114,116,116,112,114,113,112,117,115,116,116,115,114,116,116,113,118,118,112,107,113,117,114,113,114,115,115,114,115,112,118,117,113,114,118,113,111,113,118,114,113,115,113,115
113,118,115,115,113,113,114,115,115,111,118,111,112,113,117,117,116,111,114,114,118,113,112,117,112,116,116,112,117,122,115,114,119,120,113,109,115,114,113,107,116,116,112,113,116,113,115,113,114,116,120,111,115,112,114,111,112,118,116,115
115,115,110,114,111,113,115,114,116,112,113,117,121,111,113,114,115,113,119,114,113,117,115,115,117,114,111,116,116,114,109,111,115,115,115,113,114,111,113,113,116,114,115,110,115,116,116,118,116,119,117,113,113,118,112,117,113,117,116,115
115,113,110,113,118,115,110,114,119,114,113,117,115,114,114,114,112,116,114,118,113,116,115,117,112,115,116,113,112,116,117,115,117,114,116,113,114,113,114,115,116,116,111,115,115,113,112,111,115,114,114,113,111,116,112,118,114,113,112,112
116,114,115,114,116,114,111,114,118,115,113,115,114,113,115,114,114,114,113,118,119,115,109,117,114,124,111,112,117,114,110,115,113,112,111,113,117,116,115,119,113,113,113,119,115,113,114,109,112,114,116,115,115,113,111,116,111,111,116,115
115,116,120,112,116,111,115,117,113,113,115,114,113,113,111,111,111,113,114,112,117,114,111,116,113,116,115,119,114,111,114,114,110,115,119,114,115,116,118,112,113,111,116,115,118,113,119,115,112,113,116,117,115,114,112,113,113,114,116,113
117,114,115,111,114,111,119,112,115,114,113,116,117,112,117,117,113,114,115,113,112,116,117,114,113,120,116,113,116,117,116,116,114,114,115,109,115,114,113,115,116,115,115,116,118,110,119,118,117,112,116,116,116,113,116,113,118,110,115,115
117,114,113,119,114,114,119,118,114,117,115,109,110,111,120,113,112,116,112,118,118,113,118,114,117,114,113,112,115,114,112,117,120,114,114,114,117,117,113,113,114,114,114,112,119,115,115,115,113,115,114,122,107,117,114,115,109,113,118,118
112,115,117,115,110,112,119,121,116,114,113,113,115,115,117,119,113,117,113,119,118,112,116,112,117,113,113,113,108,110,116,118,117,111,112,115,115,115,113,111,115,112,116,111,114,116,113,114,115,118,113,118,113,114,114,117,116,116,114,117
117,120,112,115,114,111,112,115,112,113,113,114,113,118,116,114,112,112,113,113,114,115,115,113,121,117,113,113,115,115,116,116,110,112,118,119,115,112,112,119,115,114,118,115,113,113,114,113,114,115,115,114,117,113,115,114,115,113,113,117
118,119,116,117,111,115,110,121,111,116,112,117,114,115,116,114,112,112,116,119,116,114,114,115,115,113,115,117,110,113,115,114,118,112,115,121,115,114,116,115,110,112,118,118,112,113,117,116,112,116,117,115,111,112,109,108,116,115,117,115
109,107,113,115,111,116,113,115,112,118,113,115,111,110,113,116,116,112,111,113,110,110,113,118,115,114,111,118,113,115,110,114,116,110,113,117,115,114,111,112,117,116,116,117,112,111,116,116,113,117,111,112,109,113,118,117,113,117,116,112
115,115,116,115,113,111,113,117,112,115,115,112,114,111,115,118,114,115,114,117,113,113,116,113,116,120,109,118,111,116,112,112,117,116,113,114,114,114,114,116,116,115,114,116,110,110,117,118,116,113,113,116,118,110,116,113,117,117,116,113
115,116,116,113,115,121,111,111,111,109,116,115,116,116,116,117,117,118,115,116,116,114,116,113,114,120,111,113,115,113,115,110,110,112,116,113,116,118,112,114,112,121,113,114,115,113,111,114,116,111,113,116,116,112,116,113,114,114,117,112
112,114,117,115,115,109,116,119,113,114,113,118,118,116,114,115,110,115,113,115,116,111,113,114,112,114,116,115,111,117,115,114,117,115,114,116,116,115,114,115,119,116,114,109,116,116,110,113,116,114,114,115,111,116,117,113,119,118,111,118
113,118,115,117,113,113,116,111,116,113,113,112,115,116,112,114,119,116,113,118,114,112,115,113,111,113,114,116,114,114,116,113,117,117,111,118,116,113,114,116,118,113,111,112,110,115,108,120,119,120,112,114,116,115,116,116,116,117,110,114
111,114,115,114,116,113,114,116,117,112,116,113,114,116,113,120,121,115,115,113,112,114,117,113,114,117,114,115,116,116,115,117,113,112,115,114,113,113,113,113,114,118,114,114,112,120,117,118,115,111,115,115,114,113,112,117,115,115,115,117
113,116,116,109,115,115,114,116,114,114,107,110,114,119,114,117,115,116,115,111,111,112,115,116,113,119,114,120,114,116,111,117,115,122,114,110,115,118,113,113,114,119,112,110,111,115,119,112,111,112,113,117,112,111,115,117,113,115,117,119
112,112,119,109,119,116,118,113,111,118,117,113,116,117,115,118,116,116,119,116,117,113,115,116,114,114,114,116,114,117,115,113,119,118,108,115,116,116,113,113,118,120,116,113,114,112,117,117,115,119,116,116,112,112,116,116,111,112,115,117
112,119,121,113,119,112,121,112,113,117,114,115,117,111,116,116,113,115,117,114,114,111,112,114,113,114,110,111,114,113,116,111,115,113,115,117,116,115,113,108,115,109,115,117,119,112,109,120,115,117,111,115,114,116,112,114,117,109,114,115
114,111,112,114,114,115,114,118,114,110,112,122,114,115,115,114,112,112,112,115,119,116,113,117,112,117,112,111,115,117,115,116,116,114,115,114,114,114,115,112,110,114,116,115,113,109,116,118,114,118,110,116,113,116,110,117,116,115,115,116
111,112,113,116,111,113,112,114,111,111,111,112,113,117,118,117,114,109,115,117,118,112,119,114,115,115,116,115,113,117,111,115,115,114,114,113,118,121,115,114,113,116,115,114,113,117,114,112,114,113,118,111,111,116,113,116,112,119,111,118
112,112,116,115,110,113,117,114,115,114,116,117,116,117,116,112,116,113,112,114,114,115,122,114,117,111,112,116,113,109,118,116,118,114,117,116,115,117,112,113,116,117,114,117,111,116,119,112,116,113,112,113,111,114,117,114,110,112,117,115
113,117,116,114,114,115,113,115,113,115,112,113,111,116,114,111,117,113,113,113,112,117,113,117,115,115,116,114,111,114,118,118,115,118,118,112,116,115,118,114,114,112,118,114,116,119,115,114,112,112,114,119,113,117,116,116,114,112,113,115
116,112,113,119,113,112,115,113,111,109,113,112,109,110,118,115,114,114,116,108,111,120,114,115,118,117,115,115,115,117,113,118,117,112,114,117,116,119,116,110,119,108,116,111,112,115,109,117,112,112,110,116,116,114,108,114,118,116,108,115
117,117,113,115,115,112,109,114,121,114,113,115,113,115,116,119,113,111,119,115,116,119,117,114,113,114,113,118,116,115,116,118,114,114,116,117,115,116,116,114,117,114,113,114,112,115,114,117,112,114,113,118,115,113,113,118,116,113,114,111
112,114,113,112,115,115,114,117,113,114,115,117,117,118,115,114,115,118,114,115,115,113,113,118,117,116,119,115,119,120,122,119,121,118,116,115,116,116,117,119,120,114,114,114,113,113,116,115,115,116,113,116,114,113,111,115,113,113,115,114
118,113,115,120,115,113,115,113,110,115,114,112,117,117,116,116,117,115,113,115,113,113,119,113,114,116,115,119,125,126,129,123,121,117,112,119,119,117,117,116,114,114,116,113,111,113,118,114,114,111,111,113,117,116,115,115,115,114,113,115
115,115,111,119,117,111,110,112,117,114,112,112,117,117,112,117,119,116,115,115,112,114,117,117,115,119,117,120,123,133,140,130,121,122,118,117,111,113,115,117,113,110,114,114,117,110,117,113,109,113,115,112,113,113,112,115,110,112,114,118
114,118,109,113,115,113,114,114,114,118,114,117,111,116,118,111,115,116,117,118,115,117,115,118,112,117,119,126,122,132,136,137,128,119,120,116,113,116,117,115,114,116,114,116,118,115,120,115,111,110,114,114,110,115,111,115,114,113,115,116
114,116,115,113,110,114,117,114,115,116,115,116,111,115,117,112,117,117,118,113,114,115,111,119,115,117,118,120,127,128,129,131,128,121,123,120,117,117,113,117,119,116,116,118,115,113,116,114,114,115,118,112,114,116,110,111,119,113,114,113
111,113,117,116,112,114,117,113,114,117,117,115,109,110,113,117,113,112,117,113,115,117,121,117,117,117,113,120,124,125,125,127,124,126,117,117,115,115,114,113,115,119,118,118,117,111,111,116,121,113,113,113,119,115,110,112,117,114,113,117
117,112,114,117,116,114,114,110,117,110,118,116,106,116,115,114,114,114,118,111,115,115,117,116,114,121,120,122,124,129,126,122,126,126,123,115,116,118,113,118,115,121,116,116,113,118,118,113,111,116,118,114,114,118,116,114,109,118,117,114
113,117,115,113,116,112,113,117,116,111,119,113,114,117,113,111,115,107,115,113,121,117,114,116,115,115,116,119,124,124,127,129,127,123,122,120,120,117,115,118,119,119,119,114,114,116,114,116,115,121,112,116,118,116,112,114,114,110,113,115
120,118,112,111,113,113,113,116,111,112,118,115,115,115,113,113,114,116,116,111,120,112,113,116,119,115,118,116,122,128,128,127,128,126,121,118,118,120,122,116,117,119,117,116,117,111,114,120,113,112,112,115,116,116,112,117,117,112,115,116
119,113,112,120,116,111,116,118,111,111,118,115,109,114,115,115,117,113,110,110,115,117,116,115,115,118,116,116,124,129,126,132,132,129,126,110,115,119,116,116,118,116,118,115,115,115,117,114,114,114,115,114,114,114,116,121,113,111,114,112
115,111,114,114,111,112,111,113,114,116,115,117,114,112,110,114,118,111,114,118,115,117,117,119,113,116,116,119,121,125,133,131,127,129,126,119,121,114,119,117,118,116,120,117,117,118,119,116,109,114,114,115,119,115,113,116,119,113,110,115
111,109,118,114,111,115,105,118,113,120,115,116,118,117,115,116,114,117,117,115,112,116,115,119,119,119,120,121,127,129,131,127,130,138,127,118,121,119,125,120,116,115,117,117,118,119,112,111,115,112,116,115,112,112,114,115,116,116,115,115
114,114,116,117,114,116,116,120,116,116,114,115,122,113,117,111,113,117,115,115,119,116,110,116,117,119,121,117,126,130,130,133,134,136,127,121,121,121,114,123,120,116,117,113,118,113,112,111,118,120,111,114,118,114,110,118,117,118,109,116
112,118,111,110,116,116,118,115,115,116,116,113,111,118,116,112,114,118,117,114,116,111,121,116,115,122,117,115,128,140,136,136,139,133,122,118,117,119,116,119,117,113,120,114,112,114,118,114,117,119,112,113,114,116,112,119,110,117,107,113
113,116,114,112,113,113,113,119,115,113,113,113,112,111,111,115,113,112,116,115,118,118,118,117,117,112,117,123,130,137,144,138,142,142,134,119,120,118,118,114,114,114,116,116,115,114,117,112,116,116,115,108,114,118,115,114,115,118,114,113
113,114,114,111,116,116,120,120,115,111,115,117,118,114,110,116,117,115,118,120,113,113,115,117,120,123,120,121,129,139,136,137,141,136,128,119,120,121,118,116,115,116,115,115,114,115,115,112,115,115,114,110,111,118,113,113,114,117,118,119
116,114,117,119,116,114,115,110,116,116,115,113,117,118,114,116,119,120,114,115,115,115,118,119,123,119,121,123,124,131,139,139,134,129,133,120,118,120,114,115,117,117,112,114,116,118,117,117,115,119,114,114,113,114,111,114,116,114,117,114
117,113,112,112,113,114,115,110,113,114,115,112,114,119,116,109,118,113,112,117,119,116,117,117,119,116,118,121,126,135,135,133,133,130,124,120,116,120,118,117,115,118,117,117,118,114,114,115,112,117,117,116,114,112,116,113,118,115,114,111
119,114,115,113,113,114,113,116,119,118,122,118,116,118,118,114,114,115,116,116,116,116,111,117,124,118,115,125,134,135,130,134,128,130,123,120,119,115,116,123,115,118,119,116,115,111,114,113,112,113,112,113,112,114,115,113,117,118,116,117
122,113,113,114,111,115,116,114,114,117,115,115,114,113,116,116,118,118,114,118,118,117,117,119,118,120,118,125,131,131,129,131,129,128,122,119,121,119,113,118,114,118,120,114,119,114,113,115,118,113,114,118,112,113,113,116,117,115,109,110
116,114,117,116,112,118,114,116,113,114,113,111,117,115,114,119,113,119,116,117,120,116,120,117,121,119,117,126,127,128,130,125,129,126,123,119,117,120,115,118,116,119,116,115,116,114,117,113,121,113,111,118,116,113,115,117,115,112,111,121
116,117,114,114,115,120,116,109,115,115,117,115,118,117,115,117,118,118,117,114,118,116,115,118,121,118,122,128,132,129,130,125,128,125,122,124,120,118,116,116,118,115,114,113,115,114,114,112,117,116,112,118,118,113,113,114,119,116,112,118
112,110,116,115,113,115,112,110,116,117,115,115,114,112,114,110,112,115,114,111,114,116,116,117,117,119,124,121,126,131,125,126,126,124,120,120,118,114,116,114,114,116,116,114,116,113,115,116,116,116,111,117,118,112,110,120,117,115,111,118
114,117,116,116,112,116,115,111,111,117,118,111,112,116,119,118,113,115,113,114,118,114,121,112,118,115,119,124,134,130,126,128,131,122,124,115,118,117,114,115,116,119,118,115,118,114,117,115,114,113,108,111,116,113,112,118,111,114,115,116
115,118,115,113,111,115,116,108,114,111,110,112,116,117,117,115,116,116,114,114,119,111,117,115,119,124,123,121,125,131,128,129,125,122,122,115,118,116,123,118,119,121,116,108,116,113,120,111,109,118,115,115,115,119,114,114,111,116,117,118
117,117,111,105,115,110,113,113,115,109,112,116,114,115,109,112,115,114,118,110,117,118,117,116,116,122,124,129,131,134,130,132,131,122,116,113,113,117,123,111,114,117,114,116,115,117,116,112,114,116,118,117,114,113,115,114,110,110,113,113
113,110,115,118,117,115,117,118,114,113,112,115,114,117,116,110,118,116,118,114,113,119,116,115,113,117,118,132,145,140,131,125,123,118,118,113,116,116,116,115,113,111,115,120,116,118,118,114,115,106,115,115,112,111,119,114,114,108,115,113
117,115,114,117,110,112,117,113,110,116,121,120,114,113,116,112,118,117,116,111,113,121,113,113,117,112,118,124,127,135,127,125,119,118,115,119,119,116,115,120,114,113,116,115,116,120,115,114,115,113,113,111,110,117,116,114,111,109,113,116
112,117,113,116,115,117,112,114,115,115,112,114,114,114,119,112,115,114,113,116,116,119,115,116,114,115,118,119,128,127,119,121,120,116,116,120,117,114,116,116,116,117,117,116,115,115,117,113,114,119,114,113,116,117,112,115,110,111,114,112
115,116,112,115,113,110,120,114,119,110,117,113,117,113,117,116,113,114,114,112,115,114,114,114,117,117,117,121,117,117,117,114,114,112,118,116,111,115,116,114,114,120,112,116,118,115,115,112,113,111,113,115,115,114,118,116,111,117,114,113
118,113,109,115,116,112,115,113,119,111,113,113,115,113,116,115,112,117,121,115,109,112,112,117,116,118,114,121,117,120,117,112,117,119,117,117,111,115,115,121,117,111,119,115,117,118,112,114,114,112,115,113,115,117,111,119,109,116,113,111
112,116,113,111,114,116,112,112,115,114,113,115,115,113,114,110,114,117,117,112,120,116,113,120,115,115,119,119,113,113,113,117,115,118,117,114,114,114,115,119,116,116,119,113,113,113,111,114,117,111,119,116,113,116,111,116,112,116,114,110
114,111,113,112,116,119,119,115,112,112,116,117,118,114,114,117,117,114,116,112,116,114,116,119,116,116,121,111,117,117,116,115,113,117,115,114,113,115,115,117,115,114,115,113,113,113,116,115,117,114,114,114,113,114,110,113,118,116,114,112
113,108,112,115,117,116,113,115,115,109,113,115,111,113,115,113,116,116,115,113,116,119,114,114,116,117,118,116,117,116,112,118,110,117,114,114,117,116,113,118,110,110,115,112,113,118,112,113,113,113,113,117,118,115,114,116,118,116,115,112
116,112,116,110,115,120,113,115,114,118,115,115,113,118,112,113,114,117,114,112,116,115,115,111,113,117,116,114,114,113,111,117,119,116,116,117,118,115,115,115,112,111,114,116,115,114,112,116,116,114,118,113,113,113,112,117,115,115,107,117
120,117,113,114,117,114,115,114,110,122,116,114,116,115,112,115,112,118,114,116,118,112,115,115,113,116,116,116,116,114,116,114,120,114,116,112,114,115,116,112,116,113,112,116,115,111,111,112,115,117,115,109,112,118,111,115,115,118,112,116
110,115,113,116,119,111,118,116,110,114,117,115,115,114,113,110,112,118,116,113,116,115,116,117,112,115,114,119,113,118,115,114,114,113,110,114,113,117,120,117,111,111,116,112,112,116,113,111,114,116,118,114,112,117,115,113,115,118,118,113
111,114,117,114,116,114,117,116,119,118,115,113,117,114,117,116,112,113,112,113,115,117,117,117,114,115,114,114,115,117,113,119,117,115,110,114,114,119,116,115,116,113,118,112,111,120,111,112,114,114,112,110,114,116,116,114,112,113,118,115
112,115,114,111,112,118,114,115,108,116,115,112,115,115,121,114,111,114,114,114,115,116,115,114,112,112,113,116,116,115,117,115,117,116,115,113,113,111,114,113,119,115,112,111,117,116,116,113,113,113,113,115,117,115,111,112,111,113,116,112
115,112,114,115,114,115,114,113,111,117,115,113,114,116,114,117,116,111,117,115,113,112,121,113,114,120,117,115,115,115,116,118,114,113,118,114,116,117,119,116,112,115,113,114,112,116,113,111,112,112,115,114,110,118,116,114,114,113,112,115
114,116,114,110,110,113,113,113,115,114,116,112,113,113,114,119,110,111,119,110,114,115,113,113,117,115,112,119,112,120,115,111,114,117,112,113,116,117,117,113,108,112,113,114,113,113,113,117,114,110,118,116,118,113,116,117,114,115,115,109
109,120,111,112,107,120,117,110,117,121,114,111,118,118,114,115,111,115,116,116,117,114,114,114,113,116,114,115,110,118,116,112,115,112,120,112,116,111,110,115,116,113,114,113,119,115,118,114,118,111,113,112,117,114,112,116,113,111,115,110
113,117,113,113,115,120,111,111,114,112,116,113,117,113,109,116,114,119,116,114,115,111,119,115,109,115,117,119,114,114,113,111,116,113,115,112,111,115,115,115,120,112,119,119,116,112,114,116,115,117,111,112,111,115,116,114,116,117,114,113
113,114,116,111,113,114,112,108,109,115,116,115,116,107,113,116,114,116,115,115,117,113,116,115,110,113,115,114,115,113,110,114,113,114,112,108,113,119,116,114,113,117,115,110,111,113,111,120,111,114,112,115,114,112,110,117,115,112,113,117
116,111,112,111,116,117,113,112,111,117,115,117,115,113,118,113,113,116,115,116,114,115,114,110,118,111,114,116,115,114,115,110,111,113,116,114,115,112,113,116,116,115,113,114,115,116,113,116,121,115,114,117,114,112,116,114,114,115,111,115
118,113,115,116,118,114,111,117,117,119,115,111,116,119,114,111,117,117,113,115,120,118,113,113,116,113,114,110,115,114,111,113,118,114,113,114,116,116,119,110,111,112,115,109,118,112,111,116,116,115,115,115,112,114,115,111,116,111,111,115
115,111,118,110,109,112,119,119,117,112,112,115,114,115,114,112,119,117,111,115,114,115,111,112,116,113,107,113,118,113,113,120,116,112,116,114,115,115,109,114,115,111,111,112,118,110,114,114,110,116,114,116,117,114,117,112,117,114,119,114
115,113,112,114,118,114,117,114,117,116,112,115,119,114,117,116,113,111,117,114,110,115,118,114,112,117,116,114,116,115,117,117,114,114,116,113,111,114,115,115,118,111,110,116,114,116,114,113,112,116,111,113,111,113,114,115,115,113,114,114
117,111,114,118,110,114,115,111,111,114,116,114,115,114,115,113,115,114,117,110,116,120,114,113,112,118,115,111,114,114,115,114,113,110,115,118,113,115,115,113,114,113,114,119,116,114,116,118,109,116,113,113,114,112,112,117,109,121,111,116
114,112,116,116,112,114,118,111,111,113,119,116,112,117,115,118,116,112,113,113,116,113,115,115,116,117,115,113,114,112,119,109,113,116,115,116,115,111,108,114,114,116,117,116,115,116,116,119,114,114,117,115,115,111,111,111,115,118,114,113
116,111,115,115,114,111,115,116,115,117,116,119,118,116,114,117,115,113,115,112,113,116,117,117,116,113,114,117,117,114,113,113,113,118,111,117,119,113,111,116,115,116,112,114,118,112,114,116,114,117,116,113,119,119,111,110,114,118,117,117
116,112,113,112,109,115,112,116,112,114,114,112,114,118,116,115,117,111,115,117,117,116,109,115,116,111,111,113,115,118,112,115,115,116,115,113,114,113,115,116,115,114,107,115,112,114,117,112,112,115,113,118,118,114,113,113,115,117,113,109
117,118,117,117,115,119,113,113,115,111,117,118,118,115,116,113,112,113,118,121,112,113,110,116,113,120,114,115,116,113,115,115,115,120,118,113,113,115,117,117,113,112,114,116,114,118,115,112,116,112,117,117,114,110,117,115,116,114,113,108
114,116,111,115,114,113,115,118,116,109,113,117,114,114,118,116,115,114,113,114,112,119,116,116,111,118,112,116,114,108,118,115,114,116,119,115,114,116,115,115,118,114,112,113,113,115,112,109,116,117,116,113,110,114,114,117,114,112,114,116
114,115,113,110,118,115,115,112,110,112,113,114,114,113,116,112,114,115,115,118,113,113,116,115,113,116,115,115,114,117,112,112,116,115,112,114,113,113,117,115,117,115,114,113,114,118,112,111,115,114,111,116,113,113,116,116,114,112,110,113
114,120,120,118,114,113,111,112,114,120,118,116,112,110,114,112,115,113,117,116,113,115,115,115,117,117,110,114,120,116,115,116,117,116,113,113,114,114,114,113,112,116,111,114,116,117,112,111,119,115,113,113,116,113,113,113,112,117,114,107
115,115,112,117,111,113,116,112,118,114,112,117,111,116,115,114,116,116,113,113,109,117,112,114,111,115,111,114,120,119,111,114,115,114,119,115,115,115,116,108,112,117,112,112,111,117,112,117,118,115,115,117,111,113,113,117,112,113,114,112
112,115,113,114,115,114,113,114,115,106,113,118,117,114,113,114,115,115,113,122,116,116,107,112,114,114,112,116,113,113,116,112,115,116,116,114,116,113,115,113,117,116,113,118,113,114,116,115,116,116,115,110,111,116,113,117,113,109,111,116
117,118,111,115,118,114,112,115,117,110,116,120,118,116,115,112,115,113,114,117,114,112,110,116,118,115,114,113,114,110,118,115,117,111,111,114,111,113,114,116,113,112,111,118,113,115,116,112,116,116,113,118,116,114,110,111,121,116,112,116
115,113,117,114,118,117,114,115,116,114,113,112,112,115,116,112,114,114,113,110,112,116,116,113,111,114,114,113,113,116,113,116,115,114,114,118,110,119,112,110,113,113,114,118,112,115,117,116,119,116,113,113,115,115,108,110,114,115,114,116
115,115,117,114,113,116,116,114,111,117,114,116,116,113,114,109,116,118,118,113,113,119,111,112,110,111,117,116,111,115,115,114,110,116,116,116,114,115,109,110,119,110,117,113,113,116,113,115,120,114,113,123,118,116,113,117,113,117,114,119
118,115,113,113,111,116,116,118,117,112,111,117,117,116,115,113,115,114,117,119,114,115,110,111,115,114,118,114,114,108,119,115,115,115,111,113,115,114,113,115,117,112,112,116,111,111,111,118,118,113,113,116,115,115,115,111,116,114,113,114
114,113,115,114,111,115,116,115,114,115,113,113,114,117,115,115,114,105,116,118,113,117,113,112,114,111,115,111,123,120,118,111,117,115,112,118,114,114,116,117,112,116,115,113,115,120,118,117,117,113,115,115,118,117,118,116,116,115,116,113
113,117,107,115,116,120,116,115,113,116,115,113,115,115,113,112,115,113,119,115,108,115,113,111,119,115,115,114,116,113,108,114,114,116,115,112,112,114,116,112,115,111,112,115,115,113,113,111,112,113,115,115,116,114,109,114,120,116,114,116
113,112,110,115,118,113,110,116,116,113,112,114,118,112,113,114,117,118,116,112,111,115,115,115,115,112,114,113,113,114,113,113,115,114,111,112,118,116,111,112,116,117,113,114,109,113,119,115,113,112,114,114,116,116,114,118,116,113,116,110
115,116,116,116,116,115,109,112,118,112,112,111,115,113,118,115,112,114,113,112,112,117,115,120,114,109,112,116,120,112,113,113,112,118,114,114,115,113,116,115,115,115,109,115,113,115,116,120,117,118,115,114,116,111,117,113,117,111,113,113
115,115,117,115,112,112,110,114,117,116,119,115,112,115,113,112,115,111,112,115,115,118,115,111,114,114,113,121,120,115,115,114,115,115,116,112,118,113,113,112,116,116,115,118,112,114,117,115,116,117,114,114,113,110,116,112,115,112,117,117
114,116,113,114,113,112,115,116,117,114,115,115,113,115,115,115,119,112,108,115,114,114,114,112,118,110,114,118,113,115,115,111,115,117,115,111,116,116,112,114,115,116,116,113,114,115,114,115,113,118,116,112,116,114,114,113,114,116,110,114
115,118,114,117,117,116,111,112,115,110,114,114,116,115,116,115,114,117,116,115,113,113,116,114,119,116,110,113,120,109,114,116,115,111,115,118,115,110,117,122,112,111,113,113,113,116,111,112,110,112,115,114,115,114,113,114,115,113,114,117
113,113,116,114,115,116,115,111,112,117,113,111,113,115,112,109,115,119,118,112,115,112,113,110,113,118,112,109,116,115,112,116,114,112,119,115,115,114,116,115,113,116,118,115,114,114,113,118,113,116,116,113,118,114,116,112,116,114,115,115
114,116,113,113,116,111,116,111,115,118,119,110,114,117,111,116,120,113,114,117,114,116,113,117,117,113,113,114,115,117,113,115,114,116,112,111,114,115,114,114,117,112,112,114,111,114,115,118,113,113,114,116,116,112,121,112,115,116,111,120
111,113,112,111,117,113,116,116,115,116,114,116,113,114,116,115,117,116,118,112,111,120,112,117,118,109,117,112,119,115,112,118,119,114,111,112,117,113,115,114,113,117,111,112,111,115,114,112,113,116,115,114,112,114,118,114,110,114,119,116
116,116,114,116,117,112,114,118,111,117,115,117,113,116,113,113,115,114,116,114,110,114,117,115,111,110,118,116,111,114,114,113,114,115,114,106,119,113,113,113,111,115,112,117,119,110,115,112,111,116,113,111,113,115,119,116,112,112,115,113
114,117,117,118,112,115,107,111,114,117,118,117,112,117,114,113,115,112,111,113,115,116,117,117,107,114,118,115,109,113,116,114,112,113,113,116,117,113,118,120,113,113,116,111,115,118,119,111,116,115,113,116,116,112,119,116,112,113,117,109
