55,64,73
113,113,113,115,115,111,114,116,113,111,114,117,112,116,117,114,117,113,118,115,117,116,112,111,116,114,113,111,109,118,118,118,114,114,115,116,115,117,112,115,117,109,119,114,116,116,119,113,113,120,111,117,119,115,117,115,116,117,114,112
114,114,114,114,117,120,114,113,116,116,117,115,111,114,117,113,114,115,114,115,116,115,112,116,119,117,113,115,118,114,114,114,112,116,115,111,114,113,112,114,116,111,111,110,114,113,118,116,113,117,109,111,119,115,111,115,116,112,117,113
113,113,112,118,116,115,113,112,115,116,117,119,115,114,117,117,113,115,113,115,112,113,113,109,112,115,115,118,115,109,115,112,115,119,112,115,116,115,113,109,114,112,115,117,112,116,116,116,114,114,115,110,114,116,118,116,113,115,119,115
113,113,113,112,115,115,116,118,115,117,113,116,114,116,112,116,118,114,111,113,112,112,115,115,115,112,114,116,108,116,116,116,114,117,117,111,113,116,121,119,115,113,112,116,111,114,116,113,112,111,121,114,113,115,114,115,114,114,113,110
114,114,114,115,113,114,114,117,112,113,118,113,115,117,113,117,117,117,114,110,116,116,117,117,113,118,122,117,114,121,112,116,117,112,117,113,114,118,115,116,113,116,110,116,117,113,117,110,115,117,113,117,115,114,114,112,113,113,111,113
113,113,114,117,109,116,115,113,112,115,115,116,114,113,120,115,110,120,115,112,119,117,113,112,117,118,115,116,120,114,113,113,114,112,117,123,117,120,116,112,118,116,117,117,113,117,111,114,117,108,114,117,117,116,115,111,116,111,114,115
113,113,114,116,116,117,114,116,115,117,115,109,113,113,113,111,120,111,116,116,123,118,117,115,114,107,120,117,117,110,113,114,118,117,113,118,111,115,115,113,116,119,114,116,111,112,114,116,114,113,116,115,110,111,116,118,110,113,114,115
113,113,114,118,117,113,115,118,111,114,113,115,116,115,115,114,115,112,111,117,116,114,114,116,115,116,116,117,117,114,113,117,113,116,114,110,117,115,114,119,107,117,113,110,114,113,117,115,114,112,114,116,112,110,112,119,116,114,115,115
113,113,116,114,113,114,115,117,117,116,111,119,118,111,115,112,112,118,120,114,107,113,115,113,114,116,114,118,117,114,115,116,108,114,107,111,116,114,116,116,114,112,115,114,116,114,120,119,115,114,114,115,117,111,112,108,114,116,115,113
113,113,111,116,111,108,111,117,114,117,118,115,120,114,113,117,119,113,112,118,116,114,116,113,115,115,114,119,118,114,114,117,115,116,115,117,114,114,115,119,116,113,113,116,118,112,113,114,113,118,116,114,117,116,114,113,113,111,120,112
113,113,116,114,116,117,112,115,115,116,118,114,113,118,118,113,118,118,116,112,113,112,113,114,113,111,105,112,115,116,115,116,113,112,116,117,120,122,115,111,111,120,118,113,114,115,114,113,113,119,118,117,118,114,112,120,114,113,121,115
113,113,113,116,113,115,116,112,114,115,115,121,119,117,116,114,111,116,118,118,115,114,112,120,118,118,118,113,111,115,117,114,113,115,114,115,117,120,113,113,115,112,115,110,110,116,116,114,112,111,117,114,111,114,114,114,118,116,117,120
113,113,110,115,114,116,119,111,114,118,116,114,117,116,114,119,114,117,115,114,115,113,113,113,116,116,118,110,116,119,118,119,112,113,113,112,117,117,115,114,116,111,110,115,116,116,116,111,113,115,117,117,114,117,113,110,110,116,114,112
113,113,115,119,114,114,115,114,117,117,115,113,116,118,115,112,121,110,120,113,118,114,115,112,114,117,119,114,118,116,113,113,117,120,116,115,115,116,112,112,111,121,114,118,114,119,119,113,115,116,117,114,115,113,118,112,114,111,111,112
113,114,117,117,117,115,112,119,117,114,114,115,111,113,114,115,109,112,114,111,115,114,114,111,116,110,117,116,113,118,117,112,110,118,120,116,114,117,116,114,114,110,116,115,117,116,113,115,112,116,113,115,115,106,113,111,121,114,110,118
112,117,117,115,118,116,116,116,113,117,115,118,112,113,118,119,116,120,118,113,114,112,112,119,114,110,118,115,115,117,115,118,116,115,113,117,118,117,120,117,118,116,112,117,113,112,116,116,115,116,117,117,112,117,119,114,115,118,114,115
113,115,114,111,114,117,118,118,114,111,116,115,115,115,115,117,115,111,115,117,115,114,115,114,115,118,119,114,112,112,112,110,114,115,114,113,113,114,118,113,116,114,110,111,111,114,111,117,120,112,120,112,115,115,115,117,113,113,118,112
113,116,116,120,120,114,113,111,113,121,114,115,120,118,111,114,117,118,113,113,113,112,116,117,115,120,118,115,116,116,111,109,114,113,113,115,116,116,114,114,115,117,119,114,117,118,114,113,111,112,111,116,115,113,113,118,120,118,111,111
114,114,115,108,111,116,112,116,118,114,120,113,115,114,112,117,114,108,117,112,112,114,112,113,111,111,113,114,119,118,116,115,112,118,118,112,113,116,115,108,111,118,119,115,114,120,120,117,119,120,116,115,116,113,116,112,110,114,114,113
113,115,111,119,112,121,121,122,113,115,116,114,113,112,115,112,122,114,118,116,115,114,117,120,116,110,115,117,118,115,117,117,112,115,117,112,114,116,121,120,115,112,113,114,114,118,116,114,113,111,112,115,117,117,115,113,113,110,110,110
113,114,119,117,121,113,114,115,121,111,115,120,114,117,114,109,118,113,115,118,117,116,117,117,116,116,115,114,112,111,119,111,117,112,113,117,116,119,115,108,115,117,114,113,114,115,116,114,111,119,116,114,116,114,113,114,116,116,119,116
115,121,119,113,120,117,113,115,115,114,114,118,115,117,115,116,113,121,113,118,115,117,112,113,116,120,118,113,113,117,118,113,114,118,115,115,115,113,117,113,113,115,112,114,116,117,114,113,116,115,121,114,112,112,119,116,116,115,118,120
112,113,117,118,114,115,114,115,117,120,115,118,119,117,113,115,117,110,117,113,114,120,110,111,115,109,116,114,112,112,116,121,118,114,120,117,114,110,112,112,113,108,119,114,119,113,112,118,115,114,116,120,113,113,116,117,113,118,111,114
115,117,111,115,118,114,118,114,114,117,114,115,116,115,120,116,116,115,114,112,114,119,116,116,116,115,115,115,113,113,114,118,114,115,119,111,116,115,117,121,115,111,113,114,118,112,113,109,117,118,113,118,112,118,117,112,118,116,115,114
113,117,115,115,114,117,121,113,113,114,110,113,117,115,114,111,114,115,114,113,110,116,121,114,114,116,116,114,114,114,109,112,118,113,113,112,116,117,112,113,114,111,114,113,113,123,118,113,116,114,116,113,114,120,111,117,118,115,116,113
116,117,113,117,113,117,116,115,117,120,117,123,117,114,115,121,118,116,118,117,114,113,116,114,116,119,113,111,114,116,118,116,115,113,112,114,112,113,118,119,113,114,117,114,113,117,117,115,115,115,113,118,114,111,115,110,114,117,115,114
112,120,122,119,119,115,119,122,116,113,113,116,111,114,116,112,114,118,114,112,115,111,116,121,113,114,115,117,117,112,114,115,112,116,114,116,115,114,112,111,113,117,115,115,115,113,115,118,115,119,114,111,114,116,117,116,115,113,114,114
117,115,110,115,115,116,121,117,117,119,115,112,118,114,114,116,122,116,118,111,116,112,118,109,114,112,112,116,116,114,112,110,116,116,114,113,114,118,117,113,116,113,116,116,112,115,113,111,114,119,117,114,117,118,116,114,115,116,113,113
117,112,120,114,117,117,115,116,113,117,114,118,117,113,113,117,116,116,121,116,120,116,121,114,114,112,114,117,119,116,119,112,111,118,116,115,113,115,111,119,120,114,119,114,112,115,114,114,115,114,120,118,113,116,110,117,120,114,112,111
119,120,116,117,117,114,118,111,114,110,118,117,116,115,109,113,118,108,111,115,116,112,111,116,116,111,115,112,117,117,119,115,116,111,118,115,113,115,123,113,115,118,117,118,116,113,113,119,114,116,114,108,113,115,114,115,112,113,117,111
115,117,117,120,113,110,117,117,115,117,118,117,116,113,112,117,115,118,117,112,111,112,117,114,112,117,113,115,118,113,113,112,112,110,115,109,121,114,116,118,112,119,113,115,115,115,116,115,116,117,113,115,120,116,113,114,116,116,116,118
116,114,111,116,115,109,115,114,114,117,115,114,116,113,111,117,114,113,115,119,115,115,117,117,116,117,117,118,115,111,112,112,115,116,114,119,117,116,114,112,116,118,114,111,114,115,115,112,116,115,117,113,114,116,117,115,113,112,109,116
117,115,117,114,115,116,117,118,119,118,117,113,117,118,116,117,118,116,110,111,114,116,117,115,114,113,115,115,116,114,114,119,113,113,118,117,112,113,119,120,116,117,117,117,113,114,116,116,116,113,112,114,118,113,112,119,111,115,114,114
114,113,113,115,119,118,117,115,116,118,112,116,118,117,118,119,112,118,117,109,113,117,117,115,112,112,115,116,117,112,114,116,116,119,112,110,118,115,115,116,115,115,112,117,113,114,116,113,117,116,115,118,117,115,114,113,116,115,120,118
110,116,109,113,120,109,114,119,114,113,115,114,114,113,112,115,117,114,113,114,116,115,112,117,114,112,118,116,113,114,114,118,115,115,113,117,117,112,110,116,117,116,113,115,118,113,115,115,111,115,116,112,109,111,114,110,113,113,118,115
114,115,113,112,117,115,122,117,108,118,115,111,115,117,120,117,115,113,115,111,114,113,115,120,115,113,115,114,113,117,116,116,110,116,115,116,110,114,110,114,113,114,117,112,117,115,116,117,112,112,114,113,114,114,113,117,118,114,113,116
113,119,117,113,115,119,119,118,122,117,111,117,117,121,115,113,109,116,116,116,115,112,120,111,112,115,112,113,114,117,115,116,115,115,121,112,115,112,116,114,111,115,113,116,117,113,109,106,111,117,116,114,112,119,111,117,114,113,114,116
118,116,118,114,118,114,117,115,112,112,112,115,113,116,114,113,121,114,109,113,116,113,114,114,115,116,118,118,120,114,114,114,109,115,112,116,116,118,114,119,116,113,110,117,120,115,115,120,116,114,113,114,115,115,115,114,113,116,119,115
118,115,115,119,119,116,111,118,121,117,115,116,119,119,112,108,109,114,119,111,114,117,113,115,122,114,110,120,119,117,114,112,117,118,112,114,114,111,116,114,115,115,112,114,114,114,114,115,117,117,113,116,115,120,114,115,116,119,115,118
112,112,111,112,118,121,116,112,112,110,112,117,118,113,113,114,115,116,119,115,113,116,115,116,110,113,118,116,113,114,120,117,116,116,117,117,115,113,113,111,112,117,116,112,107,120,116,115,115,120,113,113,113,112,113,112,114,117,120,113
117,120,119,114,115,117,114,113,119,118,115,114,113,114,116,118,114,117,116,112,113,114,116,117,118,112,115,114,115,116,116,118,115,115,117,118,114,115,116,114,112,112,117,115,116,115,115,118,115,111,117,114,116,115,116,116,116,110,117,113
115,116,118,115,115,118,116,119,119,119,118,115,118,119,112,119,117,113,116,115,113,113,122,122,115,115,114,116,115,116,111,117,118,116,113,112,122,117,113,112,115,111,112,115,114,112,112,111,112,112,116,115,116,115,114,117,116,113,110,113
108,119,112,118,121,118,110,112,112,113,116,115,114,114,118,116,113,119,115,116,113,121,113,116,117,116,115,117,117,114,112,113,114,114,116,115,117,112,111,113,117,120,116,115,115,112,109,114,113,114,112,114,115,115,117,114,114,119,116,111
116,112,117,117,113,115,111,112,118,114,119,118,114,114,113,115,117,116,115,112,113,112,122,110,110,113,113,118,117,115,111,119,113,114,116,112,117,112,114,116,115,116,120,118,117,114,117,120,116,117,111,115,117,116,117,116,117,117,114,116
118,115,116,114,111,115,120,114,117,121,113,115,117,114,112,118,114,116,112,115,115,115,115,118,120,117,114,118,117,119,121,116,115,113,111,110,115,116,116,121,111,115,117,114,116,112,119,113,116,114,113,119,120,114,112,116,114,113,108,110
113,112,113,117,120,114,115,113,115,119,112,115,114,115,120,121,115,116,113,115,115,114,112,115,118,123,123,119,120,117,120,114,115,109,114,119,111,115,117,112,120,116,109,116,115,115,113,115,113,113,118,114,115,113,111,116,111,117,116,110
115,119,116,115,115,110,114,120,115,113,116,119,118,115,114,115,112,118,120,114,114,111,116,121,115,121,124,124,121,117,120,119,114,115,116,116,116,115,118,114,117,115,112,112,113,115,112,118,115,116,113,115,117,118,115,114,115,116,115,115
115,117,117,116,114,116,114,113,120,116,113,117,119,115,114,112,115,121,117,117,118,116,117,118,124,126,125,128,125,125,124,123,123,116,114,113,116,113,110,118,114,112,119,114,111,114,117,116,114,111,112,118,115,110,116,116,118,113,111,115
116,111,113,115,116,112,113,113,111,116,115,115,118,116,116,120,111,113,115,117,115,115,119,122,122,123,125,128,130,124,122,123,120,113,113,115,114,113,114,115,110,112,113,114,115,113,112,111,112,113,112,111,114,116,116,112,115,113,114,117
113,111,116,116,116,115,118,115,111,116,118,115,116,118,115,108,114,118,112,115,116,116,116,124,124,125,125,130,132,128,123,122,116,114,115,115,117,118,113,115,113,113,112,112,115,118,118,117,115,116,114,112,115,118,119,118,114,115,116,116
113,118,117,116,116,115,119,116,117,113,115,117,111,115,115,120,115,116,113,113,115,114,118,122,127,135,133,125,125,128,121,120,120,117,113,115,119,116,111,114,113,116,119,116,114,114,114,112,115,117,117,116,114,115,116,115,113,115,115,117
118,118,113,115,115,117,115,113,118,117,116,116,115,118,118,115,112,119,116,116,118,118,114,122,132,128,128,124,131,129,128,125,124,122,111,112,115,115,115,114,118,119,118,115,116,115,111,113,116,115,114,115,116,110,111,118,115,117,115,117
116,114,110,118,116,117,114,118,119,113,115,116,115,118,115,112,118,119,114,118,115,118,115,122,123,123,127,130,128,129,127,122,119,119,119,116,114,108,112,110,114,115,114,113,112,118,115,118,114,115,111,113,117,117,116,115,118,119,117,116
114,116,119,115,110,114,118,117,114,112,115,119,115,118,111,111,115,120,116,111,113,117,115,121,127,124,132,127,133,130,136,126,122,117,121,116,116,117,118,114,118,114,115,121,114,114,113,114,114,115,110,116,110,115,118,119,112,113,118,115
117,118,117,115,116,116,114,117,115,116,115,114,118,112,114,116,113,118,116,113,118,116,123,121,122,127,134,134,130,133,130,128,123,118,115,117,113,111,112,116,117,115,116,113,116,118,116,112,114,113,115,113,116,121,114,117,112,115,116,116
113,117,113,120,118,114,113,111,112,115,116,112,118,119,117,117,112,117,116,114,120,120,117,120,123,125,131,133,132,128,123,128,122,117,115,121,119,114,114,112,111,116,112,111,117,113,111,117,117,115,117,115,117,113,108,112,115,115,112,114
114,112,118,117,117,118,120,116,115,120,119,118,114,116,114,112,115,115,118,113,115,119,122,118,122,123,124,133,134,130,129,127,122,121,118,116,118,117,116,117,115,120,118,119,114,114,116,110,112,117,115,109,115,117,115,113,115,111,118,118
117,112,118,112,117,114,108,119,121,116,117,116,113,118,122,115,120,116,117,111,116,120,120,121,122,125,127,126,127,131,130,127,124,122,115,118,115,112,113,117,114,115,117,114,116,119,116,111,112,116,113,113,115,118,120,114,113,112,116,115
111,115,117,116,116,122,115,115,114,115,112,114,116,111,113,112,118,113,118,114,113,111,118,115,122,127,131,122,129,134,131,127,127,125,115,118,117,119,112,116,114,117,114,118,113,116,120,118,119,118,115,117,114,111,116,116,116,114,112,114
114,119,117,117,116,114,113,117,118,110,114,116,118,111,121,116,111,114,120,113,113,112,113,120,123,124,127,125,130,123,130,126,122,123,119,120,117,111,119,117,112,118,112,113,113,115,116,115,112,114,115,111,114,114,114,113,113,114,115,116
121,113,116,117,119,119,115,112,119,117,119,115,114,115,117,117,115,117,114,121,117,113,119,124,119,121,122,124,128,127,127,131,131,125,125,115,112,117,107,111,119,113,115,119,112,112,109,118,111,114,117,113,115,112,115,116,114,114,118,112
120,117,117,120,119,118,115,116,116,115,114,114,115,114,109,111,113,117,113,117,115,117,120,119,122,125,123,125,130,124,126,132,129,127,124,116,123,116,118,112,112,119,113,116,116,123,114,114,114,113,112,117,114,112,114,113,113,117,115,116
115,120,117,114,113,112,116,116,114,116,114,114,115,113,111,117,118,114,115,115,115,111,116,116,123,127,125,126,126,123,129,127,125,124,121,119,112,111,114,113,113,116,114,116,117,114,116,111,114,113,113,114,111,114,115,115,112,118,117,118
117,115,116,116,115,116,116,116,117,114,115,116,112,108,116,121,117,115,116,113,115,111,117,119,119,121,117,124,129,125,132,129,125,122,119,121,115,121,117,115,118,113,116,114,114,114,113,115,115,116,113,114,117,111,115,114,114,115,117,109
114,116,116,121,117,119,115,112,116,113,112,117,120,117,116,117,113,115,114,109,115,119,122,118,115,121,122,124,128,129,126,130,132,124,120,121,116,114,114,114,113,113,119,119,114,114,113,113,117,117,114,113,109,113,114,112,115,111,108,117
119,117,113,115,122,109,117,118,115,116,114,116,118,112,112,114,115,113,117,117,114,115,116,117,116,124,126,130,129,131,128,123,129,126,121,118,118,114,117,114,109,117,119,110,115,118,119,118,116,119,115,115,118,112,110,115,116,120,116,113
115,119,115,112,112,117,120,115,113,117,115,111,113,112,116,112,117,118,114,114,110,117,118,117,120,123,123,127,130,125,131,127,123,120,121,121,120,115,116,114,114,116,114,114,111,111,114,117,112,117,116,116,116,115,114,116,115,115,115,114
119,116,113,118,113,114,114,115,116,112,115,119,112,113,117,113,116,117,111,117,117,112,121,121,120,126,129,123,128,136,123,127,127,123,119,117,117,116,117,118,116,111,111,115,116,116,115,116,115,111,115,116,109,113,113,113,114,115,116,116
113,118,115,118,118,118,120,120,114,115,117,113,117,116,114,121,111,113,116,115,115,118,115,117,116,125,128,128,132,124,129,132,124,122,118,117,116,115,116,117,113,114,114,111,113,110,117,117,118,114,120,113,119,116,116,114,111,112,111,117
113,115,117,118,118,118,120,117,115,115,114,114,113,116,114,113,117,112,117,115,116,118,117,118,116,118,127,133,126,131,126,129,124,119,122,123,117,115,114,116,115,116,115,115,118,117,115,118,112,110,114,119,111,114,112,113,111,114,113,118
116,116,117,119,120,118,115,116,112,115,117,117,112,116,120,110,113,113,116,117,111,118,119,123,121,124,124,125,130,126,127,124,126,124,118,115,114,112,117,118,116,114,112,115,118,113,112,110,113,114,115,116,113,111,114,116,120,116,121,110
119,117,118,114,113,112,114,115,113,116,118,115,117,117,115,116,116,114,114,121,116,114,118,117,120,126,125,126,133,130,130,128,123,121,116,117,118,115,114,115,113,114,117,116,108,114,115,111,116,113,112,113,118,118,113,115,115,112,107,112
118,117,112,114,118,118,120,118,112,112,118,117,114,118,108,117,119,117,116,114,114,115,115,120,121,125,129,128,129,128,132,128,122,119,119,118,111,115,113,111,117,117,113,112,116,115,117,116,113,117,114,109,114,119,111,111,111,112,114,113
117,114,110,116,112,113,113,117,115,115,109,118,118,113,117,116,117,115,115,113,116,119,122,118,121,125,126,125,124,128,131,128,126,124,123,119,117,112,112,115,115,114,114,115,117,116,110,114,116,114,111,115,114,116,118,113,115,113,114,117
112,117,115,114,118,119,112,111,112,113,109,114,110,114,114,116,111,116,116,113,116,108,117,122,124,124,126,125,123,127,129,128,124,124,122,121,120,121,114,109,114,122,113,116,115,115,113,115,120,114,117,112,112,107,116,115,117,115,114,113
114,119,115,114,112,117,114,119,119,113,119,115,117,114,117,117,114,115,114,114,113,124,113,117,124,128,132,127,127,126,121,126,126,122,119,115,117,117,116,115,114,116,116,115,116,115,112,112,113,115,118,109,115,117,117,116,117,118,116,117
113,112,115,117,114,112,119,113,111,116,118,113,116,118,118,117,116,116,118,114,113,116,117,123,121,126,128,127,125,128,129,120,123,123,114,117,116,110,116,116,113,114,112,112,113,112,114,116,117,120,119,117,121,116,116,112,117,116,116,114
112,112,113,115,119,118,115,112,114,118,117,113,111,114,115,117,117,117,117,116,115,116,116,116,118,122,127,125,127,125,125,123,117,121,117,114,114,112,119,113,115,116,115,116,114,115,115,113,117,116,113,111,111,115,118,110,116,116,114,113
117,118,114,116,111,112,113,114,117,110,112,119,117,118,116,111,115,111,111,115,113,117,119,116,117,127,132,128,129,124,128,122,121,125,120,115,117,121,119,115,115,116,117,114,116,115,119,113,111,114,117,116,115,118,114,113,116,116,116,115
110,118,117,113,121,117,116,120,115,111,110,116,116,111,111,109,111,117,115,118,115,112,118,120,120,124,132,130,130,129,122,122,122,122,118,115,115,113,114,114,113,113,114,114,115,113,114,119,114,113,111,114,118,117,112,112,114,115,116,117
113,112,118,113,112,115,116,118,112,119,114,117,116,120,113,117,113,118,120,111,115,118,119,123,123,122,124,128,132,128,121,124,116,115,116,112,116,115,120,115,114,118,115,118,118,115,114,112,116,116,111,114,119,116,116,114,110,111,113,115
116,116,117,114,115,114,118,114,118,114,111,115,113,116,117,118,117,115,115,115,118,115,113,119,122,123,122,126,123,120,124,122,121,117,118,114,113,118,120,118,119,119,119,109,111,116,114,112,112,112,114,114,116,113,113,115,110,114,114,113
117,117,113,114,120,118,117,118,116,114,114,114,119,114,117,113,114,116,115,116,118,116,112,119,118,125,122,131,123,118,124,120,122,117,117,112,117,113,112,116,118,118,115,113,115,112,116,112,114,116,115,117,116,114,116,111,110,112,116,117
116,117,118,118,116,116,110,116,112,119,119,111,114,115,112,115,111,115,113,118,117,118,114,116,117,118,115,121,121,119,120,119,116,114,115,122,115,117,113,115,116,115,112,116,119,114,116,113,116,117,119,112,115,119,116,111,113,112,113,111
115,114,112,115,116,118,116,114,116,114,112,113,114,119,114,117,116,114,115,116,116,118,113,114,116,115,113,116,116,116,119,116,111,111,111,119,115,113,116,114,116,113,114,115,109,116,118,116,108,114,111,113,113,109,113,115,115,114,119,118
116,115,118,117,115,118,117,115,118,117,118,116,111,116,119,114,112,115,117,117,112,119,120,114,116,120,115,119,119,116,118,118,118,118,115,110,114,113,118,114,116,116,113,115,119,116,115,113,112,116,115,113,112,116,112,115,119,113,108,117
115,117,122,117,114,118,116,116,114,114,115,115,117,118,111,110,110,115,118,117,113,114,115,114,116,118,119,116,116,112,113,116,114,113,119,116,116,115,114,116,113,112,116,113,116,113,116,114,112,115,117,112,111,117,111,113,113,111,112,113
118,113,114,114,115,116,119,112,111,114,112,115,118,112,114,120,117,115,115,115,115,110,111,114,115,115,118,117,114,115,115,116,114,115,112,110,115,117,113,112,116,118,114,115,113,108,113,115,114,112,114,114,110,114,116,116,115,113,113,121
113,114,115,114,116,112,113,116,116,122,117,113,116,122,117,113,114,117,113,112,112,114,114,111,114,113,117,114,115,114,112,117,117,115,111,113,114,111,114,115,116,117,115,109,112,114,113,115,115,117,116,114,116,112,116,117,113,118,110,106
115,116,118,118,118,116,116,117,113,121,117,114,108,121,112,116,115,114,118,117,120,119,121,115,116,119,107,112,114,116,116,117,115,118,116,114,116,113,113,115,112,115,116,111,116,115,117,115,116,113,113,113,115,114,116,113,111,113,118,115
118,116,116,113,120,118,112,114,110,116,118,118,119,113,119,114,117,113,118,115,113,119,116,119,113,114,116,117,115,111,113,119,114,114,115,113,116,115,116,114,117,111,116,111,116,114,117,114,113,116,119,115,116,117,113,117,113,112,113,113
115,114,116,115,116,119,116,113,117,116,117,113,113,114,113,113,115,118,113,118,113,115,115,117,117,113,114,114,114,116,113,116,114,113,112,113,114,113,112,114,113,113,114,118,116,115,115,116,114,112,113,115,112,114,111,118,114,115,115,114
115,116,116,118,118,113,114,113,115,115,116,114,113,118,116,115,115,112,111,117,114,111,109,113,113,112,110,115,119,115,116,115,116,116,120,116,115,116,117,113,111,111,115,115,120,115,116,112,112,115,119,112,112,113,115,111,115,117,114,118
114,115,114,111,114,114,114,117,116,118,117,113,118,117,115,113,116,115,113,114,116,115,114,115,113,120,117,118,116,115,115,112,115,114,114,111,111,115,119,118,117,117,116,115,115,114,115,113,113,116,108,118,115,110,115,114,119,113,117,110
116,115,114,119,116,117,115,119,116,113,114,116,116,112,116,113,114,117,112,116,118,117,117,117,114,117,116,112,112,111,113,113,115,116,116,118,117,116,117,113,113,116,114,117,113,114,118,115,112,116,116,111,116,113,113,110,118,122,119,117
116,117,112,114,113,114,118,116,115,115,111,112,116,116,114,115,117,116,114,112,118,115,113,116,114,115,118,111,115,113,115,116,120,118,116,114,113,112,114,114,116,117,113,113,116,116,114,114,115,114,119,116,114,115,113,111,113,112,114,112
111,119,111,114,115,112,111,115,114,111,114,110,115,113,119,118,117,114,119,113,113,115,111,120,116,110,113,111,114,117,114,117,113,112,114,114,114,111,115,117,110,112,115,115,116,117,115,116,120,116,113,114,113,114,114,116,117,116,111,113
117,116,118,118,115,119,119,111,112,118,121,112,111,122,115,112,112,119,110,121,113,112,111,116,114,113,118,114,112,117,111,120,115,113,115,120,115,117,115,115,117,113,120,121,112,115,111,114,112,114,115,115,115,116,114,114,112,116,112,114
113,114,116,114,112,118,115,116,117,118,111,113,114,111,110,114,115,119,118,116,117,118,116,109,119,114,115,115,112,109,114,112,118,114,115,116,115,115,115,118,120,116,115,113,115,115,113,117,118,116,112,115,120,117,111,114,114,116,114,111
113,111,108,116,117,116,114,119,117,116,115,114,116,117,116,116,113,112,109,110,119,116,116,112,116,111,116,112,112,119,116,109,116,115,112,116,113,117,116,113,118,112,109,117,113,119,119,111,113,114,112,114,118,112,113,113,111,114,118,116
116,110,115,115,114,113,118,118,114,111,112,114,113,115,115,116,114,112,119,117,115,118,114,112,110,112,113,121,119,119,116,118,114,114,118,115,115,115,115,114,116,113,114,116,109,115,115,112,114,112,113,112,113,118,113,111,110,115,115,116
113,114,115,115,119,118,115,117,118,115,117,113,112,112,110,116,115,109,113,114,112,116,114,116,118,113,113,119,117,113,112,118,116,112,115,114,117,116,115,113,111,114,116,113,119,117,116,113,115,115,108,116,117,123,113,116,115,114,116,114
116,115,115,116,112,116,119,114,116,115,114,115,115,113,115,114,114,114,113,116,112,114,118,116,118,117,115,111,115,112,110,114,114,114,117,115,118,119,118,116,115,114,111,115,118,111,113,113,111,115,120,117,116,119,116,116,115,114,116,113
115,114,122,111,118,113,114,114,112,110,108,120,116,117,117,117,116,116,112,115,118,118,115,115,120,116,114,116,115,115,117,112,115,113,116,117,115,114,116,117,113,121,119,116,114,111,112,115,118,114,113,118,118,116,113,115,119,113,114,119
113,117,110,109,117,114,112,116,114,112,118,119,118,117,115,117,114,116,115,118,114,117,114,116,111,115,112,115,113,117,117,111,116,112,111,111,119,117,114,112,116,113,111,115,116,117,111,111,115,117,115,113,114,111,113,116,114,114,115,117
115,117,115,116,113,114,114,115,121,118,111,113,113,115,113,113,110,117,113,111,113,119,113,109,113,112,114,112,111,116,115,114,111,115,114,115,118,113,114,110,116,115,113,115,112,114,115,110,116,110,115,113,110,111,114,116,116,113,109,113
117,116,113,114,112,115,115,114,115,118,116,117,117,112,114,115,116,118,117,113,114,112,112,111,110,113,115,120,114,118,114,114,114,117,114,115,113,116,114,119,112,114,115,117,113,114,115,111,116,117,113,115,109,115,114,113,116,112,116,111
114,115,114,115,112,114,116,116,112,112,111,113,114,116,117,119,118,117,119,117,112,117,118,116,115,117,113,114,116,110,114,112,114,114,115,107,114,117,115,116,116,112,115,116,116,116,115,113,113,114,116,119,113,109,114,116,113,108,116,118
111,112,115,117,117,116,117,117,116,115,116,118,114,113,118,119,116,115,113,117,120,115,115,116,114,112,116,114,115,112,117,117,117,115,114,114,114,113,113,116,116,118,114,115,116,113,113,112,118,114,112,115,118,112,113,117,112,117,115,117
118,109,117,118,118,116,112,116,115,112,114,115,113,118,116,111,112,115,117,114,113,113,114,117,112,108,112,113,115,114,115,116,112,113,111,114,116,115,113,116,118,113,111,113,118,113,113,111,112,116,119,114,113,115,114,112,114,116,113,117
118,115,115,113,113,114,110,117,114,118,115,114,115,116,113,113,113,117,118,114,116,114,116,116,116,118,119,118,112,116,113,114,116,119,117,110,115,116,118,118,114,112,115,112,114,112,113,116,119,116,115,118,116,117,116,112,117,114,112,113
113,114,117,114,114,110,116,118,111,114,117,121,115,117,116,116,113,111,110,117,116,115,115,112,113,115,114,113,113,116,115,117,120,115,115,114,109,112,117,110,110,119,117,115,116,113,116,115,110,110,113,116,114,112,114,118,117,115,115,117
113,113,118,117,115,115,118,114,111,115,115,112,115,115,117,114,112,111,116,113,118,118,112,112,113,115,120,115,117,116,117,115,113,113,115,114,114,113,112,117,114,115,117,111,118,114,115,112,113,117,115,111,111,113,114,111,111,113,119,119
119,116,111,119,119,117,113,113,113,113,113,114,114,114,115,115,115,115,114,111,113,114,110,115,113,112,112,114,112,115,116,111,111,120,116,117,114,111,118,119,112,115,118,114,112,114,115,115,121,114,116,114,115,116,114,112,116,114,111,115
115,114,113,116,113,119,118,118,115,113,109,116,114,112,113,117,116,118,118,118,112,116,111,112,112,116,111,117,117,116,116,116,114,113,118,116,116,115,117,112,114,110,118,115,113,118,115,117,113,114,109,112,116,114,114,117,112,119,118,110
118,119,113,118,113,109,113,117,118,115,112,115,116,117,114,115,115,115,113,114,117,114,114,113,116,117,122,113,116,116,118,117,115,119,114,113,114,116,117,111,118,115,112,112,115,116,116,118,111,109,110,119,115,115,114,115,113,112,110,112
114,117,112,116,115,114,115,110,112,113,111,118,117,112,114,114,114,112,116,115,119,120,113,116,117,112,115,115,112,115,120,119,114,107,114,117,117,113,117,109,112,117,114,111,113,116,114,112,114,117,113,116,114,117,114,116,118,115,105,116
112,117,116,112,114,117,118,111,113,115,111,117,116,116,119,116,113,115,114,116,116,114,112,113,113,115,112,114,117,116,117,114,113,113,115,116,120,116,116,117,114,112,114,113,114,117,113,115,113,114,116,115,113,112,115,116,114,113,114,111
116,115,113,117,119,112,117,113,115,116,117,110,113,117,114,115,111,114,115,116,109,112,115,114,113,113,113,114,113,113,116,115,112,114,119,115,114,118,117,120,116,114,116,118,114,116,118,114,113,115,115,115,112,113,117,114,114,115,115,116
114,120,119,118,110,115,117,115,115,112,117,113,112,110,117,114,114,114,115,120,118,111,117,114,114,117,117,114,116,112,114,118,113,116,115,116,114,111,113,116,111,112,113,118,118,114,114,114,112,114,114,112,112,115,115,114,116,121,117,114
