39,50,61
117,120,120,115,120,121,121,122,117,117,121,122,120,122,117,111,111,107,109,106,111,105,110,110,104,107,109,102,107,108,107,111,110,105,106,106,103,109,106,108,109,107,106,106,110,110,107,107,106,103,107,106,105,106,104,105,103,108,108,106
120,120,120,119,120,116,119,122,115,116,115,119,119,115,118,115,116,113,109,108,107,105,106,106,111,107,98,105,109,106,105,105,105,106,104,108,109,109,103,107,110,102,106,108,109,109,104,107,110,105,106,109,105,107,106,105,105,109,110,104
123,119,124,120,116,119,115,115,120,121,115,122,120,117,119,117,114,110,106,108,108,111,107,106,112,107,108,110,104,112,109,108,106,105,110,108,107,107,108,111,105,106,106,107,108,108,106,109,107,108,110,109,109,109,106,107,108,104,108,108
118,123,123,117,116,116,113,115,123,114,121,121,116,120,117,113,111,108,111,110,106,106,111,107,105,108,111,110,106,107,107,107,107,104,106,109,110,111,107,104,105,107,103,110,108,107,110,107,107,111,107,108,104,113,110,104,109,105,108,108
121,119,118,121,118,115,117,121,117,116,120,114,119,118,114,117,118,107,115,108,111,110,106,111,106,104,105,103,109,107,112,105,109,109,106,107,111,111,109,103,105,111,107,106,103,104,107,108,103,108,108,107,107,107,107,104,104,103,109,106
116,122,119,116,119,122,116,118,118,115,115,115,120,120,115,119,120,111,108,106,113,106,106,109,106,106,110,106,113,109,108,107,108,105,109,106,106,110,106,106,108,111,106,107,111,104,106,111,108,104,108,108,107,105,109,105,108,104,103,109
116,120,118,116,115,117,120,117,118,119,119,119,116,118,113,113,111,108,106,109,111,109,114,107,113,111,111,106,108,108,109,108,107,106,108,106,104,107,106,108,103,106,106,107,113,105,109,107,107,107,108,106,107,106,104,105,111,109,107,107
111,119,120,120,120,119,122,124,114,123,121,120,118,118,112,117,116,111,107,111,110,107,105,109,109,107,106,111,107,105,102,104,111,107,107,108,108,107,106,106,106,106,108,107,106,107,114,107,110,108,103,107,107,108,108,108,107,107,107,103
114,116,113,116,116,119,119,123,115,119,118,117,119,116,117,118,112,112,110,112,104,112,105,108,105,109,105,108,108,110,108,106,111,109,107,107,109,109,109,110,107,107,109,104,107,112,108,111,110,107,106,106,111,108,106,110,109,109,106,105
113,116,118,120,121,121,123,122,119,121,121,116,123,122,120,112,113,112,110,111,109,104,112,108,109,111,107,106,106,108,109,103,104,108,105,108,113,109,108,110,108,108,107,107,107,109,106,110,108,105,105,108,109,106,110,111,104,107,105,106
111,112,113,113,120,120,119,119,124,122,122,123,119,121,118,114,111,116,113,108,110,109,108,107,105,110,111,109,102,104,109,106,104,103,107,109,107,107,106,106,106,109,112,106,106,111,112,107,106,106,107,111,108,105,108,104,106,106,105,111
111,107,114,114,119,123,119,123,124,122,122,122,118,121,118,121,112,114,111,108,109,109,105,106,105,103,108,108,105,109,108,108,108,108,108,102,108,113,108,108,107,105,108,107,103,108,109,111,109,104,112,104,104,107,105,108,107,102,105,109
112,109,115,114,116,119,115,126,122,125,125,118,122,121,114,115,110,111,110,108,109,109,105,106,110,106,108,111,106,110,107,106,108,105,107,107,108,105,107,109,106,109,106,107,105,103,108,106,110,112,108,105,108,106,108,111,107,111,106,109
107,109,112,115,108,115,120,124,123,121,123,126,116,122,116,119,114,115,108,113,110,110,102,110,110,110,105,110,104,105,103,111,109,107,102,105,107,106,106,109,107,111,106,109,110,103,107,110,108,108,103,107,109,108,110,109,102,105,106,107
108,113,107,114,113,114,123,122,118,124,123,119,120,125,117,111,115,111,107,110,107,108,107,108,107,106,109,106,111,107,112,109,108,107,105,105,112,106,106,111,105,104,106,106,103,104,105,108,108,110,108,109,108,107,107,105,106,105,107,109
111,107,108,115,110,109,118,117,115,126,119,120,118,119,116,111,110,107,107,107,110,109,111,107,109,110,110,108,113,108,108,108,108,104,111,105,106,109,105,107,108,110,106,106,104,105,103,107,107,112,106,105,109,106,107,106,103,107,107,107
111,106,104,108,111,112,113,121,120,122,119,122,114,123,115,109,116,110,108,108,113,109,107,107,106,109,112,111,109,109,107,109,106,109,108,106,109,111,102,105,109,114,106,107,111,104,110,107,106,110,110,98,106,108,106,113,110,110,105,105
108,107,111,111,107,113,116,114,123,119,117,115,115,118,111,112,107,109,109,109,111,113,104,107,108,108,110,110,109,108,103,107,109,114,107,107,113,107,106,105,110,108,105,108,108,107,110,111,109,106,107,113,105,105,108,108,102,106,109,107
109,108,105,109,107,108,111,114,120,116,118,115,112,113,109,113,114,108,105,105,107,109,106,110,106,107,108,111,107,107,106,111,110,107,104,106,114,109,108,110,111,108,105,109,108,109,107,106,107,105,107,110,106,109,110,105,106,108,105,108
109,105,114,114,109,108,112,116,115,110,111,114,107,110,111,110,111,109,106,108,114,106,106,109,110,107,107,108,109,106,111,110,107,108,110,108,108,107,108,110,107,105,107,111,107,111,105,104,107,109,109,107,107,107,106,107,106,108,106,107
108,110,110,109,111,108,106,109,107,111,109,112,106,106,108,107,109,111,110,108,109,111,104,107,111,107,106,108,112,108,107,108,108,107,111,107,106,108,106,108,109,106,112,104,107,108,104,110,108,111,111,107,104,106,107,112,109,106,106,104
110,112,108,112,110,110,108,109,112,113,115,111,105,109,109,111,104,112,104,112,106,107,107,109,114,112,108,107,106,111,111,108,109,107,107,109,111,109,109,109,109,105,102,105,110,103,104,108,108,108,107,102,107,112,105,111,109,107,106,105
104,107,107,113,108,106,110,111,109,110,106,111,108,112,114,108,110,109,107,107,110,110,110,110,113,108,109,107,113,108,109,110,106,111,108,110,107,108,106,107,107,110,107,107,109,110,113,106,107,112,113,109,109,107,103,111,103,109,104,106
109,111,107,111,106,107,109,110,112,112,110,111,111,111,113,107,109,107,112,111,104,108,108,109,111,108,110,110,110,110,107,111,110,115,106,111,104,110,105,106,108,109,111,108,108,109,111,108,109,109,102,111,108,104,107,107,108,112,108,108
112,108,106,106,112,109,110,106,109,108,105,103,109,108,109,111,105,107,111,111,107,108,111,109,108,107,107,111,110,110,110,108,108,111,111,109,111,110,109,107,112,109,112,105,107,109,108,105,104,110,109,112,108,106,113,107,111,110,106,105
110,105,106,109,109,105,105,106,103,108,109,107,109,105,104,113,107,105,112,109,105,110,113,111,107,111,115,113,111,111,112,112,110,110,111,109,111,109,110,112,110,109,112,106,109,109,107,108,108,109,108,110,104,104,109,102,107,109,105,103
111,105,107,109,105,111,107,105,107,106,105,110,111,102,109,111,108,107,109,106,105,116,111,110,112,116,114,107,114,115,115,111,112,116,114,112,107,109,114,110,109,104,107,108,108,110,106,106,109,104,108,109,108,104,106,109,107,108,103,114
108,108,109,109,106,104,106,108,108,107,111,109,111,107,103,107,108,110,105,108,117,110,111,118,108,115,114,115,113,116,119,115,119,114,113,111,109,109,110,104,110,109,108,109,106,108,111,107,106,107,111,109,109,107,107,109,107,104,108,105
103,106,111,106,107,107,108,110,111,106,107,111,107,107,107,109,110,107,108,106,114,111,112,115,114,117,116,117,114,123,117,117,112,112,113,110,109,112,109,109,107,109,108,108,105,103,106,110,106,107,108,111,108,104,108,111,107,107,106,103
107,105,107,104,110,101,105,110,105,108,108,106,107,109,111,114,114,107,111,109,108,114,117,113,116,119,123,121,121,120,118,118,113,115,116,112,114,114,109,112,111,108,110,106,103,111,103,108,113,110,107,107,111,106,109,109,108,111,109,107
108,106,106,110,108,109,106,108,105,108,106,107,108,109,108,108,111,108,109,106,115,111,115,116,115,121,128,123,126,125,124,118,117,119,113,114,114,113,111,111,109,110,109,109,107,105,108,106,110,106,109,108,113,107,107,109,102,104,111,105
106,106,103,107,107,109,105,109,107,108,106,110,108,110,109,108,111,108,110,111,117,114,114,118,124,122,125,128,126,125,125,121,125,123,116,120,111,109,113,111,111,108,108,107,104,105,109,108,106,109,106,108,108,113,104,111,111,103,105,107
108,108,106,110,113,113,105,111,107,105,106,108,110,108,108,110,108,111,112,111,112,115,119,118,127,127,130,128,128,129,133,128,118,129,119,120,115,111,112,107,115,107,109,111,107,107,106,110,109,107,106,106,107,109,101,107,109,106,110,108
108,106,105,112,111,106,106,107,109,104,103,108,109,110,110,109,110,112,109,112,115,113,123,128,129,130,126,132,131,130,127,126,127,127,125,121,119,111,106,113,112,116,105,107,108,108,108,112,108,110,108,108,106,108,100,105,109,104,105,105
107,107,106,112,104,104,108,107,109,109,107,108,111,101,114,108,111,108,113,111,115,117,117,127,127,131,130,132,132,132,133,126,126,127,123,120,118,112,112,113,111,106,107,111,110,109,110,111,109,108,103,107,109,109,109,106,114,99,104,106
109,106,107,107,104,106,108,111,107,106,109,109,114,103,109,108,109,108,110,114,118,120,124,129,128,134,132,137,134,134,129,131,125,124,120,119,119,115,114,113,113,109,111,107,106,109,107,111,113,108,106,107,107,103,104,108,112,104,107,106
106,108,111,103,106,108,113,112,110,109,110,106,110,108,108,112,109,113,114,112,120,119,124,128,131,134,134,129,132,132,130,134,128,127,129,134,119,110,114,111,112,115,108,113,109,105,108,109,106,111,109,105,106,110,110,106,111,110,109,103
107,111,107,105,111,104,108,109,110,106,107,110,110,109,109,110,107,112,111,110,116,116,122,130,132,131,136,137,127,133,131,124,135,131,133,123,123,112,120,115,110,113,109,107,107,107,110,108,107,110,110,107,109,111,115,102,106,109,113,108
109,107,104,109,105,106,109,109,108,108,110,115,112,112,106,107,112,115,106,114,118,119,125,132,131,130,132,136,129,131,133,128,132,135,130,126,124,117,120,113,112,110,109,108,115,103,109,106,106,110,108,107,106,108,108,106,110,111,110,105
108,107,106,103,108,107,110,109,110,108,109,112,111,105,107,112,114,110,109,116,116,118,128,132,139,136,130,133,134,131,134,134,129,133,131,124,120,118,113,113,114,109,109,109,108,110,107,105,105,111,108,108,110,109,102,111,106,108,107,107
106,108,108,109,111,107,104,112,114,106,104,113,112,112,109,108,111,112,111,115,115,124,125,130,138,135,139,134,138,132,135,136,136,135,131,126,125,117,116,111,112,109,111,112,108,108,108,105,105,109,107,108,108,107,105,108,111,109,109,110
110,105,103,111,109,111,105,109,108,109,105,110,106,110,109,105,111,108,111,117,119,119,122,138,131,137,137,136,131,135,136,137,139,142,130,128,119,119,123,111,118,110,111,108,110,106,105,111,107,108,111,109,108,105,106,109,111,108,110,109
104,110,106,106,101,106,106,105,107,106,108,107,109,105,112,111,109,105,114,110,116,123,126,131,131,140,133,136,137,136,132,139,138,137,131,129,121,119,111,111,114,113,110,106,103,105,106,109,111,107,108,105,107,107,111,106,103,106,103,106
112,109,107,112,106,104,110,107,107,109,108,105,107,109,109,110,108,115,113,111,118,122,129,132,126,132,134,133,132,136,138,136,139,135,131,130,123,116,115,113,115,111,111,104,111,111,107,105,110,107,109,109,109,111,109,107,103,110,107,111
104,106,109,110,107,106,108,108,107,104,103,108,111,107,111,112,105,113,115,115,115,126,130,132,135,141,134,131,131,136,135,137,138,134,135,132,124,118,116,110,109,110,113,109,108,110,109,109,113,109,106,106,109,106,109,109,106,105,105,109
110,104,109,109,105,106,106,110,109,108,108,110,111,107,111,106,109,105,109,110,120,122,128,134,137,134,130,133,130,133,134,139,131,138,141,131,126,117,114,116,115,111,110,109,105,108,106,108,113,110,105,106,110,109,107,107,106,111,106,110
106,105,108,106,107,105,101,113,107,110,109,107,110,107,109,109,110,113,109,112,121,124,130,136,131,136,141,132,129,133,130,140,132,143,130,125,128,116,120,117,108,110,114,108,108,110,106,107,107,108,105,106,111,109,106,106,104,104,104,108
108,104,107,111,110,106,110,103,110,112,103,107,108,111,108,111,113,113,113,117,118,127,130,133,134,137,135,130,130,136,133,129,135,140,133,126,124,123,112,113,110,112,112,109,108,108,109,109,109,107,105,106,109,109,112,109,107,108,107,103
102,106,110,112,109,109,110,108,110,106,104,107,107,109,109,112,113,107,111,118,117,127,126,136,141,138,126,131,135,132,135,129,137,138,134,132,119,122,118,110,111,114,106,112,112,111,107,110,106,108,110,104,108,109,107,107,106,110,104,106
105,111,105,107,113,108,104,110,115,110,109,109,108,107,109,109,109,114,109,117,116,125,131,138,138,130,130,130,134,134,131,132,135,137,135,131,118,119,115,109,112,112,107,107,109,112,107,105,106,109,113,109,103,108,106,110,109,107,105,107
111,108,107,115,111,109,108,107,112,106,104,105,110,112,110,111,112,111,113,118,122,125,127,129,134,135,132,130,132,129,135,131,137,138,133,127,115,114,112,111,109,112,109,109,102,109,108,109,108,109,105,105,107,107,107,108,111,106,108,107
110,110,108,107,106,106,111,107,106,104,107,112,108,107,114,111,109,109,111,116,118,122,128,127,130,134,136,134,129,132,134,132,135,128,130,125,117,114,109,109,109,115,103,108,109,107,108,113,107,107,106,109,106,109,106,105,107,110,106,105
109,111,107,108,106,107,112,104,102,110,108,107,111,110,111,106,111,115,111,115,119,125,132,128,130,135,133,135,128,124,130,130,130,132,133,126,121,115,112,112,113,109,107,112,107,107,113,109,106,108,111,109,112,111,104,108,110,104,106,110
105,111,107,110,109,107,106,104,108,111,108,108,110,107,109,111,112,114,116,114,123,125,130,129,135,130,133,130,131,126,128,134,135,136,131,129,122,113,112,107,110,112,106,107,110,109,104,109,112,107,108,109,107,107,107,107,112,106,108,105
108,108,107,108,109,105,109,114,110,108,108,108,109,109,113,109,111,115,114,114,125,132,128,129,134,141,125,126,130,132,133,133,131,136,129,126,121,112,109,111,110,113,107,109,109,106,108,107,111,105,106,109,101,105,110,109,111,105,103,109
107,109,111,107,112,111,105,108,113,107,107,109,107,111,113,111,107,114,118,117,120,126,127,134,132,136,128,129,128,128,131,134,134,133,128,127,118,118,111,114,104,114,108,107,106,109,107,109,108,109,110,105,108,110,111,110,105,107,106,107
110,107,104,112,107,108,105,109,112,106,104,105,106,111,106,112,111,111,114,113,119,123,130,133,130,132,134,129,127,129,132,135,132,128,129,126,117,116,114,113,106,106,109,108,107,110,103,110,108,111,107,109,102,104,107,109,107,110,111,111
109,107,109,109,106,109,111,107,105,106,106,108,106,106,109,117,108,109,112,115,124,121,130,133,130,132,130,133,133,132,132,132,134,131,126,122,117,113,116,112,109,109,109,103,108,105,106,108,111,107,104,108,105,107,109,110,110,102,112,108
107,108,110,111,107,106,108,109,107,107,108,111,112,109,113,112,106,114,113,115,117,123,124,138,128,130,129,129,126,128,126,135,139,131,129,122,122,114,107,108,111,106,108,107,107,110,108,104,106,109,108,105,107,107,108,104,108,106,108,110
105,110,108,104,106,108,106,109,108,106,112,108,110,111,110,111,112,112,113,119,118,123,126,132,130,126,129,132,129,126,129,131,132,131,127,123,116,113,108,105,108,103,106,106,104,112,109,111,108,109,111,103,103,106,107,110,107,107,108,107
107,105,109,109,110,106,107,111,110,107,107,111,107,107,109,108,112,110,113,115,118,125,125,130,131,130,131,132,128,130,132,126,137,130,126,124,116,113,113,110,108,112,110,113,107,106,104,107,107,105,114,110,108,107,105,108,107,109,106,104
105,109,104,107,108,100,108,108,108,107,108,110,106,110,110,109,111,112,112,117,120,121,119,131,134,131,129,124,130,132,127,125,133,131,125,124,117,111,107,111,109,107,114,114,109,105,113,111,108,111,105,105,111,107,105,110,108,108,106,111
105,106,109,107,109,110,105,105,108,109,110,109,105,108,107,107,105,104,113,120,113,116,128,128,134,129,132,124,130,130,128,134,138,128,127,123,118,111,108,110,111,110,110,109,111,108,106,104,108,113,108,107,106,109,108,109,104,108,106,111
110,105,114,107,104,110,109,108,111,110,107,107,107,107,107,113,110,106,116,116,116,119,128,128,134,130,128,127,133,128,131,134,136,126,130,120,117,108,115,110,108,111,110,108,109,106,107,105,105,107,108,112,106,106,107,109,108,108,107,109
108,104,113,106,108,111,108,109,111,108,106,109,110,109,107,110,107,109,114,112,115,122,126,128,134,135,126,124,132,126,130,132,136,133,126,124,114,112,117,110,110,110,109,110,106,108,107,107,105,107,109,109,106,109,108,103,110,108,109,106
111,110,109,110,107,104,106,108,110,106,107,109,107,110,104,107,107,109,112,113,118,117,124,130,126,134,128,130,135,128,130,135,135,133,125,124,114,114,111,108,108,113,106,110,109,110,109,110,108,109,103,106,109,108,108,108,109,111,108,109
108,106,106,109,107,108,107,105,109,109,109,108,106,109,106,104,109,110,111,114,114,114,122,126,128,133,126,130,132,130,129,133,129,134,133,123,117,113,110,109,109,109,106,108,107,109,108,105,107,106,108,104,106,112,108,105,107,109,110,106
105,105,108,109,109,107,109,108,106,106,110,108,105,108,110,109,110,109,112,110,112,117,117,124,131,133,136,133,126,127,127,136,133,134,128,123,113,111,107,112,108,103,108,106,106,108,110,108,109,106,110,110,108,107,109,107,105,105,107,108
104,108,108,110,108,107,105,110,109,106,109,112,105,109,110,103,106,107,110,110,111,116,120,125,125,132,135,132,130,129,129,125,127,130,122,121,118,109,105,111,107,108,108,103,109,114,106,110,111,108,104,107,109,105,106,108,108,109,107,106
109,108,109,110,106,108,109,109,108,108,107,107,106,107,111,105,109,108,107,108,113,115,115,117,120,128,129,128,127,131,130,122,128,122,118,115,111,113,108,105,109,110,109,104,110,111,106,108,105,106,105,110,112,103,108,105,106,106,110,105
107,106,111,109,110,106,107,105,108,107,108,105,110,111,109,111,110,103,108,108,111,112,113,120,124,123,122,124,125,124,123,119,120,121,114,116,113,109,111,110,107,108,108,104,112,109,105,107,109,112,108,107,108,105,111,110,109,109,107,111
111,105,104,111,114,111,109,106,110,107,103,107,110,110,109,112,108,109,113,108,111,113,113,112,118,120,126,128,127,121,117,124,119,119,114,115,118,111,110,109,111,109,106,106,107,111,109,108,106,109,108,104,106,104,110,109,108,104,105,108
107,109,105,109,110,112,108,108,108,108,106,107,109,111,106,104,107,108,110,110,108,108,115,116,109,113,119,114,115,119,121,122,116,112,118,111,109,106,110,111,113,105,107,106,109,109,106,108,108,110,110,108,106,106,108,109,107,106,111,104
108,109,106,104,106,103,110,110,106,110,106,111,109,108,108,106,107,111,110,107,110,109,112,112,109,108,117,120,116,118,117,114,117,111,115,110,110,106,108,104,105,105,107,107,108,107,105,107,110,103,106,106,100,105,109,110,108,109,110,109
109,107,108,107,108,108,106,106,107,106,106,114,107,110,108,107,112,101,109,107,106,108,111,108,109,111,113,115,112,110,112,110,114,113,110,107,111,108,106,110,109,110,107,110,101,109,108,105,107,107,111,105,105,108,108,105,110,112,107,109
108,107,108,107,104,106,103,106,108,108,110,108,104,109,112,101,109,106,106,107,105,108,108,115,108,109,109,112,109,109,110,111,107,111,112,109,104,108,109,107,104,106,106,108,109,109,114,105,105,108,108,109,106,104,109,105,115,104,110,103
106,106,106,110,109,104,111,109,109,108,107,107,107,108,109,105,107,105,108,110,110,109,108,112,110,110,106,111,108,110,107,111,108,111,110,107,112,110,109,107,108,109,107,109,109,107,107,106,108,106,105,111,108,107,110,108,110,105,107,106
106,106,106,112,111,106,110,108,110,108,106,108,108,110,107,107,111,109,108,107,107,107,111,108,107,107,109,114,108,109,109,111,112,108,110,105,111,105,110,111,104,107,108,105,109,106,105,112,105,107,106,107,107,108,109,107,107,106,108,107
109,107,106,108,108,106,107,106,107,108,107,109,107,103,107,104,114,106,106,111,109,106,108,112,110,108,107,107,108,111,110,110,112,109,112,108,110,109,110,108,106,106,108,110,107,102,111,106,110,106,109,108,107,108,103,104,107,107,110,105
112,107,110,110,108,103,103,105,105,106,112,107,109,110,106,106,113,106,108,110,108,107,107,108,112,109,102,107,111,108,110,107,107,108,106,109,109,110,107,103,109,106,109,110,105,112,108,107,113,102,107,110,107,103,101,108,106,108,110,104
111,105,107,110,104,105,104,107,111,107,106,104,112,113,102,107,110,103,113,106,105,108,105,103,107,107,112,109,111,110,108,111,108,106,104,109,105,107,109,106,108,106,107,109,106,109,107,105,105,105,106,109,107,107,110,107,109,107,106,109
103,104,106,107,109,108,110,106,110,111,107,107,107,108,108,106,111,106,112,104,106,106,106,108,109,110,109,109,107,108,105,108,106,107,109,107,104,108,104,112,103,106,108,106,106,109,109,106,110,106,103,109,110,110,108,102,105,109,110,106
107,106,111,106,111,109,110,106,108,106,107,106,107,103,107,107,111,107,105,107,107,107,106,106,106,111,105,106,108,109,106,105,111,110,109,109,110,108,105,108,105,111,109,103,105,109,110,109,107,105,109,112,106,110,107,105,112,112,109,106
108,108,104,103,109,107,103,106,108,107,105,111,107,113,108,109,105,110,107,109,112,109,105,106,104,110,113,106,106,106,103,108,112,107,103,108,110,105,105,109,106,108,107,106,107,109,104,106,109,108,109,104,107,112,108,107,111,106,111,108
108,107,104,105,109,106,104,108,106,104,108,106,105,105,107,105,102,111,107,107,112,104,104,111,108,107,103,102,104,107,103,109,104,105,105,106,107,106,105,110,109,105,107,108,108,107,104,105,110,112,107,109,106,110,111,102,110,110,110,107
109,104,108,109,106,109,110,107,108,108,107,108,111,110,108,108,108,110,105,107,105,105,111,110,108,112,109,106,109,112,108,115,104,107,108,109,107,106,108,109,108,108,108,108,111,113,108,109,104,112,107,105,109,101,108,108,104,109,111,109
108,106,110,107,108,103,109,113,108,103,107,112,105,108,107,106,105,111,108,108,107,108,107,107,110,110,110,107,107,107,104,107,110,108,107,101,110,108,109,102,105,115,103,107,109,109,105,104,108,107,105,104,110,106,106,109,107,108,106,106
106,110,106,106,107,104,112,110,108,104,110,112,107,107,105,109,105,108,107,107,106,109,108,106,105,105,107,105,107,105,106,108,110,109,109,105,108,106,109,113,106,108,107,112,111,107,108,107,109,105,105,103,108,109,107,111,107,110,104,105
108,109,110,107,104,107,106,107,104,105,104,105,107,106,106,110,103,107,107,102,109,108,107,108,106,106,108,106,109,105,105,110,106,110,105,103,107,108,112,109,106,105,109,107,104,107,106,108,105,109,105,105,107,108,105,115,108,107,110,107
110,105,107,111,104,105,104,107,109,108,108,111,106,105,110,108,108,108,103,105,107,108,109,108,106,107,108,104,108,111,105,107,103,108,109,108,111,108,109,109,107,111,105,106,108,106,104,107,111,110,110,110,105,108,107,106,110,110,112,102
106,105,105,109,106,104,107,110,109,108,106,106,109,108,109,106,105,103,106,109,106,108,110,107,109,108,107,111,110,108,109,107,105,107,109,106,106,108,102,109,107,106,111,108,107,110,109,109,109,110,108,107,104,109,110,102,108,108,105,104
106,109,110,104,107,108,110,104,106,108,110,109,112,105,107,107,103,108,112,108,110,103,106,109,110,110,109,113,108,108,109,106,109,105,106,107,107,111,107,109,108,100,112,114,107,109,106,111,107,109,108,108,104,107,109,105,105,105,107,106
106,106,106,105,102,110,106,107,104,104,111,110,110,107,107,108,114,106,108,104,106,105,110,107,108,107,107,110,111,109,108,106,107,108,106,105,108,108,105,112,109,108,108,104,108,105,107,108,105,106,103,107,107,106,108,107,111,105,107,107
107,106,102,106,105,108,110,108,104,105,106,104,109,105,108,110,113,102,105,106,107,106,113,107,111,107,113,101,110,103,105,109,108,106,107,107,106,106,105,111,109,106,107,106,110,108,106,111,109,107,107,106,109,107,108,106,108,104,106,107
104,106,106,106,107,109,109,108,105,104,104,107,108,108,111,106,108,104,105,111,111,108,110,106,112,103,107,102,110,106,109,107,110,110,113,109,104,104,103,113,107,107,105,107,111,108,105,108,108,108,108,108,105,107,108,107,108,108,110,112
110,111,107,113,108,109,108,110,106,106,106,110,109,108,106,105,107,108,107,109,106,109,107,108,109,103,106,114,108,103,110,109,111,111,109,112,105,106,112,108,106,110,107,105,108,108,108,109,107,112,105,108,108,106,108,110,108,109,111,108
110,102,103,108,105,110,104,101,109,106,108,108,107,105,106,106,104,111,109,110,106,106,107,109,111,108,107,112,114,108,105,109,107,109,109,109,108,105,108,105,109,104,107,113,107,105,108,110,108,107,104,110,109,106,108,103,107,106,108,105
106,107,108,105,108,111,108,105,105,108,112,103,104,112,109,107,114,107,107,107,106,103,113,108,105,107,108,112,111,102,106,113,110,106,108,106,106,105,111,110,108,109,105,103,107,109,104,105,108,102,105,107,109,107,107,108,107,109,113,103
109,104,107,108,104,107,110,106,105,110,108,111,105,107,107,102,105,108,105,104,107,108,109,111,105,108,111,107,107,106,109,107,104,108,109,105,104,107,103,105,105,106,108,103,109,113,107,109,107,106,111,109,104,108,108,108,107,109,105,103
104,106,105,113,106,106,106,108,108,106,107,108,106,107,112,106,105,106,104,104,111,112,103,111,108,105,112,102,106,110,104,107,107,104,113,103,107,105,113,107,109,112,111,107,107,110,103,106,106,107,107,107,103,107,108,109,108,104,105,111
