41,50,59
103,106,109,110,109,105,108,113,105,109,106,110,108,107,106,106,106,107,107,107,107,109,107,108,106,108,109,107,110,109,109,110,110,101,106,104,108,108,109,105,106,105,112,106,105,109,109,109,107,108,106,106,111,113,109,106,108,108,105,109
105,108,105,107,109,109,108,108,103,104,104,109,109,109,110,113,110,107,106,105,108,109,109,111,108,103,109,109,110,112,109,109,110,107,111,104,102,105,109,106,110,108,111,108,106,107,109,110,105,105,101,107,106,108,106,109,107,114,109,106
109,111,110,105,104,108,105,108,108,106,108,105,103,107,109,108,109,110,111,109,106,105,108,111,111,109,109,109,107,101,105,109,107,107,107,107,109,113,112,113,111,107,104,108,106,109,104,108,107,106,109,108,110,113,106,107,106,105,108,110
105,106,104,106,110,107,109,109,108,110,105,110,109,109,109,107,110,110,111,113,107,106,107,109,109,111,107,102,104,107,107,107,108,108,104,106,109,109,106,105,101,107,107,109,108,106,104,107,110,105,107,109,111,110,107,111,112,105,108,108
107,109,103,105,106,105,112,110,106,110,104,108,109,110,107,107,107,108,109,108,106,112,107,105,104,108,108,106,108,110,107,104,111,102,107,116,106,108,107,112,111,104,109,108,108,106,107,112,109,106,110,111,107,109,105,109,110,105,104,106
106,109,108,107,104,105,111,107,109,107,110,110,105,104,106,110,106,105,111,107,107,109,105,111,108,111,109,107,104,105,112,109,106,109,108,108,106,110,111,110,111,110,108,111,110,107,111,109,111,109,107,109,107,105,106,110,103,106,113,110
103,100,107,107,111,108,108,106,109,110,107,105,105,105,108,109,110,108,112,108,112,107,108,108,109,113,111,105,108,111,110,110,108,109,109,108,108,107,109,106,106,111,108,107,106,105,108,110,108,103,111,109,106,105,108,110,109,107,106,109
106,108,110,106,107,108,108,105,102,112,109,108,108,107,109,108,107,110,106,109,110,110,112,111,106,105,104,108,106,108,108,104,107,109,107,106,111,110,110,111,108,107,104,107,106,109,109,107,107,107,110,109,107,109,106,106,107,106,108,110
107,110,104,108,107,107,107,111,109,111,107,103,107,109,111,108,108,107,104,107,107,107,109,107,106,105,111,112,106,113,108,107,112,106,109,106,110,106,106,109,112,106,107,114,109,105,110,113,106,111,111,111,105,108,110,108,106,113,109,107
111,110,103,107,107,107,109,109,109,107,106,110,108,108,103,103,106,109,107,107,109,107,107,105,108,108,111,107,108,103,104,107,108,109,109,106,109,104,106,109,108,106,109,111,111,105,106,108,104,112,110,110,106,105,110,111,105,108,107,103
105,107,109,106,106,109,111,108,106,108,111,109,107,111,104,105,107,108,109,109,106,108,111,108,106,113,107,105,112,111,106,109,111,112,108,109,108,114,112,106,109,107,108,107,113,112,107,106,102,112,114,112,109,111,107,101,107,105,106,106
108,109,109,107,109,110,109,102,108,110,106,107,107,105,107,106,110,110,109,107,109,111,109,106,107,110,109,111,111,111,111,112,106,110,106,110,111,109,110,109,111,107,113,107,107,111,106,105,107,107,108,107,109,111,110,110,114,106,107,108
113,110,112,108,107,107,109,108,109,106,107,105,107,108,109,108,106,109,110,108,110,109,106,107,110,112,110,105,109,104,107,109,106,109,110,107,109,109,107,111,109,111,108,105,110,108,107,106,109,110,112,109,107,103,106,104,106,107,107,107
109,104,110,108,105,109,111,111,107,108,112,107,109,112,110,112,112,108,107,105,112,109,112,110,113,107,106,107,108,105,105,106,111,109,107,110,110,110,109,111,110,107,104,106,108,104,109,106,108,106,107,109,110,109,111,113,109,109,106,105
109,112,111,108,106,105,111,111,109,111,109,105,108,113,106,104,107,106,109,112,111,108,110,106,108,107,110,115,108,109,109,108,110,111,106,110,107,105,113,105,106,106,109,109,113,110,112,105,105,106,107,109,108,106,111,109,109,109,106,108
103,104,106,106,108,110,107,111,108,109,107,106,110,111,110,109,112,109,110,104,103,107,106,107,111,109,109,108,109,112,105,111,110,113,115,108,110,107,109,104,107,106,108,108,109,110,112,108,108,110,108,107,108,107,107,110,103,107,108,106
104,110,108,106,104,112,110,109,112,111,110,112,105,104,109,108,106,108,112,110,106,108,110,108,105,105,105,110,115,116,106,110,112,110,109,105,109,106,107,111,107,107,108,109,110,109,107,106,106,105,110,110,106,110,107,108,107,111,110,111
107,106,105,110,107,110,109,104,108,108,106,108,106,109,109,111,109,106,107,106,105,106,110,103,112,110,107,108,112,111,110,112,110,110,112,111,108,106,106,108,107,110,105,107,109,104,111,107,107,108,107,111,112,110,113,109,107,109,107,109
108,109,108,106,108,107,109,105,105,106,106,110,105,106,112,107,108,109,110,104,109,109,107,109,110,106,107,109,110,105,110,107,110,110,108,112,108,107,113,107,109,107,111,106,111,108,108,110,106,105,105,105,108,108,107,107,109,106,106,104
106,109,108,109,108,109,106,107,105,111,108,114,110,111,110,106,109,104,108,112,110,106,107,109,106,109,108,110,112,107,107,111,110,112,112,116,113,108,111,107,108,109,109,110,111,107,107,108,109,108,109,106,106,112,106,108,109,104,107,109
107,109,108,103,108,111,110,112,112,107,105,108,107,110,100,107,109,106,109,108,108,112,106,105,106,112,112,110,107,115,111,112,109,111,111,110,109,108,108,106,109,108,109,110,110,108,110,109,106,109,111,113,108,105,110,109,109,110,106,106
111,108,108,109,110,112,110,105,107,105,108,107,108,109,105,111,108,108,108,113,109,110,110,109,109,109,109,107,110,111,114,109,110,111,109,108,109,108,111,110,115,108,111,108,109,109,111,114,109,114,107,108,106,107,109,107,107,109,106,108
110,109,106,108,103,107,108,109,105,110,105,105,112,108,107,113,110,113,111,111,110,110,110,113,114,113,111,110,110,107,111,112,113,110,108,107,109,108,112,110,107,108,115,111,112,113,107,108,109,106,107,109,106,106,103,107,108,105,108,104
104,106,111,110,106,110,106,105,107,110,105,106,111,108,105,111,107,107,108,107,108,113,110,110,114,109,107,109,109,113,111,109,113,116,108,107,113,111,111,107,110,111,108,103,109,109,108,109,106,101,108,108,110,110,106,113,114,106,113,104
106,110,108,98,104,105,104,104,107,108,110,109,109,110,111,112,109,109,108,111,110,112,110,111,114,115,112,114,109,111,112,111,109,109,112,112,112,113,112,107,110,108,106,111,109,109,108,112,111,111,106,108,107,111,107,108,110,110,105,103
102,107,106,107,107,108,110,111,109,106,109,111,113,112,112,109,103,114,111,111,114,109,112,115,108,107,113,112,115,113,109,112,110,106,110,114,111,110,112,115,110,109,109,110,108,111,113,111,107,113,109,110,105,106,115,109,106,111,110,109
113,105,105,112,106,108,112,107,108,110,108,102,106,108,104,104,103,106,106,108,110,112,113,116,112,115,113,111,113,112,112,115,110,115,111,114,114,109,107,113,108,108,110,112,108,105,110,106,106,108,105,111,109,109,107,106,111,107,108,110
106,111,105,109,112,108,111,103,109,109,108,110,106,109,113,110,110,110,110,112,110,110,108,116,113,118,115,118,116,114,116,114,114,120,114,112,114,111,111,108,112,110,114,112,106,108,108,105,110,108,106,112,110,111,110,110,113,109,108,105
107,109,107,107,108,108,108,111,111,110,107,107,106,111,110,112,108,109,106,107,114,117,116,119,114,114,115,120,121,114,117,119,121,116,115,113,108,112,114,113,114,109,114,113,110,114,110,110,110,110,107,109,105,107,113,110,110,106,110,109
108,108,107,107,110,106,110,109,106,107,105,112,108,108,108,114,108,110,111,115,115,111,112,117,113,116,115,120,121,122,122,123,115,114,117,116,117,118,109,113,109,114,105,113,115,111,110,109,111,113,112,112,109,109,105,108,109,112,110,100
109,106,107,108,103,104,108,106,108,106,105,112,110,110,113,109,110,108,110,115,114,115,118,116,116,122,121,125,127,132,130,128,123,119,120,120,116,113,114,112,118,114,106,108,106,107,107,108,110,111,109,113,112,111,108,107,104,109,112,107
109,107,104,110,108,105,105,104,106,107,107,106,108,110,107,107,113,110,120,111,113,114,116,114,124,123,129,131,132,133,132,136,133,127,126,121,119,123,123,118,116,110,112,110,111,110,106,108,109,106,103,106,108,109,112,111,110,108,106,108
103,102,108,112,111,109,111,108,110,110,108,109,113,107,112,113,109,112,112,112,115,119,118,116,129,134,137,145,145,145,146,145,144,136,132,126,127,119,117,117,116,110,112,114,108,109,107,114,109,106,110,112,108,107,110,110,110,112,108,110
107,110,111,112,107,104,111,106,109,107,110,108,109,108,111,113,107,114,113,111,110,119,125,122,132,142,148,160,163,162,165,159,161,144,143,138,130,119,122,115,113,113,110,110,112,115,110,108,113,114,113,113,112,110,107,113,111,108,109,106
108,108,106,110,106,113,111,106,110,108,106,109,111,110,107,111,111,112,114,113,117,120,125,123,141,147,162,174,186,178,172,176,169,160,157,147,136,133,125,118,120,117,112,110,112,109,109,109,107,110,109,108,112,108,110,113,109,108,111,113
108,107,107,111,108,106,107,110,110,111,109,106,110,108,110,112,112,115,114,117,126,122,132,139,149,167,181,194,192,184,186,180,177,181,168,152,146,137,124,124,118,115,119,114,112,114,111,112,115,112,107,111,113,106,110,109,106,108,108,111
110,108,109,106,107,108,107,112,106,105,112,110,108,107,112,109,112,114,117,116,118,126,131,149,163,180,193,198,201,203,203,195,194,195,184,162,151,143,133,131,117,114,117,115,109,109,111,108,112,110,111,114,108,109,115,112,108,107,108,110
110,107,109,106,104,107,111,109,108,111,110,107,111,108,110,113,112,108,113,117,121,130,139,154,177,194,209,198,208,196,197,195,198,186,183,171,157,153,140,127,122,123,117,112,113,114,109,116,113,107,110,108,108,111,110,113,105,107,108,104
108,106,105,110,111,104,110,108,108,105,106,110,110,107,109,111,112,113,116,119,124,132,152,173,197,200,207,197,210,197,198,192,198,200,192,179,163,147,140,130,124,120,115,114,114,115,112,112,107,109,110,110,104,110,111,111,106,113,109,108
111,111,106,107,108,108,113,112,111,107,106,105,108,108,113,110,112,119,118,119,125,135,152,179,194,204,203,190,199,195,189,194,199,193,188,182,170,149,141,132,128,119,119,117,117,110,109,111,107,109,112,111,109,111,114,115,111,108,112,113
108,107,104,106,104,108,112,108,104,109,109,111,110,109,110,112,107,113,118,123,129,147,169,183,201,207,201,198,191,187,179,196,196,194,191,168,170,155,152,137,126,125,120,119,118,116,109,116,112,113,115,109,108,112,109,110,113,109,108,109
104,105,106,108,108,109,109,107,106,106,104,111,110,108,113,113,116,119,120,126,136,152,178,189,210,214,203,195,193,186,180,181,188,196,193,183,169,160,148,134,130,123,118,118,117,108,108,116,115,108,105,108,109,106,106,110,107,114,110,112
110,110,107,107,107,105,104,107,110,114,111,109,108,110,112,112,117,120,120,123,140,154,180,197,206,215,205,183,190,176,174,185,191,192,192,185,172,166,151,139,133,125,128,117,118,115,115,115,111,114,113,109,109,108,109,111,111,115,109,106
111,110,107,108,103,105,109,108,108,108,107,109,114,108,109,109,113,118,121,128,142,162,179,197,203,207,196,189,184,169,168,177,185,188,186,187,188,174,155,147,137,129,122,121,121,118,114,112,111,112,113,112,108,106,112,108,105,106,106,112
104,108,104,105,109,112,104,106,109,107,109,106,113,110,111,113,116,115,121,126,138,163,180,197,210,203,193,186,176,171,174,173,181,189,193,195,195,179,169,149,134,121,118,123,123,116,114,110,112,108,108,113,111,106,112,108,107,108,110,105
106,106,108,110,110,111,111,110,112,112,108,111,109,111,111,110,113,115,119,130,142,158,181,194,212,198,188,180,174,170,176,176,179,191,201,186,187,180,164,147,135,126,124,122,114,109,114,114,115,109,109,113,106,110,108,106,112,108,110,108
106,111,109,111,107,104,106,111,111,112,107,108,105,108,111,113,116,122,126,129,142,158,182,196,204,194,189,177,172,172,172,176,181,181,193,199,195,176,154,152,140,132,123,120,112,113,113,113,110,110,111,108,108,109,107,105,108,109,108,110
111,107,103,109,109,111,111,103,105,109,110,111,110,106,114,115,109,118,126,127,143,162,176,196,200,185,177,168,166,170,172,171,179,181,187,199,192,181,160,146,137,133,123,120,116,115,115,113,110,113,112,105,110,109,112,106,107,109,110,111
107,104,113,111,112,107,104,106,109,107,106,108,111,112,112,114,115,125,122,121,134,157,172,189,189,182,172,164,170,171,172,177,170,187,195,195,187,177,173,153,137,133,126,123,120,114,110,111,111,113,110,109,109,106,110,110,109,104,110,108
111,111,109,106,107,111,109,107,109,112,111,110,110,112,114,112,113,122,122,126,136,155,159,178,185,171,171,156,170,166,169,177,171,185,191,192,197,179,164,149,140,135,120,117,119,118,119,115,111,113,109,110,108,113,108,115,110,111,109,110
106,110,104,107,107,108,108,109,106,108,110,111,108,114,108,113,117,123,122,132,140,143,157,174,174,173,173,168,174,165,167,169,168,184,189,197,197,183,166,149,138,133,124,119,117,114,116,110,110,112,114,108,107,109,106,107,106,109,106,109
108,108,107,110,107,107,109,110,108,109,107,113,109,110,115,115,113,109,117,125,130,138,156,167,169,173,170,167,168,160,165,165,177,182,184,202,188,182,167,150,141,131,122,117,115,115,115,112,112,109,110,110,111,110,107,107,106,107,109,106
109,108,108,107,105,109,109,109,111,110,107,108,109,110,113,113,112,118,118,120,122,134,155,161,168,177,169,170,164,161,166,171,178,177,187,200,188,180,169,150,140,130,122,120,118,114,114,114,113,109,109,104,110,107,103,109,112,111,111,109
108,106,106,108,104,105,109,107,107,109,111,111,108,109,113,111,111,116,117,128,127,135,153,164,165,177,168,171,168,158,158,167,171,180,190,195,196,188,165,146,145,131,119,118,118,117,115,108,112,112,110,110,110,113,113,110,110,107,108,110
104,107,109,109,108,107,108,109,110,114,111,106,113,110,106,111,114,118,115,120,127,136,150,165,173,173,172,165,165,161,159,169,181,185,193,186,194,187,165,149,145,138,123,115,117,118,112,114,110,112,106,109,108,109,107,109,108,104,106,109
113,111,107,106,112,111,105,109,112,109,109,109,109,113,109,108,112,114,114,117,125,135,148,169,171,169,172,160,157,156,165,169,181,181,193,198,202,178,168,155,138,128,127,126,122,117,115,117,112,112,110,117,109,110,106,106,106,108,109,103
105,109,113,106,103,110,111,109,110,109,106,109,110,109,111,114,112,112,118,123,125,134,142,167,172,174,165,156,155,158,154,167,171,185,195,201,197,180,171,159,139,124,120,120,117,114,116,110,112,112,112,106,110,110,111,103,105,108,106,108
112,105,109,110,111,109,111,108,104,105,105,112,110,109,107,115,116,115,112,118,121,129,146,156,161,166,155,155,153,152,160,168,177,188,200,206,194,182,166,150,137,126,123,120,122,111,116,110,110,110,110,109,113,114,106,107,109,107,105,108
108,111,110,106,110,107,110,106,109,107,109,108,108,112,114,111,110,112,110,117,124,131,145,156,160,155,154,156,150,152,168,164,176,187,196,207,196,191,167,145,138,133,125,122,117,116,118,110,104,109,115,111,108,111,107,108,110,110,106,107
108,105,107,109,103,109,107,113,111,109,109,109,107,109,112,112,109,113,120,117,119,129,135,150,153,153,150,150,155,151,161,172,175,181,195,210,201,184,162,145,136,132,125,122,119,116,115,112,112,108,108,113,114,110,111,106,110,110,110,112
108,110,108,104,104,109,103,106,105,110,107,108,110,110,111,108,112,117,111,115,124,128,130,143,143,152,151,153,152,156,165,175,179,185,204,205,193,181,156,142,130,124,121,115,121,113,107,113,112,109,110,113,113,106,110,108,106,111,107,104
107,106,112,109,112,108,109,112,106,110,110,112,110,110,111,109,109,117,114,120,118,121,128,137,146,154,160,163,160,167,172,179,181,192,205,204,202,179,150,138,138,125,120,116,116,114,112,110,111,108,113,110,106,104,110,111,106,108,108,106
107,106,108,106,106,107,112,111,110,111,110,107,109,111,110,111,109,110,113,116,110,116,130,141,149,153,165,175,175,185,177,184,188,207,202,201,190,171,156,135,126,125,125,122,111,110,114,112,111,108,110,113,111,107,110,108,108,105,106,111
112,112,109,109,107,111,108,100,107,107,106,106,109,111,112,114,112,110,113,118,114,121,132,139,148,157,166,186,187,201,194,190,197,210,198,200,179,160,143,127,126,126,119,114,113,118,111,109,107,111,109,106,107,106,111,116,116,110,110,111
105,106,107,108,111,110,106,106,103,106,109,108,107,109,108,112,108,114,112,111,120,122,134,138,148,162,179,190,196,210,208,205,209,205,198,189,171,152,134,124,125,119,116,118,115,111,110,105,111,109,107,103,114,108,107,110,110,109,109,111
104,109,108,105,111,104,109,109,112,104,110,109,109,112,106,107,104,109,111,113,114,122,134,141,151,165,175,179,195,206,203,209,207,201,187,171,156,139,135,129,122,124,117,116,111,111,111,108,109,106,110,112,111,108,105,105,110,109,105,110
109,104,112,109,104,110,111,105,107,106,108,104,113,114,111,111,113,112,110,115,116,119,128,140,150,162,165,181,181,193,198,197,189,178,170,156,144,132,129,123,118,117,113,110,110,113,114,115,110,110,111,108,109,108,107,106,106,105,106,107
113,111,108,108,107,104,107,113,106,110,107,106,109,107,109,108,108,111,111,114,111,120,121,135,145,158,160,177,177,184,177,179,170,162,150,133,132,128,122,118,116,118,111,110,110,112,111,108,108,109,112,105,110,104,111,112,113,108,109,111
111,107,105,101,107,108,112,109,109,112,108,107,111,110,113,107,106,111,114,116,113,119,119,130,132,142,152,151,156,163,164,161,146,143,134,131,125,121,119,121,114,116,113,108,111,114,110,107,109,113,112,109,115,110,109,108,107,110,108,107
108,106,107,107,109,110,109,109,109,109,112,106,110,105,109,110,110,109,115,111,112,113,119,120,122,134,140,140,145,143,138,129,131,132,126,128,117,117,118,109,114,110,113,109,113,113,106,109,110,107,106,105,103,105,112,108,107,109,108,108
106,106,108,109,111,107,108,111,107,114,108,111,107,107,110,109,110,110,109,110,111,111,115,119,118,124,130,124,127,133,129,125,121,123,124,121,117,115,118,112,111,112,112,106,110,106,107,113,108,107,109,104,112,105,111,102,111,109,110,107
105,107,112,106,110,106,109,109,108,108,108,112,106,105,106,109,111,107,111,111,106,119,113,112,114,114,118,121,127,125,123,117,117,118,113,111,113,112,113,114,113,113,112,108,105,107,111,112,111,103,106,105,108,107,110,103,109,108,105,112
106,106,104,107,110,113,112,108,107,109,111,109,109,108,106,111,105,105,112,111,111,107,113,111,113,113,117,114,114,116,113,112,117,117,113,116,111,111,110,109,113,105,107,112,108,109,109,108,104,107,112,109,105,108,107,106,111,111,106,110
108,110,108,108,108,112,113,110,108,108,110,109,108,107,109,109,109,109,110,107,111,113,111,111,111,111,112,117,119,112,110,107,109,115,113,109,107,111,113,108,107,108,110,106,110,107,106,108,108,114,107,107,111,109,110,109,112,107,113,106
109,111,110,108,107,107,107,105,108,107,107,108,106,110,109,103,107,108,108,108,111,110,109,107,113,118,111,107,108,107,113,113,112,110,110,109,109,110,106,112,109,109,108,111,109,106,109,111,111,108,100,106,110,112,108,104,107,112,111,107
108,105,106,110,107,110,109,103,107,112,112,107,107,107,104,108,106,104,110,107,108,110,112,106,110,109,111,107,113,116,111,106,107,109,110,107,110,113,112,115,108,109,103,110,113,109,108,113,112,109,114,110,107,110,104,106,105,109,109,106
112,108,108,109,106,108,106,105,114,108,111,108,109,109,108,109,110,110,111,109,107,110,109,108,109,110,108,107,109,109,112,109,108,106,110,111,110,111,109,113,111,107,108,111,111,105,108,107,109,110,109,106,107,109,111,108,105,108,109,107
108,107,111,114,109,110,108,106,112,108,108,105,107,105,107,109,107,103,111,112,110,111,106,111,113,108,110,111,109,105,110,107,110,110,106,111,109,105,104,108,110,108,111,108,106,106,106,106,108,104,105,113,109,106,104,105,109,114,108,108
108,109,109,109,107,111,110,105,104,109,107,103,105,108,109,108,105,105,112,107,106,106,108,107,106,105,108,110,112,111,107,109,104,112,110,109,110,110,109,112,109,110,108,106,112,109,111,110,106,108,109,111,110,105,109,109,108,107,107,108
107,109,106,108,108,106,102,107,109,112,105,101,107,106,107,106,107,109,109,106,108,111,109,106,115,112,109,108,108,105,107,112,110,109,109,110,109,112,110,103,103,107,109,108,114,104,106,108,105,111,102,104,111,108,107,105,105,105,110,108
109,105,105,105,108,107,105,112,106,108,108,109,111,107,110,109,105,107,107,106,108,111,104,105,109,105,107,111,108,107,110,105,107,108,111,110,112,106,114,109,108,107,107,106,107,107,111,109,107,110,108,111,106,105,110,109,106,106,107,109
110,104,105,111,103,108,107,109,108,113,112,104,108,108,107,106,109,110,109,108,108,111,105,110,106,110,105,110,105,102,113,104,109,110,108,109,110,106,110,110,110,109,106,108,110,111,108,107,107,110,113,114,111,105,106,107,108,110,106,110
105,112,109,111,101,108,106,111,108,109,108,109,105,108,107,104,110,110,109,105,107,103,109,113,109,103,107,106,104,111,108,109,111,107,109,113,108,106,106,108,112,106,110,106,105,111,106,113,110,107,104,106,104,105,111,107,107,109,110,109
107,104,108,109,109,109,108,109,103,107,106,109,103,113,109,113,107,107,108,107,109,107,108,104,105,108,110,107,110,109,106,108,106,103,111,114,113,114,108,109,110,104,114,109,106,108,108,112,112,108,110,111,103,106,110,109,104,106,109,106
109,110,107,108,110,107,110,108,108,110,110,110,107,107,111,107,109,108,107,108,109,106,105,107,108,109,110,105,108,108,110,109,110,111,108,110,108,109,110,109,112,109,110,109,106,107,111,106,102,106,111,107,107,111,108,107,104,110,108,108
107,106,109,108,108,107,108,107,110,110,107,105,109,105,110,108,111,107,106,104,110,103,114,106,106,111,104,109,106,110,108,108,112,110,107,111,109,106,108,111,110,102,105,104,106,110,113,112,110,105,105,110,110,111,106,111,110,110,106,107
108,106,110,107,107,107,108,108,106,107,106,110,109,104,107,108,111,107,112,107,109,105,107,108,104,105,105,110,105,109,110,108,107,108,107,108,109,108,110,111,109,105,112,105,111,110,106,106,110,106,105,106,107,106,107,107,107,109,110,108
104,104,104,105,106,106,103,107,109,109,107,107,106,105,108,110,104,105,108,110,105,109,109,110,111,110,107,107,105,108,103,109,108,104,105,107,108,107,114,108,102,108,109,107,106,109,108,108,107,107,109,108,111,109,107,107,109,106,104,106
108,110,110,112,110,111,102,109,107,108,110,107,109,107,108,108,109,109,108,106,108,109,107,105,106,110,108,111,109,104,112,110,110,104,110,111,108,105,108,104,103,111,109,112,108,107,109,108,107,108,109,107,101,110,111,113,111,108,102,112
108,99,109,108,108,109,109,110,110,108,108,109,111,109,105,101,107,113,110,108,110,105,109,109,105,109,110,110,109,104,109,109,109,107,106,108,107,106,108,105,110,110,110,111,111,108,107,104,105,107,108,108,105,109,109,109,103,106,112,108
105,110,109,105,108,104,106,109,108,107,110,105,107,111,109,107,103,108,108,109,107,106,109,106,107,109,106,104,105,109,106,108,108,108,106,106,105,108,102,105,113,105,107,108,109,105,109,109,108,108,108,108,106,106,105,103,106,107,112,108
108,115,110,109,108,111,109,109,102,110,108,106,107,107,108,112,111,106,111,109,106,108,105,108,111,107,104,108,107,105,107,113,109,108,108,108,107,109,110,110,107,106,105,109,106,106,109,107,108,109,105,106,105,107,105,104,109,106,108,110
106,103,107,107,103,107,108,110,109,110,104,109,108,108,108,107,107,107,106,105,110,109,111,108,104,107,102,108,108,103,109,108,104,107,110,108,106,106,107,109,105,110,111,105,104,113,108,107,107,107,103,107,107,107,105,107,108,109,108,108
109,107,110,107,106,110,108,107,108,107,107,111,106,104,108,110,105,110,105,106,102,106,108,110,111,105,110,107,109,111,108,106,106,109,108,105,106,112,112,106,107,110,107,112,105,107,104,110,109,108,108,104,110,107,108,111,104,105,108,107
107,105,109,108,107,109,111,110,105,112,105,105,109,109,108,110,111,110,106,108,108,110,105,107,108,104,114,109,109,107,104,108,110,107,111,111,108,109,111,109,109,109,105,113,108,108,113,110,102,104,108,104,104,101,104,106,110,107,108,109
108,106,107,107,110,107,102,108,107,111,105,108,107,112,110,106,113,112,108,108,104,106,108,109,106,109,110,103,110,103,110,106,108,113,106,106,106,107,107,104,104,108,109,109,108,111,105,104,104,107,106,106,106,107,110,101,104,113,109,107
109,108,106,107,106,102,109,106,107,111,106,109,102,106,109,106,105,106,105,107,112,104,106,103,106,107,108,105,110,106,106,105,104,108,109,109,106,107,102,105,112,112,106,109,105,106,105,108,109,109,106,109,116,107,111,107,107,109,107,107
109,106,110,112,109,108,110,107,109,109,104,106,112,112,104,103,106,106,107,111,107,108,108,108,115,108,107,104,107,107,108,109,108,106,105,103,104,107,106,107,112,107,102,109,106,106,107,108,111,116,106,103,108,108,108,110,114,105,106,108
106,106,102,103,108,109,106,109,108,109,110,108,111,103,109,105,108,107,104,107,103,107,107,108,106,106,108,107,109,106,108,105,102,110,108,106,110,106,109,108,107,109,107,108,105,109,109,111,106,111,112,108,108,103,106,107,109,105,111,110
104,111,107,115,105,107,110,111,108,108,109,108,105,112,109,106,104,105,108,108,108,107,108,106,105,108,111,107,110,106,107,114,104,106,109,111,110,108,105,106,109,109,110,111,105,108,107,108,105,111,109,105,108,104,110,112,114,110,105,105
