32,51,70
101,109,108,103,105,109,107,108,108,106,108,108,106,109,108,107,108,109,109,106,108,115,102,107,106,104,108,111,104,105,108,107,108,109,110,104,105,107,107,107,108,109,103,110,111,107,107,105,107,109,108,109,109,107,108,106,103,103,105,109
103,108,108,110,109,107,99,110,111,115,107,109,107,103,102,110,111,105,102,101,101,103,102,104,105,105,105,105,109,109,106,110,107,105,108,107,107,106,109,107,106,108,106,105,106,107,109,109,109,111,104,110,109,103,105,107,109,109,102,105
111,111,105,106,108,104,106,108,109,107,112,107,109,103,112,107,111,106,105,105,106,108,109,103,106,107,110,112,106,107,106,107,106,107,104,104,111,108,109,107,109,105,108,108,108,109,104,109,107,109,112,106,106,106,109,108,108,103,108,110
108,110,107,108,109,108,108,110,110,111,109,105,111,109,107,105,109,104,105,106,108,103,109,107,105,111,108,108,108,108,108,106,108,109,107,105,107,108,107,103,105,110,108,111,110,110,110,108,109,103,110,105,109,106,105,103,103,106,111,104
104,106,106,106,106,109,104,106,105,105,106,107,108,108,109,107,102,108,104,104,108,104,104,108,103,108,105,107,110,112,109,112,110,109,111,111,107,105,105,105,103,108,105,103,106,110,107,105,107,108,105,109,107,103,109,109,109,113,108,105
107,109,111,110,109,112,110,107,109,103,103,107,107,103,107,111,106,106,107,108,111,110,103,110,112,109,109,108,103,109,107,106,110,109,105,111,109,103,105,111,109,107,107,106,105,107,109,107,108,106,101,105,105,108,106,106,105,105,109,104
110,109,108,108,108,108,108,106,107,107,105,109,105,113,109,105,110,108,105,104,104,109,108,108,107,105,106,107,106,105,108,107,108,106,106,108,113,110,106,106,108,105,104,110,105,104,106,106,108,109,105,106,108,105,105,106,108,107,109,102
108,108,114,111,110,107,108,104,106,108,107,108,107,109,103,106,111,107,106,106,105,109,108,103,100,106,107,105,106,105,107,111,110,108,110,109,112,112,110,107,108,111,107,110,106,108,106,107,103,108,111,108,106,106,108,107,105,108,110,108
110,103,104,109,108,107,111,112,110,108,107,109,107,105,106,106,106,112,108,107,106,106,110,108,109,108,109,108,105,111,107,105,111,107,109,109,108,111,110,108,109,108,105,108,106,107,108,111,111,104,108,107,103,110,106,106,110,108,108,109
107,108,103,109,104,106,107,108,103,114,105,108,110,113,110,107,107,110,108,109,112,108,111,108,107,108,112,111,106,110,107,110,109,109,109,107,113,109,110,107,105,108,108,109,107,107,108,108,109,108,106,109,110,108,110,110,107,107,106,106
105,109,107,109,111,109,110,109,108,108,106,105,109,108,107,105,104,109,106,112,106,105,106,113,108,108,106,109,109,108,108,108,110,110,112,109,113,111,108,106,111,112,111,108,104,110,110,107,107,109,104,109,107,107,109,101,103,108,105,112
106,110,108,108,111,109,109,106,110,108,109,107,106,105,109,111,112,110,107,105,106,110,109,110,104,113,109,110,113,107,115,112,115,114,112,114,112,109,113,112,109,106,106,104,104,111,108,109,111,109,104,106,110,107,109,111,108,109,105,107
107,108,107,110,107,106,107,108,103,104,107,107,112,107,109,110,106,108,110,104,105,111,109,109,112,115,104,111,114,110,113,118,113,110,107,112,108,110,113,112,114,109,107,109,109,107,109,106,108,110,110,105,104,110,108,110,109,106,109,104
109,113,110,107,107,112,111,108,109,108,106,106,106,109,107,107,109,108,109,112,110,107,105,108,112,115,116,114,117,119,116,124,118,117,118,110,110,107,111,106,109,108,111,106,111,110,108,104,106,107,110,112,108,108,106,106,108,105,107,108
109,108,106,106,106,103,106,111,112,107,104,107,107,106,106,108,104,104,108,105,110,109,109,111,115,115,113,115,119,122,121,122,124,121,122,121,118,110,109,109,112,108,106,109,112,108,103,107,107,105,112,105,107,106,108,107,108,104,103,109
101,103,106,105,111,106,106,108,103,109,109,106,107,109,105,104,106,105,108,112,108,111,111,107,112,116,121,124,130,129,128,125,122,125,127,122,115,115,110,108,110,113,108,109,112,112,109,108,108,108,110,112,107,107,109,105,111,111,109,109
111,110,105,105,109,110,112,105,106,113,103,106,110,110,110,113,107,107,105,108,111,112,110,109,118,122,124,126,128,130,131,129,130,127,119,123,117,119,114,110,114,108,107,106,111,112,109,105,109,110,103,109,109,107,105,104,108,111,110,109
105,109,107,104,104,107,107,108,112,111,105,108,105,105,105,109,112,111,110,112,113,110,115,116,116,120,129,129,127,128,127,130,130,130,129,125,118,109,114,115,105,112,111,109,109,113,107,108,108,107,107,111,110,107,109,109,108,107,104,109
106,111,109,109,110,109,107,105,107,110,109,108,105,105,107,111,110,112,108,111,110,112,114,116,117,124,125,129,133,132,133,134,129,127,125,120,123,126,118,114,111,108,109,108,110,110,107,109,106,108,108,106,106,109,101,102,109,110,108,108
106,106,107,105,109,111,110,112,104,104,107,104,104,106,106,107,107,111,111,111,110,114,117,122,123,125,126,124,129,125,130,125,123,128,128,127,122,125,118,107,114,110,112,113,109,107,108,107,108,109,107,109,108,108,109,108,106,101,106,107
111,106,108,109,111,108,101,111,106,103,109,114,110,111,111,108,108,109,110,107,110,116,114,123,126,124,126,126,121,123,128,120,130,127,120,129,124,124,126,114,113,110,111,108,110,111,110,107,107,106,106,107,111,111,106,105,106,104,107,108
105,110,110,107,102,110,108,108,110,106,108,109,107,111,112,110,108,109,110,110,109,114,117,118,124,129,127,123,128,121,127,126,122,128,123,125,125,124,120,112,110,112,112,107,108,113,109,108,111,107,107,104,106,104,108,106,105,105,101,104
106,106,108,109,105,109,109,106,107,104,105,110,109,109,106,108,110,112,110,114,114,117,120,116,130,117,125,120,130,134,128,122,123,127,128,127,124,119,120,123,119,118,111,107,109,113,110,114,110,110,104,106,105,103,112,109,108,108,106,103
114,109,110,107,112,107,109,110,108,105,108,108,106,105,107,110,108,106,107,109,113,114,117,120,125,119,128,124,125,128,123,118,124,123,126,125,124,120,120,122,116,110,111,110,108,111,108,109,109,113,108,111,108,106,105,109,110,112,108,107
107,109,108,111,111,107,105,110,111,108,110,105,108,106,113,107,103,108,112,108,113,115,115,118,125,124,121,122,122,121,125,126,124,122,124,121,124,120,121,115,117,112,115,112,105,112,110,110,108,109,106,105,106,105,109,109,104,107,111,110
111,110,107,111,105,105,112,105,105,106,108,113,111,106,99,106,107,105,111,107,108,115,116,117,125,128,123,126,125,125,124,121,126,124,125,122,125,123,117,116,115,109,109,116,105,111,105,112,105,104,105,108,106,109,108,105,107,105,108,108
108,102,104,106,108,106,105,107,108,109,105,109,108,110,111,110,109,107,116,110,112,117,119,118,120,124,123,126,123,124,129,125,124,123,129,129,121,118,118,119,114,110,109,110,110,112,109,111,104,113,109,105,105,110,105,109,110,107,108,109
107,105,108,110,111,111,108,105,111,106,110,106,108,105,105,109,113,107,108,112,110,111,117,120,124,127,126,123,123,123,124,122,125,126,126,129,121,121,122,117,118,113,112,109,108,111,111,110,105,104,108,111,110,111,113,113,106,109,104,107
110,110,109,109,112,106,109,108,109,107,104,105,108,110,109,113,107,109,107,111,109,113,114,117,121,125,128,125,123,122,123,119,125,131,126,128,123,123,121,120,115,119,111,106,109,112,103,106,111,109,105,108,105,106,109,110,108,106,105,106
109,107,108,105,111,107,107,107,105,108,109,109,107,106,105,109,107,108,109,112,115,112,117,115,124,123,124,125,126,124,129,128,122,124,125,130,127,123,123,123,111,117,115,111,110,112,109,103,108,110,106,109,104,107,107,109,111,109,104,106
107,107,109,106,105,109,110,115,107,104,108,109,105,105,112,109,108,109,113,111,110,111,122,121,121,124,128,124,127,127,120,120,126,121,118,129,125,122,120,124,117,110,113,115,111,106,108,109,103,107,108,109,108,108,105,106,106,108,108,112
109,106,108,108,109,111,110,108,106,112,107,108,108,104,111,108,109,110,109,114,113,110,112,120,127,125,124,122,120,127,120,125,125,121,121,119,123,120,125,118,119,112,112,111,109,109,106,109,107,112,109,110,108,106,107,109,105,103,113,107
109,108,105,105,105,108,111,108,110,110,105,107,108,103,105,113,106,110,109,117,106,112,113,122,125,126,123,127,119,123,125,122,125,128,122,120,128,116,116,113,114,110,113,108,112,114,112,107,103,109,104,111,109,107,110,106,110,111,108,105
103,108,110,105,105,106,111,109,109,111,108,109,109,111,113,115,106,108,107,112,116,117,119,119,118,127,125,127,124,121,126,121,122,127,127,118,126,126,119,117,119,117,109,110,111,107,111,105,104,100,104,106,107,107,115,105,108,109,107,106
104,105,104,111,108,104,110,108,107,110,111,109,104,103,107,109,109,109,105,107,109,111,119,121,123,123,122,121,127,125,122,129,120,123,122,125,130,123,116,117,115,113,108,109,112,113,113,111,110,109,108,107,107,112,109,109,107,104,108,105
108,109,108,110,106,109,112,107,104,107,107,104,104,103,103,105,113,107,111,110,113,114,117,118,122,124,125,125,125,125,123,127,122,124,114,123,125,119,120,113,114,114,113,111,114,106,103,111,104,108,109,109,106,107,102,107,108,107,112,109
111,108,104,110,111,109,110,109,109,108,109,110,104,102,107,112,109,109,115,112,109,118,118,117,122,125,122,125,126,125,119,117,122,126,118,120,125,126,125,118,115,114,107,109,111,108,105,110,107,114,109,103,106,107,109,107,107,107,110,106
107,108,110,111,108,105,110,109,106,106,105,108,108,113,111,107,107,110,107,110,110,112,118,121,119,125,123,121,122,122,128,126,125,122,121,123,120,115,120,118,115,117,111,109,108,108,109,108,109,109,108,104,106,107,107,104,106,107,106,107
110,112,109,106,109,107,107,107,109,111,106,109,107,112,112,106,104,108,110,112,114,114,116,117,122,125,126,126,123,117,120,125,124,119,121,118,122,117,121,115,112,112,114,111,113,110,108,106,106,107,113,114,109,111,106,109,108,105,108,110
107,104,109,106,108,107,105,109,108,109,108,104,108,106,110,107,110,106,107,109,112,117,113,122,123,119,118,123,123,123,122,118,122,122,119,124,122,123,120,118,116,112,113,116,112,110,108,105,105,108,111,111,110,112,107,105,109,106,107,110
112,111,109,108,103,105,106,108,106,105,107,109,112,110,106,108,112,106,106,108,114,119,112,113,115,124,125,119,123,128,125,118,118,127,120,122,123,123,119,118,111,110,110,109,108,107,106,111,106,107,106,103,104,109,109,106,106,109,102,106
105,105,109,108,105,105,110,104,105,108,105,108,108,110,105,109,113,110,105,112,115,114,116,122,120,122,123,117,122,124,126,128,122,125,127,122,121,122,119,120,119,109,109,111,110,109,106,111,108,109,107,110,109,110,108,114,104,109,106,103
107,105,108,105,111,108,112,109,109,109,107,107,107,108,109,104,112,110,110,111,111,112,117,121,125,123,122,127,127,124,123,128,125,124,126,126,118,122,121,116,119,109,109,110,105,110,108,108,109,108,110,108,107,111,110,113,109,107,110,112
112,109,108,108,108,108,108,107,103,105,113,107,107,109,113,104,107,103,114,111,112,116,116,116,122,127,128,128,128,123,120,123,126,126,123,126,123,119,120,114,116,117,111,110,113,106,107,102,107,108,111,107,104,110,108,108,111,107,110,107
107,110,108,107,105,109,108,110,109,100,106,111,109,109,109,109,110,109,107,110,112,113,115,121,121,127,126,123,124,126,128,122,125,132,126,124,123,117,118,117,115,115,110,111,111,109,106,108,110,106,109,108,106,107,108,106,105,105,110,108
105,110,105,106,110,111,107,110,113,105,107,107,108,110,108,108,108,109,108,108,108,115,119,117,124,132,128,124,127,127,127,131,130,121,122,124,123,122,117,118,112,108,109,116,111,111,110,106,109,109,109,105,106,108,109,107,107,110,104,108
106,111,106,103,105,105,109,111,106,109,108,106,107,108,107,104,106,109,109,107,112,117,117,118,122,123,124,123,123,124,126,130,127,127,123,120,122,118,120,116,117,109,111,105,109,102,109,105,107,108,107,109,106,106,107,110,110,103,101,112
107,107,111,111,107,104,108,110,110,111,109,112,108,103,107,111,109,106,111,114,112,112,124,118,122,122,124,129,125,123,126,126,121,120,122,121,125,122,120,115,109,112,110,108,117,107,108,104,108,109,108,112,108,111,111,107,113,113,111,109
107,102,109,110,111,108,103,109,109,108,103,110,111,105,109,111,110,110,107,111,112,117,117,113,123,124,124,130,127,128,124,119,123,124,123,123,120,118,115,117,115,113,116,112,111,110,108,110,102,106,107,105,106,99,106,108,109,104,107,106
113,109,107,104,106,109,109,106,108,108,106,107,111,104,106,107,109,110,110,110,115,112,116,118,117,127,127,121,123,121,124,123,123,121,123,123,124,125,121,115,113,111,116,110,108,109,109,108,103,104,108,107,106,109,111,108,109,109,110,107
109,109,108,110,105,105,107,108,108,104,104,110,111,105,111,113,111,107,114,109,112,110,116,121,123,124,126,119,125,123,120,120,125,123,123,127,122,123,119,119,114,113,115,113,111,104,100,112,108,111,107,107,106,106,103,109,108,106,107,109
104,109,111,108,108,107,108,107,106,107,109,107,109,109,104,104,109,112,113,108,109,110,116,117,123,126,129,122,127,127,122,128,123,123,124,128,126,122,122,122,118,117,112,114,111,107,111,108,106,112,107,100,102,107,104,106,107,112,109,105
105,109,105,107,111,103,105,105,105,110,107,104,105,105,106,109,108,108,111,109,112,119,114,116,125,125,123,123,130,127,124,127,120,121,124,120,124,127,125,124,114,112,109,109,109,108,109,111,108,104,104,106,109,109,107,107,109,105,105,109
107,108,106,107,109,106,112,112,108,109,105,107,110,113,108,111,108,114,108,110,108,111,115,118,119,120,121,120,127,130,124,124,124,127,129,132,129,128,118,117,112,114,114,111,108,109,103,104,106,110,112,109,107,104,106,106,102,105,108,112
110,109,109,106,104,106,109,108,109,107,105,104,111,112,107,110,108,106,106,108,109,116,116,117,119,124,128,126,123,129,126,130,125,128,129,125,125,126,122,117,119,115,112,107,111,109,110,112,109,104,106,107,111,107,105,108,111,110,105,107
107,106,109,107,107,106,109,108,112,110,104,104,108,107,104,109,107,108,104,108,115,112,117,118,116,130,127,130,130,129,128,127,130,130,131,132,126,121,120,115,113,113,116,111,107,107,109,112,106,104,105,110,104,106,110,106,109,114,110,106
106,109,106,107,111,108,109,110,106,109,109,114,108,109,107,110,110,111,107,110,115,111,116,121,122,128,128,126,129,130,127,129,129,124,128,132,126,125,118,119,115,108,112,114,107,109,106,105,105,110,105,106,107,104,108,108,107,102,107,107
105,107,104,104,112,108,106,111,107,105,104,110,106,114,107,103,112,110,109,113,115,116,117,120,124,123,124,123,131,127,121,125,125,126,129,126,127,124,120,113,116,111,109,115,108,106,113,109,110,108,108,110,113,109,109,110,107,107,109,106
107,107,108,106,108,106,107,109,107,107,108,106,110,109,109,108,107,102,110,104,105,117,118,121,128,124,127,120,129,126,129,122,125,128,126,127,126,122,119,117,117,112,110,111,108,110,105,104,106,101,113,108,103,103,108,108,104,108,110,108
109,106,107,104,107,110,109,107,106,109,108,106,111,109,109,108,109,110,112,110,114,115,118,123,124,124,124,125,122,124,129,131,129,127,121,128,125,119,119,115,117,118,109,109,111,109,110,110,108,107,108,105,108,107,105,109,110,104,105,111
110,111,108,103,111,110,107,108,108,109,107,105,106,112,108,110,112,109,111,111,118,113,117,124,125,120,122,125,124,128,122,129,127,127,129,129,129,116,116,113,114,113,106,108,110,111,113,110,103,107,106,106,109,111,104,106,108,109,108,107
109,107,107,107,107,102,107,110,111,107,108,105,109,112,111,105,105,111,110,106,111,115,121,120,122,125,126,122,127,128,122,129,125,124,122,122,127,121,120,117,113,107,111,109,112,109,104,112,108,109,106,109,106,110,109,105,106,108,107,110
106,109,110,111,110,110,108,110,110,105,106,108,108,110,109,108,106,109,109,114,114,116,120,122,124,122,124,126,126,124,122,131,128,126,130,123,125,125,120,113,114,111,113,112,110,106,108,110,112,110,107,111,104,106,111,104,109,109,107,106
103,103,104,106,104,106,104,110,107,107,107,110,111,109,107,105,109,111,110,108,113,117,125,125,122,122,122,125,125,127,131,126,131,128,129,126,126,118,116,115,112,115,109,108,110,108,108,108,105,106,105,103,109,103,107,109,106,109,110,103
106,106,106,108,111,105,107,108,108,108,105,109,107,106,111,107,113,110,112,116,118,116,123,123,123,133,131,124,129,127,125,126,129,129,124,125,123,124,120,121,113,115,106,106,110,110,108,110,104,106,109,108,109,106,106,111,107,105,105,111
106,112,109,107,110,107,111,109,106,103,104,105,110,109,109,113,108,111,109,110,115,122,121,125,122,127,131,126,131,134,133,128,128,127,129,130,124,122,116,115,113,108,109,111,106,107,105,109,108,108,111,109,110,108,106,108,104,106,104,104
106,108,113,109,109,109,109,103,107,110,108,108,107,107,104,110,106,109,110,116,118,123,120,128,129,127,122,123,126,127,129,125,131,131,128,132,125,131,122,114,114,109,106,113,109,109,108,111,109,109,108,103,111,108,105,110,106,105,110,110
107,105,113,112,105,106,108,114,108,110,107,106,106,106,104,108,104,107,110,115,117,121,124,125,131,130,125,124,125,123,129,125,127,126,129,127,129,121,118,117,112,115,111,108,109,109,109,110,115,110,108,107,106,109,107,106,107,108,111,108
106,105,108,108,107,107,105,110,110,106,110,105,108,109,112,111,109,107,105,115,118,119,116,125,122,124,125,127,130,125,127,127,127,124,124,122,128,123,114,116,119,108,118,106,108,107,111,106,111,109,107,106,106,108,109,111,109,109,109,108
104,106,110,108,106,110,107,107,107,106,112,109,110,109,104,106,112,108,111,115,122,126,120,128,124,130,126,121,124,127,123,127,130,127,122,124,123,124,120,112,110,110,114,112,108,111,110,113,107,110,112,106,106,108,109,111,107,106,108,107
108,111,106,105,107,107,111,107,110,107,111,110,105,105,111,109,110,113,115,112,119,125,125,127,123,123,124,123,122,128,124,124,127,129,129,126,123,122,122,114,112,113,106,114,109,107,106,110,109,111,109,113,106,105,110,110,111,106,111,110
107,107,104,105,107,104,108,105,112,106,105,109,107,108,107,105,110,109,115,117,117,118,123,129,128,125,125,131,129,126,125,124,125,126,130,123,121,121,123,114,113,113,108,114,113,108,109,108,107,110,109,108,110,107,113,106,102,104,106,104
108,109,109,108,108,109,108,106,108,109,109,108,103,104,108,104,108,112,112,112,120,121,126,127,124,121,127,126,125,125,122,125,131,127,125,126,122,117,116,108,109,115,112,101,108,110,109,107,107,107,108,108,111,105,105,107,104,103,106,108
107,109,101,110,110,110,108,106,109,107,102,108,107,106,111,108,108,110,112,117,120,117,122,123,130,123,126,125,130,127,128,122,129,125,123,127,123,118,118,117,113,113,109,113,109,108,107,106,109,108,107,104,105,107,110,108,110,107,110,108
112,112,104,111,108,105,108,105,106,106,107,113,113,110,111,110,110,111,112,117,114,117,122,122,125,124,125,124,128,122,128,129,126,123,128,124,115,119,117,120,111,111,105,107,109,107,110,108,108,107,106,105,110,108,101,106,106,110,104,110
105,110,107,106,109,107,113,109,107,108,110,107,110,112,107,108,111,115,109,110,118,116,124,122,122,126,131,125,128,127,125,126,128,126,125,121,123,116,116,114,107,107,109,105,112,108,110,106,105,105,108,105,106,107,109,107,107,110,108,109
105,104,112,104,105,109,112,110,109,108,110,106,105,109,112,113,109,112,111,114,116,120,119,123,128,126,131,123,124,129,129,126,129,133,129,122,122,116,114,111,112,111,110,107,108,108,105,104,107,107,112,105,104,103,109,110,110,109,104,100
106,103,106,112,105,107,106,107,105,106,106,110,111,107,107,108,106,112,115,114,112,114,116,120,121,129,126,132,126,125,128,125,127,132,127,126,124,121,114,114,107,109,107,107,107,109,111,105,108,105,106,108,105,108,112,108,103,107,106,105
110,109,107,105,106,111,106,107,106,112,104,109,112,109,109,110,110,112,115,114,121,124,124,122,128,127,123,132,130,125,129,133,129,125,123,128,124,119,114,117,110,111,109,106,109,106,108,109,111,113,107,108,110,107,111,111,110,108,106,108
108,104,111,112,105,106,107,110,108,109,109,107,107,111,110,110,114,112,110,111,117,115,124,126,124,123,124,125,128,131,128,129,132,128,128,126,122,113,115,110,112,116,108,109,111,110,113,112,108,102,105,107,109,105,107,109,108,109,108,104
110,106,108,109,107,104,108,109,107,107,108,107,109,109,108,107,112,111,116,118,117,116,126,129,127,125,125,125,125,127,124,129,129,127,127,123,122,119,113,112,112,112,107,109,108,112,110,106,111,105,108,106,106,107,106,109,106,109,107,106
105,110,102,104,108,105,108,108,110,103,105,103,104,105,108,106,109,114,113,113,116,114,121,127,124,126,123,130,130,131,128,130,130,130,128,127,120,118,116,115,114,109,107,107,107,109,111,107,111,107,111,108,107,111,102,109,104,107,102,107
103,104,105,110,105,111,108,106,111,111,110,106,111,108,105,105,108,113,116,112,118,118,119,122,125,129,125,132,126,127,129,129,125,126,123,126,120,117,119,110,110,109,109,108,110,108,108,107,110,109,113,109,103,109,105,107,109,110,108,108
105,108,109,110,107,107,113,106,107,107,109,110,105,104,110,110,107,107,115,119,115,119,126,128,127,126,124,131,128,123,130,130,122,121,122,120,117,116,113,107,110,110,109,108,104,107,108,107,108,104,101,110,108,111,113,105,105,107,110,109
107,105,108,110,108,109,106,106,104,109,110,109,107,108,110,109,110,110,107,116,121,120,119,124,130,125,128,119,127,129,128,124,129,125,122,120,118,116,112,111,112,110,110,110,108,110,110,109,104,103,108,105,107,102,107,107,107,107,107,103
108,104,105,108,107,110,109,111,104,106,108,108,106,110,107,111,111,104,111,111,117,117,117,120,121,128,129,134,134,128,126,130,131,127,123,118,114,113,108,110,109,108,106,106,112,107,105,107,109,110,110,107,108,105,106,111,108,108,107,106
109,104,109,112,106,105,108,104,107,109,106,104,104,103,106,102,108,103,110,110,117,118,117,122,123,126,125,130,128,126,132,130,126,123,121,117,116,113,110,108,107,109,113,107,110,107,106,106,105,106,108,109,106,111,111,105,107,110,110,111
109,108,109,110,107,104,109,108,107,107,107,109,111,104,107,104,111,106,105,111,112,114,115,123,120,124,126,127,125,127,123,131,126,118,114,113,112,112,114,108,107,107,106,106,106,108,105,109,108,107,107,103,109,104,108,105,110,108,107,109
105,108,110,110,109,107,111,108,106,105,107,109,106,107,108,106,110,113,109,108,113,114,113,117,120,128,129,130,128,125,125,128,118,117,119,114,109,110,111,108,107,106,105,110,111,109,108,108,105,110,107,106,106,104,108,106,105,109,107,104
105,107,108,108,106,112,108,110,112,108,108,105,110,109,104,107,108,107,110,108,107,113,115,116,119,116,118,122,121,118,120,122,118,111,117,109,108,109,108,112,106,110,108,107,107,109,110,110,107,105,108,109,105,106,105,110,107,107,104,107
109,104,108,109,104,108,105,106,107,105,110,105,112,108,108,114,107,111,111,110,114,111,111,106,115,118,115,115,118,117,113,112,114,113,110,104,108,108,111,110,106,109,105,108,115,110,108,108,109,108,109,108,108,108,104,105,108,106,105,107
110,108,103,107,105,105,109,105,106,106,109,105,107,108,106,103,107,109,108,111,110,112,108,109,114,113,113,115,113,114,112,112,113,113,111,112,112,110,109,109,113,112,112,111,106,108,111,109,110,114,104,100,107,108,109,111,109,108,109,108
101,108,102,103,105,103,109,109,108,110,109,110,106,108,114,105,104,111,109,104,104,104,106,115,111,110,114,114,113,112,107,113,110,111,110,111,109,105,104,108,111,104,109,107,108,107,107,105,103,106,109,109,105,109,108,101,111,108,109,108
110,107,109,106,108,107,108,113,109,107,108,113,109,112,107,110,111,110,110,103,103,109,111,109,106,106,108,108,111,115,107,106,108,106,104,108,110,111,106,110,104,108,109,102,108,107,111,110,108,105,109,108,108,107,106,106,107,106,105,106
110,111,112,107,107,107,106,106,107,106,106,106,104,105,101,108,108,106,110,111,111,107,109,109,104,107,110,108,105,114,110,104,107,112,110,107,108,111,109,107,104,109,102,109,105,107,110,108,106,105,110,108,104,108,109,105,103,109,110,109
105,104,108,112,111,108,108,109,110,108,109,111,104,106,109,105,103,106,106,107,111,105,104,108,112,109,109,110,107,105,107,109,104,105,105,106,108,110,108,109,113,108,106,112,109,106,107,109,108,110,111,106,103,105,112,105,107,106,112,110
106,104,107,106,107,109,106,107,105,111,106,108,109,105,101,106,106,104,110,106,107,110,108,106,109,107,106,106,106,104,108,110,103,112,106,109,115,107,106,107,110,105,109,111,110,107,105,103,107,109,107,113,108,102,105,107,111,103,106,108
107,108,107,108,112,107,106,114,105,108,106,111,108,108,109,105,107,106,109,112,108,105,103,107,107,110,112,108,106,107,107,108,113,110,106,107,107,105,110,108,106,109,108,107,106,109,109,112,106,109,106,109,109,107,109,105,106,103,104,104
107,101,111,108,112,111,104,108,106,105,107,107,106,107,105,109,110,110,101,109,112,109,105,109,109,107,106,110,110,108,106,103,104,106,107,103,109,108,106,108,108,106,106,104,105,108,107,106,106,109,107,103,107,108,109,108,110,108,105,106
109,109,107,108,109,105,107,108,106,109,107,105,106,108,106,109,107,105,103,101,104,103,109,108,105,104,112,107,107,112,111,109,111,107,106,104,106,107,107,108,107,110,108,105,107,106,108,104,106,106,111,106,106,109,106,108,107,110,106,105
